Date,Open,High,Low,Close,Adj Close,Volume
2019-10-29,292.2799987792969,293.70001220703125,288.07000732421875,288.1600036621094,275.1336975097656,1326900
2019-10-30,290.010009765625,290.9700012207031,286.5199890136719,290.239990234375,277.1196594238281,1728100
2019-10-31,289.79998779296875,294.0799865722656,287.79998779296875,292.8500061035156,279.6116943359375,2788000
2019-11-01,292.989990234375,296.5899963378906,292.0899963378906,296.5899963378906,283.1826171875,2123200
2019-11-04,299.5199890136719,305.4599914550781,299.1000061035156,305.0,291.2124328613281,3407500
2019-11-05,305.0,316.7799987792969,304.4700012207031,314.0400085449219,299.8437805175781,3871100
2019-11-06,312.05999755859375,314.2799987792969,308.7099914550781,313.1600036621094,299.0035705566406,1807200
2019-11-07,315.5799865722656,319.5,310.6499938964844,311.739990234375,297.6477355957031,2398100
2019-11-08,309.8699951171875,313.6000061035156,305.1300048828125,313.4100036621094,299.2422790527344,1783000
2019-11-11,311.20001220703125,313.239990234375,310.8399963378906,312.75,298.6120910644531,915400
2019-11-12,314.0,316.3999938964844,313.260009765625,315.5299987792969,301.26641845703125,1687500
2019-11-13,312.4800109863281,315.7099914550781,312.0,313.6700134277344,299.49053955078125,1262500
2019-11-14,310.75,311.8399963378906,306.1099853515625,308.9700012207031,295.0029602050781,1726800
2019-11-15,312.2699890136719,313.05999755859375,310.0799865722656,312.9100036621094,298.764892578125,1812000
2019-11-18,311.82000732421875,313.4100036621094,308.0299987792969,311.07000732421875,297.0080261230469,1585000
2019-11-19,316.6499938964844,325.6700134277344,316.6499938964844,317.70001220703125,303.3383483886719,3174300
2019-11-20,315.8999938964844,316.8299865722656,309.0,311.6700134277344,297.5809326171875,1992700
2019-11-21,311.1400146484375,315.70001220703125,309.79998779296875,315.25,300.99908447265625,1931700
2019-11-22,316.6400146484375,319.4800109863281,313.7099914550781,314.9200134277344,300.68402099609375,1321600
2019-11-25,316.6099853515625,320.17999267578125,316.2699890136719,319.6199951171875,305.1715087890625,1963600
2019-11-26,319.0,320.17999267578125,316.04998779296875,316.2699890136719,301.97296142578125,3079300
2019-11-27,317.94000244140625,319.94000244140625,316.4700012207031,318.44000244140625,304.04486083984375,2018200
2019-11-29,316.8500061035156,317.7900085449219,315.0,316.2099914550781,301.9156799316406,922900
2019-12-02,317.7200012207031,317.92999267578125,310.55999755859375,310.7200012207031,296.6738586425781,2315800
2019-12-03,305.82000732421875,309.0,303.1300048828125,306.5199890136719,292.6637268066406,1873600
2019-12-04,309.75,311.3699951171875,307.1300048828125,309.7200012207031,295.7190856933594,1443900
2019-12-05,310.5899963378906,312.4599914550781,309.05999755859375,311.19000244140625,297.1226501464844,1549400
2019-12-06,314.6400146484375,316.3399963378906,312.05999755859375,316.04998779296875,301.7629089355469,1693700
2019-12-09,316.0,317.1499938964844,313.94000244140625,314.3800048828125,300.16839599609375,2469400
2019-12-10,315.1000061035156,315.9100036621094,313.25,315.05999755859375,300.8176574707031,1456300
2019-12-11,315.17999267578125,321.3500061035156,315.17999267578125,319.7200012207031,305.2669982910156,2082900
2019-12-12,319.7300109863281,330.1600036621094,319.42999267578125,327.79998779296875,312.9817199707031,3893500
2019-12-13,318.05999755859375,319.7699890136719,310.6199951171875,315.4200134277344,301.16143798828125,7095200
2019-12-16,317.9700012207031,327.6000061035156,317.5299987792969,323.1300048828125,308.52288818359375,3792100
2019-12-17,323.739990234375,324.95001220703125,321.75,323.79998779296875,309.1625671386719,2024800
2019-12-18,324.3999938964844,331.20001220703125,323.54998779296875,327.44000244140625,312.6380615234375,3515500
2019-12-19,329.2099914550781,329.260009765625,323.7099914550781,324.1000061035156,309.44903564453125,3178700
2019-12-20,322.4700012207031,322.4700012207031,316.9100036621094,319.0,307.6647644042969,5054000
2019-12-23,320.5400085449219,322.3299865722656,317.6099853515625,319.5299987792969,308.1759338378906,2025400
2019-12-24,320.0,320.67999267578125,319.010009765625,320.5,309.1114807128906,702400
2019-12-26,321.2699890136719,321.739990234375,316.82000732421875,317.9800109863281,306.6810302734375,1584800
2019-12-27,319.29998779296875,319.3500061035156,315.2200012207031,316.5299987792969,305.28253173828125,1448700
2019-12-30,316.5199890136719,317.3299865722656,312.75,313.4599914550781,302.3216247558594,1310400
2019-12-31,313.1199951171875,316.3599853515625,312.79998779296875,316.0199890136719,304.7906494140625,1248700
2020-01-02,319.32000732421875,322.5,317.32000732421875,322.3900146484375,310.934326171875,2032900
2020-01-03,317.510009765625,320.0,314.0799865722656,314.19000244140625,303.02569580078125,2287000
2020-01-06,310.8500061035156,313.9200134277344,309.6300048828125,313.7200012207031,302.5723876953125,2078900
2020-01-07,315.25,316.5799865722656,312.25,312.6400146484375,301.53076171875,1856500
2020-01-08,312.9800109863281,313.489990234375,308.4100036621094,308.739990234375,297.7693176269531,3197900
2020-01-09,312.32000732421875,312.989990234375,303.04998779296875,306.260009765625,295.3774719238281,4239700
2020-01-10,305.45001220703125,305.54998779296875,298.79998779296875,299.2200012207031,288.58758544921875,4070500
2020-01-13,300.0199890136719,303.79998779296875,299.6700134277344,301.17999267578125,290.47796630859375,2205400
2020-01-14,302.0,309.1499938964844,301.5899963378906,308.17999267578125,297.2292175292969,2891100
2020-01-15,307.30999755859375,307.8800048828125,300.70001220703125,303.1400146484375,292.36834716796875,2273300
2020-01-16,305.0,307.8599853515625,304.2099914550781,307.04998779296875,296.13934326171875,2150800
2020-01-17,308.6600036621094,308.94000244140625,304.07000732421875,308.7900085449219,297.8175354003906,2689600
2020-01-21,307.79998779296875,309.510009765625,306.3299865722656,308.07000732421875,297.1231384277344,2196700
2020-01-22,310.79998779296875,317.9200134277344,310.5,312.9700012207031,301.8490295410156,2926400
2020-01-23,315.17999267578125,319.79998779296875,310.82000732421875,319.6499938964844,308.2916564941406,3026600
2020-01-24,330.5,331.5799865722656,320.7699890136719,324.0,312.4870910644531,5578200
2020-01-27,316.4100036621094,319.8800048828125,308.6400146484375,309.0299987792969,298.0490417480469,3884300
2020-01-28,313.5299987792969,319.2300109863281,312.7699890136719,318.30999755859375,306.999267578125,2316600
2020-01-29,320.82000732421875,325.42999267578125,317.1400146484375,317.510009765625,306.22772216796875,2366800
2020-01-30,314.32000732421875,315.5199890136719,308.5899963378906,315.20001220703125,303.99981689453125,2112800
2020-01-31,314.1600036621094,314.5799865722656,303.6199951171875,305.1600036621094,294.3165283203125,2212300
2020-02-03,305.6300048828125,306.6000061035156,303.6400146484375,305.2300109863281,294.3840637207031,2128800
2020-02-04,311.7900085449219,314.57000732421875,309.6499938964844,311.6000061035156,300.5277099609375,2255900
2020-02-05,317.5,319.80999755859375,315.8599853515625,317.3800048828125,306.1023254394531,2482500
2020-02-06,318.8399963378906,319.8800048828125,314.2300109863281,319.69000244140625,308.3302307128906,2268300
2020-02-07,318.32000732421875,318.5199890136719,314.8699951171875,315.2300109863281,304.02874755859375,1588300
2020-02-10,312.3699951171875,314.6000061035156,310.29998779296875,314.20001220703125,303.03533935546875,1921800
2020-02-11,316.6499938964844,320.7900085449219,316.010009765625,320.1600036621094,308.7835388183594,1552700
2020-02-12,322.0400085449219,325.0899963378906,321.6300048828125,324.70001220703125,313.1622314453125,1531000
2020-02-13,321.4800109863281,325.4599914550781,320.95001220703125,323.9700012207031,312.4581604003906,1385700
2020-02-14,324.8399963378906,325.70001220703125,317.1000061035156,317.7699890136719,306.47845458984375,1913700
2020-02-18,315.0,315.010009765625,308.04998779296875,310.75,299.7079162597656,2669300
2020-02-19,313.0,316.8299865722656,311.70001220703125,315.69000244140625,304.4723815917969,2052500
2020-02-20,313.9599914550781,315.69000244140625,306.1199951171875,309.239990234375,298.2515563964844,2552100
2020-02-21,308.5,309.45001220703125,302.2900085449219,304.5,293.67999267578125,2452200
2020-02-24,294.20001220703125,298.79998779296875,290.05999755859375,291.6000061035156,281.2383728027344,3684900
2020-02-25,294.1099853515625,295.7300109863281,281.07000732421875,282.67999267578125,272.6353454589844,3189200
2020-02-26,284.3500061035156,288.20001220703125,284.0,285.8800048828125,275.7216491699219,2307400
2020-02-27,280.29998779296875,285.30999755859375,273.5400085449219,273.95001220703125,264.2155456542969,3483700
2020-02-28,263.3299865722656,274.1300048828125,262.739990234375,272.6199951171875,262.93280029296875,4460400
2020-03-02,276.760009765625,285.3999938964844,271.1499938964844,284.9700012207031,274.8439636230469,3197600
2020-03-03,284.6499938964844,288.4800109863281,271.57000732421875,274.25,264.5048828125,2993000
2020-03-04,277.5400085449219,285.7200012207031,274.7699890136719,285.45001220703125,275.30694580078125,2347700
2020-03-05,277.260009765625,283.0899963378906,272.45001220703125,274.0400085449219,264.3023681640625,2437400
2020-03-06,266.9800109863281,270.92999267578125,262.5,269.45001220703125,259.87548828125,3016900
2020-03-09,251.0800018310547,260.2699890136719,244.25,247.72000122070312,238.9176025390625,4393400
2020-03-10,256.5899963378906,263.67999267578125,243.39999389648438,262.8999938964844,253.55821228027344,5507100
2020-03-11,253.8800048828125,256.489990234375,242.49000549316406,245.97000122070312,237.2297821044922,3603000
2020-03-12,226.99000549316406,242.75999450683594,216.32000732421875,218.77999877929688,211.00595092773438,6428100
2020-03-13,225.50999450683594,234.47000122070312,201.16000366210938,234.22000122070312,225.89730834960938,8471400
2020-03-16,208.17999267578125,218.8000030517578,180.22999572753906,187.5800018310547,180.9145965576172,7693500
2020-03-17,191.82000732421875,200.00999450683594,181.47999572753906,199.50999450683594,192.420654296875,7066200
2020-03-18,185.66000366210938,187.47999572753906,155.6699981689453,167.8699951171875,161.9049530029297,9899300
2020-03-19,167.63999938964844,207.47000122070312,165.0,194.4499969482422,187.54046630859375,7443800
2020-03-20,202.0,208.67999267578125,187.91000366210938,192.22000122070312,188.5409393310547,7404400
2020-03-23,192.8800048828125,195.97000122070312,177.75,193.47000122070312,189.7670135498047,4692100
2020-03-24,205.63999938964844,218.7100067138672,201.2899932861328,212.75999450683594,208.6878204345703,6297000
2020-03-25,212.19000244140625,244.0,209.22000122070312,217.5500030517578,213.38613891601562,6444200
2020-03-26,226.02999877929688,244.8000030517578,226.02999877929688,243.1699981689453,238.51577758789062,6021300
2020-03-27,233.0,242.08999633789062,230.0,230.69000244140625,226.27464294433594,3944800
2020-03-30,232.1999969482422,241.36000061035156,228.44000244140625,240.11000061035156,235.51434326171875,5234300
2020-03-31,238.0,252.7100067138672,236.05999755859375,237.10000610351562,232.56195068359375,5019100
2020-04-01,227.99000549316406,234.41000366210938,219.67999267578125,223.6300048828125,219.3497772216797,4185800
2020-04-02,222.39999389648438,237.9499969482422,221.4499969482422,237.05999755859375,232.52272033691406,4504900
2020-04-03,236.63999938964844,242.5500030517578,230.5500030517578,234.25999450683594,229.77630615234375,2896000
2020-04-06,244.5800018310547,253.41000366210938,243.55999755859375,252.44000244140625,247.6083526611328,3886800
2020-04-07,261.8399963378906,265.5,252.52999877929688,253.27000427246094,248.42247009277344,4589200
2020-04-08,256.7699890136719,262.20001220703125,253.63999938964844,261.1000061035156,256.1026306152344,2756500
2020-04-09,265.7900085449219,267.5,251.30999755859375,254.3000030517578,249.43275451660156,3482800
2020-04-13,253.5,261.5199890136719,252.8000030517578,259.9200134277344,254.94520568847656,2572900
2020-04-14,266.1199951171875,268.3800048828125,262.32000732421875,267.6300048828125,262.5075988769531,2309400
2020-04-15,261.0,262.32000732421875,256.1600036621094,257.44000244140625,252.5126495361328,2592600
2020-04-16,261.760009765625,261.760009765625,254.11000061035156,258.2900085449219,253.3463897705078,2689600
2020-04-17,263.2200012207031,267.42999267578125,258.94000244140625,265.8800048828125,260.7911376953125,3408900
2020-04-20,260.0,265.260009765625,257.9100036621094,258.2799987792969,253.33657836914062,2380100
2020-04-21,254.55999755859375,254.7899932861328,246.8000030517578,247.64999389648438,242.91001892089844,2913800
2020-04-22,254.77000427246094,262.2200012207031,250.74000549316406,259.9700012207031,254.99423217773438,3543800
2020-04-23,260.25,265.20001220703125,258.5199890136719,258.92999267578125,253.97412109375,2165900
2020-04-24,259.80999755859375,265.07000732421875,258.8800048828125,264.80999755859375,259.7415771484375,2342500
2020-04-27,264.3500061035156,271.2200012207031,264.3500061035156,268.45001220703125,263.31195068359375,1658800
2020-04-28,274.239990234375,276.4100036621094,264.1199951171875,264.7300109863281,259.66314697265625,1898800
2020-04-29,271.0799865722656,276.989990234375,269.2300109863281,276.0199890136719,270.7370300292969,2886300
2020-04-30,273.5299987792969,274.04998779296875,268.79998779296875,271.6199951171875,266.4212341308594,2334300
2020-05-01,266.0,267.8500061035156,258.20001220703125,259.70001220703125,254.72940063476562,2683600
2020-05-04,259.2099914550781,262.42999267578125,255.32000732421875,262.260009765625,257.2403869628906,1704600
2020-05-05,266.54998779296875,268.94000244140625,263.7099914550781,264.8699951171875,259.8004455566406,2646200
2020-05-06,268.3299865722656,270.4800109863281,263.6199951171875,264.17999267578125,259.1236572265625,2272700
2020-05-07,270.0,270.4700012207031,266.0,267.75,262.6253356933594,1823800
2020-05-08,272.20001220703125,275.54998779296875,270.0299987792969,275.0299987792969,269.7659912109375,1676700
2020-05-11,273.3699951171875,276.739990234375,271.75,275.3999938964844,270.1288757324219,2082600
2020-05-12,276.5799865722656,277.7200012207031,268.2200012207031,268.45001220703125,263.31195068359375,1876400
2020-05-13,270.07000732421875,270.3299865722656,259.3599853515625,263.1499938964844,258.1133728027344,2192700
2020-05-14,260.9599914550781,266.95001220703125,254.75,266.6000061035156,261.497314453125,1991200
2020-05-15,259.4200134277344,264.05999755859375,256.7699890136719,260.4100036621094,255.42581176757812,2165000
2020-05-18,268.6199951171875,276.7300109863281,268.0,273.5299987792969,268.2947082519531,2653700
2020-05-19,273.5299987792969,276.0299987792969,271.6099853515625,271.95001220703125,266.7449645996094,1870200
2020-05-20,276.9700012207031,281.30999755859375,276.0799865722656,278.67999267578125,273.3460998535156,1860500
2020-05-21,278.9200134277344,279.5,274.6499938964844,274.79998779296875,269.5403747558594,1484700
2020-05-22,273.739990234375,277.25,270.510009765625,276.6499938964844,271.35498046875,1745200
2020-05-26,285.0,287.0899963378906,281.3900146484375,282.0199890136719,276.6221618652344,2357300
2020-05-27,283.0199890136719,287.79998779296875,280.0,287.5899963378906,282.0855712890625,2281200
2020-05-28,285.0,289.29998779296875,282.42999267578125,283.1400146484375,277.7207946777344,1854300
2020-05-29,282.8999938964844,292.0,281.9100036621094,291.2699890136719,285.69512939453125,2732400
2020-06-01,290.4200134277344,291.1000061035156,287.3699951171875,289.989990234375,284.43963623046875,1844400
2020-06-02,291.0299987792969,298.32000732421875,290.0899963378906,298.05999755859375,292.3551940917969,3184700
2020-06-03,301.04998779296875,310.8500061035156,300.510009765625,309.5299987792969,303.60565185546875,3192600
2020-06-04,305.75,313.0,302.1000061035156,308.8900146484375,302.9779357910156,3499700
2020-06-05,319.70001220703125,328.1099853515625,315.0899963378906,317.0799865722656,311.0111389160156,5095800
2020-06-08,317.5,318.8399963378906,313.3599853515625,317.5199890136719,311.4427185058594,2391600
2020-06-09,312.0,318.8800048828125,311.57000732421875,315.32000732421875,309.28485107421875,2233500
2020-06-10,316.6499938964844,319.2099914550781,314.70001220703125,315.0400085449219,309.0102233886719,2591400
2020-06-11,307.6199951171875,308.54998779296875,293.3999938964844,293.75,288.127685546875,4511500
2020-06-12,302.82000732421875,303.95001220703125,292.7300109863281,300.25,294.5032958984375,3942500
2020-06-15,295.0,306.75,292.4100036621094,304.0899963378906,298.269775390625,2982400
2020-06-16,310.0,314.54998779296875,304.0,310.7200012207031,304.77288818359375,3038700
2020-06-17,313.4200134277344,316.7099914550781,311.7900085449219,313.44000244140625,307.4408264160156,2026600
2020-06-18,312.1199951171875,319.1199951171875,311.5199890136719,318.7099914550781,312.6099548339844,3362500
2020-06-19,317.67999267578125,318.1000061035156,302.7699890136719,302.7699890136719,300.0345764160156,5846500
2020-06-22,305.5,314.17999267578125,303.5299987792969,313.5400085449219,310.7073059082031,2719500
2020-06-23,315.05999755859375,317.44000244140625,311.2900085449219,311.29998779296875,308.4875183105469,2241900
2020-06-24,309.20001220703125,310.9700012207031,304.510009765625,306.9700012207031,304.1966552734375,1909600
2020-06-25,306.05999755859375,309.4800109863281,303.0,308.8500061035156,306.0596923828125,1502900
2020-06-26,313.57000732421875,315.7799987792969,303.1499938964844,307.4100036621094,304.6326904296875,3142500
2020-06-29,308.07000732421875,310.4100036621094,304.45001220703125,309.7799987792969,306.98126220703125,1451600
2020-06-30,309.95001220703125,317.07000732421875,306.75,315.6099853515625,312.7585754394531,2512500
2020-07-01,315.1099853515625,316.8500061035156,311.94000244140625,312.7300109863281,309.9046325683594,1566100
2020-07-02,317.75,319.3800048828125,314.6600036621094,315.4700012207031,312.619873046875,1663800
2020-07-06,320.0,320.989990234375,317.3399963378906,318.7900085449219,315.9098815917969,1756100
2020-07-07,317.3399963378906,318.1600036621094,312.54998779296875,313.1199951171875,310.29107666015625,1615000
2020-07-08,316.1400146484375,319.8399963378906,314.1199951171875,319.57000732421875,316.6828308105469,1802300
2020-07-09,320.010009765625,324.3299865722656,315.25,321.5,318.59539794921875,2522500
2020-07-10,321.9100036621094,322.989990234375,315.44000244140625,319.44000244140625,316.5539855957031,1328000
2020-07-13,321.67999267578125,323.5299987792969,310.5799865722656,311.30999755859375,308.4974365234375,2154900
2020-07-14,308.989990234375,316.2200012207031,305.19000244140625,315.0799865722656,312.2333679199219,1836300
2020-07-15,315.95001220703125,317.7699890136719,310.1700134277344,313.7799987792969,310.94512939453125,1525300
2020-07-16,310.6099853515625,313.8800048828125,309.29998779296875,311.3399963378906,308.52716064453125,1292900
2020-07-17,314.1499938964844,315.2099914550781,310.0,312.7099914550781,309.8847961425781,1335400
2020-07-20,311.8500061035156,317.6499938964844,310.260009765625,317.1300048828125,314.2648620605469,1432300
2020-07-21,319.2300109863281,319.2300109863281,312.6700134277344,314.3399963378906,311.50006103515625,1434800
2020-07-22,315.010009765625,315.67999267578125,310.3699951171875,313.79998779296875,310.9649353027344,1440400
2020-07-23,313.3699951171875,316.0899963378906,308.3800048828125,309.6700134277344,306.8722839355469,1941700
2020-07-24,306.5899963378906,310.9100036621094,304.17999267578125,305.7900085449219,303.0273132324219,1563100
2020-07-27,308.29998779296875,312.9599914550781,307.489990234375,312.67999267578125,309.8550720214844,2064600
2020-07-28,311.17999267578125,312.1099853515625,306.1600036621094,307.3500061035156,304.5732421875,1397400
2020-07-29,308.5299987792969,311.2300109863281,307.44000244140625,308.8500061035156,306.0596923828125,1656200
2020-07-30,306.0,312.92999267578125,306.0,312.1000061035156,309.2803039550781,2125900
2020-07-31,314.70001220703125,318.3999938964844,311.3999938964844,316.75,313.8883056640625,2471900
2020-08-03,318.0,323.489990234375,317.2799987792969,321.2300109863281,318.32781982421875,2079600
2020-08-04,320.5,328.5899963378906,320.3900146484375,328.3900146484375,325.42315673828125,2525800
2020-08-05,328.25,331.5799865722656,325.79998779296875,329.5400085449219,326.562744140625,2229900
2020-08-06,327.7699890136719,330.8800048828125,325.4100036621094,329.1600036621094,326.1861877441406,1419300
2020-08-07,328.3900146484375,329.7300109863281,321.4800109863281,325.92999267578125,322.9853515625,1419200
2020-08-10,324.2200012207031,329.2699890136719,324.05999755859375,327.3599853515625,324.4024353027344,1198900
2020-08-11,327.57000732421875,333.32000732421875,322.760009765625,324.0299987792969,321.1025390625,1931600
2020-08-12,325.8500061035156,335.8800048828125,325.3599853515625,333.6400146484375,330.625732421875,1847600
2020-08-13,332.2099914550781,333.4100036621094,327.8500061035156,329.4200134277344,326.44384765625,1509500
2020-08-14,328.0199890136719,329.8500061035156,326.0,327.82000732421875,324.8583068847656,1014000
2020-08-17,329.510009765625,331.7900085449219,329.0,330.32000732421875,327.335693359375,1059400
2020-08-18,331.8599853515625,333.17999267578125,328.1400146484375,328.6400146484375,325.6708984375,885700
2020-08-19,329.4700012207031,333.0899963378906,328.239990234375,329.2099914550781,326.2357177734375,1127300
2020-08-20,327.69000244140625,329.989990234375,326.05999755859375,328.8299865722656,325.8591613769531,891000
2020-08-21,328.29998779296875,330.4599914550781,325.0,330.0199890136719,327.03839111328125,1150800
2020-08-24,332.010009765625,336.19000244140625,331.1400146484375,334.0,330.9824523925781,1199600
2020-08-25,335.0,337.0899963378906,333.0,336.1400146484375,333.1031188964844,1114000
2020-08-26,334.739990234375,341.510009765625,333.510009765625,339.6700134277344,336.6012268066406,1484400
2020-08-27,340.489990234375,341.29998779296875,336.1400146484375,339.1400146484375,336.0760192871094,1255200
2020-08-28,339.0,344.82000732421875,337.70001220703125,344.82000732421875,341.7047119140625,1458900
2020-08-31,343.5199890136719,350.5799865722656,343.5199890136719,347.1499938964844,344.0136413574219,2222900
2020-09-01,350.0,362.07000732421875,347.4200134277344,359.5400085449219,356.2917175292969,2925900
2020-09-02,365.8599853515625,378.9599914550781,363.57000732421875,375.010009765625,371.6219482421875,3705300
2020-09-03,366.010009765625,368.8999938964844,350.1600036621094,352.0899963378906,348.9090270996094,4179500
2020-09-04,360.9700012207031,372.5299987792969,353.5,362.95001220703125,359.6708984375,5851400
2020-09-08,352.6600036621094,362.75,350.0,350.5400085449219,347.3730163574219,2668500
2020-09-09,356.1600036621094,361.8500061035156,351.1000061035156,360.0299987792969,356.77728271484375,2627300
2020-09-10,362.1300048828125,367.8299865722656,354.3900146484375,357.0799865722656,353.8539123535156,2285100
2020-09-11,360.5,364.2699890136719,354.67999267578125,359.70001220703125,356.4502868652344,1736200
2020-09-14,364.4100036621094,365.8900146484375,359.3500061035156,362.20001220703125,358.9277038574219,1644700
2020-09-15,366.29998779296875,371.1199951171875,365.3500061035156,366.9100036621094,363.5951232910156,1661800
2020-09-16,368.17999267578125,372.0,366.3500061035156,367.0400085449219,363.7239685058594,1849800
2020-09-17,355.0,370.1199951171875,355.0,365.9200134277344,362.61407470703125,2286200
2020-09-18,367.1199951171875,367.8399963378906,355.04998779296875,359.7300109863281,356.4800109863281,3529500
2020-09-21,350.010009765625,351.9599914550781,343.4800109863281,351.7900085449219,351.7900085449219,2419800
2020-09-22,356.3699951171875,361.79998779296875,352.95001220703125,361.5899963378906,361.5899963378906,1950000
2020-09-23,360.17999267578125,361.2099914550781,350.04998779296875,351.5899963378906,351.5899963378906,1554200
2020-09-24,350.20001220703125,357.57000732421875,349.0899963378906,352.5199890136719,352.5199890136719,1361100
2020-09-25,352.04998779296875,357.7200012207031,348.2799987792969,356.79998779296875,356.79998779296875,1818300
2020-09-28,361.67999267578125,368.42999267578125,359.0299987792969,367.29998779296875,367.29998779296875,2219200
2020-09-29,367.489990234375,370.79998779296875,363.989990234375,364.260009765625,364.260009765625,1372200
2020-09-30,362.95001220703125,371.0,361.7099914550781,364.32000732421875,364.32000732421875,2239600
2020-10-01,368.9800109863281,370.7099914550781,364.82000732421875,368.6000061035156,368.6000061035156,1601600
2020-10-02,360.0,364.9200134277344,356.1499938964844,356.8299865722656,356.8299865722656,1710000
2020-10-05,360.8399963378906,366.8500061035156,359.8999938964844,366.1000061035156,366.1000061035156,1892300
2020-10-06,366.1099853515625,372.0,362.0199890136719,363.9800109863281,363.9800109863281,1667200
2020-10-07,368.3500061035156,369.8599853515625,366.05999755859375,366.739990234375,366.739990234375,1274700
2020-10-08,369.8900146484375,374.2900085449219,368.30999755859375,373.3299865722656,373.3299865722656,1704500
2020-10-09,375.92999267578125,380.0,374.0,376.70001220703125,376.70001220703125,1725300
2020-10-12,381.7900085449219,385.1000061035156,379.7900085449219,382.42999267578125,382.42999267578125,1883900
2020-10-13,384.4100036621094,387.79998779296875,378.6099853515625,381.489990234375,381.489990234375,1673100
2020-10-14,383.5400085449219,383.739990234375,377.8500061035156,380.29998779296875,380.29998779296875,1729800
2020-10-15,375.04998779296875,380.489990234375,375.0199890136719,379.92999267578125,379.92999267578125,1436100
2020-10-16,383.2799987792969,383.2799987792969,378.1499938964844,378.6499938964844,378.6499938964844,1029500
2020-10-19,381.239990234375,383.6099853515625,375.1499938964844,375.7699890136719,375.7699890136719,1480300
2020-10-20,377.010009765625,381.1400146484375,375.55999755859375,376.989990234375,376.989990234375,1329700
2020-10-21,375.7699890136719,376.8599853515625,370.30999755859375,372.04998779296875,372.04998779296875,1189600
2020-10-22,371.0799865722656,374.30999755859375,367.1099853515625,373.3699951171875,373.3699951171875,1354700
2020-10-23,373.260009765625,373.94000244140625,370.760009765625,372.7200012207031,372.7200012207031,886800
2020-10-26,369.6000061035156,369.9599914550781,357.6099853515625,363.0400085449219,363.0400085449219,1550900
2020-10-27,365.17999267578125,365.17999267578125,359.2200012207031,359.6000061035156,359.6000061035156,962000
2020-10-28,354.0,354.8599853515625,345.5299987792969,347.2099914550781,347.2099914550781,2051200
