Date,Open,High,Low,Close,Adj Close,Volume
2019-10-29,66.69000244140625,67.7300033569336,66.68000030517578,67.36000061035156,66.65367889404297,2518900
2019-10-30,67.56999969482422,68.23999786376953,67.27999877929688,68.0999984741211,67.38591766357422,2259300
2019-10-31,67.86000061035156,68.12999725341797,66.68000030517578,67.12000274658203,66.41619873046875,2056500
2019-11-01,67.38999938964844,67.9800033569336,67.26000213623047,67.52999877929688,66.8218994140625,1980300
2019-11-04,67.75,68.05999755859375,67.37000274658203,67.45999908447266,66.75263214111328,1802700
2019-11-05,67.62000274658203,67.76000213623047,67.12000274658203,67.20999908447266,66.5052490234375,1825900
2019-11-06,67.30000305175781,67.72000122070312,66.83999633789062,66.97000122070312,66.26776885986328,2061000
2019-11-07,67.19999694824219,67.69000244140625,66.76000213623047,66.83000183105469,66.12924194335938,1320400
2019-11-08,66.62999725341797,67.33999633789062,66.26000213623047,67.30999755859375,66.60420227050781,1536400
2019-11-11,66.94999694824219,67.26000213623047,66.13999938964844,66.26000213623047,65.56521606445312,1525200
2019-11-12,66.54000091552734,67.27999877929688,66.26000213623047,67.01000213623047,66.30735778808594,2134000
2019-11-13,66.83999633789062,67.36000061035156,66.47000122070312,66.86000061035156,66.15892791748047,1516600
2019-11-14,66.97000122070312,67.51000213623047,66.95999908447266,67.05000305175781,66.34693908691406,2320800
2019-11-15,67.26000213623047,68.77999877929688,67.08999633789062,68.4000015258789,67.68277740478516,6148700
2019-11-18,68.44000244140625,68.86000061035156,67.41000366210938,67.61000061035156,66.90106201171875,3198200
2019-11-19,67.87000274658203,68.33999633789062,67.66999816894531,68.13999938964844,67.42549896240234,2942400
2019-11-20,67.83999633789062,68.23999786376953,67.0999984741211,67.66999816894531,66.9604263305664,1808800
2019-11-21,67.7300033569336,68.73999786376953,67.44999694824219,68.47000122070312,67.75203704833984,1966700
2019-11-22,69.0,69.91999816894531,68.7300033569336,69.44000244140625,68.71187591552734,1961900
2019-11-25,69.63999938964844,70.83999633789062,69.58999633789062,70.68000030517578,69.93887329101562,2479100
2019-11-26,71.08999633789062,71.87999725341797,70.5999984741211,71.83999633789062,71.08670806884766,2291200
2019-11-27,70.12999725341797,72.1500015258789,69.7300033569336,72.11000061035156,71.35386657714844,1491100
2019-11-29,71.98999786376953,72.13999938964844,71.1500015258789,71.58999633789062,70.8393325805664,1119000
2019-12-02,71.58999633789062,71.69000244140625,70.52999877929688,70.91999816894531,70.17634582519531,1271600
2019-12-03,70.48999786376953,71.12999725341797,70.19000244140625,71.06999969482422,70.32477569580078,1723700
2019-12-04,71.18000030517578,71.19999694824219,70.45999908447266,70.5999984741211,69.85970306396484,1668500
2019-12-05,70.91000366210938,71.0,70.41000366210938,70.7699966430664,70.02791595458984,1299700
2019-12-06,71.25,71.55000305175781,70.94999694824219,71.29000091552734,70.54247283935547,1237500
2019-12-09,70.94000244140625,71.72000122070312,70.87999725341797,71.44000244140625,70.69091033935547,1780500
2019-12-10,71.44999694824219,71.83000183105469,71.11000061035156,71.70999908447266,70.95806121826172,1292200
2019-12-11,71.55999755859375,71.79000091552734,71.05999755859375,71.5,70.7502670288086,1583400
2019-12-12,71.62999725341797,72.06999969482422,71.26000213623047,71.81999969482422,71.0669174194336,1893900
2019-12-13,71.9000015258789,72.66999816894531,71.31999969482422,72.2300033569336,71.47262573242188,1618600
2019-12-16,72.45999908447266,72.8499984741211,72.25,72.66999816894531,71.90799713134766,2376600
2019-12-17,72.75,72.75,71.58999633789062,71.61000061035156,70.85911560058594,2442000
2019-12-18,71.73999786376953,72.38999938964844,71.5199966430664,72.16000366210938,71.40335083007812,1932200
2019-12-19,72.06999969482422,72.12999725341797,71.44000244140625,71.95999908447266,71.2054443359375,1266800
2019-12-20,72.0199966430664,73.30000305175781,71.58000183105469,73.26000213623047,72.4918212890625,4636400
2019-12-23,73.33999633789062,74.0999984741211,73.22000122070312,73.44000244140625,72.669921875,1009500
2019-12-24,73.41000366210938,73.41999816894531,73.04000091552734,73.29000091552734,72.52149200439453,281900
2019-12-26,73.2699966430664,73.41999816894531,72.70999908447266,73.0199966430664,72.4322280883789,653600
2019-12-27,73.27999877929688,73.52999877929688,72.87000274658203,73.27999877929688,72.69013214111328,727000
2019-12-30,73.27999877929688,73.44000244140625,72.94999694824219,73.11000061035156,72.52149963378906,1278300
2019-12-31,72.93000030517578,73.51000213623047,72.5999984741211,73.38999938964844,72.79924774169922,1110800
2020-01-02,73.44999694824219,73.69000244140625,72.80999755859375,73.62000274658203,73.02740478515625,2472300
2020-01-03,72.81999969482422,73.87999725341797,72.80999755859375,73.83000183105469,73.23571014404297,1451600
2020-01-06,73.36000061035156,74.05000305175781,73.19999694824219,73.98999786376953,73.39441680908203,1617100
2020-01-07,73.76000213623047,73.76000213623047,72.9800033569336,73.0199966430664,72.4322280883789,957100
2020-01-08,73.23999786376953,73.83000183105469,73.04000091552734,73.44000244140625,72.84884643554688,1920900
2020-01-09,73.80000305175781,74.30000305175781,73.0,73.76000213623047,73.16627502441406,1624900
2020-01-10,74.01000213623047,74.08999633789062,73.27999877929688,73.4800033569336,72.8885269165039,1214600
2020-01-13,73.4800033569336,73.88999938964844,72.76000213623047,73.06999969482422,72.48182678222656,2012200
2020-01-14,72.97000122070312,74.23999786376953,72.75,74.20999908447266,73.6126480102539,1547000
2020-01-15,73.69000244140625,75.19000244140625,72.8499984741211,74.69000244140625,74.08878326416016,1542300
2020-01-16,74.80000305175781,75.80999755859375,74.33999633789062,75.58000183105469,74.97161865234375,1519800
2020-01-17,75.87000274658203,75.94000244140625,75.27999877929688,75.86000061035156,75.2493667602539,1285300
2020-01-21,75.45999908447266,75.97000122070312,75.30999755859375,75.80999755859375,75.19976806640625,1349000
2020-01-22,75.95999908447266,76.31999969482422,75.47000122070312,75.5199966430664,74.91210174560547,1368300
2020-01-23,75.37000274658203,75.76000213623047,74.54000091552734,75.68000030517578,75.07080841064453,1371700
2020-01-24,75.5999984741211,75.5999984741211,74.13999938964844,74.45999908447266,73.86063385009766,957400
2020-01-27,73.37999725341797,74.2699966430664,73.16000366210938,73.41000366210938,72.819091796875,1311100
2020-01-28,73.7699966430664,74.22000122070312,73.3499984741211,73.5,72.90835571289062,1678700
2020-01-29,73.5999984741211,73.5999984741211,72.23999786376953,72.27999877929688,71.69818115234375,1787900
2020-01-30,71.91000366210938,72.81999969482422,71.36000061035156,72.77999877929688,72.19416046142578,1270600
2020-01-31,72.69999694824219,73.06999969482422,71.45999908447266,71.83000183105469,71.2518081665039,1414500
2020-02-03,72.23999786376953,73.30999755859375,72.05000305175781,73.16999816894531,72.58101654052734,2504600
2020-02-04,74.02999877929688,74.95999908447266,73.70999908447266,74.22000122070312,73.62257385253906,2208600
2020-02-05,76.98999786376953,80.9000015258789,75.75,78.5999984741211,77.9673080444336,6326600
2020-02-06,78.79000091552734,79.93000030517578,78.54000091552734,78.94999694824219,78.31449127197266,2311700
2020-02-07,78.79000091552734,79.48999786376953,78.5199966430664,78.93000030517578,78.2946548461914,1137100
2020-02-10,78.47000122070312,79.66999816894531,78.0999984741211,79.62000274658203,78.97909545898438,1686200
2020-02-11,80.0,80.55000305175781,79.19999694824219,80.2300033569336,79.58419036865234,3099000
2020-02-12,80.5199966430664,80.5199966430664,76.36000061035156,76.68000030517578,76.0627670288086,2907100
2020-02-13,76.12000274658203,76.91999816894531,75.91000366210938,76.48999786376953,75.8742904663086,2038300
2020-02-14,76.33999633789062,77.26000213623047,76.19000244140625,77.06999969482422,76.44962310791016,3081400
2020-02-18,77.12000274658203,77.80000305175781,76.66999816894531,76.77999877929688,76.16195678710938,1910000
2020-02-19,76.94000244140625,77.2699966430664,76.33999633789062,76.76000213623047,76.14212799072266,1880200
2020-02-20,76.79000091552734,77.0199966430664,75.76000213623047,76.70999908447266,76.09252166748047,1555900
2020-02-21,76.47000122070312,76.76000213623047,75.70999908447266,76.06999969482422,75.45767974853516,1992200
2020-02-24,74.41000366210938,75.81999969482422,73.37000274658203,73.37999725341797,72.7893295288086,2779900
2020-02-25,73.91999816894531,73.98999786376953,72.19000244140625,72.41000366210938,71.82714080810547,3071200
2020-02-26,72.9000015258789,74.08000183105469,72.18000030517578,72.41000366210938,71.82714080810547,2981300
2020-02-27,71.5199966430664,72.5999984741211,69.83000183105469,69.88999938964844,69.32742309570312,3146000
2020-02-28,68.04000091552734,69.33999633789062,67.52999877929688,69.2699966430664,68.71240997314453,5167200
2020-03-02,69.51000213623047,72.58999633789062,69.22000122070312,72.55000305175781,71.96601104736328,3179800
2020-03-03,72.66999816894531,73.95999908447266,70.33000183105469,71.0999984741211,70.52767181396484,3217500
2020-03-04,72.36000061035156,73.55000305175781,71.80999755859375,73.48999786376953,72.8984375,2404500
2020-03-05,71.55999755859375,73.52999877929688,71.04000091552734,72.56999969482422,71.98584747314453,2442200
2020-03-06,70.44999694824219,73.72000122070312,70.26000213623047,73.36000061035156,72.76948547363281,3283900
2020-03-09,69.5199966430664,71.80999755859375,69.44000244140625,70.26000213623047,69.69444274902344,4415600
2020-03-10,71.43000030517578,71.86000061035156,66.75,69.13999938964844,68.58345794677734,3587900
2020-03-11,67.47000122070312,69.01000213623047,66.5999984741211,68.3499984741211,67.79981231689453,3954900
2020-03-12,65.01000213623047,68.08999633789062,64.54000091552734,64.68000030517578,64.15935516357422,4706800
2020-03-13,66.70999908447266,67.51000213623047,60.68000030517578,64.43000030517578,63.91136932373047,6424400
2020-03-16,59.91999816894531,61.709999084472656,58.11000061035156,60.529998779296875,60.042762756347656,5019200
2020-03-17,60.97999954223633,64.30999755859375,57.97999954223633,62.369998931884766,61.86795425415039,4572100
2020-03-18,59.939998626708984,61.7599983215332,54.540000915527344,59.869998931884766,59.3880729675293,3462700
2020-03-19,59.720001220703125,62.54999923706055,58.06999969482422,59.4900016784668,59.01113510131836,3370800
2020-03-20,59.91999816894531,60.93000030517578,56.08000183105469,56.54999923706055,56.09480285644531,5137700
2020-03-23,55.97999954223633,56.849998474121094,53.08000183105469,54.70000076293945,54.25969314575195,3695400
2020-03-24,57.150001525878906,59.7400016784668,56.11000061035156,58.41999816894531,57.949745178222656,4147900
2020-03-25,58.41999816894531,59.93000030517578,56.7599983215332,58.040000915527344,57.57280731201172,3124800
2020-03-26,57.81999969482422,61.790000915527344,57.81999969482422,61.040000915527344,60.54866027832031,3454000
2020-03-27,58.88999938964844,62.060001373291016,58.11000061035156,60.0099983215332,59.52695083618164,2771100
2020-03-30,61.27000045776367,64.48999786376953,60.900001525878906,64.23999786376953,63.722900390625,2909500
2020-03-31,64.97000122070312,64.97000122070312,62.63999938964844,62.9900016784668,62.482967376708984,2837500
2020-04-01,60.88999938964844,61.959999084472656,59.849998474121094,60.709999084472656,60.2213134765625,2199700
2020-04-02,60.29999923706055,63.25,59.61000061035156,61.959999084472656,61.644020080566406,1624400
2020-04-03,61.36000061035156,62.529998779296875,61.13999938964844,62.27000045776367,61.95244216918945,2223400
2020-04-06,63.380001068115234,64.26000213623047,62.0,63.959999084472656,63.63382339477539,2520300
2020-04-07,64.9000015258789,65.98999786376953,63.900001525878906,64.26000213623047,63.93229675292969,2277500
2020-04-08,63.95000076293945,66.7699966430664,63.29999923706055,66.41000366210938,66.07133483886719,2200900
2020-04-09,67.41000366210938,68.83000183105469,67.06999969482422,68.37999725341797,68.03128051757812,2314400
2020-04-13,67.87999725341797,68.11000061035156,64.27999877929688,65.72000122070312,65.38484954833984,2004100
2020-04-14,66.61000061035156,69.38999938964844,66.52999877929688,68.94999694824219,68.59837341308594,2416100
2020-04-15,66.68000030517578,69.29000091552734,66.68000030517578,68.20999908447266,67.86214447021484,2412600
2020-04-16,68.63999938964844,69.08999633789062,67.33000183105469,68.63999938964844,68.28995513916016,2004600
2020-04-17,70.2699966430664,70.2699966430664,68.70999908447266,70.01000213623047,69.65296936035156,2524800
2020-04-20,68.81999969482422,71.76000213623047,68.76000213623047,70.25,69.8917465209961,2086600
2020-04-21,69.06999969482422,70.05000305175781,67.75,68.58999633789062,68.2402114868164,2497100
2020-04-22,70.16000366210938,71.37999725341797,69.5999984741211,70.77999877929688,70.4190444946289,2329100
2020-04-23,71.33000183105469,71.77999877929688,70.5199966430664,71.1500015258789,70.78715515136719,1759900
2020-04-24,71.83000183105469,72.93000030517578,70.88999938964844,72.75,72.37899780273438,1632500
2020-04-27,73.30000305175781,74.41999816894531,72.47000122070312,73.30000305175781,72.92619323730469,1470300
2020-04-28,73.9800033569336,74.87999725341797,70.52999877929688,71.76000213623047,71.39404296875,3120700
2020-04-29,72.0999984741211,72.97000122070312,68.94999694824219,71.01000213623047,70.64787292480469,3581400
2020-04-30,70.25,70.93000030517578,69.02999877929688,69.38999938964844,69.0361328125,2115300
2020-05-01,67.80999755859375,68.16000366210938,66.1500015258789,66.70999908447266,66.36980438232422,2079700
2020-05-04,66.31999969482422,67.12000274658203,65.55000305175781,67.05999755859375,66.718017578125,2219000
2020-05-05,67.19999694824219,69.47000122070312,67.19999694824219,68.47000122070312,68.12081909179688,2373100
2020-05-06,68.75,69.05999755859375,66.83000183105469,66.88999938964844,66.54888153076172,1962700
2020-05-07,67.51000213623047,67.63999938964844,66.66999816894531,66.98999786376953,66.64836883544922,1993000
2020-05-08,68.37000274658203,68.93000030517578,67.37000274658203,68.75,68.39939880371094,1675100
2020-05-11,68.45999908447266,69.5199966430664,68.13999938964844,68.44000244140625,68.09098052978516,1606500
2020-05-12,68.27999877929688,68.4800033569336,66.22000122070312,66.22000122070312,65.88229370117188,2673600
2020-05-13,66.04000091552734,66.37999725341797,64.43000030517578,64.94999694824219,64.6187744140625,1600400
2020-05-14,64.36000061035156,65.7300033569336,63.11000061035156,65.58999633789062,65.25550842285156,2258900
2020-05-15,65.66999816894531,65.98999786376953,64.47000122070312,65.11000061035156,64.77796173095703,4334600
2020-05-18,66.37999725341797,68.62000274658203,66.30999755859375,68.37999725341797,68.03128051757812,2209900
2020-05-19,68.5,68.77999877929688,67.7699966430664,67.77999877929688,67.43434143066406,1466600
2020-05-20,68.0199966430664,68.48999786376953,67.51000213623047,67.79000091552734,67.44429016113281,1129400
2020-05-21,67.97000122070312,68.25,67.05000305175781,67.12000274658203,66.7777099609375,1266800
2020-05-22,67.13999938964844,67.41999816894531,66.58999633789062,67.27999877929688,66.9368896484375,945900
2020-05-26,68.9800033569336,68.9800033569336,67.29000091552734,67.38999938964844,67.04633331298828,1614400
2020-05-27,67.3499984741211,68.52999877929688,66.73999786376953,68.30999755859375,67.96163177490234,1659400
2020-05-28,68.9800033569336,71.6500015258789,68.18000030517578,70.87000274658203,70.50858306884766,2432100
2020-05-29,70.91999816894531,72.9800033569336,69.97000122070312,72.9000015258789,72.52822875976562,3779800
2020-06-01,72.43000030517578,73.04000091552734,71.97000122070312,72.58999633789062,72.21980285644531,1994200
2020-06-02,72.5,73.25,72.0,73.16000366210938,72.78691101074219,2848000
2020-06-03,73.73999786376953,73.94000244140625,72.72000122070312,73.51000213623047,73.13512420654297,1710700
2020-06-04,72.20999908447266,73.30000305175781,70.66000366210938,71.37000274658203,71.18032836914062,2080100
2020-06-05,71.72000122070312,73.98999786376953,71.05999755859375,73.01000213623047,72.81597137451172,2293000
2020-06-08,72.79000091552734,74.04000091552734,72.41000366210938,73.8499984741211,73.65373229980469,1359300
2020-06-09,73.7300033569336,73.83999633789062,71.62999725341797,71.87999725341797,71.68897247314453,1374700
2020-06-10,72.12000274658203,72.12999725341797,70.6500015258789,71.87000274658203,71.67900085449219,1878300
2020-06-11,71.48999786376953,71.48999786376953,67.16000366210938,67.4000015258789,67.22087860107422,2404500
2020-06-12,67.56999969482422,68.69000244140625,66.12999725341797,66.95999908447266,66.78204345703125,1677200
2020-06-15,65.9000015258789,68.01000213623047,65.13999938964844,67.88999938964844,67.7095718383789,2645500
2020-06-16,68.70999908447266,70.62000274658203,68.5999984741211,69.44000244140625,69.25546264648438,2646600
2020-06-17,69.86000061035156,70.4800033569336,69.41000366210938,69.61000061035156,69.42500305175781,1885800
2020-06-18,69.45999908447266,69.95999908447266,68.80999755859375,69.72000122070312,69.53471374511719,2066400
2020-06-19,70.62999725341797,73.18000030517578,69.52999877929688,73.18000030517578,72.98551940917969,7312300
2020-06-22,72.2699966430664,72.55000305175781,70.93000030517578,71.19999694824219,71.01077270507812,2596100
2020-06-23,71.4800033569336,72.20999908447266,70.55999755859375,71.05000305175781,70.8611831665039,1733000
2020-06-24,70.43000030517578,70.6500015258789,68.27999877929688,68.6500015258789,68.46755981445312,1859000
2020-06-25,68.5999984741211,68.86000061035156,67.81999969482422,68.36000061035156,68.17832946777344,1998700
2020-06-26,68.5199966430664,68.87999725341797,65.77999877929688,66.54000091552734,66.36316680908203,3496900
2020-06-29,67.2300033569336,68.44999694824219,66.75,67.94000244140625,67.75944519042969,1509200
2020-06-30,68.05999755859375,68.95999908447266,67.37000274658203,68.55000305175781,68.36782836914062,2009800
2020-07-01,68.68000030517578,69.80999755859375,68.62999725341797,69.48999786376953,69.3053207397461,2089900
2020-07-02,70.01000213623047,70.58999633789062,69.75,69.91000366210938,69.72421264648438,1943900
2020-07-06,70.91999816894531,71.22000122070312,69.91999816894531,70.93000030517578,70.74150085449219,2743600
2020-07-07,69.80000305175781,70.7300033569336,69.41999816894531,70.06999969482422,69.88378143310547,2282600
2020-07-08,70.5,70.5,69.12999725341797,69.97000122070312,69.78404998779297,1637200
2020-07-09,69.76000213623047,69.91000366210938,68.58000183105469,69.62999725341797,69.4449462890625,1564400
2020-07-10,69.38999938964844,70.08999633789062,69.36000061035156,69.93000030517578,69.74415588378906,978400
2020-07-13,70.1500015258789,70.80999755859375,69.38999938964844,69.44999694824219,69.26542663574219,1810800
2020-07-14,69.22000122070312,69.87000274658203,68.69000244140625,69.7300033569336,69.54469299316406,1346500
2020-07-15,70.41999816894531,72.22000122070312,70.41999816894531,71.80999755859375,71.61915588378906,1831800
2020-07-16,71.5,71.81999969482422,71.0,71.69999694824219,71.50944519042969,1264200
2020-07-17,71.56999969482422,71.91999816894531,70.83999633789062,71.26000213623047,71.07062530517578,2352300
2020-07-20,71.3499984741211,71.70999908447266,70.91999816894531,71.41999816894531,71.23019409179688,1491200
2020-07-21,71.80000305175781,72.11000061035156,71.04000091552734,71.41000366210938,71.22022247314453,1799300
2020-07-22,71.66999816894531,72.4800033569336,71.16999816894531,72.05999755859375,71.86849212646484,1292500
2020-07-23,72.0,72.94000244140625,71.76000213623047,72.12999725341797,71.93830871582031,1672100
2020-07-24,72.30000305175781,72.4800033569336,71.33000183105469,71.79000091552734,71.59921264648438,1513600
2020-07-27,71.52999877929688,72.7300033569336,71.0,72.44999694824219,72.25745391845703,1240800
2020-07-28,72.16000366210938,72.66000366210938,70.97000122070312,71.13999938964844,70.95093536376953,2032000
2020-07-29,71.80999755859375,73.80000305175781,71.4000015258789,73.41000366210938,73.21491241455078,2210800
2020-07-30,70.91999816894531,72.75,69.30999755859375,71.26000213623047,71.07062530517578,2380100
2020-07-31,71.04000091552734,71.58000183105469,68.87000274658203,69.44999694824219,69.26542663574219,2033800
2020-08-03,69.2300033569336,69.66000366210938,68.56999969482422,68.81999969482422,68.6371078491211,1902800
2020-08-04,68.51000213623047,69.44999694824219,68.2300033569336,68.91000366210938,68.72686767578125,1536200
2020-08-05,69.47000122070312,69.58999633789062,68.48999786376953,69.30999755859375,69.12580108642578,1257300
2020-08-06,69.29000091552734,70.12000274658203,69.29000091552734,69.94999694824219,69.76409912109375,1411100
2020-08-07,69.5199966430664,70.05000305175781,69.23999786376953,70.04000091552734,69.85386657714844,1861900
2020-08-10,70.0,71.98999786376953,69.91999816894531,71.9800033569336,71.78871154785156,2300300
2020-08-11,72.16999816894531,72.93000030517578,72.0199966430664,72.41000366210938,72.21756744384766,2393900
2020-08-12,72.55000305175781,73.5199966430664,72.37000274658203,72.7699966430664,72.57660675048828,1600900
2020-08-13,72.69999694824219,73.22000122070312,72.47000122070312,73.08000183105469,72.88578796386719,1409600
2020-08-14,72.88999938964844,73.2699966430664,72.58999633789062,72.91000366210938,72.71623992919922,1427700
2020-08-17,73.0,73.05999755859375,72.5199966430664,72.86000061035156,72.66636657714844,1284500
2020-08-18,73.23999786376953,73.79000091552734,73.05000305175781,73.41000366210938,73.21491241455078,1589000
2020-08-19,73.66999816894531,73.79000091552734,72.25,72.44000244140625,72.24748992919922,824100
2020-08-20,72.26000213623047,72.69000244140625,71.47000122070312,71.62999725341797,71.43963623046875,833300
2020-08-21,71.25,71.91000366210938,71.11000061035156,71.81999969482422,71.62913513183594,1201600
2020-08-24,72.16000366210938,72.5,71.81999969482422,72.36000061035156,72.16769409179688,932700
2020-08-25,72.41000366210938,72.5,71.5,71.80999755859375,71.61915588378906,1134500
2020-08-26,71.79000091552734,71.79000091552734,70.61000061035156,71.38999938964844,71.20027160644531,1038000
2020-08-27,72.20999908447266,73.44999694824219,71.63999938964844,73.23999786376953,73.04535675048828,1626900
2020-08-28,73.27999877929688,73.41999816894531,72.22000122070312,72.80000305175781,72.60652923583984,946100
2020-08-31,71.8499984741211,73.68000030517578,71.8499984741211,73.37000274658203,73.17501831054688,2016700
2020-09-01,72.87999725341797,73.02999877929688,72.05000305175781,72.47000122070312,72.27740478515625,1034800
2020-09-02,72.91000366210938,75.5,72.5999984741211,75.2300033569336,75.03007507324219,2561600
2020-09-03,75.19000244140625,76.20999908447266,73.05999755859375,73.7699966430664,73.57394409179688,2114800
2020-09-04,73.87000274658203,74.5999984741211,71.79000091552734,72.01000213623047,71.8186264038086,2251800
2020-09-08,71.37999725341797,71.66999816894531,69.75,70.04000091552734,69.85386657714844,2563100
2020-09-09,70.7699966430664,72.13999938964844,70.33999633789062,71.56999969482422,71.37979888916016,1562400
2020-09-10,71.37000274658203,72.08999633789062,70.27999877929688,70.37999725341797,70.19295501708984,1545900
2020-09-11,70.0,71.4000015258789,69.94000244140625,70.94999694824219,70.76144409179688,1844300
2020-09-14,71.45999908447266,72.55000305175781,71.44999694824219,71.94000244140625,71.74881744384766,977500
2020-09-15,72.0,72.3499984741211,71.58000183105469,71.69999694824219,71.50944519042969,1099100
2020-09-16,72.4000015258789,73.58000183105469,72.05999755859375,72.41999816894531,72.2275390625,1965500
2020-09-17,71.2699966430664,72.08000183105469,70.70999908447266,71.77999877929688,71.5892333984375,1432500
2020-09-18,72.0999984741211,72.13999938964844,69.33000183105469,69.8499984741211,69.66436767578125,2784100
2020-09-21,68.51000213623047,69.04000091552734,67.08000183105469,68.69999694824219,68.51741790771484,1820900
2020-09-22,68.61000061035156,69.02999877929688,67.80999755859375,68.62999725341797,68.4476089477539,1459600
2020-09-23,68.72000122070312,68.98999786376953,67.44000244140625,67.7300033569336,67.55000305175781,1424200
2020-09-24,67.52999877929688,68.26000213623047,66.75,67.4800033569336,67.4800033569336,949100
2020-09-25,67.11000061035156,69.51000213623047,66.91999816894531,69.30999755859375,69.30999755859375,1319200
2020-09-28,70.05000305175781,71.62999725341797,69.80999755859375,71.5999984741211,71.5999984741211,1833200
2020-09-29,71.37999725341797,72.5,71.0999984741211,71.19000244140625,71.19000244140625,1257900
2020-09-30,71.58000183105469,73.16000366210938,70.63999938964844,72.29000091552734,72.29000091552734,1712200
2020-10-01,72.8499984741211,73.30000305175781,71.75,72.30999755859375,72.30999755859375,1402700
2020-10-02,71.51000213623047,71.9800033569336,70.4800033569336,71.18000030517578,71.18000030517578,1027200
2020-10-05,70.70999908447266,71.95999908447266,70.70999908447266,71.76000213623047,71.76000213623047,1314200
2020-10-06,72.16999816894531,73.13999938964844,71.5,71.9800033569336,71.9800033569336,1336800
2020-10-07,72.81999969482422,72.93000030517578,71.4000015258789,71.4800033569336,71.4800033569336,1022100
2020-10-08,71.83999633789062,72.18000030517578,71.44000244140625,71.83999633789062,71.83999633789062,807100
2020-10-09,72.66999816894531,73.18000030517578,71.87000274658203,72.38999938964844,72.38999938964844,1023100
2020-10-12,72.8499984741211,75.05000305175781,72.69999694824219,73.79000091552734,73.79000091552734,1836900
2020-10-13,74.04000091552734,74.08000183105469,72.95999908447266,73.25,73.25,1411100
2020-10-14,73.75,74.38999938964844,73.25,74.2300033569336,74.2300033569336,1122800
2020-10-15,73.2300033569336,74.08000183105469,73.08000183105469,73.76000213623047,73.76000213623047,1109400
2020-10-16,73.94999694824219,75.23999786376953,73.54000091552734,74.62999725341797,74.62999725341797,1549600
2020-10-19,74.75,75.11000061035156,72.02999877929688,72.36000061035156,72.36000061035156,1053200
2020-10-20,72.58999633789062,73.58999633789062,72.22000122070312,72.69999694824219,72.69999694824219,787600
2020-10-21,72.68000030517578,73.48999786376953,72.33000183105469,72.55999755859375,72.55999755859375,1416400
2020-10-22,72.68000030517578,72.7699966430664,71.13999938964844,72.58999633789062,72.58999633789062,802800
2020-10-23,73.04000091552734,74.12999725341797,73.0,73.72000122070312,73.72000122070312,847900
2020-10-26,72.52999877929688,73.12000274658203,71.75,72.87000274658203,72.87000274658203,987500
2020-10-27,72.91000366210938,73.93000030517578,72.11000061035156,72.73999786376953,72.73999786376953,1347100
2020-10-28,72.1500015258789,72.55000305175781,70.51000213623047,70.63999938964844,70.63999938964844,2916400
