Date,Open,High,Low,Close,Adj Close,Volume
2019-10-29,23.34000015258789,23.709999084472656,23.1299991607666,23.6200008392334,23.6200008392334,3504900
2019-10-30,23.59000015258789,23.760000228881836,23.1200008392334,23.610000610351562,23.610000610351562,1611600
2019-10-31,23.600000381469727,23.8799991607666,23.309999465942383,23.8700008392334,23.8700008392334,1803700
2019-11-01,24.06999969482422,24.260000228881836,23.8799991607666,24.190000534057617,24.190000534057617,1439100
2019-11-04,24.190000534057617,24.40999984741211,23.979999542236328,24.079999923706055,24.079999923706055,2258000
2019-11-05,24.059999465942383,24.260000228881836,23.889999389648438,24.06999969482422,24.06999969482422,2150200
2019-11-06,24.18000030517578,24.309999465942383,23.65999984741211,23.68000030517578,23.68000030517578,2211300
2019-11-07,23.5,23.739999771118164,23.010000228881836,23.469999313354492,23.469999313354492,3847300
2019-11-08,23.3799991607666,23.549999237060547,23.139999389648438,23.450000762939453,23.450000762939453,1644000
2019-11-11,23.329999923706055,23.610000610351562,23.1299991607666,23.469999313354492,23.469999313354492,1725600
2019-11-12,23.25,23.280000686645508,22.59000015258789,22.68000030517578,22.68000030517578,4026400
2019-11-13,22.540000915527344,22.850000381469727,21.979999542236328,21.989999771118164,21.989999771118164,5023100
2019-11-14,21.8700008392334,22.260000228881836,21.75,21.81999969482422,21.81999969482422,5578700
2019-11-15,21.889999389648438,21.950000762939453,21.59000015258789,21.65999984741211,21.65999984741211,4196300
2019-11-18,21.200000762939453,21.760000228881836,21.200000762939453,21.739999771118164,21.739999771118164,6816300
2019-11-19,21.8700008392334,21.90999984741211,21.549999237060547,21.81999969482422,21.81999969482422,3282300
2019-11-20,21.75,22.010000228881836,21.520000457763672,21.65999984741211,21.65999984741211,4051900
2019-11-21,21.6299991607666,21.809999465942383,21.540000915527344,21.729999542236328,21.729999542236328,3242200
2019-11-22,21.84000015258789,21.8700008392334,21.399999618530273,21.40999984741211,21.40999984741211,4006800
2019-11-25,21.420000076293945,21.520000457763672,20.809999465942383,20.81999969482422,20.81999969482422,5561100
2019-11-26,20.829999923706055,21.059999465942383,20.389999389648438,21.0,21.0,5782700
2019-11-27,21.010000228881836,21.729999542236328,20.90999984741211,21.670000076293945,21.670000076293945,4672500
2019-11-29,21.709999084472656,21.709999084472656,21.219999313354492,21.5,21.5,1689800
2019-12-02,21.489999771118164,21.549999237060547,21.149999618530273,21.200000762939453,21.200000762939453,3616500
2019-12-03,21.149999618530273,21.149999618530273,20.780000686645508,20.889999389648438,20.889999389648438,2633300
2019-12-04,20.940000534057617,21.18000030517578,20.84000015258789,20.979999542236328,20.979999542236328,2760300
2019-12-05,21.09000015258789,21.260000228881836,20.639999389648438,21.110000610351562,21.110000610351562,5904900
2019-12-06,21.280000686645508,21.280000686645508,20.989999771118164,21.0,21.0,2735600
2019-12-09,20.959999084472656,21.010000228881836,20.540000915527344,20.600000381469727,20.600000381469727,2721000
2019-12-10,20.520000457763672,21.0,20.520000457763672,21.0,21.0,2862600
2019-12-11,21.010000228881836,21.040000915527344,20.5,20.510000228881836,20.510000228881836,3287800
2019-12-12,20.520000457763672,20.90999984741211,20.5,20.639999389648438,20.639999389648438,2887900
2019-12-13,21.010000228881836,21.3700008392334,20.889999389648438,21.049999237060547,21.049999237060547,4009800
2019-12-16,21.229999542236328,21.510000228881836,20.81999969482422,20.920000076293945,20.920000076293945,3016500
2019-12-17,20.90999984741211,20.979999542236328,20.709999084472656,20.729999542236328,20.729999542236328,3220100
2019-12-18,20.68000030517578,21.270000457763672,20.68000030517578,21.200000762939453,21.200000762939453,3300200
2019-12-19,21.1299991607666,21.979999542236328,21.1299991607666,21.790000915527344,21.790000915527344,5218400
2019-12-20,21.68000030517578,21.899999618530273,21.399999618530273,21.65999984741211,21.65999984741211,4776200
2019-12-23,21.65999984741211,21.829999923706055,21.5,21.760000228881836,21.760000228881836,3109500
2019-12-24,21.790000915527344,21.81999969482422,21.65999984741211,21.780000686645508,21.780000686645508,538900
2019-12-26,21.780000686645508,21.889999389648438,21.360000610351562,21.40999984741211,21.40999984741211,2554400
2019-12-27,21.489999771118164,21.889999389648438,21.3799991607666,21.850000381469727,21.850000381469727,10114800
2019-12-30,21.93000030517578,22.040000915527344,21.530000686645508,21.579999923706055,21.579999923706055,2644200
2019-12-31,21.59000015258789,21.850000381469727,21.469999313354492,21.799999237060547,21.799999237060547,1716000
2020-01-02,21.8799991607666,21.979999542236328,21.5,21.600000381469727,21.600000381469727,1992500
2020-01-03,21.309999465942383,21.540000915527344,21.219999313354492,21.25,21.25,1417300
2020-01-06,21.200000762939453,21.600000381469727,20.989999771118164,21.56999969482422,21.56999969482422,2751200
2020-01-07,21.530000686645508,21.690000534057617,21.350000381469727,21.399999618530273,21.399999618530273,2095700
2020-01-08,21.329999923706055,21.399999618530273,20.389999389648438,20.469999313354492,20.469999313354492,3536000
2020-01-09,20.420000076293945,20.520000457763672,19.950000762939453,19.969999313354492,19.969999313354492,1961000
2020-01-10,20.010000228881836,20.049999237060547,19.510000228881836,19.860000610351562,19.860000610351562,3634000
2020-01-13,19.780000686645508,20.170000076293945,19.6299991607666,20.0,20.0,3914300
2020-01-14,19.93000030517578,20.360000610351562,19.790000915527344,20.229999542236328,20.229999542236328,2318500
2020-01-15,20.260000228881836,20.56999969482422,20.100000381469727,20.5,20.5,2285100
2020-01-16,20.579999923706055,20.75,20.540000915527344,20.610000610351562,20.610000610351562,1455800
2020-01-17,20.719999313354492,20.760000228881836,20.309999465942383,20.360000610351562,20.360000610351562,1610400
2020-01-21,20.299999237060547,20.329999923706055,19.450000762939453,19.549999237060547,19.549999237060547,3149700
2020-01-22,19.440000534057617,19.559999465942383,18.920000076293945,19.290000915527344,19.290000915527344,3490200
2020-01-23,19.190000534057617,19.5,18.989999771118164,19.309999465942383,19.309999465942383,2697300
2020-01-24,19.6200008392334,19.950000762939453,19.299999237060547,19.40999984741211,19.40999984741211,3923800
2020-01-27,19.190000534057617,19.899999618530273,19.1200008392334,19.799999237060547,19.799999237060547,3472300
2020-01-28,19.540000915527344,20.329999923706055,19.540000915527344,20.09000015258789,20.09000015258789,2773700
2020-01-29,20.100000381469727,20.110000610351562,19.530000686645508,19.6200008392334,19.6200008392334,2111400
2020-01-30,19.440000534057617,19.889999389648438,19.420000076293945,19.84000015258789,19.84000015258789,2355900
2020-01-31,19.8700008392334,19.920000076293945,19.420000076293945,19.479999542236328,19.479999542236328,2355200
2020-02-03,19.56999969482422,19.65999984741211,19.399999618530273,19.450000762939453,19.450000762939453,1781400
2020-02-04,19.559999465942383,19.8700008392334,19.440000534057617,19.809999465942383,19.809999465942383,2056400
2020-02-05,20.0,20.389999389648438,19.889999389648438,20.0,20.0,2567600
2020-02-06,20.100000381469727,20.229999542236328,19.920000076293945,19.959999084472656,19.959999084472656,1329000
2020-02-07,19.93000030517578,20.020000457763672,19.290000915527344,19.459999084472656,19.459999084472656,2355300
2020-02-10,19.399999618530273,19.43000030517578,18.829999923706055,19.31999969482422,19.31999969482422,2545200
2020-02-11,19.479999542236328,20.5,19.399999618530273,20.290000915527344,20.290000915527344,3449900
2020-02-12,20.40999984741211,20.65999984741211,20.229999542236328,20.459999084472656,20.459999084472656,1863200
2020-02-13,20.440000534057617,20.479999542236328,20.010000228881836,20.25,20.25,2105800
2020-02-14,20.079999923706055,20.25,19.09000015258789,19.450000762939453,19.450000762939453,2864700
2020-02-18,19.309999465942383,19.639999389648438,19.229999542236328,19.34000015258789,19.34000015258789,3833600
2020-02-19,19.329999923706055,19.829999923706055,19.18000030517578,19.760000228881836,19.760000228881836,2678200
2020-02-20,19.739999771118164,20.40999984741211,19.6299991607666,20.290000915527344,20.290000915527344,3202100
2020-02-21,20.190000534057617,20.350000381469727,19.920000076293945,20.209999084472656,20.209999084472656,2488000
2020-02-24,19.68000030517578,20.149999618530273,19.549999237060547,19.729999542236328,19.729999542236328,2757000
2020-02-25,19.739999771118164,19.959999084472656,19.40999984741211,19.540000915527344,19.540000915527344,4651700
2020-02-26,19.760000228881836,20.100000381469727,19.40999984741211,19.510000228881836,19.510000228881836,4060300
2020-02-27,19.40999984741211,19.670000076293945,18.760000228881836,18.989999771118164,18.989999771118164,4417900
2020-02-28,18.549999237060547,18.860000610351562,18.09000015258789,18.59000015258789,18.59000015258789,5710500
2020-03-02,18.5,19.030000686645508,18.229999542236328,19.030000686645508,19.030000686645508,3047500
2020-03-03,18.780000686645508,19.459999084472656,18.489999771118164,18.610000610351562,18.610000610351562,4299300
2020-03-04,18.889999389648438,19.030000686645508,18.350000381469727,19.020000457763672,19.020000457763672,2665200
2020-03-05,18.610000610351562,19.09000015258789,18.420000076293945,18.6299991607666,18.6299991607666,3590200
2020-03-06,18.1200008392334,18.350000381469727,17.799999237060547,18.200000762939453,18.200000762939453,3308400
2020-03-09,17.290000915527344,17.969999313354492,16.3700008392334,16.8700008392334,16.8700008392334,4316700
2020-03-10,17.309999465942383,17.5,16.540000915527344,17.329999923706055,17.329999923706055,3495400
2020-03-11,16.81999969482422,17.040000915527344,16.299999237060547,16.610000610351562,16.610000610351562,5750000
2020-03-12,15.5,16.399999618530273,14.630000114440918,15.420000076293945,15.420000076293945,6114900
2020-03-13,16.190000534057617,16.389999389648438,15.300000190734863,16.3700008392334,16.3700008392334,6463000
2020-03-16,14.75,15.59000015258789,14.75,14.75,14.75,5363400
2020-03-17,15.0,16.8799991607666,14.720000267028809,15.90999984741211,15.90999984741211,6429200
2020-03-18,14.930000305175781,16.510000228881836,14.779999732971191,15.3100004196167,15.3100004196167,5450500
2020-03-19,15.289999961853027,17.040000915527344,14.949999809265137,16.600000381469727,16.600000381469727,5138300
2020-03-20,16.309999465942383,17.18000030517578,16.229999542236328,16.530000686645508,16.530000686645508,4990300
2020-03-23,16.579999923706055,17.0,14.680000305175781,14.84000015258789,14.84000015258789,6396400
2020-03-24,15.399999618530273,16.489999771118164,15.399999618530273,16.18000030517578,16.18000030517578,4163700
2020-03-25,16.049999237060547,16.6200008392334,15.600000381469727,15.920000076293945,15.920000076293945,5181200
2020-03-26,15.9399995803833,16.920000076293945,15.680000305175781,16.770000457763672,16.770000457763672,4434000
2020-03-27,16.25,16.290000915527344,15.460000038146973,15.850000381469727,15.850000381469727,4923500
2020-03-30,15.859999656677246,16.170000076293945,15.3100004196167,15.699999809265137,15.699999809265137,3743100
2020-03-31,15.670000076293945,16.139999389648438,15.460000038146973,15.710000038146973,15.710000038146973,3374300
2020-04-01,15.1899995803833,15.550000190734863,14.90999984741211,15.119999885559082,15.119999885559082,3503500
2020-04-02,15.130000114440918,15.779999732971191,14.970000267028809,15.239999771118164,15.239999771118164,4346000
2020-04-03,15.029999732971191,15.550000190734863,14.359999656677246,14.84000015258789,14.84000015258789,5572500
2020-04-06,15.430000305175781,16.25,15.420000076293945,16.18000030517578,16.18000030517578,6792200
2020-04-07,16.600000381469727,16.860000610351562,15.979999542236328,16.25,16.25,4799200
2020-04-08,16.34000015258789,17.399999618530273,16.34000015258789,17.299999237060547,17.299999237060547,4819800
2020-04-09,17.389999389648438,18.06999969482422,17.139999389648438,17.389999389648438,17.389999389648438,5043700
2020-04-13,17.190000534057617,17.309999465942383,16.790000915527344,16.979999542236328,16.979999542236328,3673900
2020-04-14,17.25,17.5,17.1299991607666,17.389999389648438,17.389999389648438,3370300
2020-04-15,16.959999084472656,17.190000534057617,16.739999771118164,17.100000381469727,17.100000381469727,3666000
2020-04-16,17.100000381469727,17.360000610351562,16.829999923706055,17.229999542236328,17.229999542236328,3259200
2020-04-17,17.6200008392334,17.6200008392334,17.1299991607666,17.290000915527344,17.290000915527344,3177500
2020-04-20,16.940000534057617,17.520000457763672,16.93000030517578,17.34000015258789,17.34000015258789,3966200
2020-04-21,17.059999465942383,17.270000457763672,16.770000457763672,16.809999465942383,16.809999465942383,2400700
2020-04-22,17.010000228881836,17.31999969482422,16.899999618530273,17.079999923706055,17.079999923706055,3413200
2020-04-23,17.09000015258789,17.6200008392334,17.09000015258789,17.3799991607666,17.3799991607666,3150300
2020-04-24,17.5,17.670000076293945,17.200000762939453,17.520000457763672,17.520000457763672,3050900
2020-04-27,17.6299991607666,18.270000457763672,17.6299991607666,18.209999084472656,18.209999084472656,4296900
2020-04-28,18.549999237060547,18.719999313354492,17.530000686645508,17.59000015258789,17.59000015258789,2758600
2020-04-29,17.90999984741211,18.219999313354492,17.690000534057617,18.0,18.0,3491700
2020-04-30,17.90999984741211,18.450000762939453,17.770000457763672,18.309999465942383,18.309999465942383,7744300
2020-05-01,18.40999984741211,21.6200008392334,17.920000076293945,21.489999771118164,21.489999771118164,19982100
2020-05-04,21.520000457763672,22.049999237060547,21.1299991607666,21.34000015258789,21.34000015258789,9468600
2020-05-05,21.56999969482422,21.790000915527344,20.549999237060547,20.610000610351562,20.610000610351562,4887100
2020-05-06,20.559999465942383,20.780000686645508,20.229999542236328,20.290000915527344,20.290000915527344,8292700
2020-05-07,22.639999389648438,22.68000030517578,20.809999465942383,21.459999084472656,21.459999084472656,11236100
2020-05-08,21.649999618530273,21.649999618530273,21.0,21.389999389648438,21.389999389648438,7633600
2020-05-11,21.239999771118164,21.31999969482422,20.950000762939453,21.06999969482422,21.06999969482422,3790600
2020-05-12,21.079999923706055,21.639999389648438,20.700000762939453,20.709999084472656,20.709999084472656,3486100
2020-05-13,20.8700008392334,21.559999465942383,20.68000030517578,21.260000228881836,21.260000228881836,5936400
2020-05-14,21.0,21.420000076293945,20.889999389648438,21.299999237060547,21.299999237060547,5509900
2020-05-15,21.190000534057617,21.530000686645508,21.030000686645508,21.360000610351562,21.360000610351562,4746500
2020-05-18,21.719999313354492,21.899999618530273,21.239999771118164,21.360000610351562,21.360000610351562,5422400
2020-05-19,21.3799991607666,21.5,20.979999542236328,21.0,21.0,3774100
2020-05-20,21.100000381469727,21.299999237060547,20.520000457763672,20.780000686645508,20.780000686645508,6189300
2020-05-21,20.68000030517578,20.889999389648438,20.450000762939453,20.530000686645508,20.530000686645508,6175400
2020-05-22,20.479999542236328,20.68000030517578,20.329999923706055,20.489999771118164,20.489999771118164,2914000
2020-05-26,20.780000686645508,20.989999771118164,20.34000015258789,20.469999313354492,20.469999313354492,5201000
2020-05-27,20.579999923706055,21.209999084472656,20.40999984741211,20.790000915527344,20.790000915527344,3941100
2020-05-28,20.690000534057617,20.959999084472656,20.540000915527344,20.56999969482422,20.56999969482422,2722500
2020-05-29,20.56999969482422,21.010000228881836,20.469999313354492,20.6299991607666,20.6299991607666,5293800
2020-06-01,20.68000030517578,21.68000030517578,20.6299991607666,21.59000015258789,21.59000015258789,4681500
2020-06-02,21.549999237060547,21.760000228881836,21.3799991607666,21.540000915527344,21.540000915527344,2826300
2020-06-03,21.6299991607666,21.760000228881836,21.219999313354492,21.559999465942383,21.559999465942383,4343700
2020-06-04,21.350000381469727,22.049999237060547,21.309999465942383,22.040000915527344,22.040000915527344,3566100
2020-06-05,22.329999923706055,22.75,22.149999618530273,22.690000534057617,22.690000534057617,3259100
2020-06-08,22.719999313354492,23.389999389648438,22.719999313354492,23.350000381469727,23.350000381469727,3555800
2020-06-09,23.200000762939453,23.3799991607666,22.209999084472656,22.40999984741211,22.40999984741211,3267700
2020-06-10,22.520000457763672,22.520000457763672,22.040000915527344,22.290000915527344,22.290000915527344,3765900
2020-06-11,21.959999084472656,21.969999313354492,20.829999923706055,20.959999084472656,20.959999084472656,3164000
2020-06-12,21.31999969482422,21.8799991607666,21.100000381469727,21.770000457763672,21.770000457763672,3597400
2020-06-15,21.469999313354492,21.770000457763672,21.149999618530273,21.610000610351562,21.610000610351562,2380900
2020-06-16,22.270000457763672,22.290000915527344,21.799999237060547,22.040000915527344,22.040000915527344,2374500
2020-06-17,22.18000030517578,22.18000030517578,21.649999618530273,21.700000762939453,21.700000762939453,1780100
2020-06-18,21.540000915527344,23.389999389648438,21.540000915527344,23.139999389648438,23.139999389648438,3346500
2020-06-19,23.31999969482422,23.40999984741211,22.549999237060547,22.729999542236328,22.729999542236328,5104700
2020-06-22,22.65999984741211,22.8799991607666,22.459999084472656,22.68000030517578,22.68000030517578,2056400
2020-06-23,22.84000015258789,22.84000015258789,22.139999389648438,22.190000534057617,22.190000534057617,1862800
2020-06-24,22.0,22.139999389648438,21.34000015258789,21.43000030517578,21.43000030517578,3185500
2020-06-25,21.3700008392334,21.760000228881836,21.1299991607666,21.3799991607666,21.3799991607666,2532000
2020-06-26,21.229999542236328,21.309999465942383,20.65999984741211,20.719999313354492,20.719999313354492,5981400
2020-06-29,20.780000686645508,21.5,20.610000610351562,21.479999542236328,21.479999542236328,2855600
2020-06-30,21.520000457763672,21.719999313354492,21.190000534057617,21.510000228881836,21.510000228881836,2020100
2020-07-01,21.479999542236328,21.719999313354492,21.219999313354492,21.459999084472656,21.459999084472656,1608900
2020-07-02,22.010000228881836,22.760000228881836,21.860000610351562,22.0,22.0,2700700
2020-07-06,22.3700008392334,22.829999923706055,22.190000534057617,22.790000915527344,22.790000915527344,1647800
2020-07-07,22.600000381469727,22.799999237060547,22.489999771118164,22.540000915527344,22.540000915527344,1373200
2020-07-08,22.469999313354492,22.600000381469727,22.100000381469727,22.59000015258789,22.59000015258789,1709800
2020-07-09,22.559999465942383,22.84000015258789,22.309999465942383,22.389999389648438,22.389999389648438,2703300
2020-07-10,22.420000076293945,22.59000015258789,21.989999771118164,22.559999465942383,22.559999465942383,1558600
2020-07-13,22.639999389648438,22.8799991607666,22.299999237060547,22.34000015258789,22.34000015258789,1887100
2020-07-14,22.0,22.770000457763672,21.90999984741211,22.719999313354492,22.719999313354492,1784000
2020-07-15,22.770000457763672,23.149999618530273,22.68000030517578,23.030000686645508,23.030000686645508,1510500
2020-07-16,22.969999313354492,23.09000015258789,22.56999969482422,22.739999771118164,22.739999771118164,1164000
2020-07-17,22.799999237060547,23.010000228881836,22.360000610351562,22.489999771118164,22.489999771118164,1887800
2020-07-20,22.450000762939453,22.75,22.40999984741211,22.6299991607666,22.6299991607666,1276800
2020-07-21,22.770000457763672,23.020000457763672,22.520000457763672,22.579999923706055,22.579999923706055,2219600
2020-07-22,22.59000015258789,22.860000610351562,22.360000610351562,22.709999084472656,22.709999084472656,1158800
2020-07-23,22.600000381469727,22.729999542236328,22.1299991607666,22.290000915527344,22.290000915527344,1562600
2020-07-24,22.280000686645508,22.489999771118164,21.959999084472656,22.110000610351562,22.110000610351562,1779600
2020-07-27,22.049999237060547,22.889999389648438,21.579999923706055,22.790000915527344,22.790000915527344,2883100
2020-07-28,22.770000457763672,23.110000610351562,22.59000015258789,22.899999618530273,22.899999618530273,2980700
2020-07-29,23.079999923706055,23.6200008392334,22.90999984741211,23.440000534057617,23.440000534057617,2172300
2020-07-30,23.15999984741211,23.239999771118164,22.8799991607666,23.0,23.0,2129900
2020-07-31,23.079999923706055,23.170000076293945,22.56999969482422,22.760000228881836,22.760000228881836,2312200
2020-08-03,22.709999084472656,22.899999618530273,22.34000015258789,22.719999313354492,22.719999313354492,2256600
2020-08-04,22.489999771118164,23.049999237060547,22.110000610351562,22.770000457763672,22.770000457763672,2647300
2020-08-05,22.8700008392334,22.959999084472656,22.25,22.270000457763672,22.270000457763672,1880800
2020-08-06,22.190000534057617,22.350000381469727,21.790000915527344,21.969999313354492,21.969999313354492,3053700
2020-08-07,21.920000076293945,22.079999923706055,21.479999542236328,21.760000228881836,21.760000228881836,2933000
2020-08-10,21.65999984741211,21.850000381469727,21.25,21.600000381469727,21.600000381469727,2714200
2020-08-11,21.719999313354492,21.799999237060547,21.360000610351562,21.440000534057617,21.440000534057617,2612600
2020-08-12,21.68000030517578,22.520000457763672,21.559999465942383,21.690000534057617,21.690000534057617,4025100
2020-08-13,21.790000915527344,21.8700008392334,21.440000534057617,21.6200008392334,21.6200008392334,2654100
2020-08-14,21.600000381469727,21.649999618530273,21.309999465942383,21.540000915527344,21.540000915527344,2125800
2020-08-17,21.520000457763672,21.6299991607666,21.059999465942383,21.110000610351562,21.110000610351562,3286700
2020-08-18,21.110000610351562,22.09000015258789,21.079999923706055,21.959999084472656,21.959999084472656,4526200
2020-08-19,21.90999984741211,21.920000076293945,21.440000534057617,21.5,21.5,2939400
2020-08-20,21.520000457763672,21.81999969482422,21.25,21.450000762939453,21.450000762939453,2461000
2020-08-21,21.1200008392334,21.549999237060547,21.010000228881836,21.399999618530273,21.399999618530273,3213200
2020-08-24,21.469999313354492,21.84000015258789,21.360000610351562,21.649999618530273,21.649999618530273,3010100
2020-08-25,21.770000457763672,22.170000076293945,21.770000457763672,22.15999984741211,22.15999984741211,2902200
2020-08-26,22.079999923706055,22.75,22.0,22.729999542236328,22.729999542236328,3130500
2020-08-27,22.790000915527344,22.899999618530273,22.5,22.809999465942383,22.809999465942383,2240300
2020-08-28,22.81999969482422,23.059999465942383,22.729999542236328,23.030000686645508,23.030000686645508,1838700
2020-08-31,23.18000030517578,23.229999542236328,22.739999771118164,23.010000228881836,23.010000228881836,3756800
2020-09-01,22.969999313354492,23.239999771118164,22.639999389648438,22.700000762939453,22.700000762939453,1962900
2020-09-02,22.850000381469727,23.290000915527344,22.729999542236328,23.06999969482422,23.06999969482422,1695900
2020-09-03,23.219999313354492,23.350000381469727,22.559999465942383,22.75,22.75,3188000
2020-09-04,22.739999771118164,22.940000534057617,21.75,22.010000228881836,22.010000228881836,4143300
2020-09-08,21.75,22.0,21.260000228881836,21.709999084472656,21.709999084472656,4280300
2020-09-09,21.079999923706055,21.799999237060547,21.079999923706055,21.610000610351562,21.610000610351562,3058700
2020-09-10,21.510000228881836,21.959999084472656,21.3700008392334,21.450000762939453,21.450000762939453,2980300
2020-09-11,21.420000076293945,21.489999771118164,21.049999237060547,21.229999542236328,21.229999542236328,2566800
2020-09-14,21.420000076293945,21.459999084472656,21.059999465942383,21.350000381469727,21.350000381469727,2289000
2020-09-15,21.420000076293945,21.549999237060547,21.31999969482422,21.389999389648438,21.389999389648438,2337600
2020-09-16,21.56999969482422,22.329999923706055,21.540000915527344,21.920000076293945,21.920000076293945,4690800
2020-09-17,21.450000762939453,21.530000686645508,20.889999389648438,21.3700008392334,21.3700008392334,3965100
2020-09-18,21.440000534057617,21.510000228881836,20.600000381469727,20.940000534057617,20.940000534057617,7529800
2020-09-21,20.780000686645508,21.049999237060547,20.389999389648438,20.520000457763672,20.520000457763672,2618700
2020-09-22,20.739999771118164,20.93000030517578,20.6200008392334,20.850000381469727,20.850000381469727,2056400
2020-09-23,20.950000762939453,20.950000762939453,20.010000228881836,20.09000015258789,20.09000015258789,3201900
2020-09-24,20.059999465942383,20.31999969482422,19.770000457763672,20.170000076293945,20.170000076293945,2750800
2020-09-25,20.100000381469727,20.540000915527344,20.0,20.489999771118164,20.489999771118164,3482300
2020-09-28,20.780000686645508,21.020000457763672,20.670000076293945,20.889999389648438,20.889999389648438,2505200
2020-09-29,21.010000228881836,21.260000228881836,20.6299991607666,20.899999618530273,20.899999618530273,4630900
2020-09-30,21.010000228881836,21.479999542236328,20.479999542236328,20.540000915527344,20.540000915527344,2544100
2020-10-01,20.530000686645508,20.670000076293945,19.979999542236328,20.09000015258789,20.09000015258789,2845800
2020-10-02,19.770000457763672,20.079999923706055,19.389999389648438,19.729999542236328,19.729999542236328,3739400
2020-10-05,19.75,20.31999969482422,19.75,20.239999771118164,20.239999771118164,1792500
2020-10-06,20.40999984741211,20.809999465942383,20.290000915527344,20.31999969482422,20.31999969482422,3319700
2020-10-07,20.31999969482422,20.760000228881836,20.280000686645508,20.549999237060547,20.549999237060547,2370500
2020-10-08,21.40999984741211,21.40999984741211,20.3799991607666,20.43000030517578,20.43000030517578,1517000
2020-10-09,20.520000457763672,21.670000076293945,20.520000457763672,21.6200008392334,21.6200008392334,3498400
2020-10-12,21.760000228881836,22.280000686645508,21.600000381469727,22.280000686645508,22.280000686645508,4707800
2020-10-13,22.350000381469727,22.399999618530273,21.969999313354492,22.34000015258789,22.34000015258789,2694300
2020-10-14,22.34000015258789,22.34000015258789,21.5,21.770000457763672,21.770000457763672,3317300
2020-10-15,21.5,21.790000915527344,21.25,21.790000915527344,21.790000915527344,2503000
2020-10-16,21.75,21.959999084472656,21.459999084472656,21.56999969482422,21.56999969482422,2445600
2020-10-19,21.670000076293945,21.690000534057617,20.959999084472656,21.0,21.0,2939700
2020-10-20,21.18000030517578,21.540000915527344,21.030000686645508,21.049999237060547,21.049999237060547,2695800
2020-10-21,20.860000610351562,21.040000915527344,20.610000610351562,20.770000457763672,20.770000457763672,1412800
2020-10-22,20.799999237060547,20.84000015258789,20.1299991607666,20.149999618530273,20.149999618530273,3157600
2020-10-23,20.270000457763672,20.450000762939453,20.010000228881836,20.350000381469727,20.350000381469727,2324900
2020-10-26,20.200000762939453,20.450000762939453,20.049999237060547,20.170000076293945,20.170000076293945,2875300
2020-10-27,20.15999984741211,20.280000686645508,19.670000076293945,19.899999618530273,19.899999618530273,2587900
2020-10-28,19.549999237060547,19.760000228881836,18.93000030517578,18.989999771118164,18.989999771118164,3184500
