symbol,date,currentRatio,quickRatio,cashRatio,daysOfSalesOutstanding,daysOfInventoryOutstanding,operatingCycle,daysOfPayablesOutstanding,cashConversionCycle,grossProfitMargin,operatingProfitMargin,pretaxProfitMargin,netProfitMargin,effectiveTaxRate,returnOnAssets,returnOnEquity,returnOnCapitalEmployed,netIncomePerEBT,ebtPerEbit,ebitPerRevenue,debtRatio,debtEquityRatio,longTermDebtToCapitalization,totalDebtToCapitalization,interestCoverage,cashFlowToDebtRatio,companyEquityMultiplier,receivablesTurnover,payablesTurnover,inventoryTurnover,fixedAssetTurnover,assetTurnover,operatingCashFlowPerShare,freeCashFlowPerShare,cashPerShare,payoutRatio,operatingCashFlowSalesRatio,freeCashFlowOperatingCashFlowRatio,cashFlowCoverageRatios,shortTermCoverageRatios,capitalExpenditureCoverageRatio,dividendPaidAndCapexCoverageRatio,dividendPayoutRatio,priceBookValueRatio,priceToBookRatio,priceToSalesRatio,priceEarningsRatio,priceToFreeCashFlowsRatio,priceToOperatingCashFlowsRatio,priceCashFlowRatio,priceEarningsToGrowthRatio,priceSalesRatio,dividendYield,enterpriseValueMultiple,priceFairValue
ALXN,2019-12-31,4.250523319099054,3.343129866867621,2.2485975048145357,90.91542946444672,580.6692015209126,671.5846309853592,68.46641318124209,22.449016283204628,0.9209593075674701,0.42483620845104286,0.4365370359239446,0.481717457073591,-0.1034973379842115,0.1370393169408251,0.21330222324739614,0.13325749374629212,1.1034973379842115,1.0,0.4365370359239446,0.35753451204359177,0.5565038414450221,0.17842226870849945,,28.005141388174806,,1.556503841445022,4.014720077220077,5.331081081081081,0.628585086042065,3.6503327726175674,0.2844806949146746,9.274466192170818,8.515124555160142,12.230871886120996,0.0,0.4177235479152892,0.9181255695716821,,,-12.213825424721733,,,2.000340673184407,2.000340673184407,4.5175292019795235,9.377964480306119,11.779040852575488,10.814638591778982,10.814638591778982,27.16709297903113,4.5175292019795235,,8.471876661350345,2.000340673184407
ALXN,2018-12-31,2.8833049403747872,2.1176320272572404,1.1631175468483816,81.48709817970565,460.7600854929201,542.2471836726257,72.55142933475821,8.935668844947443,0.9093967854376452,0.06525948876839659,0.05862703330751356,0.018783888458559255,0.6796036333608588,0.005569950975818087,0.008466716855967617,0.018984315600529867,0.32039636663914123,1.0,0.05862703330751356,0.34213567424400115,0.5200702650213305,0.23800299301629532,0.253518488353152,2.4663951120162935,0.13685867574774313,1.5200702650213305,4.479236690881492,5.030913978494624,0.7921693121693122,2.8074753652735303,0.2965281117435526,1.8975501113585747,0.9487750556792873,6.965701559020045,0.0,0.10311773818745158,0.5,0.13685867574774313,1.704,-2.0,,,2.9716801414028997,2.9716801414028997,6.5928398528272645,350.9837628865979,127.87014084507042,63.935070422535205,63.935070422535205,1015.4104995881602,6.5928398528272645,,38.867560681239105,2.9716801414028997
ALXN,2017-12-31,3.1012073490813648,2.310341207349081,0.6135433070866142,74.67334065500832,369.9823866138265,444.6557272688348,56.89564068692206,17.77769996808626,0.8720959702627354,0.1766776491791276,0.15426205964349074,0.12483455830587706,0.19076305220883535,0.03263566290960223,0.049847634683068895,0.043370174494093805,0.8092369477911646,1.0,0.15426205964349074,0.3452916448874721,0.527397645365508,0.25622454356135055,,5.567073170731708,,1.527397645365508,4.887955953200275,6.415254237288136,0.9865334491746307,2.6792666364870983,0.2614313163958685,4.949423247559894,3.3642413487133984,6.539929015084295,0.0,0.3141561769592521,0.6797239153818573,,,-3.1223061852784775,,,3.10127447121926,3.10127447121926,7.766591760299626,62.21507782540041,36.37075563761044,24.72207242739333,24.72207242739333,180.71235234336663,7.766591760299626,,26.30076472132295,3.10127447121926
ALXN,2016-12-31,3.132442284325638,2.3608748481166466,1.1737545565006076,76.92681819655654,529.9070847851335,606.83390298169,90.43747580332946,-13.510657606772924,0.9162478518854771,0.2164002464252132,0.18682922084238512,0.12950293440549918,0.30718500520652553,0.030136572851429864,0.0459397285484242,0.04635559131134352,0.6931620964942729,1.0,0.18682922084238512,0.34399758545235043,0.5243846330802853,0.2641557342361405,,5.9402061855670105,,1.5243846330802853,4.744769230769231,4.0359375,0.6888,2.976930501930502,0.2327095751905229,4.800265134776845,3.3300927971718957,5.713654441007512,0.0,0.35222593301125127,0.6937310135321735,,,-3.265103697024346,,,3.3330705083965952,3.3330705083965952,9.395841574527415,72.55311717576365,38.452381900212316,26.67560986836049,26.67560986836049,211.5820930009705,9.395841574527415,,29.101434847635076,3.3330705083965952
ALXN,2015-12-31,3.4056692713654586,2.7026584838257364,1.423463427351451,74.6851650527045,453.92107735671783,528.6062424094223,89.82148449733792,-15.136319444633415,0.9104897108231917,0.20609113429980336,0.19129531840247124,0.055446387872415515,0.710152928281494,0.011023538845710997,0.017482953560257555,0.04021079301978178,0.289847071718506,1.0,0.19129531840247124,0.3694693057602218,0.5859656145775515,0.2919846518385465,,10.433604222520108,,1.5859656145775516,4.887182076151582,4.063615760111576,0.8041045419734091,3.7359449087191994,0.19881437310355773,3.1268912116258285,1.8008548948053331,6.4140960390491495,0.0,0.25928833081737773,0.5759250235856392,,,-2.3580735851362915,,,3.8155427846506003,3.8155427846506003,12.100819489817196,218.24360349066734,81.03373593338546,46.66935627866747,46.66935627866747,607.2937633060601,12.100819489817196,,47.58807238385026,3.8155427846506003
ALXN,2014-12-31,4.606260296540363,3.945634266886326,1.555189456342669,70.75480145050813,369.4077055779183,440.16250702842643,92.35192639447958,-21.59712494397145,0.9221918789452478,0.38890629896584145,0.3904284371222635,0.29408604557460716,0.24675495929365898,0.15633031889576393,0.19894003634161114,0.24258692628650905,0.753239307418874,1.0,0.3904284371222635,0.21418372203712518,0.2725620835857056,0.034220532319391636,,292.45472837022135,,1.2725620835857057,5.158660508083141,3.952272727272727,0.9880681818181818,5.698214285714286,0.5315801999048072,3.1750992063492065,2.4970238095238093,9.732142857142858,0.0,0.2865648923311098,0.786439618809561,,,-4.682516459400146,,,11.187517867958814,11.187517867958814,16.538113444061423,56.23562794945959,73.38336114421931,57.711582565224184,57.711582565224184,146.09668292024554,16.538113444061423,,39.170374098269264,11.187517867958814
ALXN,2013-12-31,3.7577319587628866,3.3281786941580758,0.9106529209621993,99.2909172951718,223.24821852731594,322.53913582248776,47.68408551068884,51.60683178448296,0.8915103461612841,0.34035969831754015,0.33926384322826014,0.1630245600464127,0.5194261827854836,0.07622061482820977,0.10617128463476071,0.19236111111111112,0.48052441573247195,1.0,0.33926384322826014,0.2820976491862568,0.3929471032745592,0.0391286809197257,,127.99124513618678,,1.3929471032745593,3.6760663507109004,7.654545454545454,1.6349514563106795,7.717910447761194,0.4675406871609403,2.4902353530295445,2.343515272909364,7.5863795693540315,0.0,0.3205698446464256,0.9410818419465111,,,-16.97269624573379,,,13.581612090680101,13.581612090680101,20.854380197253917,127.92170818505338,69.12692307692308,65.05409209732555,65.05409209732555,329.20058150199947,20.854380197253917,,57.09032241909116,13.581612090680101
ALXN,2012-12-31,4.155555555555556,3.5722222222222224,2.75,95.26496781588925,274.7622820919176,370.02724990780683,60.73692551505547,34.52804230083378,0.8887223348911031,0.3564941363195485,0.3505863680451459,0.22467154571907239,0.35901408450704225,0.09747513389441469,0.12927447995941146,0.1763975155279503,0.6408450704225352,1.0,0.3505863680451459,0.24598316755929608,0.32623033992897005,0.048745173745173745,,53.71521210483653,,1.32623033992897,3.831418918918919,6.0095238095238095,1.328421052631579,6.831927710843374,0.43385615914307574,2.068513853904282,1.958690176322418,4.987405541561713,0.0,0.36204920201040475,0.9469069654164637,,,-18.834862385321102,,,9.602727042110603,9.602727042110603,16.688982453046467,74.28169152276294,48.680491255144034,46.09589624939113,46.09589624939113,190.01180112459335,16.688982453046467,,42.06166082929536,9.602727042110603
ALXN,2011-12-31,4.091304347826087,3.4130434782608696,2.3521739130434782,113.6839417921879,317.561761546724,431.2457033389119,62.72824919441461,50.955692597773286,0.881159050293592,0.2946132244064335,0.29320908858820527,0.2237681899412816,0.23662603395733567,0.12566308243727597,0.15458553791887125,0.19716738197424893,0.7631693513278189,1.0,0.29320908858820527,0.1863799283154122,0.2292768959435626,,,291.497461928934,,1.2301587301587302,3.210655737704918,5.81875,1.1493827160493828,4.719277108433735,0.5615770609318996,1.408237747653806,1.2935349322210636,2.820646506777894,0.0,0.3447791677304059,0.9185486856719733,,,-12.277272727272727,,,12.686876543209879,12.686876543209879,18.364715343375035,82.07026811180833,57.988383716243455,53.26515364679749,53.26515364679749,202.84893587428914,18.364715343375035,,55.82108603013212,12.686876543209879
ALXN,2010-12-31,4.654676258992806,3.8129496402877696,1.920863309352518,114.02033271719039,351.3975155279503,465.4178482451407,90.6832298136646,23.33710290352579,0.8807763401109058,0.27837338262476896,0.2754158964879852,0.17929759704251386,0.34886577181208056,0.0958498023715415,0.1127906976744186,0.1706758304696449,0.6510067114093959,1.0,0.2754158964879852,0.15019762845849802,0.17674418604651163,0.004629629629629629,,211.64772727272728,,1.1767441860465115,3.201183431952663,4.025,1.038709677419355,3.3395061728395063,0.5345849802371542,0.8645889306824288,0.7958087049973133,1.9398173025255239,0.0,0.29741219963031423,0.9204474829086389,,,-12.5703125,,,8.908996511627908,8.908996511627908,14.162175600739372,78.98697938144329,51.73353814989872,47.61800497203232,47.61800497203232,189.4262482330747,14.162175600739372,,44.70941172915974,8.908996511627908
ALXN,2009-12-31,4.3882352941176475,3.411764705882353,1.8470588235294119,107.57497414684592,331.8181818181818,439.39315596502774,97.11751662971174,10.457457517134173,0.8834022750775594,0.22518097207859358,0.21535677352637023,0.7631851085832472,-2.5432412965186075,0.3755725190839695,0.4290697674418605,0.118830242510699,3.543817527010804,1.0,0.21535677352637023,0.12468193384223919,0.14244186046511628,0.014326647564469915,,,,1.1424418604651163,3.3929824561403508,3.7583333333333333,1.1,2.3442424242424242,0.4921119592875318,0.6280353200883002,0.2803532008830022,0.9713024282560706,0.0,0.2942088934850052,0.44639718804920914,,,-1.8063492063492064,,,6.10496511627907,6.10496511627907,10.858883143743537,14.228373983739836,82.68141732283465,36.90875219683655,36.90875219683655,33.22398667337188,10.858883143743537,,42.28795593022285,6.10496511627907
ALXN,2008-12-31,3.2976190476190474,2.5238095238095237,1.6428571428571428,104.245465071401,642.6056338028169,746.8510988742179,115.66901408450704,-11.42354901310604,0.8903898108838286,0.13353917406406793,0.1339251254341953,0.12774990351215748,0.045561959654178676,0.0692468619246862,0.1340080971659919,0.08807106598984772,0.9538904899135446,1.0,0.1339251254341953,0.48326359832635984,0.9352226720647774,0.3634020618556701,,14.416285832987121,,1.9352226720647774,3.5013513513513512,3.1555555555555554,0.568,1.8507142857142858,0.5420502092050209,0.29571984435797666,0.02668148971650917,0.7670928293496387,0.0,0.20532612890775762,0.09022556390977443,,,-1.0991735537190082,,,13.423307692307691,13.423307692307691,12.796437668853724,100.16788519637461,690.7410416666667,62.3225,62.3225,232.21910498489422,12.796437668853724,,74.26058449695668,13.423307692307691
ALXN,2007-12-31,5.394736842105263,3.973684210526316,2.5,233.19444444444446,1797.7611940298507,2030.955638474295,490.29850746268653,-257.1040630182421,0.9069444444444444,-1.386111111111111,-1.2916666666666667,-1.2819444444444446,0.0,-0.27634730538922153,-0.9049019607843137,-0.3141891891891892,0.9924731182795699,1.0,-1.2916666666666667,0.6976047904191617,2.284313725490196,0.6554054054054054,,-37.36440337484934,,3.2745098039215685,1.565217391304348,0.7444444444444445,0.20303030303030303,0.6923076923076923,0.2155688622754491,-0.9614325068870524,-1.4352617079889807,0.7231404958677686,0.0,-1.9388888888888889,1.492836676217765,,,2.0290697674418605,,,23.075411764705883,23.075411764705883,32.69016666666667,-25.500455037919828,-11.294107485604606,-16.86025787965616,-16.86025787965616,-47.71476896270566,32.69016666666667,,-28.885444759807328,23.075411764705883
ALXN,2006-12-31,7.964285714285714,7.75,5.964285714285714,0.0,,,,,1.0,-85.6875,-82.4375,-82.1875,0.0,-0.3937125748502994,-1.052,-0.43104575163398695,0.9969673995451099,1.0,-82.4375,0.625748502994012,1.672,0.584717607973422,,-46.49277405710257,,2.672,,0.0,0.0,0.041025641025641026,0.004790419161676647,-0.8667192429022083,-1.1182965299684542,1.7113564668769716,0.0,-68.6875,1.2902638762511374,,,3.445141065830721,,,10.428032,10.428032,814.6899999999999,-9.91257794676806,-9.192552891396334,-11.860818926296632,-11.860818926296632,-16.19735674806946,814.6899999999999,,-10.503140929715196,10.428032
ALXN,2005-12-31,8.72,8.52,1.76,0.0,,,,,1.0,-86.14285714285714,-83.42857142857143,-82.85714285714286,0.0,-0.22053231939163498,-0.7073170731707317,-0.2453781512605042,0.9931506849315068,1.0,-83.42857142857143,0.688212927756654,2.207317073170732,0.646551724137931,,-48.993288590604024,,3.207317073170732,,0.0,,0.06363636363636363,0.002661596958174905,-0.41277641277641275,-0.41605241605241605,1.7444717444717446,0.0,-72.0,1.007936507936508,,,126.0,,,10.869878048780487,10.869878048780487,1273.3285714285714,-15.367758620689655,-17.545866141732283,-17.685119047619047,-17.685119047619047,-24.18045525239957,1273.3285714285714,,-18.064954354441387,10.869878048780487
ALXN,2005-07-31,8.04,7.8,1.88,0.0,,,,,0.0,-98.81818181818181,-99.54545454545455,-98.9090909090909,0.0,-0.43870967741935485,-1.6,-0.4910313901345291,0.993607305936073,1.0,-99.54545454545455,0.7258064516129032,2.6470588235294117,0.6880733944954128,,-17.877551020408163,,3.6470588235294117,,0.0,,0.09166666666666666,0.004435483870967742,-0.86983842010772,-0.8967684021543986,1.7504488330341113,0.0,-88.0909090909091,1.0309597523219813,,,32.3,,,11.746147058823528,11.746147058823528,726.1254545454545,-7.341341911764706,-7.995375375375375,-8.242910216718267,-8.242910216718267,-10.538988259930262,726.1254545454545,,-9.110765344784037,11.746147058823528
ALXN,2004-07-31,13.8,13.3,5.65,0.0,,,,,0.0,-15.326086956521738,-16.26086956521739,-16.108695652173914,0.0,-0.2315625,-0.4283236994219653,-0.24933333333333332,0.9906417112299465,1.0,-16.26086956521739,0.459375,0.8497109826589595,0.40955631399317405,0.4175084175084175,-9.702944610195875,-0.5806451612903226,1.8497109826589595,,0.0,,0.38333333333333336,0.014375,-0.8323699421965318,-0.8682080924855491,3.0751445086705202,0.0,-15.652173913043478,1.0430555555555556,-0.5806451612903226,-18.0,23.225806451612904,,,2.01,2.01,75.59347826086956,-4.692712550607287,-4.6302263648468704,-4.829583333333333,-4.829583333333333,-5.23092313953003,75.59347826086956,,-5.713079899985666,2.01
ALXN,2003-07-31,14.666666666666666,14.4,1.6666666666666667,0.0,,,,,0.0,-92.55555555555556,-94.66666666666667,-93.88888888888889,0.0,-0.3176691729323308,-0.7041666666666667,-0.3394422310756972,0.9917840375586855,1.0,-94.66666666666667,0.5488721804511278,1.2166666666666666,0.5081967213114754,,-11.073563815960489,,2.216666666666667,,0.0,,0.075,0.0033834586466165413,-1.2252747252747254,-1.2678571428571428,2.967032967032967,0.0,-99.11111111111111,1.0347533632286996,,,28.774193548387096,,,2.135466666666667,2.135466666666667,284.7288888888889,-3.0326153846153843,-2.776338028169014,-2.872825112107623,-2.872825112107623,-2.8450309278350514,284.7288888888889,,-4.859464339452302,2.135466666666667
ALXN,2002-07-31,18.294117647058822,18.176470588235293,2.823529411764706,0.0,,,,,0.0,-9.461538461538462,-8.8,-8.692307692307692,0.0,-0.1596045197740113,-0.275609756097561,-0.16973293768545994,0.9877622377622378,1.0,-8.8,0.4209039548022599,0.7268292682926829,0.3768996960486322,,,,1.726829268292683,,0.0,,0.43333333333333335,0.018361581920903956,-0.6363636363636364,-0.6928374655647382,4.256198347107438,0.0,-7.107692307692307,1.0887445887445888,,,11.268292682926829,,,1.0518146341463415,1.0518146341463415,33.17261538461538,-3.8163185840707965,-4.286719681908549,-4.667142857142857,-4.667142857142857,-3.5704217680868537,33.17261538461538,,,1.0518146341463415
ALXN,2001-07-31,45.375,44.375,16.875,0.0,,,,,0.0,-4.923728813559322,-4.059322033898305,-4.830508474576271,0.0,-0.1425,-0.21923076923076923,-0.1221938775510204,1.1899791231732777,1.0,-4.059322033898305,0.35,0.5384615384615384,0.3229166666666667,,,,1.5384615384615385,,0.0,,0.8428571428571429,0.0295,-0.3338129496402878,-0.43597122302158275,5.107913669064748,0.0,-1.9661016949152543,1.3060344827586208,,,3.267605633802817,,,1.2697115384615385,1.2697115384615385,27.976694915254235,-5.791666666666667,-10.895214521452145,-14.229525862068964,-14.229525862068964,-5.187124140893471,27.976694915254235,,,1.2697115384615385
ALXN,2000-07-31,25.714285714285715,25.0,13.142857142857142,0.0,,,,,0.0,-1.0700934579439252,-0.9439252336448598,-0.9439252336448598,0.0,-0.10466321243523316,-0.3258064516129032,-0.1086021505376344,1.0,1.0,-0.9439252336448598,0.6787564766839378,2.1129032258064515,0.6666666666666666,,,,3.1129032258064515,,0.0,,2.675,0.11088082901554404,-0.2836624775583483,-0.3249551166965889,3.141831238779174,0.0,-0.7383177570093458,1.1455696202531647,,,6.869565217391305,,,22.333903225806452,22.333903225806452,64.70570093457944,-68.54960396039603,-76.5028729281768,-87.6393670886076,-87.6393670886076,-49.203775007655395,64.70570093457944,,,22.333903225806452
ALXN,1999-07-31,5.142857142857143,4.0,3.4285714285714284,0.0,,,,,0.0,-0.42021276595744683,-0.3404255319148936,-0.3404255319148936,0.0,-0.14545454545454545,-0.19393939393939394,-0.17297297297297298,1.0,1.0,-0.3404255319148936,0.25,0.3333333333333333,0.10810810810810811,,,,1.3333333333333333,,0.0,,2.6857142857142855,0.42727272727272725,-0.17073170731707318,-0.21286031042128603,0.6208425720620843,0.0,-0.4095744680851064,1.2467532467532467,,,4.052631578947368,,,4.674,4.674,8.20436170212766,-24.1003125,-16.066875,-20.03142857142857,-20.03142857142857,-14.006753785438145,8.20436170212766,,,4.674
ALXN,1998-07-31,19.0,19.0,16.0,0.0,,,,,0.0,-2.0,-1.58,-1.58,0.0,-0.1880952380952381,-0.20256410256410257,-0.1975,1.0,1.0,-1.58,0.07142857142857142,0.07692307692307693,0.025,,,,1.0769230769230769,,0.0,,2.5,0.11904761904761904,-0.19900497512437812,-0.2512437810945274,0.945273631840796,0.0,-1.6,1.2625,,,3.8095238095238093,,,1.8966153846153846,1.8966153846153846,14.7936,-9.363037974683545,-7.323564356435644,-9.246,-9.246,-4.850439775544825,14.7936,,,1.8966153846153846
ALXN,1997-07-31,11.5,11.5,8.5,0.0,,,,,0.0,-2.1315789473684212,-1.9210526315789473,-1.9210526315789473,0.0,-0.30416666666666664,-0.33181818181818185,-0.33181818181818185,1.0,1.0,-1.9210526315789473,0.08333333333333333,0.09090909090909091,,,,,1.0909090909090908,,0.0,,3.8,0.15833333333333333,-0.1912751677852349,-0.2181208053691275,0.7718120805369127,0.0,-1.5,1.1403508771929824,,,7.125,,,3.7249999999999996,3.7249999999999996,21.56578947368421,-11.226027397260273,-12.607692307692307,-14.37719298245614,-14.37719298245614,-4.311025985030363,21.56578947368421,,,3.7249999999999996
ALXN,1996-07-31,9.5,9.0,4.5,0.0,,,,,0.0,-2.230769230769231,-2.076923076923077,-2.076923076923077,0.0,-0.27,-0.3,-0.3,1.0,1.0,-2.076923076923077,0.1,0.1111111111111111,,,,,1.1111111111111112,,,,2.6,0.13,-0.2336448598130841,-0.2523364485981308,0.8411214953271028,0.0,-1.9230769230769231,1.08,,,12.5,,,2.5323333333333333,2.5323333333333333,17.53153846153846,-8.44111111111111,-8.44111111111111,-9.116399999999999,-9.116399999999999,-2.327832187857961,17.53153846153846,,,2.5323333333333333
