symbol,date,currentRatio,quickRatio,cashRatio,daysOfSalesOutstanding,daysOfInventoryOutstanding,operatingCycle,daysOfPayablesOutstanding,cashConversionCycle,grossProfitMargin,operatingProfitMargin,pretaxProfitMargin,netProfitMargin,effectiveTaxRate,returnOnAssets,returnOnEquity,returnOnCapitalEmployed,netIncomePerEBT,ebtPerEbit,ebitPerRevenue,debtRatio,debtEquityRatio,longTermDebtToCapitalization,totalDebtToCapitalization,interestCoverage,cashFlowToDebtRatio,companyEquityMultiplier,receivablesTurnover,payablesTurnover,inventoryTurnover,fixedAssetTurnover,assetTurnover,operatingCashFlowPerShare,freeCashFlowPerShare,cashPerShare,payoutRatio,operatingCashFlowSalesRatio,freeCashFlowOperatingCashFlowRatio,cashFlowCoverageRatios,shortTermCoverageRatios,capitalExpenditureCoverageRatio,dividendPaidAndCapexCoverageRatio,dividendPayoutRatio,priceBookValueRatio,priceToBookRatio,priceToSalesRatio,priceEarningsRatio,priceToFreeCashFlowsRatio,priceToOperatingCashFlowsRatio,priceCashFlowRatio,priceEarningsToGrowthRatio,priceSalesRatio,dividendYield,enterpriseValueMultiple,priceFairValue
BIIB,2019-12-31,1.7233027673835273,1.4282248447715777,0.5990583494387105,62.721642242608446,150.1140431625243,212.83568540513275,99.08049503937814,-36.35885279676969,0.8639996105133573,0.48982118390029145,0.495614797710375,0.4095521599120873,0.16250578874247462,0.21621631545514297,0.4413109299118652,0.3185400415726068,0.8263517590760465,1.0,0.495614797710375,0.5100590064734545,1.0410621140356136,0.2504746604352271,,38.02508004268943,,2.0410621140356136,5.819362933581576,3.683873398643557,2.4314847052971897,3.9130990937049233,0.5279335250033964,37.7726787620064,34.20010672358591,23.884204909284954,0.0,0.4923250266033287,0.905419150679513,,,-10.57296489917849,,,3.897799778164158,3.897799778164158,3.6172961280854645,8.832320964592,8.114886957607151,7.347374057016924,7.347374057016924,0.3735700789411472,3.6172961280854645,,6.76662101206646,3.897799778164158
BIIB,2018-12-31,2.3187970381160476,1.827931536780772,0.3716314639475601,67.4331185097637,186.87083631558664,254.30395482535033,74.45493585861367,-7.0218173488499644,0.8649882181537066,0.43771974815838965,0.4385374157244906,0.3293490622839685,0.24164350125432232,0.17520335008640153,0.3397880303076781,0.26824045067451135,0.7510170181029222,1.0,0.4385374157244906,0.4843745674979932,0.9393923126476272,0.31284088932920884,,29.40977068793619,,1.9393923126476271,5.412770580188299,4.902294197031039,1.9532207764275729,3.7356714428523827,0.5319685711913131,30.139795421334632,25.823672674135413,17.23331709693132,0.0,0.45995287261482654,0.856796547990368,,,-6.983071888048753,,,5.161941930734072,5.161941930734072,5.00335674835909,15.191653237637395,12.696102685981591,10.877976954280266,10.877976954280266,0.7039173064497612,5.00335674835909,,10.181884215734785,5.161941930734072
BIIB,2017-12-31,2.33753933851909,1.7839201947627814,0.46725253844783565,68.98003079705717,202.09355828220862,271.0735890792658,88.56288343558283,-19.582852638525665,0.8671978751660027,0.4354117273238335,0.41786229315865375,0.2068698620650323,0.47939089065668383,0.10734972053812265,0.20131136623113027,0.2528445504920037,0.49506707221962254,1.0,0.41786229315865375,0.466747841674911,0.8752854243308386,0.3199840412340008,,20.449760765550238,,1.8752854243308386,5.291386445938955,4.121365360303414,1.8060941828254848,3.856806184012066,0.5189239237969611,21.366197183098592,12.151173708920188,17.31924882629108,0.0,0.37078679148436927,0.5687101735882224,,,-2.3186264520073365,,,5.954401084612457,5.954401084612457,6.118810646982621,29.578067031625377,29.016950003863688,16.502234673698087,16.502234673698087,1.4219261691688005,6.118810646982621,,12.554169299797776,5.954401084612457
BIIB,2016-12-31,2.553349513143659,1.940787742331647,0.6802830492119653,55.54320103416952,247.2333806722121,302.7765817063816,69.06539527963751,-13.522194245467993,0.8708423590245266,0.44986374117811473,0.4308748515128223,0.32342254210048216,0.2508210014190148,0.16185830186040007,0.3050057248292848,0.2535347357492715,0.7506182850192581,1.0,0.4308748515128223,0.469327003776752,0.884399634269899,0.3491540144107051,,18.973076923076924,,1.884399634269899,6.5714613706807485,5.284846318799143,1.4763378594249201,4.576225117915101,0.5004546090362288,20.96526508226691,17.639396709323584,22.372486288848265,0.0,0.400670812661589,0.8413629229159401,,,-6.303696578260272,,,4.9754061333926405,4.9754061333926405,5.2758304800503115,16.312500810197687,15.650195102992615,13.167493896058598,13.167493896058598,0.8055555955653179,5.2758304800503115,,10.979147344801795,4.9754061333926405
BIIB,2015-12-31,2.5993327384877993,1.9280754160685882,0.5074291034643287,52.27219940913061,262.89180909384066,315.1640085029713,78.68510158013544,-26.41290217100483,0.8847618870659061,0.45439342982961406,0.4429012058938293,0.3295304632193092,0.24365993329557611,0.1818526721627497,0.3784354728576306,0.28163713808035634,0.7440270173892979,1.0,0.4429012058938293,0.5194618760510233,1.0810003414134517,0.41030432293337865,,49.91937172774869,,2.0810003414134517,6.982679208563088,4.638743455497382,1.388403850458921,4.9203693545437925,0.5518539026290964,16.95242214532872,14.104671280276817,14.829152249134948,0.0,0.3641279102175812,0.8320151043527071,,,-5.952916160388821,,,6.7356043018094915,6.7356043018094915,5.865165833627529,17.79855427121511,19.35954369825207,16.10743277032199,16.10743277032199,0.9287529617227376,5.865165833627529,,12.645938014617448,6.7356043018094915
BIIB,2014-12-31,2.04463480613165,1.5428313796212805,0.5432822362488728,59.284757291559316,250.6063193851409,309.8910766767002,71.3791631084543,-12.09440581689499,0.8793156755642585,0.40935793053694736,0.4067814078120169,0.30248376790683296,0.25080871548011147,0.2050296891372686,0.27153298177444724,0.32627924278746795,0.7436027362553839,1.0,0.4067814078120169,0.24491791826755152,0.32435933018780644,0.05092633242602511,,133.79661016949152,,1.3243593301878065,6.156725888324873,5.11353711790393,1.4564676616915422,5.494337485843714,0.677820468040517,12.413924050632911,11.19957805907173,7.789029535864979,0.0,0.3032155003607132,0.9021787158832126,,,-10.222724113968033,,,8.532789342214821,8.532789342214821,9.505402452849635,31.42450425894378,34.74773763327431,31.348669317834204,31.348669317834204,1.6809099034847037,9.505402452849635,,19.731420169808484,8.532789342214821
BIIB,2013-12-31,1.8117178612059157,1.3083048919226394,0.3430034129692833,56.70874206578188,280.34382284382286,337.0525649096047,93.58974358974359,-36.881001523961714,0.8762261973456434,0.3625216387766878,0.3579053664166186,0.26860934795152913,0.2422466747279323,0.15695861080670995,0.2160092807424594,0.245522018802573,0.7505038291011689,1.0,0.3579053664166186,0.2733709854168423,0.37621809744779583,0.06426400347372992,,77.7742946708464,,1.3762180974477958,6.436397400185701,3.9,1.3019726858877088,3.9588806396344944,0.5843378572030684,9.853361344537815,-4.890336134453782,5.138655462184874,0.0,0.33830063473744953,-0.4963114579335636,,,-0.66831005984611,,,8.787777262180974,8.787777262180974,10.927674552798614,40.68240601503759,-65.08346077841739,32.301667306298235,32.301667306298235,2.1853008850924116,10.927674552798614,,25.024545581299762,8.787777262180974
BIIB,2012-12-31,1.9577549788774895,1.6059143029571514,0.34459867229933616,63.193437273386515,299.3669724770642,362.56040975045073,136.62385321100916,-73.43041593762266,0.9011965192168238,0.3353879622915156,0.3362944162436548,0.25018129079042783,0.2536679245283019,0.1362290227048371,0.1982189026141913,0.21893072111412723,0.7439353099730458,1.0,0.3362944162436548,0.31283316880552814,0.45518529158287846,0.08981566217806249,,50.821917808219176,,1.4550416546969263,5.775916230366492,2.6715686274509802,1.2192393736017897,3.166475315729047,0.5445212240868706,7.832916666666667,6.744583333333333,7.108333333333333,0.0,0.3408085569253082,0.8610564391722964,,,-7.197166921898928,,,5.346049985636312,5.346049985636312,6.747498187092096,26.9704347826087,22.993266201272625,19.798499920208524,19.798499920208524,1.4609213776211631,6.747498187092096,,16.5738724189334,5.346049985636312
BIIB,2011-12-31,3.258488499452355,2.7426067907995617,0.5640744797371303,58.77302436125965,255.5781584582441,314.3511828195038,145.3747323340471,-86.60170797278747,0.9075064369182017,0.3392751039809863,0.33887898593780946,0.24440483264012675,0.2598059614260666,0.136353591160221,0.19206225680933853,0.21027405677768218,0.7212156633547633,1.0,0.33887898593780946,0.28994475138121545,0.4084046692607004,0.14173123163238044,,51.84848484848485,,1.4085603112840468,6.210332103321033,2.510752688172043,1.4281345565749235,3.213876511775939,0.5579005524861879,7.051836734693878,6.022448979591837,6.90204081632653,0.0,0.3421865715983363,0.8540255831452219,,,-6.850515463917525,,,4.445463035019455,4.445463035019455,5.656981580510992,23.145948136142625,19.35757370382921,16.531863170689356,16.531863170689356,1.2798784150032596,5.656981580510992,,14.05897717766568,4.445463035019455
BIIB,2010-12-31,2.419047619047619,1.9390476190476191,0.7238095238095238,64.08396946564885,263.71250000000003,327.7964694656489,148.7375,-84.65353053435116,0.9151823579304496,0.26039016115351993,0.2608142493638677,0.21310432569974555,269.37642276422764,0.12419673751853683,0.18621456364647027,0.17466628798636752,0.8170731707317073,1.0,0.2608142493638677,0.333168561542264,0.4995367796924217,0.1649388828717314,,,,1.4993514915693904,5.695652173913044,2.4539877300613497,1.3840830449826989,2.8721071863581,0.5827978250123579,6.371372549019608,5.692549019607843,4.737254901960784,0.0,0.3445080576759966,0.8934572536468272,,,-9.385904101675331,,,3.0749305169538634,3.0749305169538634,3.5189567430025446,16.51283582089552,11.43248828878479,10.214439588847172,10.214439588847172,0.9503629526549661,3.5189567430025446,,0.05076027487565513,3.0749305169538634
BIIB,2009-12-31,3.46993006993007,2.8097902097902097,0.813986013986014,62.12588530957277,280.91623036649213,343.0421156760649,113.70418848167539,-51.578303172102615,0.9127256111491889,0.2935800776787754,0.3045464930317569,0.22161297692483437,266.7794448612153,0.11342376052385407,0.155898424943748,0.17009059589128492,0.72768192048012,1.0,0.3045464930317569,0.2724508886810103,0.37447765991642556,0.14790468364831552,,,,1.3744776599164257,5.8751677852349,3.2100840336134455,1.2993197278911566,2.6737935247403786,0.5118101028999065,3.719377162629758,3.1463667820069205,4.373702422145329,0.0,0.24557916381082934,0.8459391571308958,,,-6.490942028985507,,,2.496120218579235,2.496120218579235,3.548288782270962,16.01119587628866,17.08001759595293,14.448655688901294,14.448655688901294,1.044357688005828,3.548288782270962,,0.04489688108342787,2.496120218579235
BIIB,2008-12-31,2.6630552546045503,2.1939328277356447,0.6738894907908992,58.250366032210835,239.7014925373134,297.95185856952423,97.15174129353233,-38.90137526132149,0.9019033674963397,0.28135675939482674,0.28208882381649586,0.1910688140556369,316.4152249134948,0.09234579549475173,0.13486048914915605,0.15299100052938064,0.6773356401384083,1.0,0.28208882381649586,0.31524943979242837,0.46038580778504995,0.15745174865766942,,,,1.46038580778505,6.26605504587156,3.7570093457943927,1.5227272727272727,2.569278996865204,0.48331171128670836,5.296271186440678,4.360677966101695,4.647457627118644,0.0,0.38125915080527084,0.8233486943164362,,,-5.660869565217391,,,2.471882535308302,2.471882535308302,3.5021351878965348,18.329182630906768,11.156522077114428,9.185707885304659,9.185707885304659,1.2203735021819344,3.5021351878965348,,0.04036209620535404,2.471882535308302
BIIB,2007-12-31,1.081772498857926,0.7962539972590224,0.3015075376884422,64.32377049180327,254.955223880597,319.2789943724003,99.14925373134328,-34.825483239540006,0.8940731399747793,0.2380201765447667,0.2686002522068096,0.20113493064312737,319.74530516431923,0.0739367249971028,0.11528731478135164,0.13229813664596274,0.7488262910798122,1.0,0.2686002522068096,0.3586742380345347,0.5592699674737983,0.009308986752595776,,,,1.5592699674737984,5.674418604651163,3.681318681318681,1.4316239316239316,2.1189044756179025,0.3675976358790126,3.18375,2.2959375,3.7,0.0,0.32118537200504416,0.7211425206124853,,,-3.586061246040127,,,3.4694615106613664,3.4694615106613664,6.0529634300126105,30.094043887147336,26.133115557370356,18.845700824499414,18.845700824499414,2.173492686006082,6.0529634300126105,,0.067958805091793,3.4694615106613664
BIIB,2006-12-31,2.9382504288164664,2.3807890222984565,1.1337907375643224,66.11628773760717,225.12773722627736,291.2440249638845,133.21167883211677,-67.09539109450961,0.8978755124860232,0.1494595601938129,0.1833768169959001,0.08125232948192322,0.5659166666666666,0.025488132818893956,0.03048951048951049,0.06173149309912171,0.44308943089430897,1.0,0.1833768169959001,0.1640360107564597,0.19622377622377624,0.013384848902994342,,,,1.1962237762237762,5.520576131687243,2.74,1.621301775147929,2.09609375,0.31369110253712146,2.438550724637681,1.863768115942029,2.6144927536231886,0.0,0.3135669027208349,0.7642933555212171,,,-4.24256177508825,,,2.3184965034965033,2.3184965034965033,6.17862467387253,76.04243119266054,25.78110419906687,19.704326637346963,19.704326637346963,5.92110473773171,6.17862467387253,,13.312967490861142,2.3184965034965033
BIIB,2005-12-31,2.730769230769231,2.12876254180602,0.9498327759197325,63.56995460173339,178.59625668449198,242.16621128622538,97.59358288770053,-34.02362828596714,0.8456458935204292,0.09739991745769706,0.10565414775072225,0.06644655385885266,0.0,0.01920782629444047,0.02331306110628439,0.0328879753340185,0.62890625,1.0,0.10565414775072225,0.17609162491052255,0.21372719374456994,0.006187940710893654,,,,1.21372719374457,5.741706161137441,3.74,2.0437158469945356,2.0638841567291313,0.28907182056788355,2.570809248554913,1.6505780346820809,2.459537572254335,0.0,0.36710689228229465,0.6420460933108488,,,-2.7936557788944723,,,2.241033883579496,2.241033883579496,6.387362773421378,96.12782608695652,27.099597268429342,17.39919055649241,17.39919055649241,7.506765934522074,6.387362773421378,,26.54754971590909,2.241033883579496
BIIB,2004-12-31,1.5313243457573356,1.16812053925456,0.16574147501982553,68.64376130198914,165.37003610108303,234.01379740307218,79.7202166064982,-11.076455304509054,0.7490958408679927,0.019439421338155516,0.028933092224231464,0.011301989150090416,0.0,0.0027274710888064587,0.00366246703779666,0.008096141682479444,0.390625,1.0,0.028933092224231464,0.2551821950687323,0.34266041605625547,0.014722863741339492,,,,1.3428069147377673,5.3173076923076925,4.578512396694215,2.2071713147410357,1.4504918032786884,0.24132664193759545,2.122448979591837,1.0443148688046646,3.0816326530612246,0.0,0.3291139240506329,0.492032967032967,,,-1.9686316928069227,,,3.125490770583065,3.125490770583065,9.64493670886076,853.384,59.560580681183694,29.30576923076923,29.30576923076923,66.06421378111811,9.64493670886076,,45.709732988802756,3.125490770583065
BIIB,2003-12-31,4.54074074074074,2.8444444444444446,0.7777777777777778,169.86745213549338,635.2280701754386,805.095522310932,80.68421052631578,89.1832416091776,0.5802650957290133,-1.281296023564065,-1.2974963181148749,-1.288659793814433,0.0,-0.09206649831649831,-0.12406068339713597,-0.0968238267941532,0.9931895573212258,1.0,-1.2974963181148749,0.25789141414141414,0.34751169715014885,0.11171284634760706,,,,1.3475116971501488,2.1487341772151898,4.523809523809524,0.5745967741935484,0.5418994413407822,0.0714436026936027,0.9550561797752809,-0.7370786516853932,4.696629213483146,0.0,0.2503681885125184,-0.7717647058823529,,,-0.5644090305444888,,,1.0847072167871827,1.0847072167871827,11.26721649484536,-8.74336,-58.31128048780487,45.00258823529411,45.00258823529411,-0.35125783284808265,11.26721649484536,,884.1333333333332,1.0847072167871827
BIIB,2002-12-31,17.464285714285715,15.946428571428571,6.25,94.86386138613861,12410.0,12504.863861386139,1460.0,-1365.1361386138615,0.9975247524752475,0.5297029702970297,0.5742574257425742,0.36633663366336633,0.3596206896551724,0.07184466019417475,0.13333333333333333,0.1157684630738523,0.6379310344827587,1.0,0.5742574257425742,0.46116504854368934,0.8558558558558559,0.4382591093117409,,14.434144217009893,,1.8558558558558558,3.8476190476190477,0.25,0.029411764705882353,1.5245283018867926,0.19611650485436893,1.0927777777777778,0.1711111111111111,4.377777777777778,0.0,0.48688118811881187,0.15658362989323843,,,-1.1856540084388185,,,5.119459459459459,5.119459459459459,14.065841584158417,38.39594594594595,184.5,28.88967971530249,28.88967971530249,1.5598596768615052,14.065841584158417,,24.05308395258144,5.119459459459459
BIIB,2001-12-31,20.852941176470587,20.38235294117647,12.529411764705882,92.25274725274726,,,,,1.0,0.47985347985347987,0.5934065934065934,0.37362637362637363,0.37003086419753084,0.08939526730937773,0.10669456066945607,0.14634146341463414,0.6296296296296297,1.0,0.5934065934065934,0.16213847502191062,0.19351464435146443,0.12454212454212454,,22.179627601314348,,1.1935146443514644,3.9565217391304346,0.0,0.0,2.5045871559633026,0.2392638036809816,0.8524861878453038,0.48011049723756904,3.447513812154696,0.0,0.5652014652014652,0.5631885936487362,,,-2.2893175074183976,,,10.952771966527196,10.952771966527196,38.35476190476191,102.65539215686275,120.49309551208286,67.8603370058328,67.8603370058328,4.193609583224356,38.35476190476191,,57.99434915607608,10.952771966527196
BIIB,2000-12-31,27.434782608695652,27.130434782608695,17.434782608695652,101.25806451612904,0.0,101.25806451612904,365.0,-263.741935483871,0.9870967741935484,0.36129032258064514,0.44516129032258067,0.3096774193548387,0.0,0.056074766355140186,0.06906474820143885,0.08283313325330131,0.6956521739130435,1.0,0.44516129032258067,0.18925233644859812,0.23309352517985613,0.15655339805825244,,,,1.2316546762589928,3.604651162790698,1.0,,3.2291666666666665,0.1810747663551402,0.389937106918239,0.19245283018867926,3.6540880503144653,0.0,0.4,0.4935483870967742,,,-1.9745222929936306,,,14.328302158273381,14.328302158273381,64.24625806451613,207.46187500000002,325.43039215686275,160.61564516129033,160.61564516129033,7.444972154512832,64.24625806451613,,,14.328302158273381
BIIB,1999-12-31,17.4375,16.9375,3.8125,77.33050847457628,52.142857142857146,129.47336561743342,26.071428571428573,51.25907990314771,0.8813559322033898,0.3474576271186441,0.3898305084745763,0.3644067796610169,0.0,0.14006514657980457,0.26875,0.15807560137457044,0.9347826086956522,1.0,0.3898305084745763,0.4788273615635179,0.91875,0.43462897526501765,,,,1.91875,4.72,14.0,7.0,5.619047619047619,0.38436482084690554,0.347682119205298,0.31920529801324504,1.6291390728476822,0.0,0.4449152542372881,0.9180952380952381,,,-12.209302325581396,,,40.3453125,40.3453125,54.70550847457627,150.12209302325581,133.92634854771785,122.95714285714286,122.95714285714286,5.116220020879687,54.70550847457627,,,40.3453125
BIIB,1998-12-31,7.214285714285714,6.714285714285714,1.9285714285714286,83.9080459770115,91.25,175.1580459770115,36.5,47.4080459770115,0.7701149425287356,0.21839080459770116,0.25287356321839083,0.2413793103448276,0.0,0.168,0.19811320754716982,0.1981981981981982,0.9545454545454546,1.0,0.25287356321839083,0.152,0.1792452830188679,0.018518518518518517,,,,1.179245283018868,4.35,10.0,4.0,4.142857142857143,0.696,0.03642857142857143,0.024285714285714285,0.5285714285714286,0.0,0.05862068965517241,0.6666666666666666,,,-3.0,,,11.120754716981132,11.120754716981132,13.549425287356321,56.13333333333333,346.70588235294116,231.13725490196077,231.13725490196077,1.7736851212374267,13.549425287356321,,,11.120754716981132
BIIB,1997-12-31,4.157894736842105,3.8947368421052633,1.8421052631578947,32.44444444444444,76.84210526315789,109.28654970760233,38.421052631578945,-5.976608187134502,0.5777777777777777,-0.4,-0.3333333333333333,-0.35555555555555557,0.0,-0.1509433962264151,-0.19753086419753085,-0.1724137931034483,1.0666666666666667,1.0,-0.3333333333333333,0.2358490566037736,0.30864197530864196,0.047058823529411764,,,,1.308641975308642,11.25,9.5,4.75,1.9565217391304348,0.42452830188679247,-0.025,-0.07767857142857143,0.625,0.0,-0.06222222222222222,3.107142857142857,,,0.4745762711864407,,,9.623703703703704,9.623703703703704,17.322666666666667,-48.720000000000006,-89.6,-278.4,-278.4,-1.2315525763423387,17.322666666666667,,,9.623703703703704
BIIB,1996-12-31,7.0,6.3076923076923075,1.9230769230769231,48.666666666666664,,,,,1.0,-0.16666666666666666,-0.16666666666666666,-0.16666666666666666,0.0,-0.04424778761061947,-0.053763440860215055,-0.05,1.0,1.0,-0.16666666666666666,0.17699115044247787,0.21505376344086022,0.05102040816326531,,,,1.2150537634408602,7.5,0.0,0.0,1.4285714285714286,0.26548672566371684,-0.03838383838383838,-0.10202020202020202,0.7878787878787878,0.0,-0.12666666666666668,2.6578947368421053,,,0.6031746031746031,,,3.832258064516129,3.832258064516129,11.88,-71.28,-35.28712871287129,-93.78947368421053,-93.78947368421053,-1.592687385740402,11.88,,,3.832258064516129
BIIB,1995-12-31,3.0,2.7777777777777777,2.111111111111111,15.208333333333334,,,,,1.0,-0.6666666666666666,-0.7083333333333334,-0.7083333333333334,0.0,-0.3541666666666667,-0.5483870967741935,-0.4358974358974359,1.0,1.0,-0.7083333333333334,0.3333333333333333,0.5161290322580645,0.18421052631578946,,,,1.5483870967741935,24.0,0.0,,1.3333333333333333,0.5,-0.029545454545454545,-0.04431818181818182,0.2727272727272727,0.0,-0.10833333333333334,1.5,,,2.0,,,10.16258064516129,10.16258064516129,13.126666666666669,-18.531764705882352,-80.77948717948718,-121.16923076923078,-121.16923076923078,-0.3680671889583242,13.126666666666669,,,10.16258064516129
BIIB,1994-12-31,2.5555555555555554,2.4444444444444446,1.5555555555555556,52.142857142857146,,,,,1.0,-2.7142857142857144,-2.5714285714285716,-2.5714285714285716,0.0,-0.4,-0.6428571428571429,-0.5,1.0,1.0,-2.5714285714285716,0.4,0.6428571428571429,0.2,,,,1.6071428571428572,7.0,0.0,,0.3684210526315789,0.15555555555555556,-0.28939393939393937,-0.31363636363636366,0.3181818181818182,0.0,-2.7285714285714286,1.0837696335078535,,,11.9375,,,0.99,0.99,3.96,-1.54,-1.3391304347826087,-1.4513089005235602,-1.4513089005235602,-0.02293994176992349,3.96,,,0.99
BIIB,1993-12-31,2.5454545454545454,2.4545454545454546,0.9090909090909091,0.0,,,,,1.0,-0.7692307692307693,-0.6923076923076923,-0.6923076923076923,0.0,-0.17647058823529413,-0.25,-0.225,1.0,1.0,-0.6923076923076923,0.29411764705882354,0.4166666666666667,0.1,,,,1.4166666666666667,,0.0,,0.65,0.2549019607843137,-0.08035714285714286,-0.39285714285714285,0.48214285714285715,0.0,-0.34615384615384615,4.888888888888889,,,0.2571428571428571,,,1.6177777777777778,1.6177777777777778,4.48,-6.471111111111111,-2.6472727272727274,-12.942222222222222,-12.942222222222222,-0.08178893227305441,4.48,,,1.6177777777777778
BIIB,1992-12-31,4.555555555555555,4.333333333333333,0.5555555555555556,0.0,,,,,1.0,-3.2,-2.6,-2.6,0.0,-0.24528301886792453,-0.29545454545454547,-0.29545454545454547,1.0,1.0,-2.6,0.16981132075471697,0.20454545454545456,,,,,1.2045454545454546,,0.0,0.0,1.6666666666666667,0.09433962264150944,-0.1781818181818182,-0.21272727272727274,0.7090909090909091,0.0,-1.96,1.1938775510204083,,,5.157894736842105,,,1.4625,1.4625,12.87,-4.95,-5.499999999999999,-6.566326530612244,-6.566326530612244,-0.06144627259800934,12.87,,,1.4625
BIIB,1991-12-31,21.0,19.5,6.0,0.0,,,,,1.0,-1.1666666666666667,-1.0,-1.0,0.0,-0.10344827586206896,-0.10909090909090909,-0.10714285714285714,1.0,1.0,-1.0,0.06896551724137931,0.07272727272727272,,,,,1.0545454545454545,,0.0,0.0,6.0,0.10344827586206896,-0.15897435897435896,-0.16666666666666666,1.0,0.0,-1.0333333333333334,1.0483870967741935,,,20.666666666666668,,,1.8649090909090906,1.8649090909090906,17.095,-17.095,-15.78,-16.543548387096774,-16.543548387096774,-0.150473965739048,17.095,,,1.8649090909090906
