symbol,date,currentRatio,quickRatio,cashRatio,daysOfSalesOutstanding,daysOfInventoryOutstanding,operatingCycle,daysOfPayablesOutstanding,cashConversionCycle,grossProfitMargin,operatingProfitMargin,pretaxProfitMargin,netProfitMargin,effectiveTaxRate,returnOnAssets,returnOnEquity,returnOnCapitalEmployed,netIncomePerEBT,ebtPerEbit,ebitPerRevenue,debtRatio,debtEquityRatio,longTermDebtToCapitalization,totalDebtToCapitalization,interestCoverage,cashFlowToDebtRatio,companyEquityMultiplier,receivablesTurnover,payablesTurnover,inventoryTurnover,fixedAssetTurnover,assetTurnover,operatingCashFlowPerShare,freeCashFlowPerShare,cashPerShare,payoutRatio,operatingCashFlowSalesRatio,freeCashFlowOperatingCashFlowRatio,cashFlowCoverageRatios,shortTermCoverageRatios,capitalExpenditureCoverageRatio,dividendPaidAndCapexCoverageRatio,dividendPayoutRatio,priceBookValueRatio,priceToBookRatio,priceToSalesRatio,priceEarningsRatio,priceToFreeCashFlowsRatio,priceToOperatingCashFlowsRatio,priceCashFlowRatio,priceEarningsToGrowthRatio,priceSalesRatio,dividendYield,enterpriseValueMultiple,priceFairValue
FAST,2019-12-31,4.511107031393427,1.6829447402239766,0.32109418028272446,50.76344751298348,176.96341766313026,227.72686517611373,24.9696625625377,25.793784950445783,0.47160507715094585,0.19821137296810845,0.19568029697958264,0.148283555505559,0.24221519593752994,0.20813705623832207,0.2967061824729892,0.32062546080117965,0.7577848040624701,1.0,0.19568029697958264,0.2985078554698808,0.4255327130852341,0.113711929777896,,75.0863309352518,,1.425532713085234,7.190212995416554,14.617738589211617,2.0625731850117095,4.211702463676564,1.4036422011105556,1.466989779274876,1.0380515075134789,0.30446957683063464,0.6304210393222911,0.15799538781708758,0.7076065029073217,,,-3.4200487012987013,3.3413957176843776,0.630421039322291,7.788235484768907,7.788235484768907,3.8922925001781126,26.248982814767984,34.81522808686903,24.635481794470156,24.635481794470156,20.053874815743196,3.8922925001781126,0.024016970248752222,17.348437791759928,7.788235484768907
FAST,2018-12-31,5.295381801554641,2.0153177869227252,0.38225880201188844,52.510422750800586,181.87417192736342,234.384594678164,27.536435196009666,24.97398755479092,0.48315240377837304,0.20124468792169342,0.19878753700831805,0.15143703047269944,0.2381965552178318,0.22637362637362637,0.32652972597385677,0.34222114351097394,0.7618034447821682,1.0,0.19878753700831805,0.30672888755080535,0.44243713901072657,0.17751901989498875,,78.33333333333333,,1.4424371390107265,6.9510009799804005,13.255165289256198,2.0068819895206067,5.368836505190312,1.494836670179136,1.173898712111927,0.8669299447649489,0.29112409472725337,0.5877111317994415,0.1357877988358744,0.7385048946900029,,,-3.824163357912649,2.5384036144578315,0.5877111317994413,7.5048661126937946,7.5048661126937946,3.480585526515075,22.983714852639977,34.70868688029725,25.63253514936221,25.63253514936221,17.555704500746543,3.480585526515075,0.02557076328032912,15.478339952276324,7.5048661126937946
FAST,2017-12-31,5.514814814814815,2.0646723646723646,0.33304843304843307,50.52886914929963,179.13175266064934,229.66062180994896,24.17598455251695,26.35288459678268,0.4927912538435258,0.20084272861860836,0.19886117754242114,0.1317845347910261,0.3373038598098729,0.19879745748153238,0.27593113643950595,0.34112131275639773,0.6626961401901271,1.0,0.19886117754242114,0.27953959800721523,0.3880013353044971,0.16421539320020725,,95.94505494505495,,1.388001335304497,7.2235932872655475,15.097627118644068,2.037606368377711,4.913272157564906,1.5085036935234495,1.0147645994964984,0.8068523037349978,0.20271015324870245,0.6379191151054269,0.13328778043503017,0.7951127819548872,,,-4.8807339449541285,2.348314606741573,0.6379191151054269,7.678505566502934,7.678505566502934,3.667249361667236,27.827615489802973,34.60360696840748,27.513770202323997,27.513770202323997,21.342973158287414,3.667249361667236,0.022923958947872598,16.240251904120445,7.678505566502934
FAST,2016-12-31,6.242726125001814,2.221891280056885,0.40898767976085093,46.0360127974607,181.46919603316346,227.50520883062416,19.87228496654665,26.16372783091405,0.49590084491912745,0.2008661708273221,0.1993240344105909,0.12606599233323473,0.3675324066863443,0.18714863590924147,0.25838267564846823,0.32998320268757,0.6324675933136557,1.0,0.1993240344105909,0.27569201209194555,0.38062815362315544,0.16410794374499485,,121.42204797047971,,1.3806281536231555,7.928575430844719,18.367288946109987,2.011360649513741,4.40374481631038,1.4845291140416743,0.8989909565728922,0.5713148914246655,0.1949369984405559,0.6939244571332471,0.131220412939206,0.6355068282361993,,,-2.7435356200527705,3.309357097390197,0.6939244571332471,7.509054269994113,7.509054269994113,3.6636991069742932,29.06175598324651,43.933740178571426,27.9201918734372,27.9201918734372,22.352508132117308,3.6636991069742932,0.023877581847885583,16.420738581011804,7.509054269994113
FAST,2015-12-31,4.461221011560538,1.6008800373024337,0.34574157345524514,44.18418520479884,173.5922271700656,217.77641237486444,23.944836956380225,20.23934824841861,0.5037063341730447,0.21419357606649667,0.2134867092234105,0.1334546508090718,0.3748807534926515,0.2038968403079691,0.2866619404215537,0.38254134680933044,0.6251192465073485,1.0,0.2134867092234105,0.2887202256144416,0.4059165408771163,0.14397128843254023,,265.7722007722008,,1.4059165408771164,8.260874299439552,15.243369610948378,2.102628706079191,4.72492242538366,1.5278361531189806,0.942147906846277,0.676435831355559,0.22088857131273817,0.6334715441328838,0.14222626096903562,0.7179720152644012,,,-3.5457474226804124,3.2012798138452587,0.6334715441328838,6.576048066912084,6.576048066912084,3.061460468672101,22.940080769849,29.98067083371299,21.52528265745957,21.52528265745957,17.820311163894374,3.061460468672101,0.02761418106973184,13.125397548617059,6.576048066912084
FAST,2014-12-31,4.217634523175279,1.535961640916356,0.3050079914757592,45.17650997723317,172.78906377648275,217.96557375371592,20.65437612330483,24.522133853928338,0.5082094549350475,0.21095486808624614,0.2109012990491496,0.1323690906655953,0.3724714249428499,0.20948666864482218,0.2580409356725146,0.3969350204163936,0.6276352552705106,1.0,0.2109012990491496,0.18816497816964098,0.23177736006683375,,,860.5464480874317,,1.2317773600668338,8.079420038952607,17.67179980750722,2.1124022089277497,4.887419819348082,1.5825950574371583,0.8398923646148672,0.5211907164480323,0.1925664312142617,0.6001618777822744,0.1337618856301058,0.6205446535843011,,,-2.6353562005277045,4.662931839402428,0.6001618777822744,6.8922932330827065,6.8922932330827065,3.5355885897950983,26.710076891946578,42.59477250726041,26.43195835002002,26.43195835002002,21.12223928707466,3.5355885897950983,0.022469492701581502,15.198182576286383,6.8922932330827065
FAST,2013-12-31,5.8736447039199335,1.9737281067556296,0.24395329441201,45.464507982321635,178.1269060807867,223.59141406310835,20.740959731125912,24.723548251195723,0.5169417636270708,0.2142749766994378,0.2145154986320315,0.1348726737019332,0.3711730903994394,0.21610945177762791,0.2530603034918486,0.3886165577342048,0.6287316047652418,1.0,0.2145154986320315,0.14601599383370267,0.17098211767360524,,,6314.159292035398,,1.1709821176736053,8.028240405503258,17.59802847754655,2.049100879989797,5.078790655061842,1.602321996338761,0.6988579106483037,0.35203224722875376,0.09909304669129997,0.5294248773963441,0.12510147019031298,0.5037250660898822,,,-2.0150121065375304,13.42258064516129,0.5294248773963441,7.432843684774637,7.432843684774637,3.961456961606686,29.371827909050378,62.86355916030534,31.665950492670028,31.665950492670028,23.258393851640637,3.961456961606686,0.01802492099013054,16.866327652379635,7.432843684774637
FAST,2012-12-31,6.301175318315377,2.2144955925563172,0.38981390793339865,43.35365075312739,171.89190968336516,215.24556043649255,18.74136001579883,24.61229073732856,0.5152221087567016,0.21499234107735513,0.21515190196579015,0.13419070717385753,0.37617769207950164,0.23157836766163675,0.26948218405537044,0.4183420203524448,0.6237021655295165,1.0,0.21515190196579015,0.14070932922127988,0.16374006664957702,,,,,1.1636759805178158,8.419129500268673,19.475641025641025,2.12342745317305,6.068164213787761,1.7257407203436501,0.6668349318525997,0.43395591452128557,0.13461214874642435,0.8734839476813318,0.12646796017360223,0.6507696189755235,,,-2.8634393063583814,1.7313237221494102,0.8734839476813318,9.411146500897205,9.411146500897205,4.686352118968599,34.92307491082045,56.941267933307486,37.05564723694172,37.05564723694172,27.60311666378587,4.686352118968599,0.025011656330717155,20.0565393102899,9.411146500897205
FAST,2011-12-31,6.582002129925453,2.5745473908413206,0.626730564430245,44.666955798908525,176.98131612515945,221.64827192406798,20.212350866661666,24.45460493224686,0.5183418265929379,0.20766923271531318,0.2078499403664751,0.12935053670172394,0.37758998435054775,0.2124161671315805,0.2453050034270048,0.38414267583995726,0.6223265519040166,1.0,0.2078499403664751,0.13413258947118523,0.1549006168608636,,,,,1.1548320767649074,8.17158889545186,18.058265582655828,2.0623645930052614,6.351928374655647,1.6421746097691257,0.4537772519858036,0.2509717762379584,0.24488761196552306,0.5356244761106455,0.09704000867396725,0.553072625698324,,,-2.2375,3.7447698744769875,0.5356244761106455,9.457466758053462,9.457466758053462,4.98696880985941,38.55390891310422,92.91881481481481,51.39085288640596,51.39085288640596,30.339603542869753,4.98696880985941,0.013892870819347456,22.074545947411224,9.457466758053462
FAST,2010-12-31,6.693588162762023,2.7120838471023427,0.8859432799013564,43.43974443710068,185.86789694865703,229.3076413857577,20.174036177599124,23.265708259501555,0.5176470588235295,0.18933685833884115,0.18973342145847102,0.11694205772196518,0.38384579656293544,0.18075325206020568,0.20693957115009748,0.32968379144016535,0.6163492800743149,1.0,0.18973342145847102,0.12654089763672274,0.14487329434697857,,,,,1.1448732943469786,8.402443539429841,18.092561983471075,1.9637603157517043,6.245184369840397,1.5456650548253081,0.4078344921146346,0.28302526708495845,0.28794302187552995,0.6887716654107008,0.105970478078872,0.693970893970894,,,-3.2676630434782608,2.2023809523809526,0.6887716654107009,6.639585185185185,6.639585185185185,3.7520458250716016,32.0846571213263,51.020179748352305,35.40651975051975,35.40651975051975,25.163349254483467,3.7520458250716016,0.02146732199150984,17.755783865412187,6.639585185185185
FAST,2009-12-31,8.220920502092051,3.3765690376569037,1.3799163179916318,40.50303061700254,195.97211954799874,236.47515016500128,20.622557820255572,19.880472796746965,0.509454488939543,0.15324042894886805,0.15412112106926384,0.09552919235352018,0.38027899159663864,0.1389181859273768,0.15485387974470943,0.24629522311449623,0.6198319327731092,1.0,0.15412112106926384,0.10283260509266234,0.1146288209606987,,,,,1.1147127981189116,9.011671335200747,17.699065420560746,1.8625098347757671,5.762089552238806,1.4541961729697153,0.5158409167509269,0.42736771149309066,0.3190091001011122,0.5797180043383948,0.15857638709008962,0.8284874224109768,,,-5.83047619047619,5.626838235294118,0.5797180043383948,5.1675831373866306,5.1675831373866306,3.187876495881469,33.370704989154014,24.264818611987383,20.103097027115318,20.103097027115318,26.3361834559968,3.187876495881469,0.0173720634468709,17.737182088243745,5.1675831373866306
FAST,2008-12-31,6.59054054054054,2.241216216216216,0.5804054054054054,38.19368484019826,186.4828398080232,224.67652464822146,21.120619396903017,17.073065443295242,0.5281575799008716,0.19236028029396685,0.19278755768244746,0.11950948555802426,0.38001329787234045,0.2144774173759681,0.24485686772301496,0.3902776576420725,0.6199024822695035,1.0,0.19278755768244746,0.12414692124837053,0.14173159415214917,,,,,1.141644051475094,9.556553695385873,17.281690140845072,1.957284650833038,7.219000616903147,1.7946476497201136,0.4365865949941206,0.2764992440786158,0.14580883588106838,0.4200929567393636,0.11104939326610835,0.633320507887649,,,-2.7271773347324237,11.707207207207206,0.4200929567393636,4.455760308150224,4.455760308150224,2.1747628610493934,18.19740793707544,30.922326852976912,19.583743747595232,19.583743747595232,14.407390537227037,2.1747628610493934,0.0230853184251294,10.202451973853224,4.455760308150224
FAST,2007-12-31,6.3918722786647315,2.1313497822931784,0.41509433962264153,41.832136967698126,181.6002760796687,223.43241304736682,19.937882074541513,21.894254893156614,0.5080997186924047,0.18255892909108545,0.18328644873411581,0.11281404597924144,0.0,0.19998280457398332,0.2302514353593348,0.3685750512045255,0.6155067478168827,1.0,0.18328644873411581,0.13145903189751526,0.15135616709562463,,,,,1.1513561670956247,8.725349132458739,18.306859205776174,2.0099088386841064,7.45408532176428,1.7726764680594962,0.37844569910328796,0.28578545333776156,0.0953171703752906,0.28460877042132415,0.11053448443107963,0.7551557700745941,,,-4.084229390681004,21.91346153846154,0.28460877042132415,5.949273411205702,5.949273411205702,2.914907362498788,25.83815993121238,34.92130156885532,26.37102237823607,26.37102237823607,20.693895345891868,2.914907362498788,0.011015055684267904,,5.949273411205702
FAST,2006-12-31,7.389797882579403,2.306063522617902,0.18575553416746873,42.263582601005915,184.5846733946989,226.84825599570482,16.758345347676613,25.5052372533293,0.5016857348145691,0.17675344055712153,0.17741668048416515,0.10998728790139833,0.38003426791277256,0.1915303176130895,0.2158117340852402,0.34327879371190245,0.6199376947040498,1.0,0.17741668048416515,0.11251203079884504,0.12677583776163107,,,,,1.126775837761631,8.636276849642005,21.780193236714975,1.9774122807017545,6.853409090909091,1.741385948026949,0.1618984620472962,0.03357036547048123,0.049776748801058375,0.30402010050251255,0.054109324047974354,0.20735444330949948,,,-1.2615979381443299,-5.7251461988304095,0.30402010050251255,5.954534215377941,5.954534215377941,3.034696291383408,27.591336683417083,270.47665024630544,56.08453524004086,56.08453524004086,22.189760995427996,3.034696291383408,0.01101867966713024,15.430103978950397,5.954534215377941
FAST,2005-12-31,7.092896174863388,2.628415300546448,0.614207650273224,43.99264754152169,172.4830109775222,216.47565851904392,18.412179822268687,25.580467719253004,0.49766953325018054,0.17586818092299614,0.17665594433138582,0.10949911376616556,0.3799405425492382,0.18741573033707865,0.21289087428206765,0.33700688791484035,0.6198439241917503,1.0,0.17665594433138582,0.1196629213483146,0.13592852584556478,,,,,1.1359285258455647,8.296840958605664,19.82383419689119,2.1161504424778763,6.788324420677362,1.7115730337078652,0.20115511551155116,0.0924092409240924,0.09389438943894389,0.28117505995203834,0.08002363290225169,0.4593929450369155,,,-1.849772382397572,-6.41578947368421,0.28117505995203834,7.332329291640077,7.332329291640077,3.7713385413247558,34.44172661870503,102.58714285714285,47.12780968006563,47.12780968006563,27.758593338123752,3.7713385413247558,0.008163791062650569,19.08043818046434,7.332329291640077
FAST,2004-12-31,7.557584269662922,2.830056179775281,0.4705056179775281,47.89059345983044,182.6188537935526,230.50944725338303,23.354770433083686,24.535823026746755,0.5040775131207106,0.16729915220024222,0.16818732337505046,0.10577311263625354,0.3713250120019203,0.17008569202804466,0.19140853302162478,0.29799713876967093,0.628900624099856,1.0,0.16818732337505046,0.11152947286419113,0.1255113968439509,,,,,1.125365283459965,7.621538461538462,15.62849872773537,1.9986983403839895,6.4038262668045505,1.6080238898987276,0.09442342490541207,0.007731534791906564,0.06415528869879915,0.23206106870229007,0.04634638675817521,0.08188153310104529,,,-1.0891840607210626,-2.5739910313901344,0.23206106870229007,6.661674459380479,6.661674459380479,3.681267662494953,34.80343511450381,970.0531914893617,79.4294425087108,79.4294425087108,28.1380611864701,3.681267662494953,0.006667763338268355,19.503591944735334,6.661674459380479
FAST,2003-12-31,7.458128078817734,3.2791461412151066,0.8177339901477833,47.252990250276405,168.03419648151808,215.2871867317945,28.931607036963825,18.32138321331258,0.49160719670318626,0.1357925419640165,0.13699869333601367,0.0845311086541361,0.3830961115187087,0.1290867229470453,0.1458297208253858,0.2307822553335591,0.6170212765957447,1.0,0.13699869333601367,0.1148119723714505,0.12970348534766776,,,,,1.1297034853476677,7.724378881987578,12.615960099750623,2.172176899957063,5.866155660377358,1.5270913277052955,0.14923406358095864,0.06654587382638774,0.11678471421512107,0.18906064209274673,0.09106442858578752,0.445916114790287,,,-1.8047808764940239,-2.641399416909621,0.18906064209274676,6.305755158661349,6.305755158661349,3.655170368881295,43.240535077288946,90.01309405940594,40.138289183222966,40.138289183222966,34.91332470464439,3.655170368881295,0.004372301169604313,22.872213294561778,6.305755158661349
FAST,2002-12-31,8.418259023354565,3.3333333333333335,0.3036093418259023,42.571239231278994,173.554704595186,216.125943826465,20.606126914660834,21.96511231661816,0.4953611663353214,0.13165451734040204,0.13386348575215373,0.08338855754362713,0.0,0.13506261180679785,0.15103020604120823,0.2367649931627271,0.6229372937293729,1.0,0.13386348575215373,0.10572450805008944,0.1182236447289458,,,,,1.1182236447289458,8.573863636363637,17.713178294573645,2.103083294983893,6.274428274428274,1.6196779964221826,0.029324546952224053,-0.041021416803953874,0.08467874794069193,0.05033112582781457,0.019659818864590235,-1.398876404494382,,,-0.4168618266978923,-0.45758354755784064,0.05033112582781457,4.96625325065013,4.96625325065013,2.7420256240335763,32.88251655629139,-99.70401606425703,139.47359550561796,139.47359550561796,26.545667708031484,2.7420256240335763,0.0015306348509443615,,4.96625325065013
FAST,2001-12-31,8.403940886699507,4.187192118226601,1.1650246305418719,45.229133569595504,137.31337767923134,182.54251124882683,18.074648928307468,27.154484641288036,0.5039716485396554,0.13613589148234145,0.13882439203226202,0.08566540388610534,0.0,0.14751683501683502,0.1649799952930101,0.26138978370915783,0.6170774647887324,1.0,0.13882439203226202,0.10606060606060606,0.1186161449752883,,,,,1.1183807954812897,8.070019723865878,20.19402985074627,2.658153241650295,6.729440789473684,1.7220117845117846,0.15107084019769357,0.07644151565074135,0.1130148270181219,0.04850213980028531,0.11206159110350727,0.5059978189749182,,,-2.0242825607064017,-2.18854415274463,0.04850213980028531,6.071428571428572,6.071428571428572,3.1525724062079923,36.80099857346648,55.59806034482759,28.13249727371865,28.13249727371865,29.709012015020818,3.1525724062079923,0.0013179571663920922,,6.071428571428572
FAST,2000-12-31,8.01639344262295,3.7923497267759565,0.8934426229508197,51.93308300925305,146.22480403135498,198.15788704060805,20.33454647256439,31.598536536688663,0.5211210942738367,0.17352822851012473,0.17621027222743732,0.1082204639935631,0.0,0.2004968944099379,0.22460339549123295,0.35911451216179285,0.6141552511415526,1.0,0.17621027222743732,0.10732919254658385,0.12023378792095742,,,,,1.1202337879209574,7.028275212064091,17.949748743718594,2.496156533892383,7.0482041587901705,1.8526708074534162,0.06309719934102141,0.0026359143327841844,0.053871499176276774,0.03717472118959108,0.05136113718653614,0.04177545691906005,,,-1.0435967302452316,-1.1364985163204748,0.03717472118959107,6.014249930420262,6.014249930420262,2.8978409548075637,26.77719950433705,1350.575,56.42088772845953,56.42088772845953,21.616917275079917,2.8978409548075637,0.0013882975769579622,,6.014249930420262
FAST,1999-12-31,6.747774480712166,3.335311572700297,0.8249258160237388,50.687787261982926,134.2152466367713,184.90303389875422,24.299758537426698,26.38802872455623,0.5241300065659882,0.17383453709783322,0.17481943532501643,0.10751805646749836,0.0,0.20558694287507848,0.2322695035460993,0.37381537381537383,0.6150234741784038,1.0,0.17481943532501643,0.11519146264908976,0.1301418439716312,,,,,1.1297872340425532,7.200945626477542,15.020725388601036,2.7195121951219514,6.954337899543379,1.9121155053358443,0.09225700164744646,0.027677100494233938,0.045799011532125206,0.022900763358778626,0.09192383453709783,0.3,,,-1.4285714285714286,-1.4854111405835544,0.022900763358778622,6.306773049645391,6.306773049645391,2.919418910045962,27.15282442748092,105.86369047619047,31.759107142857143,31.759107142857143,21.92015484436882,2.919418910045962,0.0008434026235444275,,6.306773049645391
FAST,1998-12-31,5.626623376623376,2.292207792207792,0.06818181818181818,49.69687934804214,143.2181742043551,192.91505355239724,26.59547738693467,23.101401961107467,0.5253428741800835,0.17332538262770822,0.17113893858079904,0.10534684953289604,0.0,0.21098726114649682,0.24356617647058823,0.39065335753176045,0.6155632984901278,1.0,0.17113893858079904,0.1337579617834395,0.15441176470588236,,,,,1.1544117647058822,7.344525547445255,13.724137931034482,2.5485592315901813,6.7803234501347704,2.0027866242038215,0.07133443163097199,0.010049423393739704,0.0034596375617792423,0.01509433962264151,0.08606638839196978,0.14087759815242495,,10.560975609756097,-1.163978494623656,-1.1895604395604396,0.015094339622641508,6.722748161764707,6.722748161764707,2.9077121844563707,27.60132075471698,239.81475409836065,33.78452655889146,33.78452655889146,22.282220638533325,2.9077121844563707,0.0005468701935236897,,6.722748161764707
FAST,1997-12-31,3.8351063829787235,1.5398936170212767,0.010638297872340425,52.732412060301506,153.25753569539924,205.98994775570074,25.092543627710207,27.6398684325913,0.5248743718592965,0.171356783919598,0.16909547738693467,0.10251256281407035,0.0,0.19892735251097027,0.24593128390596744,0.4017910447761194,0.6062407132243685,1.0,0.16909547738693467,0.19161384690394928,0.23688969258589512,,,,,1.2362869198312236,6.921739130434783,14.546153846153846,2.381612090680101,6.970227670753065,1.9405168210628962,0.024217462932454695,-0.023064250411861616,0.0006589785831960461,0.0196078431372549,0.03693467336683417,-0.9523809523809523,,0.901840490797546,-0.5121951219512195,-0.5268817204301075,0.0196078431372549,10.061784207353828,10.061784207353828,4.194095477386934,40.91299019607843,-119.23214285714286,113.55442176870748,113.55442176870748,33.028574343688796,4.194095477386934,0.00047925715141530626,,10.061784207353828
FAST,1996-12-31,4.14,1.68,0.016,52.77719847062913,152.9859050445104,205.7631035151395,27.077151335311573,25.700047135317558,0.5314563781717067,0.18908585331942995,0.18908585331942995,0.1129648939867918,0.0,0.2145214521452145,0.25793650793650796,0.4300395256916996,0.5974264705882353,1.0,0.18908585331942995,0.16897689768976898,0.20317460317460317,,,,,1.2023809523809523,6.915865384615385,13.48,2.3858407079646016,6.553530751708428,1.899009900990099,0.02059308072487644,-0.02257001647446458,0.0006589785831960461,0.024615384615384615,0.04344803614876608,-1.096,,1.4534883720930232,-0.4770992366412214,-0.4921259842519685,0.024615384615384615,10.887460317460317,10.887460317460317,4.768230795968021,42.20984615384615,-100.13284671532845,109.7456,109.7456,34.07551085966832,4.768230795968021,0.0005831668877841116,,10.887460317460317
FAST,1995-12-31,5.406666666666666,2.566666666666667,0.44,52.30682839173405,141.63127413127413,193.93810252300818,27.833011583011583,24.473816808722468,0.5341419586702606,0.20709793351302785,0.20754716981132076,0.12309074573225516,0.0,0.2506861848124428,0.29056203605514314,0.4899257688229056,0.5930735930735931,1.0,0.20754716981132076,0.1372369624885636,0.15906680805938495,,,,,1.159066808059385,6.978056426332288,13.113924050632912,2.5771144278606966,8.214022140221402,2.0365965233302834,0.024546952224052718,-0.0029654036243822075,0.010873146622734762,0.029197080291970802,0.06693620844564241,-0.12080536912751678,,,-0.8922155688622755,-0.9371069182389937,0.029197080291970802,13.774973488865326,13.774973488865326,5.835489667565139,47.408029197080296,-721.6555555555556,87.17986577181209,87.17986577181209,38.27194270864176,5.835489667565139,0.0006158678347626599,,13.774973488865326
FAST,1994-12-31,4.219858156028369,1.8936170212765957,0.2198581560283688,53.20568252007412,148.40131578947367,201.6069983095478,37.46052631578947,15.745156204284648,0.5305744286596664,0.19147621988882027,0.19394688079061148,0.11550339715873996,0.0,0.22860635696821516,0.27662721893491127,0.4638109305760709,0.5955414012738853,1.0,0.19394688079061148,0.17237163814180928,0.20857988165680474,,,,,1.2100591715976332,6.860169491525424,9.743589743589743,2.459546925566343,9.523529411764706,1.9792176039119804,0.018616144975288303,0.005271828665568369,0.005107084019769358,0.0427807486631016,0.06979617047560223,0.2831858407079646,,,-1.3950617283950617,-1.547945205479452,0.0427807486631016,11.942455621301777,11.942455621301777,4.986473131562693,43.1716577540107,252.284375,71.44336283185841,71.44336283185841,34.851970018199886,4.986473131562693,0.0009909452378887912,,11.942455621301777
FAST,1993-12-31,5.324675324675325,2.2987012987012987,0.2597402597402597,51.95376246600181,156.42857142857142,208.38233389457324,31.003861003861005,20.949901462140808,0.5312783318223028,0.18041704442429737,0.18223028105167724,0.10788757932910245,0.0,0.20695652173913043,0.2389558232931727,0.4036144578313253,0.5920398009950248,1.0,0.18223028105167724,0.13391304347826086,0.15461847389558234,,,,,1.1546184738955823,7.025477707006369,11.772727272727273,2.3333333333333335,8.68503937007874,1.9182608695652175,0.007413509060955519,-0.0016474464579901153,0.0032948929159802307,0.05042016806722689,0.04079782411604715,-0.2222222222222222,,,-0.8181818181818182,-0.9183673469387755,0.05042016806722689,12.798192771084338,12.798192771084338,5.77833182230281,53.55882352941177,-637.35,141.63333333333335,141.63333333333335,43.23740641355624,5.77833182230281,0.0009413979759943516,,12.798192771084338
FAST,1992-12-31,5.090909090909091,2.1818181818181817,0.23636363636363636,48.03813038130381,147.5531914893617,195.5913218706655,29.122340425531913,18.915789955771896,0.5375153751537516,0.17712177121771217,0.18081180811808117,0.10824108241082411,0.0,0.20045558086560364,0.22857142857142856,0.3828125,0.5986394557823129,1.0,0.18081180811808117,0.1252847380410023,0.14285714285714285,,,,,1.1402597402597403,7.598130841121495,12.533333333333333,2.473684210526316,8.295918367346939,1.8519362186788155,0.009225700164744647,0.00032948929159802305,0.00214168039538715,0.06818181818181818,0.06888068880688807,0.03571428571428571,,,-1.037037037037037,-1.1666666666666667,0.06818181818181818,11.036363636363635,11.036363636363635,5.226322263222632,48.28409090909091,2124.5,75.87499999999999,75.87499999999999,38.979176994039335,5.226322263222632,0.0014120969639915275,,11.036363636363635
FAST,1991-12-31,6.0256410256410255,2.9743589743589745,0.8717948717948718,48.04173354735153,139.04761904761904,187.08935259497056,29.79591836734694,18.245815180004588,0.5280898876404494,0.1637239165329053,0.17174959871589085,0.10593900481540931,0.0,0.1935483870967742,0.2185430463576159,0.3543046357615894,0.616822429906542,1.0,0.17174959871589085,0.11436950146627566,0.1291390728476821,,,,,1.1291390728476822,7.597560975609756,12.25,2.625,9.88888888888889,1.8269794721407624,0.006589785831960461,0.0,0.005601317957166392,0.07575757575757576,0.06420545746388442,0.0,,,-1.0,-1.1428571428571428,0.07575757575757576,10.25066225165563,10.25066225165563,4.9690208667736755,46.904545454545456,,77.3925,77.3925,37.86548622278107,4.9690208667736755,0.001615143586264819,,10.25066225165563
FAST,1990-12-31,5.882352941176471,3.2941176470588234,1.3529411764705883,46.06118546845124,127.75000000000001,173.81118546845124,27.375000000000004,18.68618546845124,0.5411089866156787,0.18738049713193117,0.19694072657743786,0.12045889101338432,0.0,0.225,0.26359832635983266,0.4186991869918699,0.6116504854368932,1.0,0.19694072657743786,0.14642857142857144,0.17154811715481172,0.028455284552845527,,,,1.1715481171548117,7.924242424242424,13.333333333333334,2.857142857142857,14.135135135135135,1.8678571428571429,0.0069192751235584845,0.003953871499176277,0.007578253706754531,0.0,0.08030592734225621,0.5714285714285714,,,-2.3333333333333335,,,7.873221757322175,7.873221757322175,3.5978967495219885,29.868253968253967,78.40416666666667,44.80238095238095,44.80238095238095,24.112289079305967,3.5978967495219885,,,7.873221757322175
FAST,1989-12-31,4.875,2.6875,1.0,47.83980582524271,126.05670103092784,173.89650685617056,30.103092783505158,17.736713041737556,0.529126213592233,0.16262135922330098,0.16990291262135923,0.10436893203883495,0.0,0.2,0.24571428571428572,0.3825136612021858,0.6142857142857143,1.0,0.16990291262135923,0.18604651162790697,0.22857142857142856,0.04371584699453552,,,,1.2285714285714286,7.62962962962963,12.125,2.8955223880597014,15.846153846153847,1.916279069767442,0.004942339373970346,0.003130148270181219,0.005271828665568369,0.0,0.07281553398058252,0.6333333333333333,,,-2.727272727272727,,,7.977714285714286,7.977714285714286,3.388592233009709,32.467441860465115,73.47894736842105,46.53666666666667,46.53666666666667,26.21058280263642,3.388592233009709,,,7.977714285714286
FAST,1988-12-31,5.041666666666667,2.6666666666666665,0.9583333333333334,49.22697368421052,139.40972222222223,188.63669590643275,32.95138888888889,16.275584795321627,0.5263157894736842,0.1611842105263158,0.16776315789473684,0.10526315789473684,0.0,0.19393939393939394,0.24060150375939848,0.3617021276595745,0.6274509803921569,1.0,0.16776315789473684,0.19393939393939394,0.24060150375939848,0.05673758865248227,,,,1.2406015037593985,7.414634146341464,11.076923076923077,2.618181818181818,13.818181818181818,1.8424242424242425,0.002471169686985173,0.0016474464579901153,0.0037891268533772654,0.0,0.049342105263157895,0.6666666666666666,,,-3.0,,,7.758646616541355,7.758646616541355,3.3944078947368426,32.246875,103.19,68.79333333333334,68.79333333333334,26.03252177816199,3.3944078947368426,,,7.758646616541355
FAST,1987-12-31,5.857142857142857,3.0714285714285716,1.1428571428571428,48.54679802955665,147.5531914893617,196.09998951891833,31.06382978723404,17.482968242322606,0.5369458128078818,0.15270935960591134,0.15270935960591134,0.08374384236453201,0.0,0.13821138211382114,0.17,0.28440366972477066,0.5483870967741935,1.0,0.15270935960591134,0.17886178861788618,0.22,0.08256880733944955,,,,1.23,7.518518518518518,11.75,2.473684210526316,9.666666666666666,1.6504065040650406,-0.0005592841163310962,-0.0018642803877703207,0.002982848620432513,0.0,-0.014778325123152709,3.3333333333333335,,,0.42857142857142855,,,4.2912,4.2912,2.113891625615764,25.242352941176474,-42.912,-143.04,-143.04,18.00771128826581,2.113891625615764,,,4.2912
