symbol,date,currentRatio,quickRatio,cashRatio,daysOfSalesOutstanding,daysOfInventoryOutstanding,operatingCycle,daysOfPayablesOutstanding,cashConversionCycle,grossProfitMargin,operatingProfitMargin,pretaxProfitMargin,netProfitMargin,effectiveTaxRate,returnOnAssets,returnOnEquity,returnOnCapitalEmployed,netIncomePerEBT,ebtPerEbit,ebitPerRevenue,debtRatio,debtEquityRatio,longTermDebtToCapitalization,totalDebtToCapitalization,interestCoverage,cashFlowToDebtRatio,companyEquityMultiplier,receivablesTurnover,payablesTurnover,inventoryTurnover,fixedAssetTurnover,assetTurnover,operatingCashFlowPerShare,freeCashFlowPerShare,cashPerShare,payoutRatio,operatingCashFlowSalesRatio,freeCashFlowOperatingCashFlowRatio,cashFlowCoverageRatios,shortTermCoverageRatios,capitalExpenditureCoverageRatio,dividendPaidAndCapexCoverageRatio,dividendPayoutRatio,priceBookValueRatio,priceToBookRatio,priceToSalesRatio,priceEarningsRatio,priceToFreeCashFlowsRatio,priceToOperatingCashFlowsRatio,priceCashFlowRatio,priceEarningsToGrowthRatio,priceSalesRatio,dividendYield,enterpriseValueMultiple,priceFairValue
JD,2019-12-31,0.9934117795578582,0.5142149967610009,0.2640494686713839,6.595727216839364,42.93733417975689,49.53306139659625,67.25810075006571,-60.662373533226344,0.1463386691560305,0.014283966881890469,0.023735145317964088,0.02112046840581411,-0.01890840934313683,0.046911986901280296,0.14884870339939774,0.11438402315432965,0.8898394394842386,1.0,0.023735145317964088,0.6848344269724415,2.1729353888299165,0.10936816298150781,,131.4807040454768,,3.1729353888299165,55.33885620195584,5.426855589579571,8.500760631107877,16.433707794239606,2.221162239392674,8.351375978163205,7.112001131795008,20.750764881651865,0.0,0.04295669039564326,0.8515963298013577,,,-6.738377822202596,,,1.3952826663956215,1.3952826663956215,0.1979797122835269,9.373831511664125,5.411978891275212,4.608821360772391,4.608821360772391,-11.16343161054935,0.1979797122835269,,4.888301115047408,1.3952826663956215
JD,2018-12-31,0.8675660338775586,0.41819816590017966,0.28348397964405936,11.254675246475768,40.57650883277001,51.83118407924578,73.90995785385594,-62.65528260738017,0.14275067616750997,-0.004095069449183449,-0.005137611441418894,-0.0053929143753351895,2.6119802264671113e-05,-0.011912292704122853,-0.04168633828330016,-0.026881105366914463,1.0496929238085368,1.0,-0.005137611441418894,0.7142398878220733,2.4994387158462352,0.14178338959631537,0.1435942407829344,-19142.564516129034,2.0835901805325903,3.4994387158462352,32.4309668654628,4.938441457668314,8.995352495807184,16.71770749243303,2.208878516336996,7.255777669312987,2.3874563402540074,12.612664164168331,0.0,0.04519595015848662,0.3290421025924384,2.0835901805325903,141.79583604954368,-1.4904064828266974,,,1.1863872792433878,1.1863872792433878,0.15348157877204555,-28.45985826773044,10.320607579101734,3.3959144178590903,3.3959144178590903,32.87189661604321,0.15348157877204555,,15.20987022988382,1.1863872792433878
JD,2017-12-31,0.9727530479522809,0.5195058299101871,0.2172362967971221,27.35568525412763,48.85976236385122,76.21544761797884,87.16414507311163,-59.808459818984,0.14024418903124897,-0.0023058315777645037,0.000333837701677121,-0.00042021434312378814,-0.00017361111111111112,-0.0008272365767082861,-0.0029257228758950617,0.0018381764912332157,-1.258738425925926,1.0,0.000333837701677121,0.7172539533652137,2.536742642034769,0.17347527990423772,0.17609237968773978,817.2972972972973,2.4146098100308424,3.536742642034769,13.34274746215418,4.187501634919323,7.470359705843441,22.97500376330934,1.9686062368999053,9.440551691243853,6.5972853643868365,12.048602930201696,0.0,0.07412192473751555,0.6988241344524223,2.4146098100308424,134.283635,-3.320319170269063,,,2.6928120158266546,2.6928120158266546,0.3867619321396821,-920.3920296117748,7.4667074833405085,5.217915394254854,5.217915394254854,1050.8590892945579,0.3867619321396821,,31.077273754994945,2.6928120158266546
JD,2016-12-31,1.0209266572678588,0.45188287958299883,0.14862517732559985,35.63273769226489,47.33199051971453,82.96472821197942,75.62595542297898,-39.993217730714086,0.13688225349320313,-0.004845922245669128,-0.00728600172735333,-0.01473843656795516,1.3815817091334772e-05,-0.023737023714850477,-0.1123182141392445,-0.033826890999763576,2.0228428594277807,1.0,-0.00728600172735333,0.7886627391936367,3.7317732622466653,0.21256765524686982,0.24549294068663885,-50862.18918918919,0.7472438236594854,4.731773262246665,10.243389187556975,4.826385305924936,7.711486375118149,28.649440432356073,1.6105523544105331,2.937986786493053,1.9148832312109791,7.884801119853094,0.0,0.03190356843427592,0.6517671352418477,0.7472438236594854,4.38717586139704,-2.8716416547717287,,,2.3634498947685207,2.3634498947685207,0.31013274759160486,-21.04244545625054,14.914747559796924,9.72094228990418,9.72094228990418,23.68694560666355,0.31013274759160486,,-195.51559403451574,2.3634498947685207
JD,2015-12-31,1.193640483562859,0.6063640527047333,0.3646952541760355,18.260213579920272,47.16226931361522,65.42248289353549,68.71072578453501,-50.45051220461474,0.12197094270234084,-0.029594735594941073,-0.04284066209940992,-0.05030835335167527,-2.578658097270078e-07,-0.10713315424915085,-0.29781022699743354,-0.21525150686312314,1.1743131615225015,1.0,-0.04284066209940992,0.640263682918874,1.779813859534468,0.0826025478442218,0.15927419515566194,-596613.2307692308,0.2927768269706733,2.779813859534468,19.988813296322554,5.3121255209059655,7.7392374309399194,24.138657921536492,2.129530129921919,0.6202197052736488,-0.6532397697442909,7.54811449274728,0.0,0.009369755024102103,-1.0532393024437576,0.2927768269706733,0.5579622979867502,-0.48703529043585114,,,2.3278572730474445,2.3278572730474445,0.39323923636023184,-7.816579358329107,-39.84754328443503,41.96899869299579,41.96899869299579,8.580160297774862,0.39323923636023184,,-8.957210987438872,2.3278572730474445
JD,2014-12-31,1.722418215074579,1.1068009238111054,0.5833622951184346,9.040931323148907,43.78229378284041,52.82322510598932,59.936257620586964,-50.89532629743806,0.11626612705550968,-0.050454957355337456,-0.04327768457047696,-0.04344571596761829,6.02768636903023e-07,-0.075140918228416,-0.13324308157004466,-0.13272774833966774,1.0038826337131714,1.0,-0.04327768457047696,0.4360613898822574,0.7732426580815486,,,-995406.8,,1.7732426580815486,40.3719469769042,6.089802975530281,8.336703458489295,26.51449887338706,1.7295357333832713,0.5330900217416169,-0.23790534094911564,12.08563983926309,0.0,0.011216304450631199,-0.4462761095618966,,0.6822090036286784,-0.6914309054741409,,,1.6028708714505204,1.6028708714505204,0.5226378119842577,-12.029674280746095,-104.41127509328552,46.596257643028416,46.596257643028416,11.682226441439376,0.5226378119842577,,-13.473719120826177,1.6028708714505204
