symbol,date,currentRatio,quickRatio,cashRatio,daysOfSalesOutstanding,daysOfInventoryOutstanding,operatingCycle,daysOfPayablesOutstanding,cashConversionCycle,grossProfitMargin,operatingProfitMargin,pretaxProfitMargin,netProfitMargin,effectiveTaxRate,returnOnAssets,returnOnEquity,returnOnCapitalEmployed,netIncomePerEBT,ebtPerEbit,ebitPerRevenue,debtRatio,debtEquityRatio,longTermDebtToCapitalization,totalDebtToCapitalization,interestCoverage,cashFlowToDebtRatio,companyEquityMultiplier,receivablesTurnover,payablesTurnover,inventoryTurnover,fixedAssetTurnover,assetTurnover,operatingCashFlowPerShare,freeCashFlowPerShare,cashPerShare,payoutRatio,operatingCashFlowSalesRatio,freeCashFlowOperatingCashFlowRatio,cashFlowCoverageRatios,shortTermCoverageRatios,capitalExpenditureCoverageRatio,dividendPaidAndCapexCoverageRatio,dividendPayoutRatio,priceBookValueRatio,priceToBookRatio,priceToSalesRatio,priceEarningsRatio,priceToFreeCashFlowsRatio,priceToOperatingCashFlowsRatio,priceCashFlowRatio,priceEarningsToGrowthRatio,priceSalesRatio,dividendYield,enterpriseValueMultiple,priceFairValue
LBTYK,2019-12-31,1.22217084730089,1.4939313374176395,0.9411628713443533,,,,,,,,,,-0.3019197207678883,-0.015210210822493169,-0.05482875202116713,-0.014184923876717416,1.3019197207678883,1.0,,0.7308852913591323,2.6346464794943407,0.6411068027749202,0.6744041351584187,-0.6631944444444444,-0.010361223475977574,3.6047332059385564,,0.0,,0.0,0.0,,,,0.0,,1.0,-0.010361223475977574,-0.0753159659530565,,,,,,,,0.0,,,,,,-35.03496503496503,
LBTYK,2018-12-31,0.40183968717555624,0.31212582839289355,0.14365278815458807,40.96593047274187,0.0,40.96593047274187,98.3085856874403,-57.34265521469843,0.7285392920161566,0.07017118390352821,0.013530803903695465,0.060654462740113234,9.723733003708281,0.013645359862737426,0.15493228521382493,0.0037761829745025966,4.482694684796044,1.0,0.013530803903695465,0.911926943800608,10.354210278976375,0.8483580271707795,0.8642545220462441,0.10942043687022385,0.20006911545636333,11.354210278976375,8.909842783697192,3.712798810476953,,0.8615884544164163,0.2249687697540712,,,,0.0,0.4986745164284699,0.7563347923060153,0.20006911545636333,1.6494523124585085,4.103991741225052,,,,,,,0.0,,,,,,5.958453415234449,
LBTYK,2017-12-31,0.4346464909992173,0.3801802163398824,0.16781392361877623,37.36126892995502,0.0,37.36126892995502,110.74650663883574,-73.38523770888072,0.770787233618404,0.12941145199981394,-0.1033962615207756,-0.18460485483988864,-0.19890745501285348,-0.048233582421245626,-0.40824393828067596,-0.032667800382104095,1.7854113110539847,1.0,-0.1033962615207756,0.8818510750597255,7.463894195444526,0.8482872398533035,0.8611788273741888,-0.823454699407282,0.1352247666108412,8.463894195444526,9.769475460919242,3.2958150200649725,,0.7703399981571916,0.2612801405633646,145.57011412533743,95.76491312714236,57.3355250239833,0.0,0.37933005070138015,0.6578610843479022,0.1352247666108412,1.3704566188121188,2.92278941170447,,,0.20313313666421748,0.20313313666421748,0.09185528477164444,-0.4975778391706562,0.3680888840070299,0.2421513523692739,0.2421513523692739,-0.02690253067138103,0.09185528477164444,,6.1006404055469865,0.20313313666421748
LBTYK,2016-12-31,0.7252848973546715,0.4060970090920311,0.16756489900028798,34.778322538083245,0.0,34.778322538083245,92.56936303243455,-57.79104049435131,0.7697912918315941,0.14000339850465796,0.027457918515853025,0.08522749990004398,-2.2167819439388423,0.024828162558729022,0.12391997849040425,0.009317976367549562,3.1039315617036767,1.0,0.027457918515853025,0.7996435856333562,3.991105491486996,0.747706935020506,0.7599214933705513,0.20823226197695574,0.13626439723866873,4.991105491486996,10.495043273013374,3.942989214175655,,0.9478261693399399,0.29131633085386577,,,,0.0,0.2966444764303706,0.554494145396344,0.13626439723866873,2.1388418435371697,2.2446394130771847,,,,,,,0.0,,,,,,4.835991834192589,
LBTYK,2015-12-31,0.36661243298136037,0.3135762565653698,0.10724074296509024,29.30582603938731,,,,,1.0,0.1285120350109409,-0.0374507658643326,-0.06304704595185996,-0.5330119777972538,-0.016981693660560623,-0.10819158123990838,-0.011660844193339044,1.6834647969617296,1.0,-0.0374507658643326,0.8430405262041163,5.371071307874282,0.80692310201951,0.8154140465121115,-0.28041287785696734,0.12125217553918308,6.371071307874282,12.454861347686856,0.0,,0.8430178933776056,0.26934955324516113,-36791.43695392849,-20674.46883966857,-9053.099912950962,-0.00980477223427332,0.3121334792122538,0.5619369764099688,0.12125217553918308,2.24823673115568,2.282776555311062,2.27250278795603,-0.00980477223427332,-0.0004849499971837333,-0.0004849499971837333,-0.0002825974480306346,0.004482326550976139,-0.0016111659389327264,-0.0009053737162185847,-0.0009053737162185847,-9.584194307984757e-07,-0.0002825974480306346,-2.1874292563842954,5.580323423369026,-0.0004849499971837333
LBTYK,2014-12-31,0.4265910797253626,0.33781269381848256,0.12605682077842942,29.992793849290074,,,,,1.0,0.12210452480505034,-0.05786292421759835,-0.03808573949354187,0.07102945354673738,-0.009541211857461158,-0.0472323218593904,-0.016588742466803662,0.6582062695330997,1.0,-0.05786292421759835,0.7979940116883277,3.9503482958986034,0.7519579384585301,0.7582774113530518,-0.4149408574684639,0.12138911154921034,4.950348295898603,12.169589863287763,0.0,,0.7654295613365435,0.2505192753072064,7.013909242210008e-06,3.6536618889496307e-06,2.0092136144830246e-06,-0.01683453237410072,0.30705325975570325,0.5209166190748143,0.12138911154921034,3.6128699464826877,2.0873193264789154,2.0782611920922816,-0.01683453237410072,2475141.690440722,2475141.690440722,1995828.236273516,-52403557.415812954,12477892.4229101,6499941.534121574,6499941.534121574,-57719036796250.2,1995828.236273516,3.212478924001606e-10,4661766.557162789,2475141.690440722
LBTYK,2013-12-31,0.7136014577638943,0.5912664323831837,0.35167252375374203,40.06269776567963,,,,,1.0,0.13901286426883697,-0.03637506736123585,-0.06659435409210872,-0.6752136752136753,-0.014234807123458412,-0.08015267175572519,-0.008770424761749288,1.8307692307692307,1.0,-0.03637506736123585,0.8224038349358999,4.630752216068785,0.7841229151969152,0.788017295932847,-0.23022432113341204,0.087940086300423,5.630752216068785,9.110719456159124,0.0,,0.6037230603673008,0.21375396334304572,1.1694232280180157e-05,4.31264415328395e-06,8.787109138364455e-06,-0.5582529308019504,0.2716074118085974,0.3687838628443517,0.087940086300423,3.8414109829978504,1.584243401168648,1.3019274076036562,-0.5582529308019504,1121810.8945018211,1121810.8945018211,932049.6784001879,-13995926.39807034,9305196.202993516,3431606.2002645438,3431606.2002645438,-6487067888935.648,932049.6784001879,3.988681527211506e-08,2119016.0146862483,1121810.8945018211
