symbol,date,currentRatio,quickRatio,cashRatio,daysOfSalesOutstanding,daysOfInventoryOutstanding,operatingCycle,daysOfPayablesOutstanding,cashConversionCycle,grossProfitMargin,operatingProfitMargin,pretaxProfitMargin,netProfitMargin,effectiveTaxRate,returnOnAssets,returnOnEquity,returnOnCapitalEmployed,netIncomePerEBT,ebtPerEbit,ebitPerRevenue,debtRatio,debtEquityRatio,longTermDebtToCapitalization,totalDebtToCapitalization,interestCoverage,cashFlowToDebtRatio,companyEquityMultiplier,receivablesTurnover,payablesTurnover,inventoryTurnover,fixedAssetTurnover,assetTurnover,operatingCashFlowPerShare,freeCashFlowPerShare,cashPerShare,payoutRatio,operatingCashFlowSalesRatio,freeCashFlowOperatingCashFlowRatio,cashFlowCoverageRatios,shortTermCoverageRatios,capitalExpenditureCoverageRatio,dividendPaidAndCapexCoverageRatio,dividendPayoutRatio,priceBookValueRatio,priceToBookRatio,priceToSalesRatio,priceEarningsRatio,priceToFreeCashFlowsRatio,priceToOperatingCashFlowsRatio,priceCashFlowRatio,priceEarningsToGrowthRatio,priceSalesRatio,dividendYield,enterpriseValueMultiple,priceFairValue
LRCX,2020-06-28,3.4320107688931527,2.7849841989196955,1.5542330894922343,76.20321081609313,127.57602542879076,203.7792362448839,0.0,76.20321081609313,0.4588167374433733,0.26618937521105585,0.256350988219103,0.22417244216274076,0.0,0.15466348861982518,0.4353321627825958,0.22594255043497602,0.8744746557057963,1.0,0.256350988219103,0.6447230371603306,1.8147054399676443,0.490612336383951,,,,2.814705439967644,4.789824419352639,,2.861039123716332,9.374470718124796,0.6899308725358191,14.262868066268696,12.899671339459386,45.00806224428198,0.29170073271802016,0.21169804761419314,0.9044233796123212,,,-10.462809795364079,4.687953456687515,0.2917007327180201,10.057425423087974,10.057425423087974,5.179028364346261,23.102877027973317,27.04952582261862,24.464223561403486,24.464223561403486,1.5717627011132194,5.179028364346261,0.01262616480037635,,10.057425423087974
LRCX,2019-06-30,3.6094739948980665,2.9037695275441147,1.5424784432778866,55.03312612477947,106.16439727295047,161.19752339772992,25.956972483994637,29.076153640784835,0.45148727013529416,0.25533070238654987,0.25343720383332197,0.22700746947317565,0.10428514030453234,0.18259888297408297,0.4688689125595198,0.2540655803519181,0.8957148596954676,1.0,0.25343720383332197,0.6105545109030805,1.5677534545820215,0.4530978676519458,,20.863963910184797,,2.5677534545820215,6.6323690057587585,14.061732362087417,3.4380640720973417,9.11506812063712,0.8043738974662231,19.860632210862022,17.962805240283902,33.96306162648907,0.30954582167808237,0.3289991805094888,0.9044427714873963,,,-10.464933062265438,8.472598884374575,0.30954582167808237,7.230255430997686,7.230255430997686,3.5005988775745815,15.420633011321375,11.764309481354712,10.640144671951909,10.640144671951909,1.1252882948601861,3.5005988775745815,0.02007348345887117,11.836360813959761,7.230255430997686
LRCX,2018-06-24,2.9044496601602128,2.2621696037339842,1.43232249037237,71.73257953102457,115.83272468075764,187.5653042117822,31.547677202473764,40.184902328550805,0.4662844572148519,0.2863036537516753,0.28453458238414414,0.2149211365750901,0.2446572406972675,0.19076767473767733,0.36615434589319257,0.33784238040468767,0.7553427593027325,1.0,0.28453458238414414,0.4789965573880574,0.9193731139024871,0.2247338464134176,,32.363549549734564,,1.9193731139024872,5.0883434331555915,11.569789993013465,3.1510956942950554,12.273042844306168,0.8876170942406405,14.69032868316536,13.177628303702802,27.378804305738402,0.12921050741363502,0.23975331583521095,0.897027465342143,,,-9.711327426509037,77.78989455184534,0.12921050741363502,4.821056492989458,4.821056492989458,2.829809211846025,13.166732955822305,13.157906415624035,11.80300344121635,11.80300344121635,1.0861895279426985,2.829809211846025,0.009813406852494747,8.031804704759043,4.821056492989458
LRCX,2017-06-25,3.099031054721596,2.615003143945236,0.8059123118929262,76.21902086697398,102.03802904181862,178.2570499087926,38.45457105599873,37.76444981097525,0.44965433848872294,0.23283859229661502,0.2260742336172666,0.21185968388818038,0.06287558516354773,0.14004750566393062,0.24903193290278142,0.1975081355987637,0.9371244148364523,1.0,0.2260742336172666,0.43763233882699204,0.7781961322494287,0.2228421417176777,,15.387848879677918,,1.7781961322494286,4.788830869882718,9.491719449125458,3.5770977098196473,11.688562489516405,0.661038962645898,11.042509658812646,10.18590085432878,32.87349404146487,0.1434210782070289,0.25322912741058345,0.9224262571687917,,,-12.89095979519626,23.575468190901063,0.1434210782070289,4.433154591063435,4.433154591063435,3.771430913869138,17.801550746482285,16.14584731895443,14.893353511241909,14.893353511241909,1.4928110780089026,3.771430913869138,0.008056662043073407,13.325562443880818,4.433154591063435
LRCX,2016-06-26,3.8101711261306157,3.3457162223469328,2.0840515111199522,78.26899418660855,108.58606182913775,186.8550560157463,38.90228440962592,39.36670977698263,0.4449489652632149,0.18251368144137176,0.1631217217166537,0.15529487199308584,0.04798165223613372,0.07452915226003246,0.15506766712183542,0.09751069287732599,0.9520183477638663,1.0,0.1631217217166537,0.5193765815701896,1.0806310338913265,0.37822849269603864,,7.123956578839976,,2.0806310338913265,4.663404759358077,9.38248243102364,3.3613890572284912,9.202344248352116,0.47992024014386453,7.70886451738135,6.707888261522388,38.98134837490509,0.20830611925618867,0.22940902935204566,0.870152568695164,,,-7.701346033194548,89.58844214437367,0.20830611925618864,2.7219472604795265,2.7219472604795265,2.725935452785159,17.55328696820411,13.655564378648567,11.882424421063233,11.882424421063233,1.4030182082310014,2.725935452785159,0.011867071941198976,10.527984628239187,2.7219472604795265
LRCX,2015-06-28,2.3831199899975717,1.964788563788853,0.5706320797488448,75.89536996474064,115.73918243374065,191.63455239848128,36.83192570293004,39.063444261810595,0.43434122181760654,0.1498368988187048,0.14086443245808578,0.12465071477029695,0.11510157251805359,0.07000551435569174,0.1284653147157909,0.11002798484603434,0.8848984274819464,1.0,0.14086443245808578,0.45506291320293085,0.8350742209116576,0.19589104512936129,,10.054694497977797,,1.8350742209116575,4.809252529759999,9.909880980536503,3.1536424599245665,8.463404664814988,0.5616134210276778,4.436190820423907,3.316473425313582,23.022279702033693,0.1770333614510576,0.14935470647111257,0.7475948532341697,,,-3.961884346707689,-9.55530009974941,0.1770333614510576,2.6977406967155937,2.6977406967155937,2.617635015758715,20.999759372278163,23.443576965387116,17.526297480722544,17.526297480722544,1.6967753443053977,2.617635015758715,0.008430256666881613,12.365403926213691,2.6977406967155937
LRCX,2014-06-29,3.0240202275600505,2.4443742098609356,0.9184576485461441,63.46103755155199,104.025,167.486037551552,31.446153846153848,32.01488370539814,0.4356414152376818,0.14716735402648143,0.15693509876275233,0.13718254829607118,0.1259668049792531,0.07906918553734518,0.12564612326043736,0.1127749181094993,0.8741355463347165,1.0,0.15693509876275233,0.3708244714124859,0.5892644135188867,0.16597579174266291,,11.719509822991636,,1.589065606361829,5.751560549313358,11.607142857142858,3.508771929824561,8.484346224677717,0.576379331915426,4.097142857142857,3.2657142857142856,17.52,0.0,0.1556327327979162,0.797071129707113,,,-4.927835051546392,,,2.393638170974155,2.393638170974155,2.6134143694378116,19.050632911392405,21.0673665791776,16.792189679218968,16.792189679218968,1.5213174773977134,2.6134143694378116,,10.758857860149703,2.393638170974155
LRCX,2013-06-30,2.702279202279202,2.207977207977208,0.8276353276353277,61.15448735759933,92.9968094804011,154.15129683800043,33.27256153144941,27.881925826149917,0.39038621839399834,0.03278688524590164,0.018616282300639067,0.03167546540705751,-0.7047910447761194,0.01572413793103448,0.0253954110046781,0.011460827916524119,1.7014925373134329,1.0,0.018616282300639067,0.38082758620689655,0.6150590331922478,0.17859103385178407,,1.1091246192557278,,1.6150590331922476,5.96849087893864,10.97,3.924865831842576,5.958609271523179,0.4964137931034483,4.161271676300578,3.231791907514451,14.433526011560694,0.0,0.2000277854959711,0.7766356438394222,,,-4.476990049751244,,,1.914985520160392,1.914985520160392,2.388544040011114,75.4067543859649,15.375371132176712,11.941061258508125,11.941061258508125,5.952902218538547,2.388544040011114,,19.500634148490448,1.914985520160392
LRCX,2012-06-24,3.093903293622985,2.5430974071478625,1.0967063770147163,104.91181988742964,146.32362254591513,251.23544243334476,59.87017099430019,45.041648893129455,0.4075046904315197,0.08930581613508443,0.07654784240150093,0.06341463414634146,0.17497549019607844,0.021111805121798877,0.032930631332813716,0.031012465795074492,0.8284313725490197,1.0,0.07654784240150093,0.35890068707058087,0.5598207326578332,0.1564760026298488,,5.2358708485190695,,1.5598207326578333,3.47911227154047,6.096525096525096,2.494470774091627,4.555555555555555,0.3329169269206746,3.992,3.1336,22.904,0.0,0.1872420262664165,0.7849699398797595,,,-4.650512581547065,,,0.8327650038971162,0.8327650038971162,1.6036585365853657,25.288461538461537,10.910773551187132,8.564629258517034,8.564629258517034,1.4424634564223782,1.6036585365853657,,10.627596477934835,0.8327650038971162
LRCX,2011-06-26,4.8061674008810575,3.983847283406755,2.1908957415565347,66.61982705373687,83.27873563218391,149.89856268592078,34.40229885057472,32.21752820316215,0.46232242124768375,0.24830142063001853,0.2473749227918468,0.22359481161210623,0.0962896379525593,0.1785890478539714,0.2931174089068826,0.23747405870145272,0.9038701622971286,1.0,0.2473749227918468,0.3907252096694623,0.6412955465587045,0.2300498753117207,,148.88475836431226,,1.6412955465587045,5.478849407783418,10.609756097560975,4.38287153652393,11.992592592592592,0.798717316230883,7.048,6.028,16.976,0.0,0.27208153180975914,0.85527809307605,,,-6.909803921568628,,,2.2181174089068825,2.2181174089068825,1.692016676961087,7.567334254143646,7.271068347710684,6.218785471055618,6.218785471055618,0.4316436216388184,1.692016676961087,,5.361065597952135,2.2181174089068825
LRCX,2010-06-27,3.143112701252236,2.373881932021467,0.9767441860465116,85.52014995313964,99.71649484536081,185.23664479850044,37.942439862542955,47.57771009059668,0.45454545454545453,0.1991565135895033,0.2014995313964386,0.1626054358013121,0.19412093023255814,0.1395255327704061,0.19626696832579185,0.22302904564315354,0.8069767441860465,1.0,0.2014995313964386,0.28910333735424204,0.4066742081447964,0.010078387458006719,,-432.5955734406439,,1.4066742081447965,4.268,9.619834710743802,3.660377358490566,10.67,0.8580619219943707,2.73984375,2.46171875,6.4609375,0.0,0.16433926897844423,0.8984887368120901,,,-9.851123595505618,,,3.0870588235294116,3.0870588235294116,2.5576007497656983,15.728876080691643,17.321231355125356,15.562931280296551,15.562931280296551,0.918713414678329,2.5576007497656983,,9.84255647083721,3.0870588235294116
LRCX,2009-06-28,3.238219895287958,2.180628272251309,0.9790575916230366,83.07347670250896,116.98074277854195,200.0542194810509,25.103163686382395,57.97031301612656,0.3485663082437276,-0.2517921146953405,-0.235663082437276,-0.27060931899641577,-0.14849809885931559,-0.15153035624686403,-0.20784583620096353,-0.1632526381129733,1.1482889733840305,1.0,-0.235663082437276,0.2709483191169092,0.3716448726772196,0.02744310575635877,,40.48022164075727,,1.3716448726772195,4.393700787401575,14.54,3.1201716738197427,5.166666666666667,0.559959859508279,-0.6198412698412699,-0.9714285714285714,4.595238095238095,0.0,-0.0699820788530466,1.5672215108834826,,,1.762979683972912,,,2.815705437026841,2.815705437026841,3.6659677419354835,-13.547086092715231,-33.425,-52.38437900128041,-52.38437900128041,-0.7789127864828532,3.6659677419354835,,-19.073192517331332,2.815705437026841
LRCX,2008-06-29,3.006269592476489,2.30564263322884,1.1489028213166144,60.75959595959596,79.0552995391705,139.81489549876648,24.950076804915515,35.809519154680444,0.47393939393939394,0.20565656565656565,0.23313131313131313,0.17737373737373738,0.23852166377816292,0.15639472746704666,0.24676784710511523,0.2660212079299216,0.7608318890814558,1.0,0.23313131313131313,0.3662272889205557,0.5778527262507026,0.13472762645914396,,-45.52627426226921,,1.5778527262507027,6.007281553398058,14.629213483146067,4.617021276595745,10.48728813559322,0.8817242607766299,4.648031496062992,4.043307086614173,8.338582677165354,0.0,0.2385050505050505,0.8698966627138743,,,-7.686197916666667,,,2.255160202360877,2.255160202360877,1.6209818181818183,9.13879271070615,7.812911392405064,6.796425546332373,6.796425546332373,0.5296206925430796,1.6209818181818183,,5.747858654205184,2.255160202360877
LRCX,2007-06-24,2.1040118870728084,1.6062407132243686,0.8528974739970282,58.297623685235685,67.9675118858954,126.26513557113108,34.1283676703645,24.169256014871188,0.5083755356447215,0.3093104791585508,0.33034670821971174,0.26723802103622907,0.19092806603773585,0.3263558515699334,0.5833333333333334,0.5934219734079776,0.8089622641509434,1.0,0.33034670821971174,0.4400570884871551,0.7865646258503401,0.1753155680224404,,-47.59499354549026,,1.7874149659863945,6.260975609756097,10.694915254237289,5.370212765957447,22.517543859649123,1.2212178877259752,5.8,5.377464788732395,4.725352112676056,0.0,0.32084144916244645,0.9271491015055853,,,-13.726666666666667,,,6.88265306122449,6.88265306122449,3.1530970003895598,11.798833819241983,10.599790466212676,9.827586206896552,9.827586206896552,0.7645393201390697,3.1530970003895598,,8.949653877607437,6.88265306122449
LRCX,2006-06-25,3.0035211267605635,2.566901408450704,1.6038732394366197,90.47198538367844,75.68711656441718,166.1591019480956,48.815950920245406,41.65603446343304,0.5036540803897686,0.2466504263093788,0.2679658952496955,0.20401948842874543,0.23984545454545456,0.1439621830683283,0.23775727466288146,0.25014212620807275,0.7613636363636364,1.0,0.2679658952496955,0.3949290932531156,0.652235628105039,0.19897669130187606,,-649.9261447562777,,1.65152590489709,4.034398034398034,7.477064220183486,4.822485207100592,32.84,0.7056295659647615,2.551388888888889,2.259027777777778,7.298611111111111,0.0,0.22375152253349573,0.8854109961894393,,,-8.726840855106888,,,3.9970475514549326,3.9970475514549326,3.4298660170523747,16.811462686567165,17.31275745465724,15.328905824714207,15.328905824714207,1.1046899179374525,3.4298660170523747,,10.979290036916348,3.9970475514549326
LRCX,2005-06-26,3.2849604221635884,2.746701846965699,1.2717678100263852,56.378162450066576,54.33017591339648,110.70833836346306,29.63464140730717,26.743521042759404,0.5079893475366178,0.2583222370173103,0.2636484687083888,0.1977363515312916,0.2519722222222222,0.20496894409937888,0.27835051546391754,0.37009345794392523,0.75,1.0,0.2636484687083888,0.2636300897170462,0.3580131208997188,,,-280.2547770700637,,1.3580131208997188,6.474137931034483,12.316666666666666,6.718181818181818,36.63414634146341,1.0365769496204278,2.999295774647887,2.8387323943661973,5.697183098591549,0.0,0.28355525965379497,0.9464663066447523,,,-18.67982456140351,,,3.7822305529522025,3.7822305529522025,2.6868442077230363,13.588013468013468,10.011510791366907,9.475557642639117,9.475557642639117,0.8804743534851273,2.6868442077230363,,8.44359751751143,3.7822305529522025
LRCX,2004-06-27,2.376657824933687,1.790450928381963,0.4323607427055703,95.92948717948718,78.05940594059406,173.98889312008123,67.21782178217822,28.711665397308963,0.46047008547008544,0.11858974358974358,0.11858974358974358,0.08867521367521368,0.2492072072072072,0.06922435362802336,0.1022167487684729,0.13503649635036497,0.7477477477477478,1.0,0.11858974358974358,0.3219349457881568,0.4753694581280788,0.012165450121654502,,-23.95338800172637,,1.4766009852216748,3.8048780487804876,5.43010752688172,4.675925925925926,22.285714285714285,0.780650542118432,1.083448275862069,0.9179310344827586,2.9586206896551723,0.0,0.16784188034188033,0.8472310630171865,,,-6.545833333333333,,,4.112500000000001,4.112500000000001,3.5676816239316245,40.23313253012048,25.089030803906837,21.25620623806493,21.25620623806493,2.6620992762111815,3.5676816239316245,,23.738340733677028,4.112500000000001
LRCX,2003-06-29,4.023041474654378,2.834101382488479,0.7695852534562212,52.211920529801326,90.6430155210643,142.85493605086563,29.135254988913527,23.0766655408878,0.40264900662251657,-0.006622516556291391,-0.02119205298013245,-0.010596026490066225,0.494125,-0.00667779632721202,-0.012326656394453005,-0.0163098878695209,0.5,1.0,-0.02119205298013245,0.4582637729549249,0.8459167950693375,0.3384301732925586,,2.6246719160104988,,1.8459167950693374,6.9907407407407405,12.527777777777779,4.026785714285714,15.408163265306122,0.6302170283806344,0.5492063492063493,0.4515873015873016,4.023809523809524,0.0,0.09165562913907285,0.8222543352601156,,,-5.626016260162602,,,4.292542372881355,4.292542372881355,3.6898807947019865,-348.2325,48.960632688927944,40.25809248554913,40.25809248554913,-20.02222065044286,3.6898807947019865,,175.66734135016074,4.292542372881355
LRCX,2002-06-30,2.265886287625418,1.6822742474916388,0.28762541806020064,51.092258748674446,97.58493353028065,148.6771922789551,32.348596750369275,18.74366199830517,0.28207847295864263,-0.12725344644750794,-0.1357370095440085,-0.09544008483563096,0.0,-0.05514705882352941,-0.13333333333333333,-0.12379110251450677,0.703125,1.0,-0.1357370095440085,0.5863970588235294,1.4177777777777778,0.34782608695652173,,,,2.417777777777778,7.143939393939394,11.283333333333333,3.7403314917127073,14.074626865671641,0.5778186274509803,0.173015873015873,0.08888888888888889,6.936507936507937,0.0,0.023117709437963947,0.5137614678899083,,,-2.056603773584906,,,2.5125333333333337,2.5125333333333337,1.79847295864263,-18.844,151.425,77.79633027522937,77.79633027522937,-1.0834678725763542,1.79847295864263,,,2.5125333333333337
LRCX,2001-06-24,3.154,2.228,0.444,59.79276315789474,120.12124711316397,179.91401027105871,24.024249422632792,35.76851373526195,0.4296052631578947,0.12302631578947368,0.13289473684210526,0.034210526315789476,0.0,0.027777777777777776,0.07303370786516854,0.14723032069970846,0.25742574257425743,1.0,0.13289473684210526,0.6191239316239316,1.627808988764045,0.48104956268221577,,,,2.6292134831460676,6.104417670682731,15.192982456140351,3.0385964912280703,11.968503937007874,0.811965811965812,1.9795454545454545,1.4916666666666667,6.553030303030303,0.0,0.1719078947368421,0.7535399923459625,,,-4.057453416149069,,,4.516179775280899,4.516179775280899,2.115473684210526,61.83692307692308,16.33072625698324,12.30585533869116,12.30585533869116,3.724724881083971,2.115473684210526,,,4.516179775280899
LRCX,2000-06-25,3.545138888888889,2.4166666666666665,0.24305555555555555,96.06823720552396,120.25399129172715,216.3222284972511,40.79100145137881,55.277235754145146,0.44029244516653127,0.1868399675060926,0.1925264012997563,0.16653127538586515,0.0,0.1646586345381526,0.3228346456692913,0.2476489028213166,0.8649789029535865,1.0,0.1925264012997563,0.4891566265060241,0.9590551181102362,0.33646812957157785,,,,1.9606299212598426,3.799382716049383,8.948051948051948,3.0352422907488985,10.344537815126051,0.9887550200803212,0.8384615384615385,0.486013986013986,2.6013986013986012,0.0,0.09740048740861089,0.5796497080900751,,,-2.378968253968254,,,6.699606299212598,6.699606299212598,3.4559301380991063,20.752439024390245,61.21223021582734,35.481651376146786,35.481651376146786,1.3541836976256623,3.4559301380991063,,,6.699606299212598
LRCX,1999-06-30,3.028688524590164,1.9795081967213115,0.1557377049180328,96.31944444444444,161.8313253012048,258.15076974564926,44.855421686746986,51.46402275769746,0.3595679012345679,-0.1743827160493827,-0.1743827160493827,-0.1743827160493827,0.0,-0.11542390194075587,-0.2762836185819071,-0.15374149659863945,1.0,1.0,-0.1743827160493827,0.5822267620020429,1.3936430317848412,0.44429347826086957,,,,2.393643031784841,3.789473684210526,8.137254901960784,2.255434782608696,6.29126213592233,0.6618998978549541,-0.3234782608695652,-0.6121739130434782,2.7130434782608694,0.0,-0.05740740740740741,1.89247311827957,,,1.1204819277108433,,,5.190464547677262,5.190464547677262,3.27608024691358,-18.786725663716815,-30.154829545454547,-57.06720430107527,-57.06720430107527,-0.9858738135954304,3.27608024691358,,,5.190464547677262
LRCX,1998-06-30,3.0510204081632653,1.9523809523809523,0.047619047619047616,61.00664767331434,118.97492625368731,179.98157392700165,36.607669616519175,24.398978056795166,0.35517568850902187,-0.17188983855650522,-0.16999050332383667,-0.13770180436847104,0.0,-0.1259774109470026,-0.27724665391969405,-0.2088681446907818,0.8100558659217877,1.0,-0.16999050332383667,0.5456125108601216,1.2007648183556405,0.3897316219369895,,,,2.2007648183556405,5.982954545454546,9.970588235294118,3.067873303167421,7.3125,0.9148566463944396,0.44912280701754387,-0.09736842105263158,3.491228070175439,0.0,0.048622981956315287,-0.216796875,,,-0.8218298555377207,,,1.3121988527724664,1.3121988527724664,0.6517378917378918,-4.732965517241379,-61.82702702702703,13.403906249999999,13.403906249999999,-0.2462127783983596,0.6517378917378918,,,1.3121988527724664
LRCX,1997-06-30,2.3548387096774195,1.2551319648093842,0.41348973607038125,78.91891891891892,132.268326417704,211.18724533662294,59.066390041493776,19.852528877425144,0.32618825722274,-0.05684995340167754,-0.05684995340167754,-0.028890959925442685,0.0,-0.02995169082125604,-0.04791344667697063,-0.08789625360230548,0.5081967213114754,1.0,-0.05684995340167754,0.3748792270531401,0.5996908809891809,0.06772334293948126,0.11248285322359397,,0.9878048780487805,1.5996908809891808,4.625,6.17948717948718,2.7595419847328246,5.446700507614213,1.0367149758454106,0.7297297297297297,0.3036036036036036,1.7657657657657657,0.0,0.0754892823858341,0.4160493827160494,0.9878048780487805,2.3142857142857145,-1.7124735729386893,,,3.0349149922720247,3.0349149922720247,1.8300000000000003,-63.341612903225816,58.266765578635024,24.241851851851855,24.241851851851855,-3.2083703482466084,1.8300000000000003,,,3.0349149922720247
LRCX,1996-06-30,2.530944625407166,1.263843648208469,0.20521172638436483,70.37134283570893,170.33333333333331,240.70467616904224,59.77536231884058,10.595980516868352,0.48237059264816207,0.16429107276819205,0.16204051012753187,0.10952738184546136,0.0,0.15067079463364294,0.23934426229508196,0.32628398791540786,0.6759259259259259,1.0,0.16204051012753187,0.3715170278637771,0.5901639344262295,0.07993966817496229,0.11337209302325581,,0.3564102564102564,1.5885245901639344,5.186770428015564,6.106194690265487,2.142857142857143,7.795321637426901,1.3756449948400413,0.27524752475247527,-0.44356435643564357,1.297029702970297,0.0,0.020855213803450862,-1.6115107913669064,0.3564102564102564,1.112,-0.38292011019283745,,,1.3245901639344262,1.3245901639344262,0.6061515378844711,5.534246575342466,-18.035714285714285,29.064748201438846,29.064748201438846,0.25506582647384995,0.6061515378844711,,,1.3245901639344262
LRCX,1995-06-30,2.7830687830687832,1.5714285714285714,0.2328042328042328,88.21208384710233,148.9618138424821,237.1738976895844,72.30310262529832,15.908981221804012,0.4833538840937115,0.14549938347718866,0.15659679408138102,0.10974106041923551,0.0,0.13030746705710103,0.22531645569620254,0.25708502024291496,0.7007874015748031,1.0,0.15659679408138102,0.42020497803806733,0.7265822784810126,0.1955193482688391,,,,1.729113924050633,4.137755102040816,5.048192771084337,2.4502923976608186,6.872881355932203,1.1874084919472914,0.2098901098901099,-0.4868131868131868,1.10989010989011,0.0,0.023551171393341553,-2.319371727748691,,,-0.30126182965299686,,,5.298734177215191,5.298734177215191,2.5807644882860665,23.51685393258427,-47.246049661399546,109.58115183246073,109.58115183246073,0.9765466877176859,2.5807644882860665,,,5.298734177215191
LRCX,1994-06-30,2.365079365079365,1.253968253968254,0.19047619047619047,88.66396761133603,159.17293233082705,247.8368999421631,90.56390977443608,-1.8999421631000502,0.46153846153846156,0.1214574898785425,0.11538461538461539,0.07692307692307693,0.0,0.09973753280839895,0.21468926553672316,0.2235294117647059,0.6666666666666666,1.0,0.11538461538461539,0.5380577427821522,1.1581920903954803,0.30859375,,,,2.152542372881356,4.116666666666666,4.03030303030303,2.293103448275862,7.967741935483871,1.2965879265091864,0.07777777777777778,-0.15679012345679014,0.4691358024691358,0.0,0.012753036437246963,-2.015873015873016,,,-0.33157894736842103,,,4.310847457627119,4.310847457627119,1.544574898785425,20.079473684210527,-60.08031496062992,121.11428571428571,121.11428571428571,0.7421808446635543,1.544574898785425,,,4.310847457627119
LRCX,1993-06-30,3.566666666666667,2.2666666666666666,1.1166666666666667,95.03773584905662,185.10714285714286,280.1448787061995,78.21428571428572,16.823450134770894,0.4716981132075472,0.10566037735849057,0.1018867924528302,0.07169811320754717,0.0,0.07063197026022305,0.14615384615384616,0.1291866028708134,0.7037037037037037,1.0,0.1018867924528302,0.516728624535316,1.0692307692307692,0.37799043062200954,,,,2.0692307692307694,3.8405797101449277,4.666666666666667,1.971830985915493,6.0227272727272725,0.9851301115241635,-0.12837837837837837,-0.3202702702702703,0.9054054054054054,0.0,-0.035849056603773584,2.4947368421052634,,,0.6690140845070423,,,5.282461538461538,5.282461538461538,2.5913962264150943,36.143157894736845,-28.975527426160337,-72.28631578947369,-72.28631578947369,1.2204787212963801,2.5913962264150943,,,5.282461538461538
LRCX,1992-06-30,3.2777777777777777,1.9444444444444444,0.7222222222222222,93.91812865497076,188.94117647058823,282.859305125559,68.70588235294117,25.212246302029584,0.5029239766081871,0.08771929824561403,0.08187134502923976,0.05847953216374269,0.0,0.06369426751592357,0.09345794392523364,0.11570247933884298,0.7142857142857143,1.0,0.08187134502923976,0.3184713375796178,0.4672897196261682,0.11570247933884298,,,,1.4672897196261683,3.8863636363636362,5.3125,1.9318181818181819,5.896551724137931,1.089171974522293,0.04426229508196721,-0.10163934426229508,0.4262295081967213,0.0,0.015789473684210527,-2.2962962962962963,,,-0.30337078651685395,,,1.5221495327102803,1.5221495327102803,0.9524561403508772,16.287,-26.269354838709678,60.32222222222222,60.32222222222222,0.4533601347065614,0.9524561403508772,,,1.5221495327102803
LRCX,1991-06-30,2.5,1.1764705882352942,0.35294117647058826,70.97222222222223,192.10526315789474,263.07748538011697,81.64473684210526,-10.672514619883032,0.4722222222222222,0.0625,0.05555555555555555,0.041666666666666664,0.0,0.05128205128205128,0.09836065573770492,0.0963855421686747,0.75,1.0,0.05555555555555555,0.47863247863247865,0.9180327868852459,0.26506024096385544,,,,1.9180327868852458,5.142857142857143,4.470588235294118,1.9,4.9655172413793105,1.2307692307692308,-0.005454545454545455,-0.24,0.21818181818181817,0.0,-0.0020833333333333333,44.0,,,0.023255813953488372,,,1.9565573770491802,1.9565573770491802,0.8288194444444444,19.891666666666666,-9.041666666666666,-397.8333333333333,-397.8333333333333,0.49923641944605424,0.8288194444444444,,,1.9565573770491802
LRCX,1990-06-30,2.4166666666666665,1.2222222222222223,0.4444444444444444,72.4822695035461,177.69736842105263,250.17963792459875,86.44736842105263,-13.965098917506523,0.46099290780141844,-0.06382978723404255,-0.06382978723404255,-0.06382978723404255,0.0,-0.08490566037735849,-0.16666666666666666,-0.12857142857142856,1.0,1.0,-0.06382978723404255,0.49056603773584906,0.9629629629629629,0.22857142857142856,,,,1.962962962962963,5.035714285714286,4.222222222222222,2.054054054054054,8.8125,1.330188679245283,0.0784313725490196,-0.10588235294117647,0.3137254901960784,0.0,0.028368794326241134,-1.35,,,-0.425531914893617,,,1.0766666666666667,1.0766666666666667,0.41234042553191486,-6.459999999999999,-10.766666666666666,14.534999999999998,14.534999999999998,-0.150340188826474,0.41234042553191486,,,1.0766666666666667
LRCX,1989-06-30,3.076923076923077,1.8076923076923077,0.5769230769230769,90.54263565891473,163.9855072463768,254.52814290529153,52.89855072463768,37.64408493427705,0.46511627906976744,0.09302325581395349,0.09302325581395349,0.06976744186046512,0.0,0.09375,0.15789473684210525,0.17142857142857143,0.75,1.0,0.09302325581395349,0.40625,0.6842105263157895,0.17391304347826086,,,,1.6842105263157894,4.03125,6.9,2.225806451612903,9.923076923076923,1.34375,-0.074,-0.184,0.3,0.0,-0.02868217054263566,2.4864864864864864,,,0.6727272727272727,,,1.6315789473684212,1.6315789473684212,0.7209302325581396,10.333333333333334,-10.108695652173912,-25.135135135135137,-25.135135135135137,0.23576690410675527,0.7209302325581396,,,1.6315789473684212
LRCX,1988-06-30,3.375,2.0,0.75,97.33333333333333,201.71052631578945,299.0438596491228,76.84210526315789,20.49122807017544,0.49333333333333335,0.04,0.05333333333333334,0.04,0.0,0.045454545454545456,0.06382978723404255,0.08,0.75,1.0,0.05333333333333334,0.30303030303030304,0.425531914893617,0.06,,,,1.4042553191489362,3.75,4.75,1.8095238095238095,7.5,1.1363636363636365,-0.17959183673469387,-0.2938775510204082,0.24489795918367346,0.0,-0.11733333333333333,1.6363636363636365,,,1.5714285714285714,,,1.7619148936170212,1.7619148936170212,1.1041333333333334,27.60333333333333,-5.750694444444444,-9.410227272727273,-9.410227272727273,0.6172058123386708,1.1041333333333334,,,1.7619148936170212
LRCX,1987-06-30,4.9,3.5,2.6,93.85714285714286,230.52631578947367,324.38345864661653,57.63157894736842,36.22556390977444,0.45714285714285713,-0.3142857142857143,-0.2571428571428571,-0.2,0.0,-0.12280701754385964,-0.1590909090909091,-0.19148936170212766,0.7777777777777778,1.0,-0.2571428571428571,0.22807017543859648,0.29545454545454547,0.06382978723404255,,,,1.2954545454545454,3.888888888888889,6.333333333333333,1.5833333333333333,5.0,0.6140350877192983,0.03260869565217391,0.008695652173913044,0.5652173913043478,0.0,0.04285714285714286,0.26666666666666666,,,-1.3636363636363635,,,2.028181818181818,2.028181818181818,2.5497142857142854,-12.748571428571427,223.1,59.49333333333333,59.49333333333333,-0.26760347613854224,2.5497142857142854,,,2.028181818181818
LRCX,1986-06-30,8.4,6.6,4.6,77.65957446808511,87.60000000000001,165.25957446808513,29.2,48.45957446808511,0.46808510638297873,-0.1276595744680851,-0.06382978723404255,-0.02127659574468085,0.0,-0.020833333333333332,-0.023809523809523808,-0.06976744186046512,0.3333333333333333,1.0,-0.06382978723404255,0.125,0.14285714285714285,,,,,1.1428571428571428,4.7,12.5,4.166666666666667,11.75,0.9791666666666666,-0.16956521739130434,-0.26304347826086955,0.5,0.0,-0.16595744680851063,1.5512820512820513,,,1.813953488372093,,,1.7085714285714286,1.7085714285714286,1.5268085106382978,-71.76,-5.9305785123966945,-9.200000000000001,-9.200000000000001,-1.5063041028004545,1.5268085106382978,,,1.7085714285714286
LRCX,1985-06-30,5.625,4.625,3.875,64.41176470588235,159.6875,224.09926470588235,22.8125,41.59926470588235,0.5294117647058824,0.11764705882352941,0.23529411764705882,0.14705882352941177,0.0,0.10416666666666667,0.125,0.2,0.625,1.0,0.23529411764705882,0.16666666666666666,0.2,,,,,1.2,5.666666666666667,16.0,2.2857142857142856,11.333333333333334,0.7083333333333334,0.14411764705882352,0.08235294117647059,0.9117647058823529,0.0,0.14411764705882352,0.5714285714285714,,,-2.3333333333333335,,,1.768,1.768,2.08,14.144,25.257142857142856,14.432653061224492,14.432653061224492,0.2194439247432042,2.08,,,1.768
LRCX,1984-06-30,7.4,6.6,5.6,96.05263157894737,182.5,278.5526315789474,73.0,23.05263157894737,0.47368421052631576,0.10526315789473684,0.15789473684210525,0.15789473684210525,0.0,0.07692307692307693,0.08823529411764706,0.08823529411764706,1.0,1.0,0.15789473684210525,0.1282051282051282,0.14705882352941177,,,,,1.1470588235294117,3.8,5.0,2.0,9.5,0.48717948717948717,-0.019230769230769232,-0.08461538461538462,1.0769230769230769,0.0,-0.02631578947368421,4.4,,,0.29411764705882354,,,1.4452941176470588,1.4452941176470588,2.586315789473684,16.38,-22.336363636363636,-98.27999999999999,-98.27999999999999,0.19433885636319662,2.586315789473684,,,1.4452941176470588
