symbol,date,currentRatio,quickRatio,cashRatio,daysOfSalesOutstanding,daysOfInventoryOutstanding,operatingCycle,daysOfPayablesOutstanding,cashConversionCycle,grossProfitMargin,operatingProfitMargin,pretaxProfitMargin,netProfitMargin,effectiveTaxRate,returnOnAssets,returnOnEquity,returnOnCapitalEmployed,netIncomePerEBT,ebtPerEbit,ebitPerRevenue,debtRatio,debtEquityRatio,longTermDebtToCapitalization,totalDebtToCapitalization,interestCoverage,cashFlowToDebtRatio,companyEquityMultiplier,receivablesTurnover,payablesTurnover,inventoryTurnover,fixedAssetTurnover,assetTurnover,operatingCashFlowPerShare,freeCashFlowPerShare,cashPerShare,payoutRatio,operatingCashFlowSalesRatio,freeCashFlowOperatingCashFlowRatio,cashFlowCoverageRatios,shortTermCoverageRatios,capitalExpenditureCoverageRatio,dividendPaidAndCapexCoverageRatio,dividendPayoutRatio,priceBookValueRatio,priceToBookRatio,priceToSalesRatio,priceEarningsRatio,priceToFreeCashFlowsRatio,priceToOperatingCashFlowsRatio,priceCashFlowRatio,priceEarningsToGrowthRatio,priceSalesRatio,dividendYield,enterpriseValueMultiple,priceFairValue
MAR,2019-12-31,0.4683240976486446,0.392391792721282,0.03369776845888872,41.68295823002098,0.0,41.68295823002098,14.801464376232046,26.881493853788932,0.15339500286095747,0.08582872401296968,0.07624451649818806,0.06069998092695022,0.2038774233896185,0.05081633467725839,1.8108108108108107,0.08702514422553609,0.7961225766103814,1.0,0.07624451649818806,0.9719372480140513,34.63442389758179,0.9340896306019126,,4.058375634517766,,35.63442389758179,8.756576200417536,24.65972222222222,,7.511461318051576,0.8371721687756976,5.022354694485842,3.076005961251863,0.6706408345752608,0.4807541241162608,0.08034522220102995,0.6124629080118694,,,-2.580398162327718,-41.09756097560975,0.4807541241162608,68.39332147937411,68.39332147937411,2.292604663360671,37.76944619010212,46.58963662790698,28.534424332344212,28.534424332344212,6.644808178699141,2.292604663360671,0.012728651664536385,24.131262520868113,68.39332147937411
MAR,2018-12-31,0.42038216560509556,0.38045673450365075,0.04909119154885817,37.505780903747954,0.0,37.505780903747954,16.38697026457504,21.118810639172914,0.17699200308314866,0.11398015223046536,0.11296849407457366,0.09186819539454669,0.18678038379530917,0.08047771775827144,0.8570786516853932,0.13587113969523149,0.8132196162046909,1.0,0.11296849407457366,0.9061022957461174,9.649887640449439,0.79281124871962,,6.897058823529412,,10.649887640449439,9.731833098921706,22.273794002607563,,10.612474437627812,0.8760128291694801,6.654432523997741,5.084697910784867,0.8921513269339356,0.2847404299947562,0.11354658444936892,0.7641069155706407,,,-4.239208633093525,-181.30769230769232,0.28474042999475613,18.090466516853933,18.090466516853933,1.9390735138259947,21.107125327739904,22.34941032759578,17.077338990241834,17.077338990241834,3.9203690566782767,1.9390735138259947,0.013490251541764328,16.318385988548332,18.090466516853933
MAR,2017-12-31,0.47184432581367314,0.40571723781642843,0.06595488203891854,35.21147076080579,0.0,35.21147076080579,17.1762125127712,18.035258248034587,0.18643653432427146,0.1224330138861725,0.14580481126540193,0.0713377664776061,0.4909456740442656,0.06118426570494003,0.4073143495254048,0.16530849825378346,0.4892689470154259,1.0,0.14580481126540193,0.8497861276524364,5.657174762702401,0.6863946769392401,,10.354166666666666,,6.657174762702401,10.365940192600101,21.250319284802043,,11.406581148912437,0.8576700494841902,5.862068965517241,5.230323769413004,1.0081600421163464,0.3303632625085675,0.10888910619988265,0.8922317018410417,,,-9.279166666666667,9.202479338842975,0.3303632625085675,15.619171691792296,15.619171691792296,2.7355697731273225,38.34672583961618,28.156956718671367,25.12252941176471,25.12252941176471,7.639182562386043,2.7355697731273225,0.008615162188560769,18.167585386819486,15.619171691792296
MAR,2016-12-31,0.654944627938605,0.4960170973382553,0.1666990479891199,40.15544882196404,0.0,40.15544882196404,19.690223792697292,20.46522502926675,0.17342766275069774,0.09242552086713832,0.08041799182189914,0.05244369442461219,0.32606941081517354,0.033471416735708366,0.1508306888183685,0.06523456010108987,0.6521388216303471,1.0,0.08041799182189914,0.7780861640430821,3.5062535000933357,0.6047661207023757,,5.294871794871795,,4.506253500093336,9.089675516224188,18.53711790393013,,6.598286937901499,0.638235294117647,5.475143726750084,4.802164355765979,2.901589448765641,0.4628712871287129,0.10508210553644447,0.8770846201358864,,,-8.135678391959798,9.251428571428571,0.46287128712871284,4.706250140003734,4.706250140003734,1.6363589277601092,31.202205445544557,17.754494366197182,15.572193946880793,15.572193946880793,4.83822346630704,1.6363589277601092,0.01483456956068493,20.28061183800623,4.706250140003734
MAR,2015-12-31,0.4280853696257346,0.37086297556449116,0.029693782864212804,27.792006074830873,0.0,27.792006074830873,17.50748200275014,10.284524072080732,0.1465552947673616,0.09319342813751208,0.08663537208339087,0.05929863316305398,0.3155378486055777,0.14123643538309766,-0.2392757660167131,0.4405054405054405,0.6844621513944223,1.0,0.08663537208339087,1.5902663597500821,-2.694150417827298,17.543778801843317,,7.514970059880239,,-1.6941504178272981,13.133272892112421,20.84822934232715,,14.077745383867834,2.3817823084511676,5.553519061583578,4.435483870967742,0.3519061583577713,0.29452852153667053,0.10458373602098578,0.7986798679867987,,,-4.967213114754099,-29.134615384615383,0.29452852153667053,-4.6565972144846794,-4.6565972144846794,1.1540234709374568,19.46121536670547,13.815854545454545,11.03444488448845,11.03444488448845,2.7839641069938397,1.1540234709374568,0.015134127853112102,13.086600896860986,-4.6565972144846794
MAR,2014-12-31,0.5299539170506913,0.39631336405529954,0.03423304805793285,29.102638445926356,0.0,29.102638445926356,18.666525781910398,10.436112664015958,0.14250507393447376,0.08400985792983473,0.07886343867787765,0.054581037982023774,0.3079044117647059,0.11020049758524807,-0.3422727272727273,0.2866930171277997,0.6920955882352942,1.0,0.07886343867787765,1.3219669252158641,-4.1059090909090905,2.764234161988773,,9.460869565217392,,-3.105909090909091,12.541818181818181,19.553719008264462,,9.449315068493151,2.01902531830821,4.123989218328841,2.73921832884097,0.3504043126684636,0.2961487383798141,0.08872136851261235,0.6642156862745098,,,-2.978102189781022,-6.51063829787234,0.2961487383798141,-10.050727272727272,-10.050727272727272,1.60275442157147,29.364674634794156,27.197539975399753,18.06503267973856,18.06503267973856,4.570233577140486,1.60275442157147,0.010085204146239982,18.841302738712066,-10.050727272727272
MAR,2013-12-31,0.7114018691588785,0.45121495327102806,0.04710280373831776,30.86397058823529,0.0,30.86397058823529,18.365401987353206,12.498568600882084,0.1340738423028786,0.0779881101376721,0.07016583229036295,0.048967459324155194,0.30211817168338906,0.09214012363850456,-0.44240282685512367,0.2177713037144938,0.6978818283166109,1.0,0.07016583229036295,1.2082720047100384,-5.801413427561838,1.8169745958429562,,7.475,,-4.801413427561838,11.826086956521738,19.874326750448834,,8.285158781594296,1.881660288489844,3.642172523961661,2.351437699680511,0.402555910543131,0.31309904153354634,0.08917396745932415,0.6456140350877193,,,-2.8217821782178216,-5.480769230769231,0.31309904153354634,-10.907441696113075,-10.907441696113075,1.2072927096370465,24.655,20.97014945652174,13.538622807017545,13.538622807017545,4.046678028316728,1.2072927096370465,0.012699210769967403,16.13201923076923,-10.907441696113075
MAR,2012-12-28,0.5319148936170213,0.4024522178146412,0.031734583483591774,31.760622989673266,0.3568286244989735,32.11745161417224,20.303548733991594,11.457074255681672,0.13416285762654478,0.07956661587946504,0.07186389029964449,0.048332486879972915,0.32744405182567726,0.09003468937243772,-0.4443579766536965,0.23788175959652563,0.6725559481743227,1.0,0.07186389029964449,1.2026174708293913,-5.935408560311284,2.0337892196299276,,6.197080291970803,,-4.935408560311284,11.492217898832685,17.977152899824254,1022.9,7.6764132553606235,1.8628192999053925,2.96996996996997,1.6576576576576576,0.26426426426426425,0.3345008756567426,0.08371423734552226,0.5581395348837209,,,-2.263157894736842,-4.020325203252033,0.3345008756567425,-10.251735408560313,-10.251735408560313,1.1150736414423565,23.070893169877408,23.865,13.32,13.32,4.028635252002714,1.1150736414423565,0.014498826430070109,13.80502210433245,-10.251735408560313
MAR,2011-12-30,0.5175918686473807,0.38193901485535575,0.0398749022673964,25.929609482828614,0.37470835277648157,26.304317835605094,18.667288847410173,7.26232063541844,0.13006413899488511,0.041243809369164566,0.02890314199886336,0.016075343021839734,0.4438202247191011,0.03350253807106599,-0.2535211267605634,0.10620525059665871,0.5561797752808989,1.0,0.02890314199886336,1.1321489001692047,-8.567221510883483,1.7545893719806764,,2.1707317073170733,,-7.567221510883483,14.076571428571429,19.552919708029197,974.0909090909091,10.545376712328768,2.08409475465313,3.0082872928176796,2.5027624309392267,0.281767955801105,0.6767676767676768,0.08841438662011854,0.8319559228650137,,,-5.950819672131147,-22.224489795918366,0.6767676767676767,-16.023482714468628,-16.023482714468628,1.0160217585451004,63.20373737373737,13.812737306843268,11.491588613406796,11.491588613406796,11.997772904715745,1.0160217585451004,0.010707716108080809,20.680726744186046,-16.023482714468628
MAR,2010-12-31,1.3522590963614554,0.5769692123150739,0.20191923230707717,29.284920023950047,53.19939310884887,82.48431313279892,22.651722787783868,6.633197236166179,0.12616542639637326,0.06038833290565392,0.0471302711487469,0.03917543409460269,0.16878402903811252,0.05098519425581654,0.2889589905362776,0.08500462820117248,0.8312159709618875,1.0,0.0471302711487469,0.8235556050317266,4.667507886435331,0.6293264733395697,,3.061111111111111,,5.667507886435331,12.463752665245202,16.113564668769715,6.860980523841504,8.944912012241774,1.3014583101413781,3.044973544973545,2.232804232804233,1.335978835978836,0.09388646288209607,0.09845180053032247,0.733275412684622,,,-3.749185667752443,-4.359848484848484,0.09388646288209607,8.676113564668771,8.676113564668771,1.1762586605080834,30.025414847161574,16.293412322274882,11.947558644656821,11.947558644656821,5.951550504576337,1.1762586605080834,0.0031268997734088437,17.533157315731575,8.676113564668771
MAR,2010-01-01,1.2466112811543506,0.41670310450371667,0.050284215128989944,28.040887422075542,54.48774940556187,82.52863682763741,21.206450945931977,6.834436476143566,0.11321965529886321,-0.028694536120278693,-0.03832049871653832,-0.03171983865053172,0.15550239234449761,-0.043615277952855164,-0.30297723292469353,-0.07403471484236628,0.8277511961722488,1.0,-0.03832049871653832,0.8560443716122527,5.946584938704028,0.6617298578199052,,-3.542372881355932,,6.946584938704028,13.016706443914082,17.21174377224199,6.698753462603878,8.008810572687224,1.3750157569645785,2.438202247191011,2.0252808988764044,0.32303370786516855,-0.18208092485549132,0.07957462412907958,0.8306451612903226,,,-5.904761904761905,-10.333333333333334,-0.18208092485549132,7.706059544658493,7.706059544658493,0.8067766776677667,-25.43445086705202,12.205714285714286,10.138617511520737,10.138617511520737,-4.748119826256172,0.8067766776677667,0.007158830587978619,-101.10481481481482,7.706059544658493
MAR,2009-01-02,1.3296486379786814,0.4074220292143703,0.052901697591788394,25.449957294821022,64.238184079602,89.68814137442301,22.82871357498223,2.621243719838791,0.12601910086186816,0.06312601910086187,0.053886171286590574,0.02810777234257318,-0.5043227665706052,0.04066045153319106,0.26231884057971017,0.10894819466248037,0.521613832853026,1.0,0.053886171286590574,0.8449960687408739,5.451449275362319,0.6831228473019518,,4.257668711656442,,6.451449275362319,14.341870824053451,15.988636363636363,5.681978798586573,8.925155925155925,1.4465910367291923,1.7277628032345014,0.7654986522911051,0.3611859838274933,0.31767955801104975,0.04977094494914201,0.44305772230889234,,,-1.7955182072829132,-2.6487603305785123,0.31767955801104975,4.086376811594203,4.086376811594203,0.4378600823045267,15.577900552486186,19.856338028169013,8.797503900156006,8.797503900156006,3.0306245962099503,0.4378600823045267,0.020392963540927792,23.233424657534247,4.086376811594203
MAR,2007-12-28,1.2420027816411683,0.5146036161335188,0.11543810848400557,32.257120862201695,51.50489396411093,83.76201482631262,26.099782490483957,6.157338371717739,0.1505773672055427,0.09361046959199384,0.08752886836027714,0.0535796766743649,-0.38786279683377306,0.07783493625587116,0.48705388383484954,0.18743818001978238,0.6121372031662269,1.0,0.08752886836027714,0.8401923507045403,5.257522743177047,0.6612941455321166,,6.179347826086956,,6.257522743177047,11.315331010452962,13.984790874524714,7.086705202312139,9.774266365688488,1.4526951464996645,1.935323383084577,0.26616915422885573,0.8258706467661692,0.15086206896551724,0.05989222478829869,0.13753213367609254,,,-1.1594634873323397,-1.3745583038869258,0.15086206896551724,8.903638908327501,8.903638908327501,0.9794688221709006,18.280603448275862,118.90934579439252,16.353856041131106,16.353856041131106,3.853593385530622,0.9794688221709006,0.008252575982646011,23.86996855345912,8.903638908327501
MAR,2006-12-29,1.3140364789849326,0.5194290245836638,0.07652656621728787,33.528371710526315,42.10466004583652,75.63303175636284,22.934491978609625,10.59387973191669,0.1388157894736842,0.08314144736842105,0.08199013157894737,0.05,-0.2868605817452357,0.07079646017699115,0.2322383498854087,0.16435872073854269,0.6098294884653962,1.0,0.08199013157894737,0.6951560316721006,2.280366692131398,0.4098286744815149,,8.040322580645162,,3.280366692131398,10.88630259623993,15.914893617021276,8.668874172185431,9.822294022617124,1.415929203539823,2.2298850574712645,1.013793103448276,0.4436781609195402,0.15296052631578946,0.07976973684210527,0.45463917525773195,,,-1.833648393194707,-2.2247706422018347,0.1529605263157895,7.289323911382734,7.289323911382734,1.569362664473684,31.387253289473684,43.27312925170068,19.67365979381443,19.67365979381443,7.159651379612508,1.569362664473684,0.004873332652114791,32.66317034700315,7.289323911382734
MAR,2005-12-30,1.0090361445783131,0.5220883534136547,0.10190763052208836,26.45064935064935,0.0,26.45064935064935,21.0618043350908,5.388845015558548,0.11324675324675325,0.048051948051948054,0.06207792207792208,0.05792207792207792,-0.13110181311018132,0.07842907385697538,0.20571955719557194,0.10966656469868462,0.9330543933054394,1.0,0.06207792207792208,0.6187573270808909,1.6230012300123002,0.34076626799108045,,6.764150943396227,,2.6230012300123002,13.799283154121865,17.32994923857868,,4.933788979068774,1.3540445486518171,1.7922912205567452,0.12205567451820129,0.4346895074946467,0.12556053811659193,0.07246753246753247,0.06810035842293907,,,-1.073076923076923,-1.2025862068965518,0.12556053811659193,4.621174661746617,4.621174661746617,1.3011307359307358,22.463467862481316,263.6501754385965,17.95467144563919,17.95467144563919,5.501017038164013,1.3011307359307358,0.005589543826681555,19.082150289017342,4.621174661746617
MAR,2004-12-31,0.8259762308998302,0.6651103565365025,0.32682512733446517,28.805327260124766,0.0,28.805327260124766,23.078202995008322,5.727124265116444,0.1073373601346668,0.04723239924745024,0.06475888701851669,0.059015744133082484,-0.1529051987767584,0.06875865251499769,0.14604263660867434,0.10361216730038023,0.9113149847094801,1.0,0.06475888701851669,0.5291878172588832,1.123989218328841,0.17002237136465326,,6.606060606060606,,2.123989218328841,12.671267252195735,15.81578947368421,,4.227291753871913,1.165089986155976,1.8333333333333333,1.4609053497942386,1.5843621399176955,0.12248322147651007,0.0882265570848599,0.7968574635241302,,,-4.922651933701657,-8.25,0.12248322147651008,3.5345454545454547,3.5345454545454547,1.4283077532428954,24.20214765100671,20.316169014084508,16.18909090909091,16.18909090909091,6.167930654635167,1.4283077532428954,0.005060841014719422,19.04136662286465,3.5345454545454547
MAR,2004-01-02,0.6977401129943502,0.5242937853107345,0.12937853107344632,28.304304415353894,0.0,28.304304415353894,26.270643332511707,2.033661082842187,0.09984468604393167,0.04182382959840249,0.054138007543820726,0.0556911471045041,0.08811475409836066,0.06139170845053198,0.13079729025534131,0.07616669267988138,1.028688524590164,1.0,0.054138007543820726,0.5306347071052954,1.1305367378843147,0.26601644673933833,,4.4363636363636365,,2.1305367378843147,12.895565092989985,13.893835616438356,,3.586947871070434,1.102360278830867,0.8487903225806451,0.4254032258064516,0.46169354838709675,0.13545816733067728,0.046705125360550256,0.501187648456057,,,-2.0047619047619047,-2.964788732394366,0.13545816733067725,2.6738509640437726,2.6738509640437726,1.1384779232305304,20.442709163346613,48.63620853080569,24.375866983372923,24.375866983372923,5.317033951242748,1.1384779232305304,0.006626233648794024,14.017472392638037,2.6738509640437726
MAR,2003-01-03,0.7902129587675578,0.3271409152695967,0.08971454463072044,22.658452789953795,0.0,22.658452789953795,25.28945645055665,-2.631003660602854,0.09548631678711053,0.052955810922876434,0.055799075938869805,0.03281601705959009,-0.06794055201698514,0.033389585342333654,0.07752588860901204,0.07735260305468879,0.5881104033970276,1.0,0.055799075938869805,0.5693105110896818,1.3218583823117829,0.30296527506827936,,5.476744186046512,,2.321858382311783,16.108778625954198,14.432892249527411,,3.2603321745847818,1.0174783027965284,1.0019417475728156,0.4349514563106796,0.3844660194174757,0.23465703971119134,0.06113019784385736,0.43410852713178294,,,-1.7671232876712328,-2.2731277533039647,0.2346570397111913,2.095745871816401,2.095745871816401,0.8871105319274968,27.032851985559564,33.42901785714286,14.511821705426355,14.511821705426355,7.300429351108115,0.8871105319274968,0.008680439630880998,17.07162162162162,2.095745871816401
MAR,2001-12-28,1.1820199778024418,0.7924528301886793,0.45338512763596006,21.96759259259259,3.7055837563451774,25.67317634893777,26.9040820642978,-4.936489471705208,0.06855791962174941,0.04265169424743893,0.03644602048857368,0.023246650906225373,0.0,0.0259141319863841,0.06785508913168488,0.05065023956194387,0.6378378378378379,1.0,0.03644602048857368,0.6180959701328649,1.6184588844163312,0.44732242173843956,,,,2.6184588844163312,16.615384615384617,13.566714490674318,98.5,3.4648464163822528,1.1147468979905568,0.7707129094412332,-0.30828516377649323,1.5741811175337186,0.2584745762711864,0.039401103230890466,-0.4,,,-0.7142857142857143,-0.8016032064128257,0.2584745762711865,2.7203479010925817,2.7203479010925817,0.9319710401891254,40.09055084745763,-59.1335625,23.653425,23.653425,10.910852590367336,0.9319710401891254,0.006447269264387715,,2.7203479010925817
MAR,2000-12-29,0.7381324986958789,0.5539906103286385,0.17423056859676578,26.52690426275332,3.892798240791644,30.419702503544965,26.487080813633867,0.0398234491194529,0.09204352600579016,0.0800638913846461,0.07557152840171708,0.047818708196066685,0.0,0.05815223989316499,0.14661769207223752,0.11977848101265823,0.6327608982826949,1.0,0.07557152840171708,0.6033750151754279,1.5212733394551576,0.38160136286201024,,,,2.5212733394551576,13.759615384615385,13.780303030303031,93.76288659793815,3.0907127429805614,1.2160980939662498,1.6536964980544746,-0.4766536964980545,0.6498054474708171,0.11482254697286012,0.08485574523310373,-0.28823529411764703,,,-0.776255707762557,-0.8173076923076923,0.11482254697286012,3.392053872053872,3.392053872053872,1.106303284416492,23.13536534446764,-45.232,13.037458823529413,13.037458823529413,6.235751330391382,1.106303284416492,0.004963074724053045,,3.392053872053872
MAR,1999-12-31,0.9179575444635686,0.7051061388410786,0.28055077452667815,30.907426479002172,4.291945884435454,35.199372363437625,28.982172208875966,1.9252542701262065,0.0949765419384369,0.07621009268795056,0.0728916351985353,0.04577182744021055,0.0,0.054614964500273075,0.1375515818431912,0.11413725138864003,0.6279434850863422,1.0,0.0728916351985353,0.6029492080830148,1.5185694635488307,0.3656195462478185,,,,2.5185694635488307,11.80945945945946,12.593949044585987,85.04301075268818,3.0717047451669597,1.193200436919716,1.3021978021978022,-0.3992673992673993,0.8956043956043956,0.13,0.08135942327497425,-0.3066104078762307,,,-0.7653390742734123,-0.8107183580387686,0.13,2.696203576341128,2.696203576341128,0.8971918983865429,19.6014,-35.96587155963303,11.027510548523207,11.027510548523207,5.612147037231254,0.8971918983865429,0.006632179334129195,,2.696203576341128
MAR,1999-01-01,0.9440509915014165,0.7046742209631728,0.2762039660056657,27.71398092369478,3.7852599557522124,31.499240879446994,25.08365597345133,2.630324950243452,0.09236947791164658,0.07856425702811246,0.07931726907630522,0.04894578313253012,0.0,0.0625701909193005,0.1517509727626459,0.13109313420452187,0.6170886075949367,1.0,0.07931726907630522,0.5876784854805069,1.4252918287937744,0.3302058900182434,,,,2.425291828793774,13.170247933884298,14.551307847082494,96.42666666666666,3.5024175824175825,1.278357131397401,1.0960144927536233,-0.6014492753623188,0.7065217391304348,0.09487179487179487,0.07592871485943775,-0.5487603305785124,,,-0.6456776947705443,-0.6722222222222223,0.09487179487179488,3.516046692607004,3.516046692607004,1.134066265060241,23.169846153846155,-27.217590361445783,14.935933884297521,14.935933884297521,6.706740994715825,1.134066265060241,0.004094623427443273,,3.516046692607004
MAR,1998-01-02,0.8340451494813911,0.6180597925564368,0.17632702867602196,29.21291178421402,8.33362831858407,37.54654010279809,54.200884955752215,-24.987973171538197,0.37541454786646034,0.057594516913552954,0.05869997789078046,0.035816935662171125,0.0,0.05830484074140723,0.12529002320185614,0.13552833078101073,0.6101694915254238,1.0,0.05869997789078046,0.5346409933417311,1.148878576952823,0.14029255319148937,,,,2.1488785769528227,12.494475138121548,6.734207389749702,43.798449612403104,5.885491216655823,1.6278567572431168,0.9472727272727273,0.0018181818181818182,0.5254545454545455,0.0,0.057594516913552954,0.0019193857965451055,,,-1.001923076923077,,,3.105181747873163,3.105181747873163,0.8876851647136855,24.78395061728395,8030.0,15.412667946257198,15.412667946257198,7.147966879657143,0.8876851647136855,,,3.105181747873163
MAR,1997-01-03,0.7008547008547008,0.47364672364672367,0.17022792022792022,21.39672492087519,10.071206052514464,31.467930973389656,58.1530930129061,-36.75636809203091,0.38158800055043346,0.059859639466079535,0.059859639466079535,0.03715425897894592,0.0,0.06431634111481659,0.18698060941828254,0.1556907659269864,0.6206896551724138,1.0,0.059859639466079535,0.6560266793711291,1.907202216066482,0.3204705882352941,,,,2.907202216066482,17.058685446009388,6.276536312849162,36.24193548387097,3.9841008771929824,1.7310624106717485,0.9147005444646098,0.38294010889292196,0.4337568058076225,0.0,0.06935461676069905,0.41865079365079366,,,-1.7201365187713311,,,4.258421052631579,4.258421052631579,0.8461758634925004,22.77466666666667,29.14293838862559,12.200714285714286,12.200714285714286,6.580409718580668,0.8461758634925004,,,4.258421052631579
MAR,1995-12-29,0.8075313807531381,0.5205020920502093,0.16569037656903765,24.74180655475619,13.191602444857827,37.93340899961402,61.496146691469576,-36.75434013671338,0.39840127897681854,0.05291766586730615,0.05771382893685052,0.03501199040767386,0.0,0.06888958792072979,0.1750599520383693,0.1819556451612903,0.6066481994459834,1.0,0.05771382893685052,0.6064800251651463,1.5411670663469224,0.12578616352201258,,,,2.5411670663469224,14.752358490566039,5.935331230283912,27.669117647058822,6.3567073170731705,1.9675998741742686,0.5262172284644194,0.2883895131086142,0.3707865168539326,0.0,0.04492406075139888,0.5480427046263345,,,-2.2125984251968505,,,3.7307434052757795,3.7307434052757795,0.7461486810551559,21.311232876712328,30.306233766233767,16.6091103202847,16.6091103202847,5.967592216132346,0.7461486810551559,,,3.7307434052757795
