symbol,date,currentRatio,quickRatio,cashRatio,daysOfSalesOutstanding,daysOfInventoryOutstanding,operatingCycle,daysOfPayablesOutstanding,cashConversionCycle,grossProfitMargin,operatingProfitMargin,pretaxProfitMargin,netProfitMargin,effectiveTaxRate,returnOnAssets,returnOnEquity,returnOnCapitalEmployed,netIncomePerEBT,ebtPerEbit,ebitPerRevenue,debtRatio,debtEquityRatio,longTermDebtToCapitalization,totalDebtToCapitalization,interestCoverage,cashFlowToDebtRatio,companyEquityMultiplier,receivablesTurnover,payablesTurnover,inventoryTurnover,fixedAssetTurnover,assetTurnover,operatingCashFlowPerShare,freeCashFlowPerShare,cashPerShare,payoutRatio,operatingCashFlowSalesRatio,freeCashFlowOperatingCashFlowRatio,cashFlowCoverageRatios,shortTermCoverageRatios,capitalExpenditureCoverageRatio,dividendPaidAndCapexCoverageRatio,dividendPayoutRatio,priceBookValueRatio,priceToBookRatio,priceToSalesRatio,priceEarningsRatio,priceToFreeCashFlowsRatio,priceToOperatingCashFlowsRatio,priceCashFlowRatio,priceEarningsToGrowthRatio,priceSalesRatio,dividendYield,enterpriseValueMultiple,priceFairValue
MNST,2019-12-31,3.5037354578828825,2.830673864803501,1.2070195447869223,46.94809512145132,75.42635798798604,122.37445310943735,57.3009147392867,-10.352819617835387,0.5844538886345734,0.3339679714836559,0.33706808124796617,0.2637188129267174,0.2176096533664039,0.2150988903282727,0.2655862791310391,0.31541135444522533,0.7823903466335961,1.0,0.33706808124796617,0.19009788068854322,0.23471710488936132,,,,,1.2347171048893613,7.774543334628838,6.369880858983014,4.839157155886242,12.730448933578195,0.8156372612978686,2.037588180194948,1.8516029769048385,2.435054005795744,0.0,0.26512972827441506,0.9087228689791894,,,-10.955646708177177,,,8.781044019810702,8.781044019810702,8.719300231692916,33.062867737524094,36.19026369897866,32.8869202576493,32.8869202576493,18.199753483644145,8.719300231692916,,24.196938010880782,8.781044019810702
MNST,2018-12-31,3.0012226667442965,2.3999617396801103,1.0604978832062149,46.455641874845526,64.60692723856337,111.0625691134089,57.87299191539593,-11.417350040550403,0.587908435186856,0.33715715793015466,0.339692628381667,0.26082381645431807,0.23217698983663143,0.21935672849202686,0.275001723946461,0.3294334376192449,0.7678230101633686,1.0,0.339692628381667,0.2023441695415242,0.25367352912749475,,,,,1.2536735291274947,7.856957417213896,6.306914294902717,5.649548981833241,15.664132219163879,0.8410149482282653,2.059145349434829,1.9493703190407157,1.6981058175927863,0.0,0.30518128495530683,0.9466890326978409,,,-18.757866356694272,,,8.78516466665799,8.78516466665799,8.332239317101385,31.945853068064178,28.84008207720421,27.30258940459479,27.30258940459479,18.15257076211927,8.332239317101385,,23.021532204012438,8.78516466665799
MNST,2017-12-31,3.7233394782912854,2.9464228670958024,0.9433765621904842,48.69591827951245,72.71963650669377,121.41555478620623,69.923110181474,-21.227191901961554,0.6189854988579849,0.35582397979249314,0.35666576136560957,0.2435936593307599,0.31702538982692574,0.17129533384595988,0.21068891757367764,0.2840272477515925,0.6829746101730743,1.0,0.35666576136560957,0.18697511089515118,0.2299746457959156,,,,,1.2299746457959155,7.495494753891197,5.220019519336343,5.019277014213377,14.630465180913339,0.7032011190955063,1.7114206060564057,1.5668545468091852,2.081908926934666,0.0,0.2931783339195529,0.9155286206467146,,,-11.838329238329239,,,10.060524022825973,10.060524022825973,11.63174546496114,47.750608521247074,43.33522861983244,39.674642083725224,39.674642083725224,27.75299389787056,11.63174546496114,,30.914788286379157,10.060524022825973
MNST,2016-12-31,3.043568804200693,2.2231437623913863,0.8023604461642749,53.62989126032623,51.26584622001695,104.89573748034317,61.17237097346238,-7.542479713136146,0.6218286721324539,0.3559193583772246,0.3540655468153826,0.2337137259775962,0.3399139563854272,0.17158781173625626,0.214038223760695,0.29316307174652895,0.6600860436145728,1.0,0.3540655468153826,0.19833098630037382,0.2473975954054844,,,,,1.2473975954054843,6.805906024091008,5.966746003000983,7.119749831760006,17.591670849125723,0.7341794369095149,1.169277732115855,1.0028625301966092,0.9971941535696602,0.0,0.22999823243511086,0.8576769253801569,,,-7.026267544255102,,,7.643406727134413,7.643406727134413,8.346028265297388,35.71047541340143,42.3088895261464,36.28735828503397,36.28735828503397,21.57073048244623,8.346028265297388,,22.375784825038153,7.643406727134413
MNST,2015-12-31,8.773418934037249,7.977493254557287,5.302312827674961,47.318841724198215,50.744472435868325,98.06331416006654,47.052747953405415,0.26609377079279994,0.587534765022971,0.32823948307551265,0.32746631484145095,0.20081548128896143,0.38675988281057216,0.09813423385697749,0.11367984846374088,0.172747142026739,0.6132401171894278,1.0,0.32746631484145095,0.13674907925059193,0.1584117386540137,,,,,1.1584117386540136,7.713629216189033,7.75725150763662,7.1929016596101745,27.965610041703474,0.4886786278980564,0.9047348035558754,0.8431092720973267,5.0540153278559625,0.0,0.19199658850994872,0.9318855301947685,,,-14.681168375228198,,,5.4071388668880385,5.4071388668880385,9.551712186674033,47.56462064261714,53.38572530228815,49.74938492815506,49.74938492815506,27.67472740970279,9.551712186674033,,25.834262861770494,5.4071388668880385
MNST,2014-12-31,4.647398486432997,4.0262793914246195,1.041063657524542,41.57448454622501,56.636370423898526,98.21085497012353,41.41031521069599,0.16416933552901725,0.5435627966945072,0.3032638272166409,0.3025672379077654,0.19602883238730529,0.35211481010689366,0.24920894848816968,0.3189024189024189,0.471075867932406,0.6478851898931064,1.0,0.3025672379077654,0.21854168009799496,0.27965877965877967,,,,,1.2796587796587797,8.779423340635073,8.814228970315181,6.444622020587376,27.340021740094947,1.2712872155244666,1.1427356025911553,1.0892758089480241,2.202227161166953,0.0,0.24240293695359627,0.9532177053712942,,,-21.37560818546079,,,13.451534016698016,13.451534016698016,8.268637522998198,42.180721184225504,35.785243443205815,34.1111276410858,34.1111276410858,22.210002759253758,8.268637522998198,,25.93953477254844,13.451534016698016
MNST,2014-03-31,3.562918347065721,2.8737899812286063,0.8203151701256158,,,,,,,,,,,0.0,0.0,0.0,,,,0.3080209816495281,0.44513052199730485,,,,,1.445130521997305,0.0,0.0,0.0,0.0,0.0,0.0,0.0,4.496557009927787,,,,,,,,,3.3803264999646334,3.3803264999646334,,,,,,,,,,3.3803264999646334
MNST,2013-12-31,3.7436708860759493,2.864240506329114,0.6686708860759494,47.37980769230769,75.27806241266885,122.65787010497654,40.59711224965068,6.782695442657015,0.5221242877492878,0.2550302706552707,0.2510238603988604,0.15077457264957264,0.39942010994857247,0.23843717001055967,0.34132822735059964,0.5105477591670439,0.6006384110657919,1.0,0.2510238603988604,0.30144315381907777,0.4315227249823642,,,,,1.431522724982364,7.703703703703703,8.990787269681743,4.848690153568202,25.498297389330308,1.581414994720169,0.657439446366782,0.5790080738177624,1.179354094579008,0.0,0.15224358974358973,0.8807017543859649,,,-8.382352941176471,,,11.999776277335483,11.999776277335483,5.300649038461538,35.15612046058459,39.53312749003984,34.81689473684211,34.81689473684211,18.417059612646177,5.300649038461538,,19.937640739610625,11.999776277335483
MNST,2012-12-31,2.8946273830155977,1.925476603119584,0.7712305025996534,41.80132964526617,74.50402010050252,116.3053497457687,46.697989949748745,-4.896660304482573,0.5171543650215946,0.2675789780171786,0.26651137962828164,0.16499247828407823,0.3807975236707939,0.3258890060385316,0.5276225946617008,0.7276099629040805,0.6190823015294975,1.0,0.26651137962828164,0.38234448384932423,0.6190254500310366,,,,,1.6190254500310366,8.73177966101695,7.8161822466614295,4.899064500246184,29.821997105643995,1.9751749257164766,0.5237575095576188,0.4456581103222283,0.5816493719279082,0.0,0.13961275294802736,0.8508863399374348,,,-6.706293706293707,,,13.689878957169459,13.689878957169459,4.280952103654098,25.946347058823527,36.036593137254904,30.663044838373303,30.663044838373303,14.352740209920366,4.280952103654098,,15.096110836080712,13.689878957169459
MNST,2011-12-31,4.4445697106351,3.715520481022172,1.3502442690717775,46.73937294504462,70.21139819507974,116.95077114012436,51.169489430090245,-4.430116485045623,0.5250704556129638,0.2679661813057774,0.2684945984030061,0.16803663691874118,0.3740454843647496,0.21007046388725778,0.2922794117647059,0.4171303475326097,0.6258473649682922,1.0,0.2684945984030061,0.28126834997064004,0.39133986928104575,,,,,1.3913398692810457,7.809261806510775,7.1331569664903,5.198586118251928,37.68141592920354,1.2501467997651203,0.5960714285714286,0.5503571428571429,1.3760714285714286,0.0,0.19598403006106152,0.9233073696824445,,,-13.0390625,,,10.05392156862745,10.05392156862745,5.780178487552841,34.39832285115303,31.94289422452952,29.493109646494904,29.493109646494904,19.398774623914605,5.780178487552841,,19.996795621807475,10.05392156862745
MNST,2010-12-31,4.971605575632421,3.951471347444502,1.8316985028394424,46.46828744535624,89.65528298861632,136.12357043397256,52.84511784511785,-6.376830399761609,0.5216657719150242,0.26673824679806735,0.26788864176700666,0.1625891556100928,0.39299456054967075,0.18482999128160418,0.2559150169000483,0.36641141298646807,0.6069281419982823,1.0,0.26788864176700666,0.27776809067131647,0.3845968131337518,,,,,1.3845968131337518,7.854819277108434,6.906976744186046,4.071148825065274,37.6849710982659,1.1367916303400174,0.41032073105178285,0.38792331123454576,1.0740010750761513,0.0,0.17562696525807195,0.9454148471615721,,,-18.32,,,6.191379768227909,6.191379768227909,3.9335370810644985,24.193108490566036,23.690249422632796,22.397113537117903,22.397113537117903,13.597300563325932,3.9335370810644985,,13.225750956442726,6.191379768227909
MNST,2009-12-31,6.995221027479092,5.3882915173237755,3.922341696535245,33.265984431032976,74.3060263653484,107.57201079638138,33.612994350282484,-0.3470099192495084,0.5355549724481763,0.29502317851832416,0.2936237208081868,0.18254176506603692,0.0,0.2608423947006624,0.35675213675213674,0.4685929648241206,0.6216860291927316,1.0,0.2936237208081868,0.2688413948256468,0.3676923076923077,,,,,1.3676923076923078,10.972168905950095,10.858895705521473,4.912118408880666,34.333333333333336,1.4289463817022872,0.2750484240183131,0.2334918119387216,0.6106708927628104,0.0,0.13662205895215604,0.8489116517285531,,,-6.61864406779661,,,6.222630769230769,6.222630769230769,3.183975334557859,17.442448490656446,27.452782805429866,23.30498719590269,23.30498719590269,9.975354074952161,3.183975334557859,,15.433080149114632,6.222630769230769
MNST,2008-12-31,2.99679658302189,1.7677522690870262,1.3710624666310731,15.95859934223254,85.75656565656566,101.7151649987982,47.78181818181818,-31.823218839585643,0.5211839814277424,0.15776745985683885,0.1678274327722964,0.1044689495066744,0.37720461095100866,0.14176949330532948,0.2475360990144396,0.3020017406440383,0.622478386167147,1.0,0.1678274327722964,0.42727750065634024,0.7460462984185193,,,,,1.7460462984185194,22.871681415929203,7.638888888888889,4.256233877901978,71.79166666666667,1.3570490942504594,0.3409090909090909,0.32946001367054,0.48855092276144907,0.0,0.1929773650609402,0.9664160401002506,,,-29.776119402985074,,,7.484336465734586,7.484336465734586,3.1586535113174694,30.235333333333333,16.93680497925311,16.368000000000002,16.368000000000002,17.818374414067485,3.1586535113174694,,17.003113961965582,7.484336465734586
MNST,2007-12-31,3.2581423401688783,1.8287092882991556,0.14957780458383596,30.709231619679382,82.03092783505154,112.74015945473093,47.495990836197024,-16.78675921651764,0.5174129353233831,0.25538971807628524,0.2651188501934771,0.16517412935323383,0.0,0.27432978332721264,0.3538607295120796,0.5193848819579814,0.6230191826522101,1.0,0.2651188501934771,0.2247521116415718,0.28990999526290856,,,,,1.2899099952629085,11.885676741130093,7.684859154929577,4.4495412844036695,105.17441860465117,1.660852001468968,0.22842211732973702,0.22151045178691842,0.1272757923128793,0.0,0.1498065229408513,0.9697416974169741,,,-33.048780487804876,,,8.711132164850781,8.711132164850781,4.066158098396905,24.617402945113792,27.9896499238965,27.142730627306275,27.142730627306275,14.705926085938728,4.066158098396905,,24.178364116094986,8.711132164850781
MNST,2006-12-31,4.382165605095541,3.0477707006369426,0.5589171974522293,32.896995708154506,97.18188105117567,130.07887675933017,43.416320885200555,-10.51932517704605,0.5226147243314625,0.26180257510729615,0.2677451304060746,0.1616044899306702,0.0,0.31744487678339817,0.43491781430475346,0.6604234527687296,0.6035758323057954,1.0,0.2677451304060746,0.2701037613488975,0.3700577521101733,,,,,1.3700577521101733,11.095238095238095,8.406976744186046,3.755844155844156,108.17857142857143,1.964332036316472,0.12916314454775993,0.12459847844463229,0.2312764158918005,0.0,0.12611422911852097,0.9646596858638743,,,-28.296296296296298,,,16.58091959129276,16.58091959129276,6.161051502145923,38.12425944841675,50.64267299864315,48.852945026178006,48.852945026178006,22.709374245963268,6.161051502145923,,37.158442211055274,16.58091959129276
MNST,2005-12-31,4.251515151515152,3.103030303030303,1.8696969696969696,30.12897678417885,68.91761876127481,99.04659554545366,58.382441371016235,-28.253464586837385,0.5230725136142161,0.29635998853539697,0.3003725995987389,0.17999426769848095,0.0,0.38316046369737644,0.500398406374502,0.80061115355233,0.5992366412213741,1.0,0.3003725995987389,0.23428920073215376,0.30597609561752986,,,,,1.30597609561753,12.114583333333334,6.2518796992481205,5.296178343949045,94.29729729729729,2.1287370347773034,0.09373390557939915,0.0911587982832618,0.1263519313304721,0.0,0.15649183147033535,0.9725274725274725,,,-36.4,,,17.034063745019917,17.034063745019917,6.127185439954141,34.041003184713375,40.25941619585687,39.15338827838828,39.15338827838828,19.968584572766616,6.127185439954141,,,17.034063745019917
MNST,2004-12-31,3.229946524064171,1.8021390374331552,0.19786096256684493,25.709927897947864,84.37564499484004,110.08557289278791,54.61816305469556,-28.908235156747693,0.4631170271769273,0.18801996672212978,0.18801996672212978,0.11314475873544093,0.0,0.24878048780487805,0.34812286689419797,0.5355450236966824,0.6017699115044248,1.0,0.18801996672212978,0.2865853658536585,0.40102389078498296,0.0017035775127768314,,,,1.3993174061433447,14.196850393700787,6.682758620689655,4.325892857142857,60.1,2.198780487804878,0.03545598871053096,0.03316281531134239,0.037043570294584584,0.0,0.11148086522462562,0.9353233830845771,,,-15.461538461538462,,,8.222952218430033,8.222952218430033,2.6725734886300607,23.620833333333334,25.631117021276594,23.97338308457711,23.97338308457711,13.484991416617321,2.6725734886300607,,,8.222952218430033
MNST,2003-12-31,2.8105263157894735,0.6842105263157895,0.11578947368421053,17.85326086956522,96.45645645645645,114.30971732602167,35.62312312312312,-17.769862253557903,0.3967391304347826,0.08876811594202899,0.08876811594202899,0.05344202898550725,0.0,0.12291666666666666,0.16857142857142857,0.2545454545454545,0.6020408163265306,1.0,0.08876811594202899,0.26875,0.36857142857142855,0.011299435028248588,,,,1.3714285714285714,20.444444444444443,10.246153846153845,3.784090909090909,39.42857142857143,2.3,0.01064653503677894,0.007549361207897794,0.002129307007355788,0.0,0.049818840579710144,0.7090909090909091,,,-3.4375,,,2.8044000000000002,2.8044000000000002,0.8890760869565217,16.636271186440677,25.167692307692306,17.84618181818182,17.84618181818182,8.65484700455915,0.8890760869565217,,,2.8044000000000002
MNST,2002-12-31,3.4833333333333334,1.0666666666666667,0.08333333333333333,23.407608695652176,72.00680272108843,95.4144114167406,29.17517006802721,-5.7675613723750345,0.36086956521739133,0.057608695652173914,0.05543478260869565,0.03260869565217391,0.0,0.07407407407407407,0.1056338028169014,0.14782608695652175,0.5882352941176471,1.0,0.05543478260869565,0.29876543209876544,0.426056338028169,0.1125,,,,1.426056338028169,15.59322033898305,12.51063829787234,5.068965517241379,48.421052631578945,2.271604938271605,0.005440257908523071,0.00463429377392706,0.0010074551682450132,0.0,0.029347826086956522,0.8518518518518519,,,-6.75,,,1.5727816901408451,1.5727816901408451,0.4855108695652174,14.889,19.420434782608694,16.543333333333333,16.543333333333333,7.44147123274428,0.4855108695652174,,,1.5727816901408451
MNST,2001-12-31,3.3035714285714284,0.8214285714285714,0.03571428571428571,19.90086741016109,84.55598455598455,104.45685196614565,27.48069498069498,-7.57982757053389,0.35811648079306074,0.06939281288723669,0.061957868649318466,0.03717472118959108,0.0,0.07772020725388601,0.11857707509881422,0.15151515151515152,0.6,1.0,0.061957868649318466,0.34196891191709844,0.5217391304347826,0.1891025641025641,,,,1.5256916996047432,18.34090909090909,13.282051282051283,4.316666666666666,42.473684210526315,2.0906735751295336,0.01050292870127247,0.009493031710765503,0.0004039587962027873,0.0,0.0644361833952912,0.9038461538461539,,,-10.4,,,1.7612252964426875,1.7612252964426875,0.5521561338289963,14.853,9.480638297872341,8.569038461538462,8.569038461538462,7.405529383567438,0.5521561338289963,,,1.7612252964426875
MNST,2000-12-31,3.305084745762712,1.1694915254237288,0.01694915254237288,34.616457461645744,92.95560747663552,127.57206493828127,33.25934579439252,1.3571116672532213,0.403068340306834,0.09623430962343096,0.09065550906555091,0.05439330543933055,0.0,0.1,0.17647058823529413,0.19637462235649547,0.6,1.0,0.09065550906555091,0.43333333333333335,0.7647058823529411,0.3050314465408805,,,,1.7647058823529411,10.544117647058824,10.974358974358974,3.926605504587156,37.73684210526316,1.8384615384615384,-0.0022022022022022024,-0.004604604604604604,0.0002002002002002002,0.0,-0.015341701534170154,2.090909090909091,,,0.9166666666666666,,,1.8081447963800905,1.8081447963800905,0.5573221757322177,10.246153846153847,-17.37391304347826,-36.32727272727273,-36.32727272727273,5.154011309273524,0.5573221757322177,,,1.8081447963800905
MNST,1999-12-31,2.125,0.725,0.25,19.183955739972337,93.13144329896907,112.31539903894141,55.50257731958763,-36.3186215796153,0.4633471645919779,0.1037344398340249,0.10235131396957123,0.06224066390041494,0.0,0.156794425087108,0.24193548387096775,0.357487922705314,0.6081081081081081,1.0,0.10235131396957123,0.3519163763066202,0.543010752688172,0.046153846153846156,,,,1.543010752688172,19.026315789473685,6.576271186440678,3.919191919191919,144.6,2.519163763066202,0.002576808721506442,0.0019821605550049554,0.003964321110009911,0.0,0.017980636237897647,0.7692307692307693,,,-4.333333333333333,,,2.4411290322580648,2.4411290322580648,0.6280082987551867,10.09,45.405,34.926923076923075,34.926923076923075,5.126268373541294,0.6280082987551867,,,2.4411290322580648
MNST,1998-12-31,1.9180327868852458,0.9180327868852459,0.6229508196721312,12.189239332096474,69.52380952380952,81.713048855906,25.4029304029304,-13.213691070833928,0.49165120593692024,0.11131725417439703,0.1038961038961039,0.06679035250463822,0.0,0.1592920353982301,0.2589928057553957,0.3393939393939394,0.6428571428571429,1.0,0.1038961038961039,0.3805309734513274,0.6187050359712231,0.08552631578947369,,,,1.6258992805755397,29.944444444444443,14.368421052631579,5.25,89.83333333333333,2.3849557522123894,0.00878769722388656,0.00798881565807869,0.007589374875174755,0.0,0.08163265306122448,0.9090909090909091,,,-11.0,,,3.602158273381295,3.602158273381295,0.9289424860853432,13.908333333333335,12.5175,11.379545454545454,11.379545454545454,7.012965204571181,0.9289424860853432,,,3.602158273381295
MNST,1997-12-31,1.6944444444444444,0.5277777777777778,0.1111111111111111,12.703016241299304,56.48809523809524,69.19111147939455,31.865079365079367,-19.162063123780065,0.41299303944315546,0.04408352668213457,0.030162412993039442,0.030162412993039442,0.0,0.07692307692307693,0.13,0.09774436090225563,1.0,1.0,0.030162412993039442,0.41420118343195267,0.7,0.2537313432835821,,,,1.69,28.733333333333334,11.454545454545455,6.461538461538462,107.75,2.5502958579881656,0.0029154518950437317,0.002466920834267773,0.0008970621215519175,0.0,0.030162412993039442,0.8461538461538461,,,-6.5,,,1.3377000000000001,1.3377000000000001,0.3103712296983759,10.29,12.16090909090909,10.29,10.29,4.6206369762860975,0.3103712296983759,,,1.3377000000000001
MNST,1996-12-31,0.6301369863013698,0.1506849315068493,0.0273972602739726,9.22752808988764,52.142857142857146,61.37038523274479,35.32258064516129,-26.095052555273647,0.3904494382022472,0.019662921348314606,0.011235955056179775,0.011235955056179775,0.0,0.024844720496894408,0.045454545454545456,0.045454545454545456,1.0,1.0,0.011235955056179775,0.453416149068323,0.8295454545454546,,,,,1.8295454545454546,39.55555555555556,10.333333333333334,7.0,59.333333333333336,2.2111801242236027,0.0018194223334091425,0.0015919945417329998,0.00045485558335228563,0.0,0.02247191011235955,0.875,,0.8888888888888888,-8.0,,,0.9993181818181819,0.9993181818181819,0.24702247191011234,21.985000000000003,12.562857142857142,10.992500000000001,10.992500000000001,9.734909929869367,0.24702247191011234,,,0.9993181818181819
MNST,1995-12-31,1.08,0.36,0.02,18.25,51.666666666666664,69.91666666666666,56.666666666666664,-38.416666666666664,0.3558823529411765,-0.03823529411764706,-0.03823529411764706,-0.03823529411764706,0.0,-0.07428571428571429,-0.15476190476190477,-0.104,1.0,1.0,-0.03823529411764706,0.52,1.0833333333333333,0.3225806451612903,0.39568345323741005,,-0.36363636363636365,2.0833333333333335,20.0,6.4411764705882355,7.064516129032258,42.5,1.9428571428571428,-0.004567252797442339,-0.005480703356930806,0.00022836263987211693,0.0,-0.058823529411764705,1.2,-0.36363636363636365,-1.3333333333333333,5.0,,,1.0426190476190478,1.0426190476190478,0.2575882352941177,-6.736923076923078,-3.6491666666666664,-4.379,-4.379,-2.970882912238637,0.2575882352941177,,,1.0426190476190478
MNST,1994-12-31,1.358974358974359,0.5384615384615384,0.28205128205128205,12.67361111111111,61.9811320754717,74.6547431865828,78.0503144654088,-65.37670335429769,0.4479166666666667,-0.041666666666666664,-0.04861111111111111,-0.04861111111111111,0.0,-0.07909604519774012,-0.14285714285714285,-0.10144927536231885,1.0,1.0,-0.04861111111111111,0.4463276836158192,0.8061224489795918,0.2898550724637681,,,,1.8061224489795917,28.8,4.676470588235294,5.888888888888889,41.142857142857146,1.6271186440677967,-0.0020552637588490525,-0.003425439598081754,0.002511989038593286,0.0,-0.03125,1.6666666666666667,,,1.5,,,1.3405102040816326,1.3405102040816326,0.45614583333333325,-9.383571428571429,-8.758,-14.596666666666664,-14.596666666666664,-4.138015484903816,0.45614583333333325,,,1.3405102040816326
MNST,1993-12-31,2.4285714285714284,1.4285714285714286,1.0952380952380953,10.780590717299578,32.44444444444444,43.22503516174402,40.55555555555555,-29.774964838255972,0.43037974683544306,0.046413502109704644,0.03375527426160337,0.02531645569620253,0.0,0.03508771929824561,0.05714285714285714,0.05333333333333334,0.75,1.0,0.03375527426160337,0.391812865497076,0.638095238095238,0.2708333333333333,,,,1.6285714285714286,33.857142857142854,9.0,11.25,118.5,1.3859649122807018,0.0019102196752626551,0.0016714422158548234,0.0054918815663801334,0.0,0.03375527426160337,0.875,,,-8.0,,,1.9942857142857144,1.9942857142857144,0.8835443037974684,34.900000000000006,29.914285714285715,26.175,26.175,14.71909478713077,0.8835443037974684,,,1.9942857142857144
MNST,1992-12-31,1.1071428571428572,0.5714285714285714,0.32142857142857145,27.180851063829785,74.35185185185185,101.53270291568163,74.35185185185185,-47.17100078802206,0.425531914893617,0.0,0.0,0.0,,0.0,0.0,0.0,,,0.0,0.475,0.9047619047619048,0.3333333333333333,,,,1.9047619047619047,13.428571428571429,4.909090909090909,4.909090909090909,94.0,0.5875,-0.0004203446826397646,-0.0004203446826397646,0.0018915510718789407,,-0.02127659574468085,1.0,,,,,,5.097857142857142,5.097857142857142,4.555531914893617,,-214.11,-214.10999999999999,-214.10999999999999,,4.555531914893617,,,5.097857142857142
MNST,1991-12-31,70.0,70.0,70.0,,,,,,,,,,,0.0,0.0,0.0,,,,0.014285714285714285,0.014492753623188406,,,,,1.0144927536231885,,0.0,,,0.0,-0.00028885037550548814,-0.00028885037550548814,0.020219526285384173,,,1.0,,,,,,2.0069565217391307,2.0069565217391307,,,-138.48,-138.48000000000002,-138.48000000000002,,,,,2.0069565217391307
