symbol,date,currentRatio,quickRatio,cashRatio,daysOfSalesOutstanding,daysOfInventoryOutstanding,operatingCycle,daysOfPayablesOutstanding,cashConversionCycle,grossProfitMargin,operatingProfitMargin,pretaxProfitMargin,netProfitMargin,effectiveTaxRate,returnOnAssets,returnOnEquity,returnOnCapitalEmployed,netIncomePerEBT,ebtPerEbit,ebitPerRevenue,debtRatio,debtEquityRatio,longTermDebtToCapitalization,totalDebtToCapitalization,interestCoverage,cashFlowToDebtRatio,companyEquityMultiplier,receivablesTurnover,payablesTurnover,inventoryTurnover,fixedAssetTurnover,assetTurnover,operatingCashFlowPerShare,freeCashFlowPerShare,cashPerShare,payoutRatio,operatingCashFlowSalesRatio,freeCashFlowOperatingCashFlowRatio,cashFlowCoverageRatios,shortTermCoverageRatios,capitalExpenditureCoverageRatio,dividendPaidAndCapexCoverageRatio,dividendPayoutRatio,priceBookValueRatio,priceToBookRatio,priceToSalesRatio,priceEarningsRatio,priceToFreeCashFlowsRatio,priceToOperatingCashFlowsRatio,priceCashFlowRatio,priceEarningsToGrowthRatio,priceSalesRatio,dividendYield,enterpriseValueMultiple,priceFairValue
NTES,2019-12-31,2.225374135662376,2.0066271974961807,0.08488800294056328,28.91741634973463,8.576704268914314,37.49412061864894,15.98255697089975,12.93485937883488,0.5326585095544659,0.2327883939447828,0.27655328066329576,0.35849266586592815,0.0,0.18941034683708505,0.3455856416389191,0.2217519201528483,1.2962878798837818,1.0,0.27655328066329576,0.4519148829829333,0.8245341260906036,,,,,1.8245341260906036,12.622151148830055,22.837397086371972,42.55713949738455,11.649259645258976,0.5283520832415639,5.297417331595472,4.273167276518075,22.168204218374804,0.41627438915172565,0.29061656387633966,0.8066510544735741,,1.0230702867907764,-5.171996140332325,3.1235352921432913,0.41627438915172565,17.346243323774537,17.346243323774537,17.99409542134947,50.19376164331083,76.7580529324061,61.9169643372638,61.9169643372638,26.51455274584958,17.99409542134947,0.008293349123938419,45.26263807529469,17.346243323774537
NTES,2018-12-31,1.957210414078893,1.5290154578554052,0.1420846386725231,29.374160769423536,16.320179699708287,45.694340469131824,18.40397511357006,10.970185655853477,0.5343280659924587,0.1949515788589268,0.21643332195161744,0.12021450382313302,0.0,0.07074340094661104,0.13601999715420418,0.21359390876608725,0.555434360749711,1.0,0.21643332195161744,0.4799044079789966,0.9227234672652566,,,,,1.9227234672652564,12.425886916910311,19.832671895479226,22.3649498177109,10.951674124911623,0.5884764208709216,4.122015037381452,2.006294303388127,15.228340710894344,0.23408626900008403,0.26213854137204873,0.4867265852243577,,0.98223259943915,-1.948279359914075,-2.4635187104088474,0.23408626900008403,17.488913322746054,17.488913322746054,15.45670549541483,128.57604535103093,121.14374226630142,58.96387999457658,58.96387999457658,68.01810095910454,15.45670549541483,0.0018206056062853324,97.10189385918346,17.488913322746054
NTES,2017-12-31,2.608314216933864,1.985158471239338,0.11638428346070255,33.163817243398036,103.03788445417558,136.2017016975736,45.96830880432275,-12.804491560924717,0.5635583170960557,0.29243218908956214,0.31144020610587647,0.24096706475891735,0.0,0.15074934097821366,0.2341453984295944,0.2927072374763969,0.7737185502535879,1.0,0.31144020610587647,0.3561720965294018,0.5532100963773577,,,,,1.5532100963773579,11.005970673435097,7.940252958918434,3.5423863944171696,11.789204489078418,0.6256014328308116,3.585980060793647,2.8246346379013825,13.00270187285212,0.304223529850142,0.26755053265434003,0.7876883278810636,,1.7950078372438025,-4.710056635227302,16.211499312092045,0.304223529850142,23.402347034539726,23.402347034539726,24.084158438322895,99.94792633764537,114.28026678870955,90.01723225660047,90.01723225660047,53.86105810588991,24.084158438322895,0.003043820327221299,93.32055984221368,23.402347034539726
NTES,2016-12-31,2.575204349243584,2.133239336262059,0.2836546574439819,48.58861465939182,44.88126382433507,93.46987848372689,39.70689176120276,8.88172289818906,0.6224597946991148,0.3816109642535808,0.4188234190821676,0.341365656776743,0.0,0.19996808649593517,0.30385419045876183,0.3664267719349827,0.815058664877982,1.0,0.4188234190821676,0.3418945903164227,0.5195134172819041,,,,,1.519513417281904,7.51204788526417,9.192358903212822,8.132569560175652,14.050116759178511,0.5857885306450629,4.68332492216011,4.338604805586995,11.001364938379714,0.21941148793745885,0.4556123041214026,0.9263941489641255,,4.0590986010135515,-13.58587647485542,11.014755308511683,0.21941148793745885,21.69086895995429,21.69086895995429,24.36865431210166,71.38578186861672,57.735150174875116,53.485505311569426,53.485505311569426,38.372065061648094,24.36865431210166,0.0030736020842536795,69.29026988355297,21.69086895995429
NTES,2015-12-31,2.9491451539898743,2.4469895365926133,0.5203794359731365,48.33235296233273,35.75295510497131,84.08530806730404,30.63046272039388,17.701890241938848,0.6150515359909049,0.3444001595767638,0.38300175475419607,0.31055442043497394,0.0,0.16364257923781927,0.2303381970564174,0.2816649043182662,0.8108433357812744,1.0,0.38300175475419607,0.28955517873686476,0.40756884992426323,,,,,1.4075688499242631,7.551877316721133,11.916241792749073,10.208946335438664,10.366582761564516,0.5269368860008995,2.4436912235308283,2.1318629086839485,7.769023357950002,0.21795715822225864,0.3724250909561732,0.8723945513884005,,3.5537936253717946,-7.836655964775934,18.469721430760153,0.21795715822225864,17.649606460419417,17.649606460419417,23.7961544167093,76.62474867812067,73.24110727944934,63.89514292824492,63.89514292824492,41.16455810752723,23.7961544167093,0.0028444746897355088,74.05463471647074,17.649606460419417
NTES,2014-12-31,4.104601427347835,3.5158684734742978,0.2991887600095139,36.71553784506807,0.0,36.71553784506807,45.96397595739932,-9.24843811233125,0.7215410036546236,0.40682938048981143,0.46602214289043964,0.40610351004718415,0.0,0.15670151720636338,0.20335839424343677,0.2313072373582012,0.8714253522984589,1.0,0.46602214289043964,0.2294317734492988,0.29774362028435236,,,,,1.2977436202843524,9.94129519606179,7.941001455972653,,9.141902476145876,0.3858659512402556,1.792168197668085,1.6034789226526671,6.889301624723951,0.4168945068801963,0.501417761064487,0.8947145277653433,,2.865077944157298,-9.497986557644289,4.303634002752322,0.4168945068801963,15.306213022937456,15.306213022937456,30.56626630668547,75.26718078140732,68.13310637053186,60.95968009149632,60.95968009149632,40.09068962968966,30.56626630668547,0.0055388617263472505,72.60998649384466,15.306213022937456
NTES,2013-12-31,5.385778407748641,4.638317977793527,0.34443656980864634,25.75956937799043,0.0,25.75956937799043,32.2448567970956,-6.48528741910517,0.7305350152240104,0.4733579817311875,0.5411048281861679,0.48325358851674644,0.0,0.1810478285667726,0.2195109903679921,0.244966277753163,0.8930868167202572,1.0,0.5411048281861679,0.1752220321029903,0.21244751790565572,,,,,1.2124475179056557,14.169491525423728,11.319634703196346,,10.545871559633028,0.3746435264401532,1.6081081081081081,1.5405405405405406,5.830773955773956,0.1833933393339334,0.569377990430622,0.957983193277311,,5.364754098360656,-23.8,8.8,0.18339333933393337,12.219850827364782,12.219850827364782,26.902009569377995,55.66851485148515,49.32035087719298,47.24806722689076,47.24806722689076,29.461101054666187,26.902009569377995,0.00329438174923829,53.65251629726206,12.219850827364782
NTES,2012-12-31,4.995526977914453,4.533128319821079,0.4447861336315348,20.117058895256676,0.0,20.117058895256676,22.370054305663302,-2.2529954104066263,0.6856480916961346,0.45262772832581394,0.5216437019875625,0.4434825021338861,0.0,0.18866064944496316,0.23193673872839743,0.2724667218648494,0.8501636278634876,1.0,0.5216437019875625,0.18658574540927483,0.22938588100248708,,,,,1.2293858810024871,18.143805309734514,16.31645569620253,,10.062576687116565,0.4254071999170038,1.2846715328467153,1.2302311435523114,4.794099756690998,0.0,0.5150591391293745,0.9576231060606061,,,-23.59776536312849,,,9.943049550411327,9.943049550411327,19.011944884770152,42.86966180918339,38.54560197775031,36.91215909090909,36.91215909090909,22.91061823910463,19.011944884770152,,39.867207439938,9.943049550411327
NTES,2011-12-31,6.339903635567236,5.803328953131844,0.9702146298729741,16.82073789603621,0.0,16.82073789603621,20.61973018549747,-3.7989922894612604,0.6745302427650528,0.455767384446578,0.4959539157865862,0.44356055410780415,0.0,0.20938815150534154,0.24636245905385845,0.27473028415134476,0.894358407079646,1.0,0.4959539157865862,0.1500809323405633,0.1765826159823265,,,,,1.1765826159823265,21.699404761904763,17.70149253731343,,8.597877358490566,0.4720621560375526,1.242905096124504,1.1055843759536161,3.940494354592615,0.0,0.5586339322452338,0.8895163270316719,,,-9.051111111111112,,,11.920221680505826,11.920221680505826,21.4616307776711,48.38489486703772,43.1898288711013,38.418057942548494,38.418057942548494,25.771588335960644,21.4616307776711,,43.737383045080804,11.920221680505826
NTES,2010-12-31,5.813457330415755,5.352844638949672,0.7029540481400438,20.27777777777778,0.0,20.27777777777778,26.578654808226794,-6.300877030449016,0.6733841684822077,0.46187363834422657,0.46768336964415397,0.4059549745824256,0.0,0.19297488564770865,0.22954522122985319,0.26396147146223997,0.8680124223602484,1.0,0.46768336964415397,0.1593164753603176,0.18950826403859974,,,,,1.1895082640385997,18.0,13.732824427480915,,7.285714285714286,0.47536031759730735,0.875229920294298,0.7838749233599019,2.9058859595340283,0.0,0.5183369644153958,0.8956217162872154,,,-9.580536912751677,,,13.401626116415153,13.401626116415153,23.701023965141612,58.383381037567084,51.054063355494726,45.725127845884415,45.725127845884415,30.95480987271223,23.701023965141612,,52.37448946515398,13.401626116415153
NTES,2009-12-31,5.785921625544267,5.25544267053701,0.7554426705370102,21.956348150119776,0.0,21.956348150119776,89.3724279835391,-67.41607983341932,0.7412829385147724,0.5384615384615384,0.5725312749534203,0.49241416023422946,-21376.530450953043,0.21015562876292174,0.24868933996504908,0.2896969696969697,0.8600650860065086,1.0,0.5725312749534203,0.1550607747358855,0.1834924048931308,,,,,1.1833579782228794,16.623893805309734,4.084033613445378,,6.732974910394265,0.4267863228444848,0.644506001846722,0.45583256386580484,2.1594336718990457,0.0,0.5573595954218792,0.707258834765998,,,-3.4159869494290374,,,14.325473854012634,14.325473854012634,28.36497205216928,57.603891891891884,71.95624577987844,50.891690544412604,50.891690544412604,30.419808825514426,28.36497205216928,,-0.0022950994306673946,14.325473854012634
NTES,2008-12-31,7.20627261761158,7.094089264173704,0.9565741857659831,31.708265802269047,0.0,31.708265802269047,75.64766839378238,-43.939402591513335,0.8123176661264182,0.6207455429497569,0.6149108589951378,0.5176661264181524,0.0,0.2516545855657107,0.2895213923132705,0.3438462932753308,0.841855561412757,1.0,0.6149108589951378,0.13063346990230065,0.15029006526468455,,,,,1.1504713560551123,11.511194029850746,4.825,,11.911196911196912,0.4861329971635676,0.6239950525664811,0.569882498453927,1.735621521335807,0.0,0.6541329011345218,0.9132804757185332,,,-11.531428571428572,,,11.14545685279188,11.14545685279188,19.928149108589952,38.49614276768942,33.35775366250679,30.46498513379584,30.46498513379584,20.23541773336965,19.928149108589952,,35.95103080568721,11.14545685279188
NTES,2007-12-31,3.4737666405638215,3.3876272513703993,1.9444009397024276,27.54405784003615,0.0,27.54405784003615,75.89953271028037,-48.35547487024422,0.8065973791233619,0.5449615906009941,0.5725259828287392,0.5711703569814731,0.0,0.26973965002134015,0.3719835197174809,0.37166324435318276,0.9976322020520916,1.0,0.5725259828287392,0.2746478873239437,0.3787522071806945,,,,,1.3790464979399646,13.251497005988025,4.808988764044944,,12.092896174863387,0.4722577891591976,0.41717049576783555,0.3875453446191052,1.2572551390568318,0.0,0.6235878897424311,0.9289855072463769,,2.149532710280374,-14.081632653061224,,,17.163048852266037,17.163048852266037,26.35338454586534,46.13927215189874,45.49145085803432,42.26089855072463,42.26089855072463,24.807967398528906,26.35338454586534,,41.437300073367574,17.163048852266037
NTES,2006-12-31,6.1079881656804735,6.019230769230769,1.7840236686390532,22.264325323475045,0.0,22.264325323475045,101.5485564304462,-79.28423110697115,0.8239371534195934,0.5914972273567468,0.6238447319778189,0.5628465804066544,0.0,0.2784636488340192,0.41913282863041984,0.3650621957815035,0.9022222222222223,1.0,0.6238447319778189,0.3356195701874714,0.5051617343427391,0.2116115029842648,,,,1.5051617343427393,16.393939393939394,3.5943396226415096,,9.660714285714286,0.4947416552354824,0.4562607204116638,0.41538021726700974,1.1255002858776444,0.0,0.7375231053604436,0.9104010025062657,,,-11.160839160839162,,,24.387295251204407,24.387295251204407,32.74929759704251,58.18512315270936,48.774590502408806,44.404436090225566,44.404436090225566,33.081615177308215,32.74929759704251,,54.35453703703703,24.387295251204407
NTES,2005-12-31,8.426506024096385,8.30843373493976,4.062650602409638,15.849875930521092,0.0,15.849875930521092,38.49090909090909,-22.641033160387998,0.8294044665012407,0.6060794044665012,0.607940446650124,0.5490074441687345,-12.006508163265305,0.24413793103448275,0.370138017565872,0.3052959501557632,0.9030612244897959,1.0,0.607940446650124,0.34041379310344827,0.5161020493517356,0.2523452157598499,,22.933632874660677,,1.5161020493517356,23.02857142857143,9.482758620689655,,12.793650793650794,0.44468965517241377,0.30995792426367463,0.2838709677419355,0.9475455820476858,0.0,0.6854838709677419,0.9158371040723982,,,-11.881720430107526,,,26.62940192388122,26.62940192388122,39.49807692307692,71.9445197740113,62.91590909090909,57.62072398190045,57.62072398190045,41.68810889694883,39.49807692307692,,-5.815332341882666,26.62940192388122
NTES,2004-12-31,9.206225680933851,9.1284046692607,8.264591439688717,22.61061946902655,0.0,22.61061946902655,37.69021739130435,-15.079597922277802,0.7964601769911505,0.49557522123893805,0.5199115044247787,0.48783185840707965,-7.346285106382979,0.18,0.3259423503325942,0.21431828545371637,0.9382978723404255,1.0,0.5199115044247787,0.4477551020408163,0.8107908351810791,0.3796423658872077,,1.0033087842886115,,1.810790835181079,16.142857142857142,9.68421052631579,,11.74025974025974,0.3689795918367347,0.17588083643655114,0.15869378401604126,0.6559725007161272,0.0,0.6792035398230089,0.9022801302931596,,,-10.233333333333333,,,26.5759793052476,26.5759793052476,39.77577433628319,81.5358276643991,64.90487364620938,58.56237785016287,58.56237785016287,46.26507550238748,39.77577433628319,,-13.76921500144599,26.5759793052476
NTES,2003-12-31,22.21794871794872,21.833333333333332,17.384615384615383,10.101476014760149,0.0,10.101476014760149,141.7058823529412,-131.60440633818104,0.8431734317343174,0.6033210332103321,0.6346863468634686,0.5959409594095941,0.0,0.18074986010072747,0.36662883087400683,0.20128730251609128,0.938953488372093,1.0,0.6346863468634686,0.5069949636261891,1.0283768444948922,0.4844938560561732,,,,2.028376844494892,36.13333333333333,2.5757575757575757,,13.55,0.30330162283156126,0.11180679785330948,0.10345855694692904,0.5032796660703638,0.0,0.6918819188191881,0.9253333333333333,,,-13.392857142857142,,,44.73269012485811,44.73269012485811,72.71125461254613,122.0108359133127,113.57204610951008,105.092,105.092,66.51451109350386,72.71125461254613,,,44.73269012485811
NTES,2002-12-31,15.128205128205128,14.923076923076923,14.35897435897436,36.334841628959275,0.0,36.334841628959275,20.27777777777778,16.057063851181496,0.6742081447963801,0.01809954751131222,0.06334841628959276,0.07239819004524888,0.0,0.025806451612903226,0.027538726333907058,0.024096385542168676,1.1428571428571428,1.0,0.06334841628959276,0.06290322580645161,0.06712564543889846,,,,,1.0671256454388984,10.045454545454545,18.0,,8.5,0.3564516129032258,0.0370843989769821,0.03292838874680307,0.17902813299232737,0.0,0.5248868778280543,0.8879310344827587,,,-8.923076923076923,,,19.650946643717727,19.650946643717727,51.66153846153846,713.5749999999999,110.84660194174758,98.42413793103448,98.42413793103448,362.79501664958116,51.66153846153846,,,19.650946643717727
NTES,2001-12-31,5.225,4.4,4.0,28.076923076923077,0.0,28.076923076923077,79.08333333333333,-51.00641025641025,-1.3076923076923077,-9.26923076923077,-8.961538461538462,-8.961538461538462,0.0,-0.3451851851851852,-0.4198198198198198,-0.4198198198198198,1.0,1.0,-8.961538461538462,0.17777777777777778,0.21621621621621623,,,,,1.2162162162162162,13.0,4.615384615384615,,0.7222222222222222,0.03851851851851852,-0.04646531695984069,-0.05343511450381679,0.1745768337205443,0.0,-5.384615384615385,1.15,,-1.6666666666666667,6.666666666666667,,,1.140054054054054,1.140054054054054,24.335769230769227,-2.7155793991416304,-3.93,-4.5195,-4.5195,-1.32989263057755,24.335769230769227,,,1.140054054054054
NTES,2000-12-31,5.8120805369127515,4.805369127516778,4.758389261744966,85.16666666666666,0.0,85.16666666666666,82.125,3.041666666666657,-0.3,-6.5,-5.633333333333334,-5.633333333333334,0.0,-0.18349619978284473,-0.2186287192755498,-0.2189119170984456,1.0,1.0,-5.633333333333334,0.16178067318132464,0.1927554980595084,,,,,1.1914618369987064,4.285714285714286,4.444444444444445,,0.8571428571428571,0.03257328990228013,-0.10452543051661994,-0.11814177012414898,0.2839407288746496,0.0,-8.7,1.1302681992337165,,-2.309734513274336,7.676470588235294,,,1.8735575679172056,1.8735575679172056,48.27533333333333,-8.569585798816568,-4.90935593220339,-5.5488888888888885,-5.5488888888888885,-3.478029938468793,48.27533333333333,,,1.8735575679172056
