symbol,date,currentRatio,quickRatio,cashRatio,daysOfSalesOutstanding,daysOfInventoryOutstanding,operatingCycle,daysOfPayablesOutstanding,cashConversionCycle,grossProfitMargin,operatingProfitMargin,pretaxProfitMargin,netProfitMargin,effectiveTaxRate,returnOnAssets,returnOnEquity,returnOnCapitalEmployed,netIncomePerEBT,ebtPerEbit,ebitPerRevenue,debtRatio,debtEquityRatio,longTermDebtToCapitalization,totalDebtToCapitalization,interestCoverage,cashFlowToDebtRatio,companyEquityMultiplier,receivablesTurnover,payablesTurnover,inventoryTurnover,fixedAssetTurnover,assetTurnover,operatingCashFlowPerShare,freeCashFlowPerShare,cashPerShare,payoutRatio,operatingCashFlowSalesRatio,freeCashFlowOperatingCashFlowRatio,cashFlowCoverageRatios,shortTermCoverageRatios,capitalExpenditureCoverageRatio,dividendPaidAndCapexCoverageRatio,dividendPayoutRatio,priceBookValueRatio,priceToBookRatio,priceToSalesRatio,priceEarningsRatio,priceToFreeCashFlowsRatio,priceToOperatingCashFlowsRatio,priceCashFlowRatio,priceEarningsToGrowthRatio,priceSalesRatio,dividendYield,enterpriseValueMultiple,priceFairValue
REGN,2019-12-31,3.6674139082323762,2.807640942478298,0.7716302585137842,124.03705776127376,473.44541038097674,597.4824681422505,195.09907951930452,-71.06202175803077,0.9005264898135666,0.28102347585014115,0.30891217539486737,0.269069359310222,0.12897781071178627,0.14290924810201822,0.1907896516587464,0.19113828431141117,0.8710221892882137,1.0,0.30891217539486737,0.25095912247048335,0.3350406232810626,0.06048154800230438,,80.43377483443709,,1.3350406232810625,2.942668961904049,1.8708442956230567,0.7709442144687562,2.7205231109880987,0.531124199605544,21.20418848167539,17.455497382198953,28.047993019197207,0.0,0.30902662970216443,0.8232098765432099,,,-5.656424581005586,,,3.4740550240313084,3.4740550240313084,4.899436376122288,18.208823140183384,19.259262147570485,15.854414814814817,15.854414814814817,0.8536782571858189,4.899436376122288,,14.092870842073719,3.4740550240313084
REGN,2018-12-31,4.468810645966177,3.502287219295814,1.0172581092320487,122.00751028193359,691.4063579820319,813.4138682639655,183.46694310066806,-61.45943281873447,0.9353132264409608,0.3776598915181498,0.3805060499493354,0.3642486737795792,0.042725670648130015,0.20830883292854405,0.27912712822445274,0.24811255672046406,0.95727432935187,1.0,0.3805060499493354,0.2537134091780647,0.3399677982939947,0.07484840161423228,,90.54964539007092,,1.3399677982939948,2.9916191155492156,1.9894592117323557,0.5279095220722364,2.6053265005046975,0.5718863181217777,19.121080139372822,15.78397212543554,24.476480836236934,0.0,0.32709960064373844,0.8254749214158809,,,-5.729835552075176,,,5.504626768524546,5.504626768524546,7.183296775347202,19.72085910652921,26.60356953642384,21.960579472461394,21.960579472461394,0.9261800954956445,7.183296775347202,,17.380295248910215,5.504626768524546
REGN,2017-12-31,3.8177850306873813,2.9801591040993127,0.7157597251566074,122.71904679434225,472.38452026262974,595.103567056972,163.79547475073102,-41.07642795638877,0.9323832338225344,0.354140090292831,0.3539561736969637,0.2040982066939851,0.4233800061678769,0.13674941689488454,0.19506767329451222,0.2724557181513273,0.5766199938321231,1.0,0.3539561736969637,0.298964228232625,0.4264607317810744,0.10273089672759422,,,,1.4264607317810745,2.974273428082296,2.2283887912988334,0.7726756156130443,2.489703447588723,0.6700177287687782,11.27267709608983,8.92152060299774,12.156372354554392,0.0,0.22259221246045155,0.7914287375527116,,,-4.79452436671484,,,7.167202398797672,7.167202398797672,7.499003458142881,36.742133013380766,42.56785551471939,33.68942415034059,33.68942415034059,1.7429214905226451,7.499003458142881,,19.75135121840234,7.167202398797672
REGN,2016-12-31,2.561579386143319,2.134768162578182,0.4310955742874518,121.0266711134639,375.0209547071346,496.0476258205985,164.3982195172409,-43.371548403777,0.9383399853551961,0.273790965279388,0.2736004470389124,0.18424759799910584,0.3265815169779255,0.12841849375905753,0.2012750477890069,0.2319996036267455,0.6734184830220745,1.0,0.2736004470389124,0.36197509244327,0.5673369301982696,0.07323112288874345,,,,1.5673369301982696,3.0158641615269106,2.220218692585788,0.9732789472658661,2.332906791282223,0.6969886997369744,12.769084018665085,8.370070552648087,8.9259326097605,0.0,0.30571388069402133,0.6554949862036477,,,-2.9027153740965033,,,9.010164983047686,9.010164983047686,8.247923793526782,44.76543457335498,41.15855390143737,26.97922572178478,26.97922572178478,2.131083016281132,8.247923793526782,,27.81762302938624,9.010164983047686
REGN,2015-12-31,3.593727270261674,3.0980445336443276,0.9974604333043214,130.55067124331828,188.13380900361338,318.6844802469317,131.0159176387605,-0.4652463954422217,0.9043043301115473,0.30047191236846105,0.29853270002300347,0.15499467800984862,0.48081172347985507,0.11339651126056581,0.1740312905883354,0.25533652773985666,0.519188276520145,1.0,0.29853270002300347,0.3484130878003941,0.534714680846232,0.09032878054316887,,86.02605154132435,,1.534714680846232,2.7958492784745532,2.7859210283622535,1.9401084894474745,2.5742905176523725,0.7316155155557045,11.548902195608783,5.665599236309989,9.070754143886141,0.0,0.3242856251681398,0.4905747005515562,,,-1.9629963432964614,,,13.244631894664522,13.244631894664522,11.795852624735362,76.10488809161457,74.14749658036263,36.374885931558936,36.374885931558936,3.5876150608725035,11.795852624735362,,36.49297864100127,13.244631894664522
REGN,2014-12-31,3.2534351145038167,2.865648854961832,0.9908396946564886,126.34416229252376,169.14634146341464,295.4905037559384,178.0487804878049,-51.70461819528113,0.9272591857000994,0.2803589161583203,0.26996737125833453,0.11991062562065541,0.5618405149763531,0.08809275664408546,0.13258823529411765,0.2391454602576186,0.44416710457172887,1.0,0.26996737125833453,0.33533090151120376,0.5047058823529412,0.15226063829787234,,20.368190088836563,,1.5050980392156863,2.888934426229508,2.05,2.1578947368421053,2.894866529774127,0.7346534653465346,6.634920634920635,3.6984126984126986,7.945326278659612,0.0,0.2668463611859838,0.5574162679425837,,,-2.2594594594594595,,,18.52911529411765,18.52911529411765,16.757428003972198,139.74931677018634,112.65914163090129,62.798038277511964,62.798038277511964,6.483215726451943,16.757428003972198,,54.98454042496013,18.52911529411765
REGN,2013-12-31,6.010033444816053,5.51505016722408,1.7926421404682273,165.61742766189957,138.57786357786358,304.19529123976315,145.62419562419564,19.993232037703933,0.926212761913812,0.36109659333871813,0.3389556706418967,0.20164393975388417,0.4050995234090272,0.14381565570992882,0.21741803278688523,0.2690045248868778,0.5948976731146621,1.0,0.3389556706418967,0.338529312097594,0.5117827868852459,0.20553520553520555,,15.36274953162349,,1.5117827868852458,2.203874345549738,2.5064516129032257,2.6338983050847458,3.9937381404174572,0.713215859030837,5.243486073674753,3.8391734052111413,6.235399820305481,0.0,0.27728417351641566,0.7321795750514051,,,-3.7338451695457455,,,16.704693135245904,16.704693135245904,15.492735781821638,76.83214184731386,76.31069740229348,55.87313399588759,55.87313399588759,3.49837071985192,15.492735781821638,,40.66808691255689,16.704693135245904
REGN,2012-12-31,7.353658536585366,6.103658536585366,1.4024390243902438,183.49292709466812,95.02958579881657,278.5225128934847,168.46153846153848,15.031388633129637,0.9387014871236852,0.3320275661951396,0.3006166122597026,0.5442872687704026,-0.8104440154440155,0.36072115384615383,0.6026506024096385,0.2162839248434238,1.810569498069498,1.0,0.3006166122597026,0.4014423076923077,0.6706827309236948,0.26807760141093473,,9.147095179233622,,1.6706827309236947,1.9891774891774892,2.1666666666666665,3.840909090909091,3.6276315789473683,0.6627403846153846,-0.6464471403812825,-1.0736568457538995,2.6689774696707107,0.0,-0.05411679361624955,1.660857908847185,,,1.513184584178499,,,16.198637751004018,16.198637751004018,14.62989046064563,26.87898707183793,-162.77081517352704,-270.3391957104558,-270.3391957104558,1.2689556161389695,14.62989046064563,,41.06122547598338,16.198637751004018
REGN,2011-12-31,4.5,4.256756756756757,3.27027027027027,84.33153880663974,1303.5714285714284,1387.9029673780683,2433.333333333333,-2349.001794526693,0.990578734858681,-0.46029609690444145,-0.5,-0.49753252579632123,0.005078510542844325,-0.1675226586102719,-0.45637860082304527,-0.1895408163265306,0.9950650515926425,1.0,-0.5,0.6329305135951662,1.7242798353909465,0.4723127035830619,,-10.473639695517338,,2.7242798353909463,4.328155339805825,0.15,0.28,1.2114130434782608,0.3367069486404834,-1.5640176600441502,-2.1953642384105962,5.816777041942605,0.0,-0.31785554060116644,1.4036697247706422,,,2.477272727272727,,,16.568987654320985,16.568987654320985,18.063095558546433,-36.3053561767358,-40.48530920060332,-56.8280028228652,-56.8280028228652,-1.3456329854411158,18.063095558546433,,-46.9277513925535,16.568987654320985
REGN,2010-12-31,3.2844036697247705,3.0458715596330275,1.036697247706422,65.19276846003049,173.8095238095238,239.0022922695543,3997.6190476190477,-3932.426279159017,0.9954258331518188,-0.21237203223698542,-0.22761925506425615,-0.22761925506425615,0.0,-0.09595959595959595,-0.19791666666666666,-0.10663265306122449,1.0,1.0,-0.22761925506425615,0.5160697887970616,1.0643939393939394,0.2314410480349345,,-11.460846676902829,,2.0625,5.598780487804878,0.09130434782608696,2.1,1.3230547550432277,0.42157943067033976,1.1966224366706877,-0.006031363088057901,3.0156815440289506,0.0,0.21607492920932259,-0.005040322580645161,,,-0.9949849548645938,,,5.251903409090909,5.251903409090909,6.040089305162275,-26.535933014354068,-5546.01,27.95367943548387,27.95367943548387,-0.8999463454794437,6.040089305162275,,-37.248024629370256,5.251903409090909
REGN,2009-12-31,4.531914893617022,4.297872340425532,2.202127659574468,60.624835222778806,0.0,60.624835222778806,4294.117647058823,-4233.492811836045,0.9955180595834432,-0.19562351700500924,-0.18982335881887688,-0.1787503295544424,0.05725,-0.09149797570850203,-0.1707808564231738,-0.11128284389489954,0.9416666666666667,1.0,-0.18982335881887688,0.4642375168690958,0.8664987405541562,0.21541501976284586,,-30.808729139922978,,1.8664987405541562,6.020634920634921,0.085,,1.458846153846154,0.5118758434547909,-0.8759398496240601,-2.0952380952380953,4.273182957393484,0.0,-0.18428684418665964,2.391988555078684,,,0.7183967112024666,,,5.358861460957179,5.358861460957179,5.608932243606644,-31.37858407079646,-12.72409090909091,-30.435879828326183,-30.435879828326183,-1.0243867651978227,5.608932243606644,,-36.642917757515576,5.358861460957179
REGN,2008-12-31,6.2023809523809526,6.0476190476190474,2.9523809523809526,50.503144654088054,0.0,50.503144654088054,6488.888888888889,-6438.385744234801,0.9958071278825996,-0.37610062893081764,-0.3220125786163522,-0.3316561844863732,-0.030611979166666668,-0.10925414364640884,-0.18744075829383886,-0.12,1.0299479166666667,1.0,-0.3220125786163522,0.4185082872928177,0.7180094786729858,0.1134453781512605,,-9.907120743034056,,1.7156398104265402,7.2272727272727275,0.05625,,1.6795774647887325,0.3294198895027624,-1.130710659898477,-1.5736040609137056,6.027918781725888,0.0,-0.37358490566037733,1.3916947250280585,,,2.5530085959885387,,,3.264037914691943,3.264037914691943,5.775362683438155,-17.41370417193426,-11.108258064516129,-15.459304152637488,-15.459304152637488,-0.561364706573564,5.775362683438155,,-20.511014437492417,3.264037914691943
REGN,2007-12-31,2.8098591549295775,2.75,1.7570422535211268,40.88,,,,,1.0,-0.9704,-0.852,-0.852,0.0,-0.11378205128205128,-0.23152173913043478,-0.1633435582822086,1.0,1.0,-0.852,0.5085470085470085,1.0347826086956522,,,-8.843311467242382,,2.034782608695652,8.928571428571429,0.0,,2.1551724137931036,0.13354700854700854,0.4132730015082956,0.13574660633484162,11.568627450980392,0.0,0.2192,0.3284671532846715,,,-1.4891304347826086,,,2.9546739130434783,2.9546739130434783,10.8732,-12.761971830985916,151.01666666666668,49.60401459854015,49.60401459854015,-0.34614577499360427,10.8732,,-10.368624709186687,2.9546739130434783
REGN,2006-12-31,10.444444444444445,10.355555555555556,5.288888888888889,40.29968454258675,0.0,40.29968454258675,630.8641975308642,-590.5645129882774,0.8722397476340694,-1.6987381703470033,-1.6277602523659307,-1.613564668769716,0.0,-0.17487179487179488,-0.4714285714285714,-0.19111111111111112,0.9912790697674418,1.0,-1.6277602523659307,0.629059829059829,1.695852534562212,0.47961630695443647,,-8.569293365440505,,2.695852534562212,9.057142857142857,0.5785714285714286,,1.2938775510204081,0.10837606837606838,0.39827586206896554,0.35,7.913793103448276,0.0,0.3643533123028391,0.8787878787878788,,,-8.25,,,5.503317972350231,5.503317972350231,18.83627760252366,-11.673704789833822,58.82857142857143,51.6978354978355,51.6978354978355,-0.27699021347175656,18.83627760252366,,-15.282392904820439,5.503317972350231
REGN,2005-12-31,8.525,8.375,4.625,198.4894259818731,114.06250000000001,312.5519259818731,0.0,198.4894259818731,0.8549848942598187,-1.8791540785498488,-1.4410876132930515,-1.4410876132930515,0.0,-0.225,-0.8368421052631579,-0.2484375,1.0,1.0,-1.4410876132930515,0.7287735849056604,2.710526315789474,0.6369426751592356,,-7.919641374730201,,3.719298245614035,1.8388888888888888,,3.2,1.0852459016393443,0.1561320754716981,-0.5410714285714285,-0.6303571428571428,5.339285714285714,0.0,-0.45770392749244715,1.165016501650165,,,6.06,,,7.456842105263158,7.456842105263158,12.84108761329305,-8.910691823899372,-24.08158640226629,-28.055445544554455,-28.055445544554455,-0.20413956068497988,12.84108761329305,,-12.749137854805907,7.456842105263158
REGN,2004-12-31,10.117647058823529,9.970588235294118,2.7941176470588234,90.20114942528735,72.03947368421052,162.24062310949788,0.0,90.20114942528735,0.9126436781609195,0.03218390804597701,0.2396551724137931,0.2396551724137931,0.0,0.08816067653276956,0.2278688524590164,0.09498861047835991,1.0,1.0,0.2396551724137931,0.6152219873150105,1.5901639344262295,0.5221932114882507,,3.4250513347022586,,2.5846994535519126,4.046511627906977,,5.066666666666666,2.4507042253521125,0.3678646934460888,-0.30071174377224197,-0.4110320284697509,5.266903914590747,0.0,-0.09712643678160919,1.3668639053254439,,,2.725806451612903,,,2.146655737704918,2.146655737704918,2.2576896551724137,9.420575539568345,-17.005974025974027,-23.24485207100592,-23.24485207100592,0.21659153384214572,2.2576896551724137,,7.186402020931072,2.146655737704918
REGN,2003-12-31,4.383561643835616,4.232876712328767,1.6164383561643836,101.56521739130434,490.29850746268653,591.8637248539909,0.0,101.56521739130434,0.8834782608695653,-1.7391304347826086,-1.8695652173913044,-1.8695652173913044,0.0,-0.22395833333333334,-0.7789855072463768,-0.2641277641277641,1.0,1.0,-1.8695652173913044,0.7125,2.4782608695652173,0.591715976331361,0.6079545454545454,-9.009386523633925,-0.02850467289719626,3.4782608695652173,3.59375,,0.7444444444444445,0.7098765432098766,0.11979166666666667,-0.12079207920792079,-0.7089108910891089,5.801980198019802,0.0,-0.10608695652173913,5.868852459016393,-0.02850467289719626,-0.4357142857142857,0.2053872053872054,,,5.437898550724637,5.437898550724637,13.050956521739131,-6.980744186046511,-20.961731843575418,-123.02131147540983,-123.02131147540983,-0.14421845090629554,13.050956521739131,,-10.238907436976824,5.437898550724637
REGN,2002-12-31,6.925,6.7,2.0,66.36363636363636,393.0769230769231,459.44055944055947,0.0,66.36363636363636,0.7045454545454546,-5.545454545454546,-5.654545454545454,-5.654545454545454,0.0,-0.3173469387755102,-0.852054794520548,-0.3534090909090909,1.0,1.0,-5.654545454545454,0.6275510204081632,1.6849315068493151,0.5780346820809249,,-10.489923265030779,,2.684931506849315,5.5,,0.9285714285714286,0.2857142857142857,0.05612244897959184,-2.5170842824601367,-3.3006833712984056,6.0136674259681095,0.0,-5.0227272727272725,1.3113122171945701,,,3.2122093023255816,,,5.740075342465754,5.740075342465754,38.09322727272727,-6.736744372990354,-5.783650793650794,-7.584171945701358,-7.584171945701358,-0.12098800440773873,38.09322727272727,,-9.20839861208562,5.740075342465754
REGN,2001-12-31,17.90909090909091,17.636363636363637,11.227272727272727,49.77272727272727,224.6153846153846,274.3881118881119,0.0,49.77272727272727,0.7045454545454546,-3.940909090909091,-3.463636363636364,-3.463636363636364,0.0,-0.15393939393939393,-0.2864661654135338,-0.16109936575052855,1.0,1.0,-3.463636363636364,0.4626262626262626,0.8609022556390977,0.4291845493562232,,,,1.8609022556390977,7.333333333333333,,1.625,0.5641025641025641,0.044444444444444446,-1.3610451306413303,-1.5558194774346794,9.144893111638956,0.0,-2.6045454545454545,1.1431064572425829,,,6.987804878048781,,,4.1387781954887215,4.1387781954887215,50.04159090909091,-14.44770341207349,-16.80786259541985,-19.213176265270505,-19.213176265270505,-0.24883337982666257,50.04159090909091,,,4.1387781954887215
REGN,2000-12-31,9.571428571428571,9.428571428571429,2.2142857142857144,86.17200674536257,46.794871794871796,132.96687854023435,0.0,86.17200674536257,0.7369308600337268,-0.4266441821247892,-0.36593591905564926,-0.3912310286677909,0.0,-0.11153846153846154,-0.12747252747252746,-0.11185567010309279,1.0691244239631337,1.0,-0.36593591905564926,0.125,0.14285714285714285,0.010869565217391304,,,,1.1428571428571428,4.235714285714286,,7.8,1.6027027027027028,0.28509615384615383,-0.7994269340974212,-0.9856733524355301,3.3810888252148996,0.0,-0.47048903878583476,1.2329749103942653,,,4.292307692307692,,,5.896565934065934,5.896565934065934,18.097386172006747,-46.25754310344828,-31.196947674418606,-38.465053763440864,-38.465053763440864,-0.6604435666463528,18.097386172006747,,,5.896565934065934
REGN,1999-12-31,5.615384615384615,5.153846153846154,1.8461538461538463,10.579710144927535,506.94444444444446,517.524154589372,0.0,10.579710144927535,0.8956521739130435,-0.6898550724637681,-0.6695652173913044,-0.6695652173913044,0.0,-0.1686131386861314,-0.21,-0.18629032258064515,1.0,1.0,-0.6695652173913044,0.19708029197080293,0.24545454545454545,0.02654867256637168,,,,1.2454545454545454,34.5,,0.72,0.9583333333333334,0.2518248175182482,-0.43130990415335463,-0.6134185303514377,2.108626198083067,0.0,-0.391304347826087,1.4222222222222223,,,2.3684210526315788,,,3.5738909090909092,3.5738909090909092,11.395014492753624,-17.01852813852814,-20.475416666666668,-29.120592592592594,-29.120592592592594,-0.217918479273413,11.395014492753624,,,3.5738909090909092
REGN,1998-12-31,10.333333333333334,10.222222222222221,2.2222222222222223,57.180156657963444,0.0,57.180156657963444,0.0,57.180156657963444,0.8694516971279374,-0.3289817232375979,-0.2245430809399478,-0.2245430809399478,0.0,-0.05477707006369427,-0.06564885496183206,-0.05810810810810811,1.0,1.0,-0.2245430809399478,0.16560509554140126,0.1984732824427481,0.022388059701492536,,,,1.1984732824427482,6.383333333333334,,,1.1606060606060606,0.24394904458598726,-0.32903225806451614,-0.4258064516129032,2.774193548387097,0.0,-0.26631853785900783,1.2941176470588236,,,3.4,,,1.8931297709923665,1.8931297709923665,6.475195822454308,-28.837209302325583,-18.78787878787879,-24.313725490196077,-24.313725490196077,-0.365714894604849,6.475195822454308,,,1.8931297709923665
REGN,1997-12-31,9.090909090909092,9.090909090909092,2.6363636363636362,94.98141263940519,0.0,94.98141263940519,0.0,94.98141263940519,0.8996282527881041,-0.5092936802973977,-0.4312267657992565,-0.4312267657992565,0.0,-0.06904761904761905,-0.08345323741007195,-0.07388535031847134,1.0,1.0,-0.4312267657992565,0.17261904761904762,0.20863309352517986,0.027972027972027972,,,,1.20863309352518,3.842857142857143,,,0.8151515151515152,0.1601190476190476,-0.21254355400696864,-0.2857142857142857,3.240418118466899,0.0,-0.22676579925650558,1.3442622950819672,,,2.9047619047619047,,,1.4453237410071944,1.4453237410071944,7.4684014869888475,-17.318965517241377,-24.5,-32.9344262295082,-32.9344262295082,-0.20334409685191765,7.4684014869888475,,,1.4453237410071944
REGN,1996-12-31,7.083333333333333,7.0,2.8333333333333335,73.73737373737374,0.0,73.73737373737374,0.0,73.73737373737374,0.9393939393939394,-1.0909090909090908,-1.6363636363636365,-1.6363636363636365,0.0,-0.23478260869565218,-0.30280373831775703,-0.2571428571428571,1.0,1.0,-1.6363636363636365,0.2246376811594203,0.2897196261682243,0.044642857142857144,,,,1.2897196261682242,4.95,,,0.5823529411764706,0.14347826086956522,-0.8285714285714286,-1.1795918367346938,3.2653061224489797,0.0,-1.0252525252525253,1.4236453201970443,,,2.36046511627907,,,2.175233644859813,2.175233644859813,11.755050505050505,-7.183641975308642,-8.05363321799308,-11.46551724137931,-11.46551724137931,-0.0720009934524062,11.755050505050505,,,2.175233644859813
REGN,1995-12-31,3.769230769230769,3.769230769230769,2.5384615384615383,44.87704918032787,0.0,44.87704918032787,0.0,44.87704918032787,0.9959016393442623,-0.4713114754098361,-0.9631147540983607,-0.9631147540983607,0.0,-0.25,-0.34558823529411764,-0.29012345679012347,1.0,1.0,-0.9631147540983607,0.2765957446808511,0.38235294117647056,0.08108108108108109,,,,1.3823529411764706,8.133333333333333,,,0.8714285714285714,0.25957446808510637,-0.9191919191919192,-1.0858585858585859,2.323232323232323,0.0,-0.7459016393442623,1.1813186813186813,,,5.515151515151516,,,4.440441176470588,4.440441176470588,12.375,-12.848936170212767,-14.044186046511628,-16.59065934065934,-16.59065934065934,-0.10407827531100179,12.375,,,4.440441176470588
REGN,1994-12-31,2.888888888888889,2.888888888888889,1.3333333333333333,17.718446601941746,,,,,0.0,-1.0679611650485437,-1.4902912621359223,-1.4902912621359223,0.0,-0.32659574468085106,-0.4582089552238806,-0.4039473684210526,1.0,1.0,-1.4902912621359223,0.2872340425531915,0.40298507462686567,0.11842105263157894,,,,1.4029850746268657,20.6,,,0.7357142857142858,0.21914893617021278,-1.0846560846560847,-1.4497354497354498,2.6984126984126986,0.0,-0.9951456310679612,1.3365853658536586,,,2.971014492753623,,,1.8335820895522388,1.8335820895522388,5.963592233009709,-4.001628664495114,-4.483576642335766,-5.992682926829269,-5.992682926829269,-0.03094042781826119,5.963592233009709,,,1.8335820895522388
REGN,1993-12-31,7.076923076923077,6.923076923076923,1.0,51.40845070422535,,,,,0.0,-5.957746478873239,-5.619718309859155,-5.619718309859155,0.0,-0.338135593220339,-0.40714285714285714,-0.38,1.0,1.0,-5.619718309859155,0.16101694915254236,0.19387755102040816,0.057692307692307696,,,,1.2040816326530612,7.1,,,0.32272727272727275,0.06016949152542373,-2.0421686746987953,-2.7048192771084336,5.36144578313253,0.0,-4.774647887323944,1.3244837758112094,,,3.081818181818182,,,2.667857142857143,2.667857142857143,36.82394366197183,-6.552631578947368,-5.82293986636971,-7.712389380530973,-7.712389380530973,-0.0444991344340232,36.82394366197183,,,2.667857142857143
REGN,1992-12-31,17.0,16.6,3.2,0.0,,,,,0.0,-3.5454545454545454,-2.893939393939394,-2.893939393939394,0.0,-0.19489795918367347,-0.21954022988505748,-0.2053763440860215,1.0,1.0,-2.893939393939394,0.11224489795918367,0.12643678160919541,0.06451612903225806,,,,1.1264367816091954,,,,0.66,0.0673469387755102,-1.1168831168831168,-1.3116883116883118,5.3896103896103895,0.0,-2.606060606060606,1.1744186046511629,,,5.733333333333333,,,2.655172413793103,2.655172413793103,35.0,-12.094240837696336,-11.435643564356436,-13.430232558139537,-13.430232558139537,-0.07619510264298952,35.0,,,2.655172413793103
REGN,1991-12-31,35.666666666666664,34.666666666666664,8.666666666666666,0.0,,,,,0.0,-1.3150684931506849,-0.6164383561643836,-0.6164383561643836,0.0,-0.039473684210526314,-0.04245283018867924,-0.04054054054054054,1.0,1.0,-0.6164383561643836,0.07017543859649122,0.07547169811320754,0.03636363636363636,,,,1.0754716981132075,,,,1.46,0.06403508771929825,-0.4675324675324675,-0.5909090909090909,6.753246753246753,0.0,-0.9863013698630136,1.2638888888888888,,,3.789473684210526,,,2.905660377358491,2.905660377358491,42.19178082191781,-68.44444444444444,-33.84615384615385,-42.77777777777778,-42.77777777777778,-0.43120784014254804,42.19178082191781,,,2.905660377358491
