symbol,date,currentRatio,quickRatio,cashRatio,daysOfSalesOutstanding,daysOfInventoryOutstanding,operatingCycle,daysOfPayablesOutstanding,cashConversionCycle,grossProfitMargin,operatingProfitMargin,pretaxProfitMargin,netProfitMargin,effectiveTaxRate,returnOnAssets,returnOnEquity,returnOnCapitalEmployed,netIncomePerEBT,ebtPerEbit,ebitPerRevenue,debtRatio,debtEquityRatio,longTermDebtToCapitalization,totalDebtToCapitalization,interestCoverage,cashFlowToDebtRatio,companyEquityMultiplier,receivablesTurnover,payablesTurnover,inventoryTurnover,fixedAssetTurnover,assetTurnover,operatingCashFlowPerShare,freeCashFlowPerShare,cashPerShare,payoutRatio,operatingCashFlowSalesRatio,freeCashFlowOperatingCashFlowRatio,cashFlowCoverageRatios,shortTermCoverageRatios,capitalExpenditureCoverageRatio,dividendPaidAndCapexCoverageRatio,dividendPayoutRatio,priceBookValueRatio,priceToBookRatio,priceToSalesRatio,priceEarningsRatio,priceToFreeCashFlowsRatio,priceToOperatingCashFlowsRatio,priceCashFlowRatio,priceEarningsToGrowthRatio,priceSalesRatio,dividendYield,enterpriseValueMultiple,priceFairValue
TXN,2019-12-31,4.12670748940179,3.0433349034385304,1.1479039095619405,27.255092817910036,139.94347576164014,167.19856857955017,27.13546656447595,0.11962625343408462,0.6371410693179448,0.39790029896405477,0.3982479315859,0.3488145727595078,0.12412709497206705,0.27844377844377843,0.5632648478724599,0.36036489462095,0.8758729050279329,1.0,0.3982479315859,0.5056610056610057,1.0229033344560459,0.3731878958479944,,33.694117647058825,,2.022903334456046,13.391992551210429,13.45103092783505,2.6081959020489753,3.9513736263736265,0.7982572982572983,6.984243697478991,6.09453781512605,5.658613445378151,0.5995614909308351,0.4622818605297921,0.8726124229207399,,,-7.850059031877214,3.076816288755206,0.5995614909308351,13.298286740765692,13.298286740765692,8.235266634220956,23.609296392266295,20.415001723543607,17.814384117912468,17.814384117912468,4.027965979469089,8.235266634220956,0.025395144394359574,17.460253310305124,13.298286740765692
TXN,2018-12-31,3.272837510105093,2.198868229587712,0.9854486661277284,27.911492650785604,146.94116578899582,174.8526584397814,31.681496277465044,-3.77000362667944,0.6511023821591485,0.4253041054232134,0.4235935124176381,0.353522554485555,0.16542028118456475,0.32561125051059114,0.6204136090727151,0.4559776307713292,0.8345797188154352,1.0,0.4235935124176381,0.4751706833167999,0.905381365354681,0.3244197401036581,,53.488,,1.905381365354681,13.077050538525269,11.52092050209205,2.4839873703202526,4.958843857995602,0.9210480247417868,7.261616161616161,6.119191919191919,4.275757575757575,0.4578853046594982,0.45546122655854027,0.8426763110307414,,,-6.35632183908046,5.048455056179775,0.45788530465949817,11.242895263509007,11.242895263509007,6.406398884946781,18.121612903225806,16.69174645097392,14.065739323967172,14.065739323967172,3.215124869927159,6.406398884946781,0.025267359318661455,13.264597553122988,11.242895263509007
TXN,2017-12-31,3.8680248007085916,2.5451727192205493,0.733392382639504,31.179065570483257,133.5898634748457,164.76892904532897,31.81036095006546,-0.6312953795822018,0.642604104003743,0.4065904685515674,0.40638994719604304,0.24610654368023527,0.3944078947368421,0.20870649586214715,0.35619618844925993,0.3952158086323453,0.6055921052631579,1.0,0.40638994719604304,0.41406869969391225,0.7066847247750798,0.2570792008049447,,77.94871794871794,,1.7066847247750798,11.706572769953052,11.474248927038627,2.732243229432805,5.615990990990991,0.8480331028228092,5.299407114624506,4.612648221343873,4.41600790513834,0.5714285714285714,0.3584653432257202,0.8704083535334701,,,-7.716546762589928,3.8062455642299504,0.5714285714285714,10.758312856728258,10.758312856728258,7.433238419891718,30.20333514394351,23.82362467866324,20.736281931754615,20.736281931754615,5.477737484887246,7.433238419891718,0.018919386508319314,16.019495893514584,10.758312856728258
TXN,2016-12-31,3.293727915194346,2.1011484098939928,0.5097173144876325,34.589005235602095,127.78212399765303,162.37112923325512,28.269117934676313,6.319887300925782,0.6175766641735229,0.3631264023934181,0.368735976065819,0.268885564697083,0.27079107505070993,0.2187937435335646,0.3432636302874057,0.3479918119573657,0.72920892494929,1.0,0.368735976065819,0.36260726675187144,0.5688914351188771,0.22139617872277154,,61.625,,1.5688914351188772,10.552486187845304,12.91161616161616,2.8564245810055864,5.322452229299363,0.8137058000121721,4.5190989226248774,3.9990205680705193,3.4182174338883446,0.4578581363004173,0.3451009723261032,0.8849154746423927,,,-8.689265536723164,4.138116591928251,0.4578581363004173,7.594376014513511,7.594376014513511,5.948833208676141,22.124033379694023,19.479769777124663,17.23794971824881,17.23794971824881,4.048143025209247,5.948833208676141,0.020695057200584892,13.639547359597653,7.594376014513511
TXN,2015-12-31,2.768688845401174,1.7154598825831702,0.3913894324853229,32.70961538461539,113.77235023041474,146.48196561503013,25.970506912442396,6.739108472172994,0.5826923076923077,0.3324615384615385,0.3243076923076923,0.2296923076923077,0.29174573055028463,0.1839802834257548,0.30022119445003015,0.3082998171846435,0.7082542694497154,1.0,0.3243076923076923,0.3871842267406038,0.6318117836316107,0.2387876932496556,,46.84444444444444,,1.6318117836316106,11.158798283261802,14.05440414507772,3.20816085156712,5.007704160246533,0.8009858287122612,4.215723873441994,3.687440076701822,3.0853307766059443,0.4835900870730074,0.3382307692307692,0.8746872867864453,,,-7.980036297640654,4.923852183650616,0.4835900870730074,5.550572089282124,5.550572089282124,4.246614615384615,18.488275284661754,14.35413156526261,12.555376392995225,12.555376392995225,3.4557833551796073,4.246614615384615,0.02615658192163568,10.539803272660416,5.550572089282124
TXN,2014-12-31,2.9181066867017282,1.7982719759579264,0.45041322314049587,34.86316596397087,115.67951678806183,150.5426827520327,28.336294190797656,6.526871773173216,0.5684936757378306,0.3025680337293982,0.296972019931008,0.21625143733231122,0.27181208053691275,0.15918067938155964,0.27151106833493743,0.25723771580345284,0.7281879194630873,1.0,0.296972019931008,0.4137230560884776,0.7056785370548604,0.2594968284512864,,41.212765957446805,,1.7056785370548604,10.469502407704654,12.881006864988558,3.155269058295964,4.59330985915493,0.7360907346800587,3.6037037037037036,3.2472222222222222,3.278703703703704,0.46898263027295284,0.2983518589497892,0.9010791366906474,,,-10.10909090909091,4.149253731343284,0.4689826302729529,5.555919153031762,5.555919153031762,4.425143733231123,20.462956398440273,16.46022241231822,14.83196300102775,14.83196300102775,3.96057220614973,4.425143733231123,0.022918615528531337,11.575221238938052,5.555919153031762
TXN,2013-12-31,2.9191845649799784,1.8318165271204951,0.592282489989079,35.97664891437935,107.96565276828434,143.9423016826637,26.320915926179083,9.65573298820027,0.5205243752560426,0.23203605079885292,0.22564522736583367,0.17714051618189267,0.214960058097313,0.114162002323371,0.20005551957064865,0.17009449694274598,0.785039941902687,1.0,0.22564522736583367,0.4293484000422431,0.7523827149070047,0.2778483127297026,,28.989473684210527,,1.7523827149070048,10.14546965918537,13.867298578199053,3.3807047949162334,3.5907619888202413,0.644471433097476,3.0404312668463613,2.67026055705301,3.440251572327044,0.5434782608695652,0.2772634166325276,0.8782505910165485,,,-8.21359223300971,4.435124508519004,0.5434782608695652,4.39659202368835,4.39659202368835,3.892992216304793,21.976859389454205,15.987203903095558,14.040771276595743,14.040771276595743,4.383556362090059,3.892992216304793,0.02472956900886203,12.070663289917993,4.39659202368835
TXN,2012-12-31,2.3994169096209914,1.5145772594752187,0.4128279883381924,35.005847953216374,99.31934334830416,134.32519130152053,25.098342883692116,9.907505069524259,0.49653021442495127,0.1538401559454191,0.15087719298245614,0.13715399610136453,0.09095607235142118,0.08785774936316867,0.16047805857129824,0.11662949792055934,0.9090439276485788,1.0,0.15087719298245614,0.4525248489086459,0.8265669190767265,0.2763583547897273,,22.764705882352942,,1.8265669190767266,10.426829268292684,14.542792792792794,3.6750142287990895,3.2783742331288344,0.6405773937365766,2.979057591623037,2.5471204188481678,3.4598603839441537,0.46560545764639,0.2661988304093567,0.8550087873462214,,,-6.8969696969696965,10.537037037037036,0.46560545764638994,3.431413192226987,3.431413192226987,2.932687719298246,21.38244457077885,12.885138746145941,11.016906854130053,11.016906854130053,4.391448293568559,2.932687719298246,0.021775127540032732,12.166833383549262,3.431413192226987
TXN,2011-12-31,2.237210631609031,1.280365818805373,0.2835095741640469,41.05751729159083,93.72684187850064,134.78435917009148,32.76245871032601,8.295058581264819,0.49304696032034945,0.2178376410629778,0.21514379322897706,0.16279577721150346,0.24331641285956007,0.10908913499536517,0.204163623082542,0.1738439816448994,0.7566835871404399,1.0,0.21514379322897706,0.46567790408352444,0.8715303140978816,0.27771549165732373,0.3223610939240193,70.35714285714286,0.6249520153550864,1.8715303140978816,8.889967637540453,11.1408,3.8942953020134228,3.1018518518518516,0.6700980631311899,2.780529461998292,2.0836891545687446,2.506404782237404,0.2880143112701252,0.23705860939206408,0.7493857493857494,0.6249520153550864,3.259259259259259,-3.9901960784313726,-18.930232558139537,0.2880143112701252,3.4407213294375456,3.4407213294375456,2.7435587914088093,16.852763864042934,15.443762295081967,11.573335380835381,11.573335380835381,3.5366642445867877,2.7435587914088093,0.01709003422783563,10.443863409770687,3.4407213294375456
TXN,2010-12-31,3.5638566380615853,2.3170116102978295,0.6658253407370015,39.672776743519975,85.69663268458449,125.36940942810446,35.011584800741424,4.661191942778551,0.5364456537304884,0.32321351854503794,0.325862809680653,0.23113275096663324,0.2907053394858273,0.24087754645175732,0.30928427709111816,0.39851138353765325,0.7092946605141727,1.0,0.325862809680653,0.22117752406536825,0.2839896521989077,,,,,1.2839896521989078,9.20026350461133,10.42512077294686,4.25921052631579,3.795108695652174,1.0421610327587494,3.14921681780709,2.1607584501236605,2.5325638911788952,0.18339529120198264,0.27352140913647427,0.6861256544502617,,,-3.1859883236030027,-6.29324546952224,0.18339529120198267,3.982898342435566,3.982898342435566,2.9764793068881574,12.877791201982653,15.860171690194582,10.882070680628273,10.882070680628273,2.7994194853055476,2.9764793068881574,0.014241207077013898,7.366491581259151,3.982898342435566
TXN,2009-12-31,3.8525519848771266,2.647763074984247,0.7448015122873346,44.70173587800901,80.82719233603537,125.52892821404438,33.823691967575535,10.878043910433476,0.4794284070202359,0.1909465809916563,0.19344010741344586,0.14098014769348807,0.27119484382746656,0.12129713672745276,0.1512034560789961,0.1915115837447778,0.7288051561725335,1.0,0.19344010741344586,0.19778859641884644,0.2465542069533018,,,,,1.2465542069533018,8.16523101018011,10.791252485089464,4.515806988352746,3.3017732742241925,0.8603845201749319,2.08274231678487,1.4893617021276595,2.3049645390070923,0.38571428571428573,0.25347655126114893,0.7150964812712827,,,-3.50996015936255,-14.209677419354838,0.38571428571428573,2.9368957004731535,2.9368957004731535,2.7383235830056583,19.423469387755105,15.107142857142858,10.803064699205448,10.803064699205448,4.417272876892693,2.7383235830056583,0.019858156028368792,9.30336505778382,2.9368957004731535
TXN,2008-12-31,3.779373368146214,2.253916449086162,0.6827676240208878,26.657467402607793,80.22298593350384,106.88045333611163,18.903452685421996,7.754014717185797,0.4995600351971842,0.1949444044476442,0.19846412287017037,0.15358771298296137,0.22611850060459493,0.16103329698901284,0.20587604546429336,0.23876431527283226,0.7738814993954051,1.0,0.19846412287017037,0.21781430847940955,0.27846879691185933,,,,,1.2784687969118593,13.692223439211391,19.308641975308642,4.549818181818182,3.7835956416464893,1.0484777321144008,2.515105740181269,1.938821752265861,1.918429003021148,0.2796875,0.2663786897048236,0.7708708708708709,,,-4.3643512450851905,-14.734513274336283,0.2796875,2.122431910787047,2.122431910787047,1.583377329813615,10.309270833333333,7.710868718348267,5.944084084084084,5.944084084084084,2.446142398446834,1.583377329813615,0.027129707282078228,5.295988700564972,2.122431910787047
TXN,2007-12-31,3.4162962962962964,2.3041975308641973,0.6558024691358024,45.958077340079505,79.6016610273762,125.55973836745571,36.88172869886189,9.076348641217614,0.5300325262016624,0.25276472714130827,0.2668594145283701,0.19204915070473436,0.28466955579631636,0.20975763795689586,0.2663659147869674,0.34692726931028,0.7196641386782232,1.0,0.2668594145283701,0.21252072313886478,0.269874686716792,,,,,1.269874686716792,7.942020665901263,9.896499238964992,4.585331452750353,3.8334718758658908,1.0922080997868477,3.0470262793914245,2.5726141078838176,2.0221300138312586,0.15995483628152052,0.3184676544994579,0.8443032228778938,,,-6.422740524781341,-16.881226053639846,0.15995483628152052,4.4720902255639094,4.4720902255639094,3.2243657390675824,16.789273616861124,11.991693548387097,10.124625510667274,10.124625510667274,4.350768754476915,3.2243657390675824,0.009527204090645182,9.058413562159899,4.4720902255639094
TXN,2006-12-31,3.7795957651588066,2.6424446583253127,0.5692974013474494,45.423360224482636,74.97212692967409,120.39548715415673,29.2166952544311,16.206664970051534,0.5092248333917924,0.23423360224482637,0.250368291827429,0.30059628200631355,0.27654805267581956,0.3076094759511845,0.3772007042253521,0.30113061086736415,1.2006164191650321,1.0,0.250368291827429,0.18449389806173727,0.2262323943661972,,,-509.85714285714283,,1.2262323943661972,8.035512965050733,12.492857142857142,4.8684759916492695,3.608860759493671,1.0233309404163675,1.5769230769230769,0.7615384615384615,2.3826923076923077,0.04644107351225204,0.17257102770957558,0.48292682926829267,,,-1.9339622641509433,-2.292637465051258,0.04644107351225204,4.235070422535212,4.235070422535212,3.3749842160645387,11.227631271878646,40.4969696969697,19.55707317073171,19.55707317073171,3.1389076674069334,3.3749842160645387,0.004136319797798397,7.23518347209374,4.235070422535212
TXN,2005-12-31,3.959612957509466,2.9356331510307108,0.5107278081615482,48.76530198621808,68.44833043203037,117.21363241824845,40.54913752175977,8.21616446445831,0.48771787596270777,0.20745845156059992,0.22334819618970408,0.18840697203080664,0.241016333938294,0.15428533492664143,0.19468878277624194,0.21716853224026486,0.8435571687840291,1.0,0.22334819618970408,0.20752838080063732,0.2618748429253581,0.026822109897277027,,-306.1111111111111,,1.2618748429253581,7.484830097087379,9.001424501424502,5.3324894514767935,3.306970509383378,0.8188939786231162,2.2573309395571513,1.4865350089766607,3.189706762417714,0.07444061962134252,0.3057965139845967,0.6585365853658537,,,-2.9285714285714284,-3.3829596412556056,0.0744406196213425,4.206546871073134,4.206546871073134,4.070818808269153,21.606518932874355,20.214794685990338,13.312181866383883,13.312181866383883,6.47033927183388,4.070818808269153,0.0034452851869664664,10.94730359520639,4.206546871073134
TXN,2004-12-31,5.293506493506493,4.183896103896104,1.385974025974026,49.20826709062003,66.42132715155027,115.6295942421703,29.191538684439294,20.01672840618074,0.45135135135135135,0.17543720190779014,0.1924483306836248,0.14793322734499206,0.23130937629078893,0.11417878397447696,0.14246344637525837,0.16842910811186865,0.768690623709211,1.0,0.1924483306836248,0.19853978771703787,0.24772257521243207,0.027399300126572854,,-115.28571428571429,,1.2477225752124321,7.4174528301886795,12.503623188405797,5.495222929936306,3.210821847881572,0.7718264924228481,1.7794117647058822,1.0452488687782806,3.5961538461538463,0.08275120902740463,0.25007949125596185,0.5874125874125874,,,-2.4237288135593222,-2.75,0.08275120902740461,3.1278021893898798,3.1278021893898798,3.247891891891892,21.95512090274046,22.109567099567098,12.987438016528927,12.987438016528927,6.956389562015257,3.247891891891892,0.0037691074166244067,9.764112433527476,3.1278021893898798
TXN,2003-12-31,3.504090909090909,2.6272727272727274,0.8263636363636364,53.855501321944274,62.702513966480446,116.55801528842471,43.01239525139665,10.843106070547627,0.4175310148464511,0.09812894041081961,0.1271100264388855,0.12182224933902787,0.0416,0.07724049000644745,0.10097774780849629,0.09391435011269722,0.9584,1.0,0.1271100264388855,0.2350741457124436,0.30731625084288605,0.03222122522228567,,,,1.307316250842886,6.777394900068918,8.485925925925926,5.821138211382114,2.3799612778315584,0.6340425531914894,1.2180067950169875,0.7650056625141562,2.4513023782559458,0.12270450751252086,0.21873093349603417,0.6280799628079963,,,-2.68875,-3.294027565084227,0.12270450751252086,4.666562710721511,4.666562710721511,5.629865771812081,46.21377295492488,40.98008882309401,25.738772663877267,25.738772663877267,14.626079397562247,5.629865771812081,0.002655150178545303,19.417242620590354,4.666562710721511
TXN,2002-12-31,3.167528438469493,2.186659772492244,0.4906928645294726,52.98878683049028,54.272539055147746,107.26132588563803,35.105401844532274,17.883384985958003,0.3662173446260289,0.03435524275319098,-0.041274006918764164,-0.04103542884408923,0.005780346820809248,-0.023434838885482662,-0.0320476989006894,-0.02714790113770106,0.9942196531791907,1.0,-0.041274006918764164,0.26875127733496834,0.3675237562884293,0.07201521569983574,,,,1.3675237562884293,6.888249794576828,10.397260273972602,6.725316455696203,1.7486441385064664,0.5710879487703522,1.1494518176572417,0.6866705135603001,1.7380265435660704,-0.4273255813953488,0.2376237623762376,0.5973895582329317,,,-2.483790523690773,-3.0412213740458016,-0.4273255813953489,2.5283007266629403,2.5283007266629403,3.237358940713349,-78.8918023255814,22.805697478991597,13.623885542168676,13.623885542168676,-24.501701331582897,3.237358940713349,0.0054166031044873796,20.12120625465376,2.5283007266629403
TXN,2001-12-31,3.6550632911392404,2.6215189873417724,0.2727848101265823,53.31910742592367,47.066449175824175,100.38555660174785,28.327609890109887,24.99149753581378,0.28984270210949886,-0.07096695524935984,-0.05194488477014998,-0.024509206194366542,0.0,-0.0127384498383928,-0.016920616213485985,-0.03000211282484682,0.47183098591549294,1.0,-0.05194488477014998,0.2471639520882185,0.3283104638437579,0.09251336898395722,,,,1.328310463843758,6.845575959933222,12.88495575221239,7.754993342210386,1.4673465736267668,0.5197414284808923,1.048414985590778,0.016714697406340056,1.6968299711815562,-0.7313432835820896,0.2218022192415559,0.01594282572842221,,,-1.0162011173184358,-1.1071211199026172,-0.7313432835820896,4.486842326795184,4.486842326795184,6.499109864650652,-265.1701492537313,1837.903448275862,29.301374381528312,29.301374381528312,-82.4498582357032,6.499109864650652,0.0027580151296829974,,4.486842326795184
TXN,2000-12-31,2.8848204763597582,2.2065410593672237,0.2648418059011731,67.744,73.53676470588235,141.28076470588235,59.46160130718955,8.282398692810453,0.4846315789473684,0.19696842105263157,0.3855157894736842,0.2575157894736842,0.0,0.17257336343115123,0.24292977438830632,0.30710404507949285,0.6679772826561817,1.0,0.3855157894736842,0.2896162528216704,0.407689863361932,0.088090408577224,,,,1.407689863361932,5.387931034482759,6.138415245737211,4.963503649635037,2.18009913713971,0.6701467268623025,1.2193080357142858,-0.32198660714285715,2.2338169642857144,0.046108567691301505,0.184,-0.26407322654462245,,,-0.7910934105720493,-0.8336512781381152,0.046108567691301505,6.367664442326024,6.367664442326024,6.749992421052632,26.211955526487902,-138.91882149046793,36.6847414187643,36.6847414187643,8.417889660119412,6.749992421052632,0.001759066302577369,,6.367664442326024
TXN,1999-12-31,2.304033485540335,1.7142313546423136,0.2519025875190259,71.04932403886777,62.548164672480226,133.59748871134798,49.4463597647536,21.602964274114164,0.47919307139839457,0.17912970004224757,0.2132446134347275,0.1485002112378538,0.0,0.09355869044450359,0.1519178822258239,0.16282258064516128,0.696384348687469,1.0,0.2132446134347275,0.3841495874367847,0.6237709346299297,0.10596986089644513,,,,1.6237709346299298,5.1372761801410745,7.381736526946108,5.835502958579881,2.4688396349413297,0.6300239552834709,1.2120669056152926,0.3918757467144564,1.5902031063321387,0.0953058321479374,0.21430080270384452,0.3233119763430261,,,-1.4777858703568827,-1.6376109765940274,0.09530583214793742,9.68767585089141,9.68767585089141,9.469733840304182,63.76916073968706,136.6759756097561,44.18897979300149,44.18897979300149,19.130748221906117,9.469733840304182,0.0014945442443093555,,9.68767585089141
TXN,1998-12-31,2.2067395264116576,1.6357012750455373,0.2459016393442623,57.942671394799056,40.32999629217649,98.27266768697555,34.51056729699666,23.432104097802394,0.3624113475177305,0.047163120567375885,0.07293144208037824,0.04810874704491726,0.0,0.03617777777777778,0.06235636586486901,0.06814667550254032,0.6596434359805511,1.0,0.07293144208037824,0.4198222222222222,0.723609621571932,0.1359544612126026,,,,1.7236096215719319,6.299329858525689,10.576470588235294,9.050335570469798,2.508152979543433,0.752,0.779925187032419,0.1371571072319202,1.4021197007481296,0.32678132678132676,0.1478723404255319,0.17585931254996004,,,-1.213385063045587,-1.3930957683741647,0.32678132678132676,6.07490117971503,6.07490117971503,4.68686524822695,97.42230958230958,180.23127272727274,31.69534772182254,31.69534772182254,28.004549206097593,4.68686524822695,0.003354276121992753,,6.07490117971503
TXN,1997-12-31,2.4451121794871793,1.8930288461538463,0.406650641025641,63.82820512820513,44.63985495302456,108.46806008122968,41.99274765122796,21.83545747697717,0.37774358974358974,0.06307692307692307,0.07312820512820513,0.18512820512820513,0.0,0.16637478108581435,0.30520798106188707,0.08535855381300132,2.5315568022440393,1.0,0.07312820512820513,0.4548806341598304,0.8344606019614474,0.1786111111111111,,,,1.8344606019614473,5.718475073313783,8.691977077363896,8.176549865229111,2.3325358851674642,0.8987003410452576,1.1942174732872408,0.41609050911376494,1.8981772470144562,0.07257617728531857,0.19487179487179487,0.34842105263157896,,,-1.5347334410339257,-1.7163504968383017,0.07257617728531855,3.674849509638147,3.674849509638147,2.229031794871795,12.040476454293628,32.82939577039275,11.438452631578947,11.438452631578947,3.433046243509169,2.229031794871795,0.00602768317024846,,3.674849509638147
TXN,1996-12-31,1.7916331456154464,1.1170555108608207,0.38777152051488334,66.05985915492958,35.907500699692136,101.96735985462172,39.58508256367199,26.474776591257594,0.2810865191146881,-0.0026156941649899397,-0.0023138832997987926,0.006338028169014085,0.0,0.006730769230769231,0.015377105198926043,-0.003345941227814955,-2.739130434782609,1.0,-0.0023138832997987926,0.5622863247863248,1.2845984866975837,0.29288919571971006,,,,2.2845984866975835,5.525291828793774,9.220645161290323,10.165007112375534,2.3882748678519943,1.061965811965812,0.5296442687747036,-0.8293807641633728,0.6442687747035574,2.0476190476190474,0.08088531187122737,-1.5659203980099503,,,-0.38972370334464373,-0.4157187176835574,2.0476190476190474,3.44949475225775,3.44949475225775,1.4217887323943663,224.32666666666665,-11.22524225575854,17.577835820895523,17.577835820895523,61.02650179211469,1.4217887323943663,0.009127845021928054,,3.44949475225775
TXN,1995-12-31,1.730865746549561,1.2148682559598494,0.42785445420326224,64.50335161486899,44.459647993131576,108.96299960800056,43.4803605924018,21.02299102246719,0.29021937842778794,0.12141986593540524,0.12332419256550883,0.08287629494210846,0.0,0.11806836679327185,0.2656898656898657,0.2686245229799237,0.6720197652872143,1.0,0.12332419256550883,0.555615843733044,1.2503052503052503,0.16411512553582364,,,,2.2503052503052503,5.658620689655172,8.394594594594595,8.209691629955946,4.11923438970819,1.424633749321758,1.0782664941785252,0.14747736093143596,1.0045278137128073,0.10202205882352941,0.12698049969530775,0.1367726454709058,,,-1.158443363446838,-1.2552710843373494,0.1020220588235294,2.2047960927960926,2.2047960927960926,0.687739183424741,8.298382352941175,39.59929824561404,5.416100779844031,5.416100779844031,2.2991575479654225,0.687739183424741,0.012294210423718302,,2.2047960927960926
TXN,1994-12-31,1.8267394270122783,1.2423829013187813,0.34561164165529784,51.02569074163839,43.0906170526034,94.11630779424179,0.0,51.02569074163839,0.27571497818710616,0.10499272903538535,0.10101793504604945,0.06698982064953951,0.0,0.09886965231077408,0.22737742678512668,0.2175365344467641,0.663147792706334,1.0,0.10101793504604945,0.5651738446129633,1.2997696610727212,0.21003379256563556,,,,2.2997696610727214,7.153259361997226,,8.470521541950113,4.016744548286605,1.4758906853627127,1.003274394237066,0.33529796987557303,0.8447937131630648,0.11432706222865413,0.14852157052835677,0.3342036553524804,,,-1.5019607843137255,-1.6280552603613176,0.11432706222865412,2.19076011846002,2.19076011846002,0.6454406204556472,9.634905933429811,13.003359375000002,4.345770234986945,4.345770234986945,2.636648989309556,0.6454406204556472,0.011865924070102077,,2.19076011846002
TXN,1993-12-31,1.6561719140429785,1.0524737631184409,0.20189905047476261,52.16121084125308,47.82116671979598,99.98237756104906,0.0,52.16121084125308,0.26387422269154054,0.08541593335679924,0.08166138683562126,0.05537956118737534,0.0,0.07875855164358418,0.20388768898488122,0.1743486973947896,0.6781609195402298,1.0,0.08166138683562126,0.6137160020023361,1.588768898488121,0.2306414091060153,,,,2.5887688984881208,6.997536945812808,,7.632603406326034,3.8688152519291874,1.4221591857166695,0.6234979973297731,0.13618157543391188,0.5927903871829105,0.18220338983050846,0.10958582658688255,0.21841541755888652,,,-1.2794520547945205,-1.450310559006211,0.1822033898305085,2.873053995680346,2.873053995680346,0.7803731080605422,14.09135593220339,32.60352941176471,7.121113490364026,7.121113490364026,3.7829482412976128,0.7803731080605422,0.012930153117069004,,2.873053995680346
TXN,1992-12-31,1.5771771771771772,1.1015015015015015,0.2138138138138138,47.832661290322584,46.83741258741259,94.67007387773518,0.0,47.832661290322584,0.23118279569892472,0.056451612903225805,0.04959677419354839,0.03319892473118279,0.0,0.0476374156219865,0.1268618387262455,0.10482954545454545,0.6693766937669376,1.0,0.04959677419354839,0.6244937319189972,1.6630713918849511,0.3182773109243697,,,,2.663071391884951,7.630769230769231,,7.79291553133515,3.488045007032349,1.4349083895853423,0.5868131868131868,0.2725274725274725,0.6293040293040293,0.3967611336032389,0.10766129032258065,0.46441947565543074,,,-1.867132867132867,-2.419939577039275,0.39676113360323884,2.3696456086286593,2.3696456086286593,0.6201209677419355,18.678947368421053,12.40241935483871,5.759925093632958,5.759925093632958,4.569312393887946,0.6201209677419355,0.021241086329843725,,2.3696456086286593
TXN,1991-12-31,1.5184948979591837,0.9604591836734694,0.288265306122449,48.69177476415094,52.53885552808195,101.23063029223289,0.0,48.69177476415094,0.16538915094339623,-0.036704009433962265,-0.04481132075471698,-0.060288915094339625,0.0,-0.08165302455579956,-0.2092071611253197,-0.08834641092705608,1.3453947368421053,1.0,-0.04481132075471698,0.6097025354362148,1.562148337595908,0.3142756927393897,,,,2.5621483375959078,7.496132596685083,,6.947239263803681,2.8819031435853866,1.3543621481333599,0.3178353658536585,-0.0663109756097561,0.4580792682926829,-0.2200488997555012,0.06146816037735849,-0.20863309352517986,,,-0.8273809523809523,-1.0072463768115942,-0.2200488997555012,1.5032634271099747,1.5032634271099747,0.43320754716981136,-7.1855256723716385,-33.78022988505748,7.047673860911273,7.047673860911273,-1.6894999430379194,0.43320754716981136,0.030623911149825784,,1.5032634271099747
TXN,1990-12-31,1.5584854631507776,0.9168356997971603,0.2724814063556457,52.468402619156386,60.77623427820537,113.24463689736176,0.0,52.468402619156386,0.1888229023907416,-0.00395918988883813,-0.0031978072179077205,-0.005938784833257195,0.0,-0.007725832012678288,-0.01653944020356234,-0.005884001120762118,1.8571428571428572,1.0,-0.0031978072179077205,0.5328843106180665,1.1407972858354538,0.23267165636186138,,,,2.1407972858354536,6.9565677966101696,,6.005636978579481,2.647983870967742,1.3009112519809827,0.5313935681470138,-0.16462480857580397,0.31546707503828486,-2.41025641025641,0.10567991472514085,-0.30979827089337175,,,-0.7634763476347635,-0.8515337423312883,-2.41025641025641,1.2572603901611534,1.2572603901611534,0.4514420587787422,-76.01589743589744,-13.788930232558139,4.27178674351585,4.27178674351585,-17.791534417792484,0.4514420587787422,0.03170726771053289,,1.2572603901611534
TXN,1989-12-31,1.8772064466615503,1.2125863392171912,0.3207981580966999,52.77445568843913,57.79764243614931,110.57209812458845,0.0,52.77445568843913,0.2195645507513033,0.0489113768782582,0.05443115608708985,0.044771542471634465,0.0,0.06078268109908409,0.11750503018108652,0.10139960011425307,0.8225352112676056,1.0,0.05443115608708985,0.4829308909242298,0.9336016096579477,0.19916210119239447,,,,1.9331991951710261,6.9162248144220575,,6.315136476426799,3.0619718309859154,1.3576186511240633,0.5875643855776306,-0.047093451066961,0.4687270051508462,0.33321917808219176,0.12243176939589083,-0.08015028177833437,,,-0.9257971014492754,-1.0435180345007842,0.3332191780821918,1.1156378269617706,1.1156378269617706,0.4250781968721251,9.494383561643836,-43.318125,3.471959924859111,3.471959924859111,2.312341802916483,0.4250781968721251,0.03509645212021527,,1.1156378269617706
TXN,1988-12-31,2.125938281901585,1.4361968306922435,0.451209341117598,53.33178222429037,58.1282316442606,111.46001386855097,0.0,53.33178222429037,0.25003877772607414,0.07786567395687917,0.08003722661703118,0.05677059097254537,0.0,0.08265582655826559,0.16310160427807488,0.15980179622174048,0.7093023255813954,1.0,0.08003722661703118,0.4932249322493225,0.9732620320855615,0.2175732217573222,,,,1.9732620320855614,6.843949044585988,,6.279220779220779,3.735225955967555,1.4559620596205962,0.517096536477524,0.033603537214443625,0.5747973470891673,0.23825136612021858,0.10884132154490461,0.06498503634031637,,,-1.069501600365798,-1.2334329407628757,0.23825136612021858,1.6327540106951874,1.6327540106951874,0.5683108422522104,10.01065573770492,80.34868421052633,5.221462163317657,5.221462163317657,2.4344910100475943,0.5683108422522104,0.02379977619476514,,1.6327540106951874
TXN,1987-12-31,1.8632686084142396,1.2224919093851132,0.3414239482200647,53.218707015130676,61.16439909297052,114.3831061081012,0.0,53.218707015130676,0.2419188445667125,0.07083906464924347,0.06911966987620358,0.05519257221458047,0.0,0.08112206216830932,0.1702917771883289,0.14773980154355015,0.7985074626865671,1.0,0.06911966987620358,0.5236290118776851,1.0992042440318301,0.20531197301854975,,,,2.09920424403183,6.8584905660377355,,5.967523680649526,3.8263157894736843,1.4698003538033864,0.35259146341463415,-0.0012957317073170732,0.5053353658536586,0.226791277258567,0.0795392022008253,-0.0036748811067877215,,,-0.996338574197717,-1.181609195402299,0.226791277258567,2.0602228116710877,2.0602228116710877,0.6677303988995874,12.098193146417445,-2284.423529411765,8.39498486813662,8.39498486813662,2.844593083888833,0.6677303988995874,0.01874588002636783,,2.0602228116710877
TXN,1986-12-31,1.6001796945193172,0.7942497753818508,0.18598382749326145,49.165661439485326,55.179677819083025,104.34533925856834,0.0,49.165661439485326,0.1887816646562123,0.020506634499396863,0.017490952955367914,0.012665862484921592,0.0,0.018879232843871743,0.03647944412275622,0.03911870503597122,0.7241379310344828,1.0,0.017490952955367914,0.4824692837878334,0.9322524609148813,0.09958289885297185,,,,1.9322524609148812,7.423880597014925,,6.614754098360656,3.461377870563674,1.490560383578064,0.12724279835390948,-0.23967078189300411,0.17613168724279835,0.9634920634920635,0.03108162444712505,-1.8835705045278137,,,-0.34679228353521757,-0.40145416774863674,0.9634920634920635,2.082455124493341,2.082455124493341,0.7230398069963812,57.08571428571429,-12.350274725274724,23.26261319534282,23.26261319534282,12.429953917050693,0.7230398069963812,0.01687798910021132,,2.082455124493341
