[{"Date": "2019-08-23", "Open": "31.299999237060547", "High": "31.829999923706055", "Low": "29.399999618530273", "Close": "29.540000915527344", "Adj Close": "29.540000915527344", "Volume": "83681100"},
{"Date": "2019-08-26", "Open": "30.34000015258789", "High": "30.719999313354492", "Low": "29.940000534057617", "Close": "30.280000686645508", "Adj Close": "30.280000686645508", "Volume": "50612500"},
{"Date": "2019-08-27", "Open": "30.600000381469727", "High": "30.889999389648438", "Low": "29.600000381469727", "Close": "30.200000762939453", "Adj Close": "30.200000762939453", "Volume": "53229200"},
{"Date": "2019-08-28", "Open": "29.920000076293945", "High": "31.18000030517578", "Low": "29.700000762939453", "Close": "30.780000686645508", "Adj Close": "30.780000686645508", "Volume": "55835900"},
{"Date": "2019-08-29", "Open": "31.469999313354492", "High": "31.829999923706055", "Low": "31.329999923706055", "Close": "31.450000762939453", "Adj Close": "31.450000762939453", "Volume": "44422800"},
{"Date": "2019-08-30", "Open": "31.600000381469727", "High": "31.8700008392334", "Low": "31.1299991607666", "Close": "31.450000762939453", "Adj Close": "31.450000762939453", "Volume": "40307000"},
{"Date": "2019-09-03", "Open": "30.829999923706055", "High": "31.139999389648438", "Low": "30.68000030517578", "Close": "30.899999618530273", "Adj Close": "30.899999618530273", "Volume": "38029300"},
{"Date": "2019-09-04", "Open": "31.31999969482422", "High": "31.829999923706055", "Low": "30.850000381469727", "Close": "30.950000762939453", "Adj Close": "30.950000762939453", "Volume": "46614600"},
{"Date": "2019-09-05", "Open": "31.790000915527344", "High": "32.04999923706055", "Low": "31.1200008392334", "Close": "31.5", "Adj Close": "31.5", "Volume": "57861200"},
{"Date": "2019-09-06", "Open": "31.5", "High": "31.510000228881836", "Low": "30.479999542236328", "Close": "30.559999465942383", "Adj Close": "30.559999465942383", "Volume": "51673000"},
{"Date": "2019-09-09", "Open": "30.93000030517578", "High": "31.18000030517578", "Low": "30.239999771118164", "Close": "30.5", "Adj Close": "30.5", "Volume": "54413200"},
{"Date": "2019-09-10", "Open": "30.219999313354492", "High": "30.3799991607666", "Low": "29.770000457763672", "Close": "30.229999542236328", "Adj Close": "30.229999542236328", "Volume": "48604800"},
{"Date": "2019-09-11", "Open": "30.3799991607666", "High": "30.43000030517578", "Low": "29.510000228881836", "Close": "29.760000228881836", "Adj Close": "29.760000228881836", "Volume": "50631700"},
{"Date": "2019-09-12", "Open": "30.079999923706055", "High": "30.84000015258789", "Low": "29.950000762939453", "Close": "30.209999084472656", "Adj Close": "30.209999084472656", "Volume": "53618300"},
{"Date": "2019-09-13", "Open": "30.270000457763672", "High": "30.850000381469727", "Low": "29.950000762939453", "Close": "30.690000534057617", "Adj Close": "30.690000534057617", "Volume": "47758800"},
{"Date": "2019-09-16", "Open": "30.3700008392334", "High": "31.149999618530273", "Low": "30.260000228881836", "Close": "30.829999923706055", "Adj Close": "30.829999923706055", "Volume": "52248500"},
{"Date": "2019-09-17", "Open": "31.06999969482422", "High": "31.31999969482422", "Low": "30.739999771118164", "Close": "30.989999771118164", "Adj Close": "30.989999771118164", "Volume": "35011700"},
{"Date": "2019-09-18", "Open": "30.75", "High": "30.889999389648438", "Low": "29.8799991607666", "Close": "30.420000076293945", "Adj Close": "30.420000076293945", "Volume": "47027500"},
{"Date": "2019-09-19", "Open": "30.56999969482422", "High": "30.959999084472656", "Low": "30.139999389648438", "Close": "30.290000915527344", "Adj Close": "30.290000915527344", "Volume": "41603000"},
{"Date": "2019-09-20", "Open": "30.360000610351562", "High": "30.469999313354492", "Low": "29.649999618530273", "Close": "30.049999237060547", "Adj Close": "30.049999237060547", "Volume": "79957400"},
{"Date": "2019-09-23", "Open": "30.1200008392334", "High": "30.799999237060547", "Low": "30.06999969482422", "Close": "30.639999389648438", "Adj Close": "30.639999389648438", "Volume": "44366800"},
{"Date": "2019-09-24", "Open": "30.540000915527344", "High": "30.75", "Low": "29.290000915527344", "Close": "29.520000457763672", "Adj Close": "29.520000457763672", "Volume": "72963000"},
{"Date": "2019-09-25", "Open": "29.479999542236328", "High": "29.649999618530273", "Low": "28.549999237060547", "Close": "29.540000915527344", "Adj Close": "29.540000915527344", "Volume": "58234800"},
{"Date": "2019-09-26", "Open": "29.670000076293945", "High": "29.770000457763672", "Low": "29.0", "Close": "29.469999313354492", "Adj Close": "29.469999313354492", "Volume": "40745400"},
{"Date": "2019-09-27", "Open": "29.170000076293945", "High": "29.770000457763672", "Low": "28.350000381469727", "Close": "28.719999313354492", "Adj Close": "28.719999313354492", "Volume": "54091100"},
{"Date": "2019-09-30", "Open": "28.889999389648438", "High": "29.049999237060547", "Low": "28.360000610351562", "Close": "28.989999771118164", "Adj Close": "28.989999771118164", "Volume": "37295600"},
{"Date": "2019-10-01", "Open": "29.049999237060547", "High": "29.540000915527344", "Low": "28.639999389648438", "Close": "28.760000228881836", "Adj Close": "28.760000228881836", "Volume": "37081800"},
{"Date": "2019-10-02", "Open": "28.5", "High": "28.850000381469727", "Low": "28.030000686645508", "Close": "28.309999465942383", "Adj Close": "28.309999465942383", "Volume": "43640700"},
{"Date": "2019-10-03", "Open": "28.280000686645508", "High": "28.780000686645508", "Low": "27.43000030517578", "Close": "28.68000030517578", "Adj Close": "28.68000030517578", "Volume": "56325200"},
{"Date": "2019-10-04", "Open": "28.829999923706055", "High": "29.059999465942383", "Low": "28.280000686645508", "Close": "29.010000228881836", "Adj Close": "29.010000228881836", "Volume": "34446700"},
{"Date": "2019-10-07", "Open": "28.899999618530273", "High": "29.6299991607666", "Low": "28.84000015258789", "Close": "28.93000030517578", "Adj Close": "28.93000030517578", "Volume": "39337200"},
{"Date": "2019-10-08", "Open": "28.549999237060547", "High": "28.639999389648438", "Low": "27.920000076293945", "Close": "28.229999542236328", "Adj Close": "28.229999542236328", "Volume": "44265700"},
{"Date": "2019-10-09", "Open": "28.799999237060547", "High": "28.950000762939453", "Low": "28.350000381469727", "Close": "28.459999084472656", "Adj Close": "28.459999084472656", "Volume": "35661500"},
{"Date": "2019-10-10", "Open": "28.520000457763672", "High": "28.889999389648438", "Low": "28.0", "Close": "28.3799991607666", "Adj Close": "28.3799991607666", "Volume": "40660100"},
{"Date": "2019-10-11", "Open": "28.829999923706055", "High": "30.200000762939453", "Low": "28.809999465942383", "Close": "29.75", "Adj Close": "29.75", "Volume": "66256900"},
{"Date": "2019-10-14", "Open": "29.709999084472656", "High": "30.610000610351562", "Low": "29.3799991607666", "Close": "30.530000686645508", "Adj Close": "30.530000686645508", "Volume": "44473700"},
{"Date": "2019-10-15", "Open": "30.700000762939453", "High": "30.920000076293945", "Low": "30.170000076293945", "Close": "30.719999313354492", "Adj Close": "30.719999313354492", "Volume": "41600700"},
{"Date": "2019-10-16", "Open": "30.600000381469727", "High": "31.40999984741211", "Low": "30.530000686645508", "Close": "30.809999465942383", "Adj Close": "30.809999465942383", "Volume": "42804400"},
{"Date": "2019-10-17", "Open": "31.299999237060547", "High": "31.399999618530273", "Low": "30.860000610351562", "Close": "31.139999389648438", "Adj Close": "31.139999389648438", "Volume": "36884400"},
{"Date": "2019-10-18", "Open": "31.059999465942383", "High": "31.329999923706055", "Low": "30.290000915527344", "Close": "30.969999313354492", "Adj Close": "30.969999313354492", "Volume": "39681700"},
{"Date": "2019-10-21", "Open": "31.5", "High": "32.2599983215332", "Low": "31.40999984741211", "Close": "32.029998779296875", "Adj Close": "32.029998779296875", "Volume": "52182800"},
{"Date": "2019-10-22", "Open": "32.060001373291016", "High": "32.150001525878906", "Low": "31.5", "Close": "31.510000228881836", "Adj Close": "31.510000228881836", "Volume": "36185200"},
{"Date": "2019-10-23", "Open": "31.09000015258789", "High": "31.649999618530273", "Low": "30.829999923706055", "Close": "31.360000610351562", "Adj Close": "31.360000610351562", "Volume": "26582200"},
{"Date": "2019-10-24", "Open": "31.579999923706055", "High": "31.860000610351562", "Low": "31.34000015258789", "Close": "31.719999313354492", "Adj Close": "31.719999313354492", "Volume": "27808000"},
{"Date": "2019-10-25", "Open": "31.899999618530273", "High": "32.86000061035156", "Low": "31.829999923706055", "Close": "32.709999084472656", "Adj Close": "32.709999084472656", "Volume": "45368800"},
{"Date": "2019-10-28", "Open": "33.15999984741211", "High": "33.90999984741211", "Low": "33.150001525878906", "Close": "33.689998626708984", "Adj Close": "33.689998626708984", "Volume": "51223600"},
{"Date": "2019-10-29", "Open": "33.72999954223633", "High": "33.900001525878906", "Low": "32.70000076293945", "Close": "33.029998779296875", "Adj Close": "33.029998779296875", "Volume": "78700100"},
{"Date": "2019-10-30", "Open": "32.93000030517578", "High": "33.34000015258789", "Low": "32.029998779296875", "Close": "33.130001068115234", "Adj Close": "33.130001068115234", "Volume": "78228800"},
{"Date": "2019-10-31", "Open": "32.97999954223633", "High": "34.34000015258789", "Low": "32.81999969482422", "Close": "33.93000030517578", "Adj Close": "33.93000030517578", "Volume": "67881600"},
{"Date": "2019-11-01", "Open": "34.369998931884766", "High": "35.0", "Low": "34.099998474121094", "Close": "34.88999938964844", "Adj Close": "34.88999938964844", "Volume": "64238600"},
{"Date": "2019-11-04", "Open": "35.189998626708984", "High": "36.45000076293945", "Low": "34.7599983215332", "Close": "36.290000915527344", "Adj Close": "36.290000915527344", "Volume": "83343800"},
{"Date": "2019-11-05", "Open": "36.560001373291016", "High": "37.18000030517578", "Low": "35.97999954223633", "Close": "36.150001525878906", "Adj Close": "36.150001525878906", "Volume": "84848600"},
{"Date": "2019-11-06", "Open": "36.060001373291016", "High": "36.47999954223633", "Low": "35.52000045776367", "Close": "35.93000030517578", "Adj Close": "35.93000030517578", "Volume": "51675100"},
{"Date": "2019-11-07", "Open": "36.52000045776367", "High": "36.9900016784668", "Low": "36.029998779296875", "Close": "36.279998779296875", "Adj Close": "36.279998779296875", "Volume": "54350200"},
{"Date": "2019-11-08", "Open": "36.060001373291016", "High": "36.58000183105469", "Low": "36.0", "Close": "36.290000915527344", "Adj Close": "36.290000915527344", "Volume": "39353900"},
{"Date": "2019-11-11", "Open": "35.959999084472656", "High": "36.65999984741211", "Low": "35.58000183105469", "Close": "36.310001373291016", "Adj Close": "36.310001373291016", "Volume": "43511100"},
{"Date": "2019-11-12", "Open": "36.43000030517578", "High": "37.130001068115234", "Low": "36.400001525878906", "Close": "36.709999084472656", "Adj Close": "36.709999084472656", "Volume": "58664500"},
{"Date": "2019-11-13", "Open": "36.650001525878906", "High": "37.959999084472656", "Low": "36.58000183105469", "Close": "37.52000045776367", "Adj Close": "37.52000045776367", "Volume": "67648300"},
{"Date": "2019-11-14", "Open": "37.5099983215332", "High": "38.5", "Low": "37.36000061035156", "Close": "38.349998474121094", "Adj Close": "38.349998474121094", "Volume": "65829500"},
{"Date": "2019-11-15", "Open": "38.939998626708984", "High": "39.369998931884766", "Low": "38.34000015258789", "Close": "38.560001373291016", "Adj Close": "38.560001373291016", "Volume": "62958500"},
{"Date": "2019-11-18", "Open": "38.650001525878906", "High": "39.9900016784668", "Low": "38.599998474121094", "Close": "39.880001068115234", "Adj Close": "39.880001068115234", "Volume": "66102800"},
{"Date": "2019-11-19", "Open": "40.13999938964844", "High": "41.790000915527344", "Low": "39.689998626708984", "Close": "41.290000915527344", "Adj Close": "41.290000915527344", "Volume": "94373000"},
{"Date": "2019-11-20", "Open": "40.959999084472656", "High": "41.75", "Low": "40.06999969482422", "Close": "40.97999954223633", "Adj Close": "40.97999954223633", "Volume": "79767900"},
{"Date": "2019-11-21", "Open": "40.41999816894531", "High": "40.709999084472656", "Low": "38.63999938964844", "Close": "39.52000045776367", "Adj Close": "39.52000045776367", "Volume": "88069400"},
{"Date": "2019-11-22", "Open": "39.36000061035156", "High": "39.88999938964844", "Low": "38.189998626708984", "Close": "39.150001525878906", "Adj Close": "39.150001525878906", "Volume": "56931900"},
{"Date": "2019-11-25", "Open": "39.5", "High": "40.16999816894531", "Low": "39.4900016784668", "Close": "39.790000915527344", "Adj Close": "39.790000915527344", "Volume": "45769500"},
{"Date": "2019-11-26", "Open": "39.29999923706055", "High": "39.47999954223633", "Low": "38.810001373291016", "Close": "38.9900016784668", "Adj Close": "38.9900016784668", "Volume": "43603300"},
{"Date": "2019-11-27", "Open": "39.459999084472656", "High": "39.7599983215332", "Low": "39.06999969482422", "Close": "39.40999984741211", "Adj Close": "39.40999984741211", "Volume": "33630100"},
{"Date": "2019-11-29", "Open": "39.099998474121094", "High": "39.52000045776367", "Low": "39.02000045776367", "Close": "39.150001525878906", "Adj Close": "39.150001525878906", "Volume": "17609900"},
{"Date": "2019-12-02", "Open": "39.31999969482422", "High": "39.40999984741211", "Low": "38.439998626708984", "Close": "38.72999954223633", "Adj Close": "38.72999954223633", "Volume": "35710200"},
{"Date": "2019-12-03", "Open": "37.34000015258789", "High": "38.93000030517578", "Low": "37.150001525878906", "Close": "38.900001525878906", "Adj Close": "38.900001525878906", "Volume": "51556400"},
{"Date": "2019-12-04", "Open": "39.380001068115234", "High": "39.81999969482422", "Low": "39.130001068115234", "Close": "39.689998626708984", "Adj Close": "39.689998626708984", "Volume": "44299400"},
{"Date": "2019-12-05", "Open": "39.95000076293945", "High": "40.220001220703125", "Low": "39.54999923706055", "Close": "39.619998931884766", "Adj Close": "39.619998931884766", "Volume": "35574000"},
{"Date": "2019-12-06", "Open": "40.099998474121094", "High": "40.189998626708984", "Low": "39.560001373291016", "Close": "39.630001068115234", "Adj Close": "39.630001068115234", "Volume": "31101400"},
{"Date": "2019-12-09", "Open": "39.459999084472656", "High": "39.84000015258789", "Low": "38.90999984741211", "Close": "38.93000030517578", "Adj Close": "38.93000030517578", "Volume": "27928100"},
{"Date": "2019-12-10", "Open": "39.20000076293945", "High": "39.72999954223633", "Low": "38.81999969482422", "Close": "39.439998626708984", "Adj Close": "39.439998626708984", "Volume": "33733600"},
{"Date": "2019-12-11", "Open": "39.439998626708984", "High": "39.61000061035156", "Low": "39.040000915527344", "Close": "39.470001220703125", "Adj Close": "39.470001220703125", "Volume": "31698300"},
{"Date": "2019-12-12", "Open": "39.400001525878906", "High": "42.619998931884766", "Low": "39.25", "Close": "42.59000015258789", "Adj Close": "42.59000015258789", "Volume": "86878000"},
{"Date": "2019-12-13", "Open": "42.349998474121094", "High": "42.95000076293945", "Low": "41.060001373291016", "Close": "41.150001525878906", "Adj Close": "41.150001525878906", "Volume": "79927800"},
{"Date": "2019-12-16", "Open": "41.72999954223633", "High": "42.97999954223633", "Low": "41.72999954223633", "Close": "42.349998474121094", "Adj Close": "42.349998474121094", "Volume": "58824900"},
{"Date": "2019-12-17", "Open": "42.5099983215332", "High": "43.11000061035156", "Low": "42.150001525878906", "Close": "42.77000045776367", "Adj Close": "42.77000045776367", "Volume": "44852000"},
{"Date": "2019-12-18", "Open": "42.790000915527344", "High": "43.060001373291016", "Low": "42.2400016784668", "Close": "42.29999923706055", "Adj Close": "42.29999923706055", "Volume": "39083300"},
{"Date": "2019-12-19", "Open": "42.630001068115234", "High": "43.34000015258789", "Low": "42.599998474121094", "Close": "42.83000183105469", "Adj Close": "42.83000183105469", "Volume": "45883000"},
{"Date": "2019-12-20", "Open": "43.439998626708984", "High": "44.2599983215332", "Low": "43.2599983215332", "Close": "44.150001525878906", "Adj Close": "44.150001525878906", "Volume": "68104700"},
{"Date": "2019-12-23", "Open": "44.58000183105469", "High": "45.630001068115234", "Low": "44.38999938964844", "Close": "45.459999084472656", "Adj Close": "45.459999084472656", "Volume": "55886500"},
{"Date": "2019-12-24", "Open": "46.099998474121094", "High": "46.61000061035156", "Low": "45.77000045776367", "Close": "46.540000915527344", "Adj Close": "46.540000915527344", "Volume": "44432200"},
{"Date": "2019-12-26", "Open": "46.9900016784668", "High": "47.310001373291016", "Low": "45.65999984741211", "Close": "46.630001068115234", "Adj Close": "46.630001068115234", "Volume": "57562800"},
{"Date": "2019-12-27", "Open": "46.849998474121094", "High": "46.880001068115234", "Low": "45.97999954223633", "Close": "46.18000030517578", "Adj Close": "46.18000030517578", "Volume": "36581300"},
{"Date": "2019-12-30", "Open": "46.13999938964844", "High": "46.16999816894531", "Low": "44.65999984741211", "Close": "45.52000045776367", "Adj Close": "45.52000045776367", "Volume": "41149700"},
{"Date": "2019-12-31", "Open": "45.06999969482422", "High": "46.09000015258789", "Low": "44.91999816894531", "Close": "45.86000061035156", "Adj Close": "45.86000061035156", "Volume": "31673200"},
{"Date": "2020-01-02", "Open": "46.86000061035156", "High": "49.25", "Low": "46.630001068115234", "Close": "49.099998474121094", "Adj Close": "49.099998474121094", "Volume": "80331100"},
{"Date": "2020-01-03", "Open": "48.029998779296875", "High": "49.38999938964844", "Low": "47.540000915527344", "Close": "48.599998474121094", "Adj Close": "48.599998474121094", "Volume": "73127400"},
{"Date": "2020-01-06", "Open": "48.02000045776367", "High": "48.86000061035156", "Low": "47.86000061035156", "Close": "48.38999938964844", "Adj Close": "48.38999938964844", "Volume": "47934900"},
{"Date": "2020-01-07", "Open": "49.349998474121094", "High": "49.38999938964844", "Low": "48.040000915527344", "Close": "48.25", "Adj Close": "48.25", "Volume": "58061400"},
{"Date": "2020-01-08", "Open": "47.849998474121094", "High": "48.29999923706055", "Low": "47.13999938964844", "Close": "47.83000183105469", "Adj Close": "47.83000183105469", "Volume": "53767000"},
{"Date": "2020-01-09", "Open": "48.939998626708984", "High": "49.959999084472656", "Low": "48.38999938964844", "Close": "48.970001220703125", "Adj Close": "48.970001220703125", "Volume": "76512800"},
{"Date": "2020-01-10", "Open": "49.2599983215332", "High": "49.290000915527344", "Low": "48.0", "Close": "48.16999816894531", "Adj Close": "48.16999816894531", "Volume": "44133700"},
{"Date": "2020-01-13", "Open": "48.65999984741211", "High": "48.86000061035156", "Low": "48.2400016784668", "Close": "48.75", "Adj Close": "48.75", "Volume": "34266800"},
{"Date": "2020-01-14", "Open": "48.63999938964844", "High": "49.040000915527344", "Low": "47.90999984741211", "Close": "48.209999084472656", "Adj Close": "48.209999084472656", "Volume": "38563200"},
{"Date": "2020-01-15", "Open": "48.22999954223633", "High": "49.08000183105469", "Low": "48.119998931884766", "Close": "48.54999923706055", "Adj Close": "48.54999923706055", "Volume": "40199900"},
{"Date": "2020-01-16", "Open": "49.16999816894531", "High": "50.310001373291016", "Low": "48.9900016784668", "Close": "49.77000045776367", "Adj Close": "49.77000045776367", "Volume": "58898900"},
{"Date": "2020-01-17", "Open": "50.20000076293945", "High": "51.04999923706055", "Low": "49.900001525878906", "Close": "50.93000030517578", "Adj Close": "50.93000030517578", "Volume": "57722500"},
{"Date": "2020-01-21", "Open": "50.959999084472656", "High": "51.810001373291016", "Low": "50.70000076293945", "Close": "51.04999923706055", "Adj Close": "51.04999923706055", "Volume": "49095000"},
{"Date": "2020-01-22", "Open": "51.630001068115234", "High": "51.880001068115234", "Low": "51.20000076293945", "Close": "51.43000030517578", "Adj Close": "51.43000030517578", "Volume": "40772200"},
{"Date": "2020-01-23", "Open": "51.34000015258789", "High": "51.75", "Low": "50.7400016784668", "Close": "51.709999084472656", "Adj Close": "51.709999084472656", "Volume": "40135400"},
{"Date": "2020-01-24", "Open": "52.279998779296875", "High": "52.810001373291016", "Low": "49.470001220703125", "Close": "50.349998474121094", "Adj Close": "50.349998474121094", "Volume": "80004900"},
{"Date": "2020-01-27", "Open": "48.45000076293945", "High": "49.790000915527344", "Low": "47.900001525878906", "Close": "49.2599983215332", "Adj Close": "49.2599983215332", "Volume": "48878600"},
{"Date": "2020-01-28", "Open": "50.029998779296875", "High": "50.849998474121094", "Low": "49.47999954223633", "Close": "50.529998779296875", "Adj Close": "50.529998779296875", "Volume": "62343800"},
{"Date": "2020-01-29", "Open": "47.84000015258789", "High": "48.06999969482422", "Low": "46.099998474121094", "Close": "47.5099983215332", "Adj Close": "47.5099983215332", "Volume": "112349900"},
{"Date": "2020-01-30", "Open": "46.4900016784668", "High": "48.810001373291016", "Low": "46.130001068115234", "Close": "48.779998779296875", "Adj Close": "48.779998779296875", "Volume": "70460200"},
{"Date": "2020-01-31", "Open": "48.400001525878906", "High": "48.58000183105469", "Low": "46.790000915527344", "Close": "47.0", "Adj Close": "47.0", "Volume": "60322400"},
{"Date": "2020-02-03", "Open": "46.400001525878906", "High": "48.099998474121094", "Low": "46.22999954223633", "Close": "48.02000045776367", "Adj Close": "48.02000045776367", "Volume": "47077000"},
{"Date": "2020-02-04", "Open": "49.209999084472656", "High": "49.75", "Low": "48.61000061035156", "Close": "49.45000076293945", "Adj Close": "49.45000076293945", "Volume": "46302100"},
{"Date": "2020-02-05", "Open": "50.290000915527344", "High": "50.41999816894531", "Low": "49.310001373291016", "Close": "49.84000015258789", "Adj Close": "49.84000015258789", "Volume": "42737100"},
{"Date": "2020-02-06", "Open": "48.79999923706055", "High": "49.38999938964844", "Low": "47.630001068115234", "Close": "49.31999969482422", "Adj Close": "49.31999969482422", "Volume": "48670600"},
{"Date": "2020-02-07", "Open": "48.90999984741211", "High": "50.66999816894531", "Low": "48.63999938964844", "Close": "49.72999954223633", "Adj Close": "49.72999954223633", "Volume": "53107600"},
{"Date": "2020-02-10", "Open": "49.470001220703125", "High": "52.29999923706055", "Low": "49.349998474121094", "Close": "52.2599983215332", "Adj Close": "52.2599983215332", "Volume": "60971700"},
{"Date": "2020-02-11", "Open": "53.220001220703125", "High": "54.47999954223633", "Low": "52.90999984741211", "Close": "53.79999923706055", "Adj Close": "53.79999923706055", "Volume": "74719100"},
{"Date": "2020-02-12", "Open": "54.529998779296875", "High": "54.849998474121094", "Low": "53.529998779296875", "Close": "53.88999938964844", "Adj Close": "53.88999938964844", "Volume": "45994900"},
{"Date": "2020-02-13", "Open": "53.43000030517578", "High": "55.029998779296875", "Low": "53.34000015258789", "Close": "54.529998779296875", "Adj Close": "54.529998779296875", "Volume": "51640000"},
{"Date": "2020-02-14", "Open": "55.189998626708984", "High": "55.400001525878906", "Low": "54.560001373291016", "Close": "55.310001373291016", "Adj Close": "55.310001373291016", "Volume": "52365400"},
{"Date": "2020-02-18", "Open": "54.939998626708984", "High": "58.130001068115234", "Low": "54.84000015258789", "Close": "56.88999938964844", "Adj Close": "56.88999938964844", "Volume": "70133200"},
{"Date": "2020-02-19", "Open": "57.9900016784668", "High": "59.27000045776367", "Low": "57.5099983215332", "Close": "58.900001525878906", "Adj Close": "58.900001525878906", "Volume": "58597300"},
{"Date": "2020-02-20", "Open": "58.439998626708984", "High": "59.02000045776367", "Low": "56.150001525878906", "Close": "57.27000045776367", "Adj Close": "57.27000045776367", "Volume": "74203400"},
{"Date": "2020-02-21", "Open": "56.709999084472656", "High": "56.79999923706055", "Low": "52.88999938964844", "Close": "53.279998779296875", "Adj Close": "53.279998779296875", "Volume": "88445100"},
{"Date": "2020-02-24", "Open": "48.18000030517578", "High": "50.279998779296875", "Low": "47.4900016784668", "Close": "49.119998931884766", "Adj Close": "49.119998931884766", "Volume": "86624100"},
{"Date": "2020-02-25", "Open": "51.13999938964844", "High": "51.2400016784668", "Low": "47.119998931884766", "Close": "47.56999969482422", "Adj Close": "47.56999969482422", "Volume": "88699400"},
{"Date": "2020-02-26", "Open": "47.70000076293945", "High": "49.290000915527344", "Low": "47.06999969482422", "Close": "47.4900016784668", "Adj Close": "47.4900016784668", "Volume": "86378400"},
{"Date": "2020-02-27", "Open": "45.380001068115234", "High": "46.2400016784668", "Low": "42.209999084472656", "Close": "44.0099983215332", "Adj Close": "44.0099983215332", "Volume": "105957300"},
{"Date": "2020-02-28", "Open": "41.36000061035156", "High": "46.150001525878906", "Low": "41.040000915527344", "Close": "45.47999954223633", "Adj Close": "45.47999954223633", "Volume": "100667700"},
{"Date": "2020-03-02", "Open": "47.41999816894531", "High": "47.68000030517578", "Low": "44.65999984741211", "Close": "47.459999084472656", "Adj Close": "47.459999084472656", "Volume": "102324700"},
{"Date": "2020-03-03", "Open": "49.029998779296875", "High": "50.20000076293945", "Low": "45.66999816894531", "Close": "46.75", "Adj Close": "46.75", "Volume": "141972300"},
{"Date": "2020-03-04", "Open": "48.25", "High": "50.13999938964844", "Low": "47.209999084472656", "Close": "50.11000061035156", "Adj Close": "50.11000061035156", "Volume": "93311800"},
{"Date": "2020-03-05", "Open": "48.68000030517578", "High": "49.720001220703125", "Low": "47.5099983215332", "Close": "48.11000061035156", "Adj Close": "48.11000061035156", "Volume": "98302700"},
{"Date": "2020-03-06", "Open": "49.439998626708984", "High": "49.540000915527344", "Low": "46.7400016784668", "Close": "48.59000015258789", "Adj Close": "48.59000015258789", "Volume": "124590900"},
{"Date": "2020-03-09", "Open": "43.029998779296875", "High": "46.34000015258789", "Low": "42.5099983215332", "Close": "43.27000045776367", "Adj Close": "43.27000045776367", "Volume": "80859800"},
{"Date": "2020-03-10", "Open": "45.40999984741211", "High": "45.439998626708984", "Low": "43.099998474121094", "Close": "45.380001068115234", "Adj Close": "45.380001068115234", "Volume": "76228200"},
{"Date": "2020-03-11", "Open": "44.189998626708984", "High": "45.970001220703125", "Low": "43.79999923706055", "Close": "45.70000076293945", "Adj Close": "45.70000076293945", "Volume": "101601100"},
{"Date": "2020-03-12", "Open": "42.0", "High": "42.5", "Low": "39.0", "Close": "39.0099983215332", "Adj Close": "39.0099983215332", "Volume": "107461500"},
{"Date": "2020-03-13", "Open": "42.20000076293945", "High": "43.90999984741211", "Low": "39.599998474121094", "Close": "43.900001525878906", "Adj Close": "43.900001525878906", "Volume": "86689700"},
{"Date": "2020-03-16", "Open": "39.08000183105469", "High": "43.369998931884766", "Low": "38.5099983215332", "Close": "38.709999084472656", "Adj Close": "38.709999084472656", "Volume": "84545900"},
{"Date": "2020-03-17", "Open": "40.189998626708984", "High": "42.880001068115234", "Low": "38.29999923706055", "Close": "41.880001068115234", "Adj Close": "41.880001068115234", "Volume": "92741900"},
{"Date": "2020-03-18", "Open": "39.540000915527344", "High": "41.95000076293945", "Low": "36.75", "Close": "39.119998931884766", "Adj Close": "39.119998931884766", "Volume": "106949300"},
{"Date": "2020-03-19", "Open": "39.560001373291016", "High": "41.70000076293945", "Low": "37.689998626708984", "Close": "39.81999969482422", "Adj Close": "39.81999969482422", "Volume": "88939000"},
{"Date": "2020-03-20", "Open": "41.5099983215332", "High": "42.47999954223633", "Low": "39.58000183105469", "Close": "39.61000061035156", "Adj Close": "39.61000061035156", "Volume": "106859500"},
{"Date": "2020-03-23", "Open": "40.619998931884766", "High": "42.31999969482422", "Low": "38.95000076293945", "Close": "41.63999938964844", "Adj Close": "41.63999938964844", "Volume": "101704700"},
{"Date": "2020-03-24", "Open": "44.040000915527344", "High": "46.810001373291016", "Low": "43.9900016784668", "Close": "46.220001220703125", "Adj Close": "46.220001220703125", "Volume": "106794200"},
{"Date": "2020-03-25", "Open": "46.790000915527344", "High": "47.880001068115234", "Low": "44.43000030517578", "Close": "44.630001068115234", "Adj Close": "44.630001068115234", "Volume": "93760400"},
{"Date": "2020-03-26", "Open": "45.779998779296875", "High": "47.5", "Low": "45.400001525878906", "Close": "47.5", "Adj Close": "47.5", "Volume": "73680200"},
{"Date": "2020-03-27", "Open": "46.31999969482422", "High": "47.97999954223633", "Low": "45.900001525878906", "Close": "46.58000183105469", "Adj Close": "46.58000183105469", "Volume": "74599200"},
{"Date": "2020-03-30", "Open": "47.2400016784668", "High": "48.459999084472656", "Low": "46.65999984741211", "Close": "47.86000061035156", "Adj Close": "47.86000061035156", "Volume": "68486600"},
{"Date": "2020-03-31", "Open": "47.93000030517578", "High": "48.529998779296875", "Low": "45.15999984741211", "Close": "45.47999954223633", "Adj Close": "45.47999954223633", "Volume": "83483700"},
{"Date": "2020-04-01", "Open": "44.18000030517578", "High": "46.849998474121094", "Low": "43.15999984741211", "Close": "43.65999984741211", "Adj Close": "43.65999984741211", "Volume": "92083100"},
{"Date": "2020-04-02", "Open": "43.400001525878906", "High": "45.279998779296875", "Low": "43.099998474121094", "Close": "44.4900016784668", "Adj Close": "44.4900016784668", "Volume": "79024100"},
{"Date": "2020-04-03", "Open": "44.29999923706055", "High": "44.84000015258789", "Low": "41.70000076293945", "Close": "42.59000015258789", "Adj Close": "42.59000015258789", "Volume": "79335000"},
{"Date": "2020-04-06", "Open": "44.29999923706055", "High": "47.58000183105469", "Low": "44.060001373291016", "Close": "47.52000045776367", "Adj Close": "47.52000045776367", "Volume": "82294000"},
{"Date": "2020-04-07", "Open": "48.959999084472656", "High": "49.650001525878906", "Low": "46.68000030517578", "Close": "47.560001373291016", "Adj Close": "47.560001373291016", "Volume": "102098700"},
{"Date": "2020-04-08", "Open": "48.06999969482422", "High": "49.0", "Low": "47.61000061035156", "Close": "48.790000915527344", "Adj Close": "48.790000915527344", "Volume": "64930800"},
{"Date": "2020-04-09", "Open": "49.650001525878906", "High": "50.25", "Low": "47.720001220703125", "Close": "48.380001068115234", "Adj Close": "48.380001068115234", "Volume": "80357400"},
{"Date": "2020-04-13", "Open": "48.470001220703125", "High": "51.06999969482422", "Low": "48.22999954223633", "Close": "50.939998626708984", "Adj Close": "50.939998626708984", "Volume": "64290100"},
{"Date": "2020-04-14", "Open": "52.2400016784668", "High": "55.13999938964844", "Low": "52.11000061035156", "Close": "54.93000030517578", "Adj Close": "54.93000030517578", "Volume": "85306800"},
{"Date": "2020-04-15", "Open": "53.72999954223633", "High": "55.56999969482422", "Low": "53.40999984741211", "Close": "54.9900016784668", "Adj Close": "54.9900016784668", "Volume": "83814000"},
{"Date": "2020-04-16", "Open": "55.959999084472656", "High": "58.08000183105469", "Low": "55.630001068115234", "Close": "56.95000076293945", "Adj Close": "56.95000076293945", "Volume": "103106500"},
{"Date": "2020-04-17", "Open": "57.349998474121094", "High": "57.7599983215332", "Low": "55.54999923706055", "Close": "56.599998474121094", "Adj Close": "56.599998474121094", "Volume": "76908800"},
{"Date": "2020-04-20", "Open": "55.97999954223633", "High": "58.630001068115234", "Low": "55.849998474121094", "Close": "56.970001220703125", "Adj Close": "56.970001220703125", "Volume": "72367300"},
{"Date": "2020-04-21", "Open": "56.900001525878906", "High": "57.72999954223633", "Low": "51.40999984741211", "Close": "52.91999816894531", "Adj Close": "52.91999816894531", "Volume": "123906400"},
{"Date": "2020-04-22", "Open": "54.90999984741211", "High": "56.150001525878906", "Low": "54.34000015258789", "Close": "55.91999816894531", "Adj Close": "55.91999816894531", "Volume": "63164100"},
{"Date": "2020-04-23", "Open": "56.650001525878906", "High": "57.290000915527344", "Low": "55.63999938964844", "Close": "55.900001525878906", "Adj Close": "55.900001525878906", "Volume": "69662700"},
{"Date": "2020-04-24", "Open": "55.099998474121094", "High": "56.779998779296875", "Low": "54.41999816894531", "Close": "56.18000030517578", "Adj Close": "56.18000030517578", "Volume": "72854800"},
{"Date": "2020-04-27", "Open": "57.439998626708984", "High": "58.0", "Low": "56.25", "Close": "56.4900016784668", "Adj Close": "56.4900016784668", "Volume": "62568100"},
{"Date": "2020-04-28", "Open": "57.15999984741211", "High": "57.349998474121094", "Low": "55.29999923706055", "Close": "55.5099983215332", "Adj Close": "55.5099983215332", "Volume": "80501800"},
{"Date": "2020-04-29", "Open": "54.529998779296875", "High": "54.86000061035156", "Low": "52.7400016784668", "Close": "53.65999984741211", "Adj Close": "53.65999984741211", "Volume": "110800900"},
{"Date": "2020-04-30", "Open": "53.43000030517578", "High": "54.290000915527344", "Low": "52.029998779296875", "Close": "52.38999938964844", "Adj Close": "52.38999938964844", "Volume": "65199200"},
{"Date": "2020-05-01", "Open": "51.06999969482422", "High": "51.95000076293945", "Low": "49.09000015258789", "Close": "49.880001068115234", "Adj Close": "49.880001068115234", "Volume": "69562700"},
{"Date": "2020-05-04", "Open": "49.81999969482422", "High": "52.61000061035156", "Low": "49.72999954223633", "Close": "52.560001373291016", "Adj Close": "52.560001373291016", "Volume": "62590600"},
{"Date": "2020-05-05", "Open": "53.43000030517578", "High": "53.5099983215332", "Low": "51.290000915527344", "Close": "52.189998626708984", "Adj Close": "52.189998626708984", "Volume": "56560500"},
{"Date": "2020-05-06", "Open": "52.41999816894531", "High": "53.310001373291016", "Low": "51.880001068115234", "Close": "52.15999984741211", "Adj Close": "52.15999984741211", "Volume": "48138100"},
{"Date": "2020-05-07", "Open": "52.93000030517578", "High": "52.970001220703125", "Low": "51.619998931884766", "Close": "51.95000076293945", "Adj Close": "51.95000076293945", "Volume": "48956600"},
{"Date": "2020-05-08", "Open": "52.150001525878906", "High": "53.27000045776367", "Low": "51.810001373291016", "Close": "53.189998626708984", "Adj Close": "53.189998626708984", "Volume": "40774200"},
{"Date": "2020-05-11", "Open": "52.900001525878906", "High": "55.88999938964844", "Low": "52.75", "Close": "55.7400016784668", "Adj Close": "55.7400016784668", "Volume": "68574000"},
{"Date": "2020-05-12", "Open": "56.209999084472656", "High": "56.58000183105469", "Low": "53.75", "Close": "53.7599983215332", "Adj Close": "53.7599983215332", "Volume": "55631100"},
{"Date": "2020-05-13", "Open": "54.040000915527344", "High": "55.220001220703125", "Low": "51.29999923706055", "Close": "52.18000030517578", "Adj Close": "52.18000030517578", "Volume": "76824700"},
{"Date": "2020-05-14", "Open": "52.099998474121094", "High": "54.540000915527344", "Low": "51.61000061035156", "Close": "54.5099983215332", "Adj Close": "54.5099983215332", "Volume": "73814000"},
{"Date": "2020-05-15", "Open": "53.31999969482422", "High": "54.439998626708984", "Low": "52.86000061035156", "Close": "54.20000076293945", "Adj Close": "54.20000076293945", "Volume": "66950900"},
{"Date": "2020-05-18", "Open": "54.97999954223633", "High": "55.25", "Low": "54.2400016784668", "Close": "54.59000015258789", "Adj Close": "54.59000015258789", "Volume": "48679100"},
{"Date": "2020-05-19", "Open": "54.38999938964844", "High": "56.72999954223633", "Low": "54.36000061035156", "Close": "55.470001220703125", "Adj Close": "55.470001220703125", "Volume": "60388500"},
{"Date": "2020-05-20", "Open": "56.54999923706055", "High": "56.97999954223633", "Low": "55.630001068115234", "Close": "56.38999938964844", "Adj Close": "56.38999938964844", "Volume": "50888200"},
{"Date": "2020-05-21", "Open": "56.68000030517578", "High": "56.720001220703125", "Low": "54.61000061035156", "Close": "54.650001525878906", "Adj Close": "54.650001525878906", "Volume": "48496100"},
{"Date": "2020-05-22", "Open": "54.77000045776367", "High": "55.369998931884766", "Low": "53.779998779296875", "Close": "55.16999816894531", "Adj Close": "55.16999816894531", "Volume": "43524100"},
{"Date": "2020-05-26", "Open": "56.0099983215332", "High": "56.08000183105469", "Low": "53.02000045776367", "Close": "53.189998626708984", "Adj Close": "53.189998626708984", "Volume": "51618900"},
{"Date": "2020-05-27", "Open": "53.27000045776367", "High": "53.279998779296875", "Low": "49.09000015258789", "Close": "52.7400016784668", "Adj Close": "52.7400016784668", "Volume": "102414500"},
{"Date": "2020-05-28", "Open": "52.25", "High": "53.540000915527344", "Low": "51.25", "Close": "51.7400016784668", "Adj Close": "51.7400016784668", "Volume": "53670200"},
{"Date": "2020-05-29", "Open": "52.06999969482422", "High": "53.79999923706055", "Low": "51.849998474121094", "Close": "53.79999923706055", "Adj Close": "53.79999923706055", "Volume": "64948300"},
{"Date": "2020-06-01", "Open": "53.310001373291016", "High": "54.11000061035156", "Low": "52.88999938964844", "Close": "53.630001068115234", "Adj Close": "53.630001068115234", "Volume": "36864400"},
{"Date": "2020-06-02", "Open": "53.45000076293945", "High": "53.56999969482422", "Low": "52.0099983215332", "Close": "53.540000915527344", "Adj Close": "53.540000915527344", "Volume": "42855200"},
{"Date": "2020-06-03", "Open": "53.599998474121094", "High": "53.650001525878906", "Low": "52.33000183105469", "Close": "52.72999954223633", "Adj Close": "52.72999954223633", "Volume": "46765300"},
{"Date": "2020-06-04", "Open": "52.59000015258789", "High": "53.7400016784668", "Low": "52.20000076293945", "Close": "52.630001068115234", "Adj Close": "52.630001068115234", "Volume": "44869100"},
{"Date": "2020-06-05", "Open": "52.9900016784668", "High": "53.56999969482422", "Low": "52.08000183105469", "Close": "53.099998474121094", "Adj Close": "53.099998474121094", "Volume": "53908300"},
{"Date": "2020-06-08", "Open": "53.29999923706055", "High": "53.349998474121094", "Low": "52.2599983215332", "Close": "52.970001220703125", "Adj Close": "52.970001220703125", "Volume": "39681700"},
{"Date": "2020-06-09", "Open": "52.95000076293945", "High": "56.459999084472656", "Low": "52.720001220703125", "Close": "56.38999938964844", "Adj Close": "56.38999938964844", "Volume": "79919100"},
{"Date": "2020-06-10", "Open": "57.20000076293945", "High": "59.0", "Low": "57.029998779296875", "Close": "57.439998626708984", "Adj Close": "57.439998626708984", "Volume": "78719400"},
{"Date": "2020-06-11", "Open": "55.939998626708984", "High": "56.68000030517578", "Low": "52.79999923706055", "Close": "52.83000183105469", "Adj Close": "52.83000183105469", "Volume": "78715400"},
{"Date": "2020-06-12", "Open": "55.0099983215332", "High": "55.599998474121094", "Low": "52.11000061035156", "Close": "53.5", "Adj Close": "53.5", "Volume": "71096500"},
{"Date": "2020-06-15", "Open": "52.58000183105469", "High": "54.72999954223633", "Low": "52.40999984741211", "Close": "54.68000030517578", "Adj Close": "54.68000030517578", "Volume": "56740700"},
{"Date": "2020-06-16", "Open": "55.720001220703125", "High": "56.06999969482422", "Low": "53.59000015258789", "Close": "54.459999084472656", "Adj Close": "54.459999084472656", "Volume": "50949700"},
{"Date": "2020-06-17", "Open": "54.790000915527344", "High": "55.81999969482422", "Low": "54.29999923706055", "Close": "54.54999923706055", "Adj Close": "54.54999923706055", "Volume": "45008100"},
{"Date": "2020-06-18", "Open": "54.619998931884766", "High": "55.119998931884766", "Low": "53.650001525878906", "Close": "54.040000915527344", "Adj Close": "54.040000915527344", "Volume": "40354700"},
{"Date": "2020-06-19", "Open": "54.40999984741211", "High": "55.459999084472656", "Low": "53.81999969482422", "Close": "54.22999954223633", "Adj Close": "54.22999954223633", "Volume": "52801500"},
{"Date": "2020-06-22", "Open": "54.66999816894531", "High": "55.16999816894531", "Low": "53.7400016784668", "Close": "54.7599983215332", "Adj Close": "54.7599983215332", "Volume": "44704800"},
{"Date": "2020-06-23", "Open": "55.04999923706055", "High": "55.369998931884766", "Low": "53.869998931884766", "Close": "53.9900016784668", "Adj Close": "53.9900016784668", "Volume": "48089000"},
{"Date": "2020-06-24", "Open": "53.939998626708984", "High": "54.7400016784668", "Low": "51.91999816894531", "Close": "52.38999938964844", "Adj Close": "52.38999938964844", "Volume": "53535500"},
{"Date": "2020-06-25", "Open": "52.560001373291016", "High": "52.70000076293945", "Low": "50.540000915527344", "Close": "51.93000030517578", "Adj Close": "51.93000030517578", "Volume": "51129600"},
{"Date": "2020-06-26", "Open": "51.849998474121094", "High": "51.95000076293945", "Low": "49.45000076293945", "Close": "50.099998474121094", "Adj Close": "50.099998474121094", "Volume": "65485700"},
{"Date": "2020-06-29", "Open": "50.150001525878906", "High": "50.279998779296875", "Low": "48.41999816894531", "Close": "50.279998779296875", "Adj Close": "50.279998779296875", "Volume": "49905800"},
{"Date": "2020-06-30", "Open": "51.15999984741211", "High": "52.77000045776367", "Low": "50.81999969482422", "Close": "52.61000061035156", "Adj Close": "52.61000061035156", "Volume": "42275700"},
{"Date": "2020-07-01", "Open": "52.630001068115234", "High": "52.869998931884766", "Low": "51.599998474121094", "Close": "52.58000183105469", "Adj Close": "52.58000183105469", "Volume": "32370900"},
{"Date": "2020-07-02", "Open": "53.029998779296875", "High": "53.189998626708984", "Low": "52.04999923706055", "Close": "52.34000015258789", "Adj Close": "52.34000015258789", "Volume": "29081400"},
{"Date": "2020-07-06", "Open": "52.900001525878906", "High": "53.52000045776367", "Low": "52.33000183105469", "Close": "53.400001525878906", "Adj Close": "53.400001525878906", "Volume": "36769400"},
{"Date": "2020-07-07", "Open": "53.279998779296875", "High": "54.16999816894531", "Low": "52.86000061035156", "Close": "52.93000030517578", "Adj Close": "52.93000030517578", "Volume": "32153100"},
{"Date": "2020-07-08", "Open": "53.0099983215332", "High": "53.470001220703125", "Low": "52.06999969482422", "Close": "53.43000030517578", "Adj Close": "53.43000030517578", "Volume": "35608300"},
{"Date": "2020-07-09", "Open": "53.52000045776367", "High": "57.58000183105469", "Low": "53.310001373291016", "Close": "57.2599983215332", "Adj Close": "57.2599983215332", "Volume": "87216300"},
{"Date": "2020-07-10", "Open": "57.540000915527344", "High": "58.150001525878906", "Low": "55.5099983215332", "Close": "55.880001068115234", "Adj Close": "55.880001068115234", "Volume": "59839700"},
{"Date": "2020-07-13", "Open": "56.68000030517578", "High": "58.349998474121094", "Low": "53.380001068115234", "Close": "53.59000015258789", "Adj Close": "53.59000015258789", "Volume": "57741800"},
{"Date": "2020-07-14", "Open": "53.29999923706055", "High": "54.86000061035156", "Low": "52.2599983215332", "Close": "54.720001220703125", "Adj Close": "54.720001220703125", "Volume": "54890100"},
{"Date": "2020-07-15", "Open": "54.959999084472656", "High": "55.369998931884766", "Low": "53.59000015258789", "Close": "55.34000015258789", "Adj Close": "55.34000015258789", "Volume": "42360300"},
{"Date": "2020-07-16", "Open": "54.68000030517578", "High": "55.150001525878906", "Low": "53.7400016784668", "Close": "54.91999816894531", "Adj Close": "54.91999816894531", "Volume": "36887100"},
{"Date": "2020-07-17", "Open": "55.310001373291016", "High": "55.810001373291016", "Low": "54.68000030517578", "Close": "55.040000915527344", "Adj Close": "55.040000915527344", "Volume": "34710400"},
{"Date": "2020-07-20", "Open": "55.22999954223633", "High": "57.529998779296875", "Low": "54.83000183105469", "Close": "57.459999084472656", "Adj Close": "57.459999084472656", "Volume": "45034300"},
{"Date": "2020-07-21", "Open": "57.810001373291016", "High": "58.5", "Low": "56.31999969482422", "Close": "57.0", "Adj Close": "57.0", "Volume": "44800700"},
{"Date": "2020-07-22", "Open": "57.06999969482422", "High": "62.0", "Low": "56.970001220703125", "Close": "61.790000915527344", "Adj Close": "61.790000915527344", "Volume": "135159400"},
{"Date": "2020-07-23", "Open": "61.630001068115234", "High": "62.33000183105469", "Low": "58.630001068115234", "Close": "59.56999969482422", "Adj Close": "59.56999969482422", "Volume": "106829100"},
{"Date": "2020-07-24", "Open": "64.18000030517578", "High": "69.94000244140625", "Low": "64.05000305175781", "Close": "69.4000015258789", "Adj Close": "69.4000015258789", "Volume": "205314500"},
{"Date": "2020-07-27", "Open": "69.27999877929688", "High": "71.62999725341797", "Low": "67.79000091552734", "Close": "68.97000122070312", "Adj Close": "68.97000122070312", "Volume": "107918100"},
{"Date": "2020-07-28", "Open": "68.0999984741211", "High": "69.80000305175781", "Low": "67.0199966430664", "Close": "67.61000061035156", "Adj Close": "67.61000061035156", "Volume": "94181400"},
{"Date": "2020-07-29", "Open": "75.5", "High": "77.19000244140625", "Low": "73.9000015258789", "Close": "76.08999633789062", "Adj Close": "76.08999633789062", "Volume": "132969700"},
{"Date": "2020-07-30", "Open": "75.37000274658203", "High": "78.95999908447266", "Low": "75.06999969482422", "Close": "78.19999694824219", "Adj Close": "78.19999694824219", "Volume": "80286900"},
{"Date": "2020-07-31", "Open": "78.66999816894531", "High": "78.95999908447266", "Low": "75.36000061035156", "Close": "77.43000030517578", "Adj Close": "77.43000030517578", "Volume": "71699700"},
{"Date": "2020-08-03", "Open": "78.19000244140625", "High": "78.5", "Low": "77.05999755859375", "Close": "77.66999816894531", "Adj Close": "77.66999816894531", "Volume": "42628800"},
{"Date": "2020-08-04", "Open": "78.02999877929688", "High": "85.80999755859375", "Low": "77.98999786376953", "Close": "85.04000091552734", "Adj Close": "85.04000091552734", "Volume": "155676100"},
{"Date": "2020-08-05", "Open": "84.95999908447266", "High": "86.31999969482422", "Low": "83.31999969482422", "Close": "85.30999755859375", "Adj Close": "85.30999755859375", "Volume": "65737300"},
{"Date": "2020-08-06", "Open": "85.48999786376953", "High": "86.9800033569336", "Low": "84.77999877929688", "Close": "86.70999908447266", "Adj Close": "86.70999908447266", "Volume": "53961700"},
{"Date": "2020-08-07", "Open": "86.66999816894531", "High": "87.29000091552734", "Low": "82.66999816894531", "Close": "84.8499984741211", "Adj Close": "84.8499984741211", "Volume": "66498000"},
{"Date": "2020-08-10", "Open": "85.05000305175781", "High": "85.16000366210938", "Low": "79.31999969482422", "Close": "82.23999786376953", "Adj Close": "82.23999786376953", "Volume": "70536100"},
{"Date": "2020-08-11", "Open": "80.70999908447266", "High": "80.70999908447266", "Low": "76.0999984741211", "Close": "76.87999725341797", "Adj Close": "76.87999725341797", "Volume": "77877700"},
{"Date": "2020-08-12", "Open": "78.43000030517578", "High": "82.87999725341797", "Low": "77.55000305175781", "Close": "82.61000061035156", "Adj Close": "82.61000061035156", "Volume": "88607800"},
{"Date": "2020-08-13", "Open": "82.87999725341797", "High": "84.0199966430664", "Low": "81.54000091552734", "Close": "81.83999633789062", "Adj Close": "81.83999633789062", "Volume": "57407400"},
{"Date": "2020-08-14", "Open": "81.80999755859375", "High": "83.23999786376953", "Low": "80.87999725341797", "Close": "81.30000305175781", "Adj Close": "81.30000305175781", "Volume": "42389500"},
{"Date": "2020-08-17", "Open": "82.08999633789062", "High": "83.05999755859375", "Low": "81.55000305175781", "Close": "82.41999816894531", "Adj Close": "82.41999816894531", "Volume": "31450200"},
{"Date": "2020-08-18", "Open": "82.80000305175781", "High": "82.87999725341797", "Low": "81.02999877929688", "Close": "81.66000366210938", "Adj Close": "81.66000366210938", "Volume": "30970500"},
{"Date": "2020-08-19", "Open": "81.77999877929688", "High": "81.8499984741211", "Low": "80.44999694824219", "Close": "81.08999633789062", "Adj Close": "81.08999633789062", "Volume": "37507400"},
{"Date": "2020-08-20", "Open": "79.73999786376953", "High": "82.83999633789062", "Low": "79.12000274658203", "Close": "82.7699966430664", "Adj Close": "82.7699966430664", "Volume": "42948900"},
{"Date": "2020-08-21", "Open": "83.29000091552734", "High": "84.41000366210938", "Low": "82.2300033569336", "Close": "83.80999755859375", "Adj Close": "83.80999755859375", "Volume": "48241100"},
{}]