[{"Date": "2019-08-23", "Open": "215.7100067138672", "High": "218.19000244140625", "Low": "210.0800018310547", "Close": "210.7100067138672", "Adj Close": "210.7100067138672", "Volume": "618700"},
{"Date": "2019-08-26", "Open": "212.85000610351562", "High": "213.7100067138672", "Low": "210.6999969482422", "Close": "211.8000030517578", "Adj Close": "211.8000030517578", "Volume": "420200"},
{"Date": "2019-08-27", "Open": "213.57000732421875", "High": "214.27000427246094", "Low": "208.55999755859375", "Close": "211.0399932861328", "Adj Close": "211.0399932861328", "Volume": "646600"},
{"Date": "2019-08-28", "Open": "209.35000610351562", "High": "209.35000610351562", "Low": "203.27000427246094", "Close": "204.13999938964844", "Adj Close": "204.13999938964844", "Volume": "902200"},
{"Date": "2019-08-29", "Open": "207.6300048828125", "High": "210.17999267578125", "Low": "206.52000427246094", "Close": "209.17999267578125", "Adj Close": "209.17999267578125", "Volume": "354900"},
{"Date": "2019-08-30", "Open": "210.9199981689453", "High": "210.94000244140625", "Low": "204.13999938964844", "Close": "206.55999755859375", "Adj Close": "206.55999755859375", "Volume": "559500"},
{"Date": "2019-09-03", "Open": "206.52999877929688", "High": "208.8000030517578", "Low": "205.3300018310547", "Close": "206.00999450683594", "Adj Close": "206.00999450683594", "Volume": "520100"},
{"Date": "2019-09-04", "Open": "207.6300048828125", "High": "212.50999450683594", "Low": "207.6300048828125", "Close": "212.49000549316406", "Adj Close": "212.49000549316406", "Volume": "391600"},
{"Date": "2019-09-05", "Open": "215.17999267578125", "High": "219.39999389648438", "Low": "213.6999969482422", "Close": "218.08999633789062", "Adj Close": "218.08999633789062", "Volume": "669800"},
{"Date": "2019-09-06", "Open": "218.24000549316406", "High": "219.86000061035156", "Low": "216.63999938964844", "Close": "217.58999633789062", "Adj Close": "217.58999633789062", "Volume": "384600"},
{"Date": "2019-09-09", "Open": "218.92999267578125", "High": "219.02999877929688", "Low": "211.6199951171875", "Close": "214.5800018310547", "Adj Close": "214.5800018310547", "Volume": "772900"},
{"Date": "2019-09-10", "Open": "214.11000061035156", "High": "214.11000061035156", "Low": "209.10000610351562", "Close": "210.3800048828125", "Adj Close": "210.3800048828125", "Volume": "667000"},
{"Date": "2019-09-11", "Open": "211.14999389648438", "High": "215.02999877929688", "Low": "210.7899932861328", "Close": "214.58999633789062", "Adj Close": "214.58999633789062", "Volume": "591500"},
{"Date": "2019-09-12", "Open": "216.69000244140625", "High": "217.8800048828125", "Low": "208.97999572753906", "Close": "211.0800018310547", "Adj Close": "211.0800018310547", "Volume": "667800"},
{"Date": "2019-09-13", "Open": "216.99000549316406", "High": "217.86000061035156", "Low": "211.16000366210938", "Close": "212.1300048828125", "Adj Close": "212.1300048828125", "Volume": "536300"},
{"Date": "2019-09-16", "Open": "210.4600067138672", "High": "216.0", "Low": "210.4499969482422", "Close": "212.1300048828125", "Adj Close": "212.1300048828125", "Volume": "453300"},
{"Date": "2019-09-17", "Open": "213.02999877929688", "High": "216.77999877929688", "Low": "212.6300048828125", "Close": "216.1300048828125", "Adj Close": "216.1300048828125", "Volume": "483300"},
{"Date": "2019-09-18", "Open": "215.6199951171875", "High": "217.8699951171875", "Low": "214.25", "Close": "217.58999633789062", "Adj Close": "217.58999633789062", "Volume": "593400"},
{"Date": "2019-09-19", "Open": "218.52999877929688", "High": "220.82000732421875", "Low": "216.8000030517578", "Close": "219.0500030517578", "Adj Close": "219.0500030517578", "Volume": "411100"},
{"Date": "2019-09-20", "Open": "219.5800018310547", "High": "220.4600067138672", "Low": "215.3000030517578", "Close": "216.57000732421875", "Adj Close": "216.57000732421875", "Volume": "585600"},
{"Date": "2019-09-23", "Open": "215.25999450683594", "High": "217.5800018310547", "Low": "214.36000061035156", "Close": "216.72999572753906", "Adj Close": "216.72999572753906", "Volume": "281000"},
{"Date": "2019-09-24", "Open": "217.67999267578125", "High": "219.44000244140625", "Low": "213.0", "Close": "213.86000061035156", "Adj Close": "213.86000061035156", "Volume": "321300"},
{"Date": "2019-09-25", "Open": "213.16000366210938", "High": "216.1699981689453", "Low": "211.4600067138672", "Close": "215.63999938964844", "Adj Close": "215.63999938964844", "Volume": "410100"},
{"Date": "2019-09-26", "Open": "216.1999969482422", "High": "220.72000122070312", "Low": "215.94000244140625", "Close": "220.0800018310547", "Adj Close": "220.0800018310547", "Volume": "373300"},
{"Date": "2019-09-27", "Open": "220.22999572753906", "High": "220.33999633789062", "Low": "215.05999755859375", "Close": "217.08999633789062", "Adj Close": "217.08999633789062", "Volume": "517800"},
{"Date": "2019-09-30", "Open": "217.19000244140625", "High": "221.7899932861328", "Low": "217.19000244140625", "Close": "221.36000061035156", "Adj Close": "221.36000061035156", "Volume": "386100"},
{"Date": "2019-10-01", "Open": "221.8300018310547", "High": "223.97999572753906", "Low": "216.50999450683594", "Close": "216.72999572753906", "Adj Close": "216.72999572753906", "Volume": "528700"},
{"Date": "2019-10-02", "Open": "215.3000030517578", "High": "216.38999938964844", "Low": "211.66000366210938", "Close": "216.0399932861328", "Adj Close": "216.0399932861328", "Volume": "344700"},
{"Date": "2019-10-03", "Open": "214.80999755859375", "High": "220.3800048828125", "Low": "213.17999267578125", "Close": "220.24000549316406", "Adj Close": "220.24000549316406", "Volume": "329800"},
{"Date": "2019-10-04", "Open": "220.66000366210938", "High": "224.99000549316406", "Low": "220.49000549316406", "Close": "224.6300048828125", "Adj Close": "224.6300048828125", "Volume": "326700"},
{"Date": "2019-10-07", "Open": "224.33999633789062", "High": "224.88999938964844", "Low": "222.49000549316406", "Close": "223.1199951171875", "Adj Close": "223.1199951171875", "Volume": "323900"},
{"Date": "2019-10-08", "Open": "221.10000610351562", "High": "222.41000366210938", "Low": "216.52000427246094", "Close": "216.6300048828125", "Adj Close": "216.6300048828125", "Volume": "299200"},
{"Date": "2019-10-09", "Open": "219.58999633789062", "High": "221.2899932861328", "Low": "219.16000366210938", "Close": "220.49000549316406", "Adj Close": "220.49000549316406", "Volume": "285600"},
{"Date": "2019-10-10", "Open": "219.5", "High": "222.1199951171875", "Low": "219.44000244140625", "Close": "220.6699981689453", "Adj Close": "220.6699981689453", "Volume": "242900"},
{"Date": "2019-10-11", "Open": "224.1300048828125", "High": "227.67999267578125", "Low": "222.32000732421875", "Close": "224.16000366210938", "Adj Close": "224.16000366210938", "Volume": "337700"},
{"Date": "2019-10-14", "Open": "223.41000366210938", "High": "225.7899932861328", "Low": "223.1699981689453", "Close": "225.25999450683594", "Adj Close": "225.25999450683594", "Volume": "255500"},
{"Date": "2019-10-15", "Open": "225.8000030517578", "High": "229.1999969482422", "Low": "225.22000122070312", "Close": "226.82000732421875", "Adj Close": "226.82000732421875", "Volume": "275600"},
{"Date": "2019-10-16", "Open": "226.0", "High": "226.0", "Low": "221.4600067138672", "Close": "222.17999267578125", "Adj Close": "222.17999267578125", "Volume": "426100"},
{"Date": "2019-10-17", "Open": "224.02999877929688", "High": "224.58999633789062", "Low": "220.63999938964844", "Close": "220.8699951171875", "Adj Close": "220.8699951171875", "Volume": "345000"},
{"Date": "2019-10-18", "Open": "220.2100067138672", "High": "222.72999572753906", "Low": "216.10000610351562", "Close": "218.42999267578125", "Adj Close": "218.42999267578125", "Volume": "458900"},
{"Date": "2019-10-21", "Open": "219.24000549316406", "High": "220.91000366210938", "Low": "218.00999450683594", "Close": "218.77999877929688", "Adj Close": "218.77999877929688", "Volume": "295700"},
{"Date": "2019-10-22", "Open": "220.08999633789062", "High": "220.9199981689453", "Low": "214.1999969482422", "Close": "214.32000732421875", "Adj Close": "214.32000732421875", "Volume": "533000"},
{"Date": "2019-10-23", "Open": "215.42999267578125", "High": "218.1199951171875", "Low": "213.6699981689453", "Close": "216.0800018310547", "Adj Close": "216.0800018310547", "Volume": "352600"},
{"Date": "2019-10-24", "Open": "217.85000610351562", "High": "221.8000030517578", "Low": "217.0", "Close": "221.52000427246094", "Adj Close": "221.52000427246094", "Volume": "365300"},
{"Date": "2019-10-25", "Open": "221.1199951171875", "High": "223.22000122070312", "Low": "219.94000244140625", "Close": "220.25", "Adj Close": "220.25", "Volume": "297400"},
{"Date": "2019-10-28", "Open": "221.42999267578125", "High": "224.4600067138672", "Low": "220.32000732421875", "Close": "223.6300048828125", "Adj Close": "223.6300048828125", "Volume": "338300"},
{"Date": "2019-10-29", "Open": "222.42999267578125", "High": "225.5500030517578", "Low": "222.0", "Close": "222.3000030517578", "Adj Close": "222.3000030517578", "Volume": "282800"},
{"Date": "2019-10-30", "Open": "223.0800018310547", "High": "225.4199981689453", "Low": "221.1300048828125", "Close": "225.19000244140625", "Adj Close": "225.19000244140625", "Volume": "274600"},
{"Date": "2019-10-31", "Open": "224.33999633789062", "High": "225.02999877929688", "Low": "219.64999389648438", "Close": "220.14999389648438", "Adj Close": "220.14999389648438", "Volume": "417200"},
{"Date": "2019-11-01", "Open": "222.3800048828125", "High": "225.1300048828125", "Low": "219.49000549316406", "Close": "220.0", "Adj Close": "220.0", "Volume": "788300"},
{"Date": "2019-11-04", "Open": "221.61000061035156", "High": "222.72000122070312", "Low": "217.0", "Close": "217.47000122070312", "Adj Close": "217.47000122070312", "Volume": "559200"},
{"Date": "2019-11-05", "Open": "218.07000732421875", "High": "220.44000244140625", "Low": "217.36000061035156", "Close": "217.9600067138672", "Adj Close": "217.9600067138672", "Volume": "555400"},
{"Date": "2019-11-06", "Open": "217.50999450683594", "High": "219.6999969482422", "Low": "216.5500030517578", "Close": "218.72999572753906", "Adj Close": "218.72999572753906", "Volume": "482800"},
{"Date": "2019-11-07", "Open": "210.0", "High": "228.02999877929688", "Low": "206.72999572753906", "Close": "225.22000122070312", "Adj Close": "225.22000122070312", "Volume": "739100"},
{"Date": "2019-11-08", "Open": "223.9499969482422", "High": "224.9499969482422", "Low": "221.8300018310547", "Close": "224.30999755859375", "Adj Close": "224.30999755859375", "Volume": "597400"},
{"Date": "2019-11-11", "Open": "223.69000244140625", "High": "228.39999389648438", "Low": "222.64999389648438", "Close": "227.35000610351562", "Adj Close": "227.35000610351562", "Volume": "328100"},
{"Date": "2019-11-12", "Open": "227.38999938964844", "High": "231.3000030517578", "Low": "227.30999755859375", "Close": "230.2100067138672", "Adj Close": "230.2100067138672", "Volume": "413400"},
{"Date": "2019-11-13", "Open": "228.6699981689453", "High": "229.47000122070312", "Low": "227.0", "Close": "229.0", "Adj Close": "229.0", "Volume": "431000"},
{"Date": "2019-11-14", "Open": "227.9199981689453", "High": "230.72000122070312", "Low": "227.77999877929688", "Close": "229.3699951171875", "Adj Close": "229.3699951171875", "Volume": "278800"},
{"Date": "2019-11-15", "Open": "230.1300048828125", "High": "235.58999633789062", "Low": "229.16000366210938", "Close": "235.14999389648438", "Adj Close": "235.14999389648438", "Volume": "607900"},
{"Date": "2019-11-18", "Open": "234.60000610351562", "High": "239.83999633789062", "Low": "234.00999450683594", "Close": "238.6699981689453", "Adj Close": "238.6699981689453", "Volume": "684100"},
{"Date": "2019-11-19", "Open": "240.0", "High": "243.36000061035156", "Low": "239.47999572753906", "Close": "242.4199981689453", "Adj Close": "242.4199981689453", "Volume": "496800"},
{"Date": "2019-11-20", "Open": "241.5399932861328", "High": "246.6999969482422", "Low": "241.5399932861328", "Close": "245.49000549316406", "Adj Close": "245.49000549316406", "Volume": "507400"},
{"Date": "2019-11-21", "Open": "246.3699951171875", "High": "247.3800048828125", "Low": "244.92999267578125", "Close": "246.3800048828125", "Adj Close": "246.3800048828125", "Volume": "605000"},
{"Date": "2019-11-22", "Open": "246.72000122070312", "High": "248.32000732421875", "Low": "244.3000030517578", "Close": "246.3800048828125", "Adj Close": "246.3800048828125", "Volume": "403000"},
{"Date": "2019-11-25", "Open": "248.0500030517578", "High": "255.17999267578125", "Low": "246.9199981689453", "Close": "249.4199981689453", "Adj Close": "249.4199981689453", "Volume": "452900"},
{"Date": "2019-11-26", "Open": "249.80999755859375", "High": "252.66000366210938", "Low": "248.44000244140625", "Close": "252.47999572753906", "Adj Close": "252.47999572753906", "Volume": "405500"},
{"Date": "2019-11-27", "Open": "253.83999633789062", "High": "255.5500030517578", "Low": "251.47999572753906", "Close": "255.4499969482422", "Adj Close": "255.4499969482422", "Volume": "375000"},
{"Date": "2019-11-29", "Open": "254.0800018310547", "High": "256.3599853515625", "Low": "254.0800018310547", "Close": "254.69000244140625", "Adj Close": "254.69000244140625", "Volume": "317300"},
{"Date": "2019-12-02", "Open": "254.80999755859375", "High": "255.44000244140625", "Low": "250.25999450683594", "Close": "250.6999969482422", "Adj Close": "250.6999969482422", "Volume": "729100"},
{"Date": "2019-12-03", "Open": "245.07000732421875", "High": "250.4600067138672", "Low": "243.00999450683594", "Close": "250.3699951171875", "Adj Close": "250.3699951171875", "Volume": "729300"},
{"Date": "2019-12-04", "Open": "251.83999633789062", "High": "253.85000610351562", "Low": "251.0800018310547", "Close": "252.13999938964844", "Adj Close": "252.13999938964844", "Volume": "579100"},
{"Date": "2019-12-05", "Open": "252.38999938964844", "High": "254.47000122070312", "Low": "251.1699981689453", "Close": "252.99000549316406", "Adj Close": "252.99000549316406", "Volume": "485500"},
{"Date": "2019-12-06", "Open": "254.86000061035156", "High": "256.9200134277344", "Low": "253.72000122070312", "Close": "256.6300048828125", "Adj Close": "256.6300048828125", "Volume": "368900"},
{"Date": "2019-12-09", "Open": "255.82000732421875", "High": "258.5199890136719", "Low": "254.91000366210938", "Close": "255.0800018310547", "Adj Close": "255.0800018310547", "Volume": "1132600"},
{"Date": "2019-12-10", "Open": "254.3699951171875", "High": "256.70001220703125", "Low": "251.5", "Close": "252.57000732421875", "Adj Close": "252.57000732421875", "Volume": "578300"},
{"Date": "2019-12-11", "Open": "251.74000549316406", "High": "253.52000427246094", "Low": "248.99000549316406", "Close": "251.6300048828125", "Adj Close": "251.6300048828125", "Volume": "474000"},
{"Date": "2019-12-12", "Open": "247.8300018310547", "High": "251.25", "Low": "246.38999938964844", "Close": "251.02000427246094", "Adj Close": "251.02000427246094", "Volume": "621900"},
{"Date": "2019-12-13", "Open": "251.0", "High": "254.67999267578125", "Low": "250.7100067138672", "Close": "253.92999267578125", "Adj Close": "253.92999267578125", "Volume": "448500"},
{"Date": "2019-12-16", "Open": "257.17999267578125", "High": "259.55999755859375", "Low": "255.5399932861328", "Close": "257.94000244140625", "Adj Close": "257.94000244140625", "Volume": "476900"},
{"Date": "2019-12-17", "Open": "258.4100036621094", "High": "258.69000244140625", "Low": "255.2100067138672", "Close": "257.07000732421875", "Adj Close": "257.07000732421875", "Volume": "734800"},
{"Date": "2019-12-18", "Open": "257.5299987792969", "High": "258.82000732421875", "Low": "254.42999267578125", "Close": "254.6699981689453", "Adj Close": "254.6699981689453", "Volume": "579200"},
{"Date": "2019-12-19", "Open": "255.42999267578125", "High": "257.0400085449219", "Low": "254.3800048828125", "Close": "255.75", "Adj Close": "255.75", "Volume": "505900"},
{"Date": "2019-12-20", "Open": "257.8800048828125", "High": "260.1000061035156", "Low": "253.52000427246094", "Close": "258.8900146484375", "Adj Close": "258.8900146484375", "Volume": "3582200"},
{"Date": "2019-12-23", "Open": "259.1300048828125", "High": "259.1400146484375", "Low": "255.19000244140625", "Close": "255.72999572753906", "Adj Close": "255.72999572753906", "Volume": "919700"},
{"Date": "2019-12-24", "Open": "255.1300048828125", "High": "256.6700134277344", "Low": "253.5399932861328", "Close": "256.489990234375", "Adj Close": "256.489990234375", "Volume": "140800"},
{"Date": "2019-12-26", "Open": "256.8500061035156", "High": "258.3599853515625", "Low": "256.2799987792969", "Close": "258.3299865722656", "Adj Close": "258.3299865722656", "Volume": "265100"},
{"Date": "2019-12-27", "Open": "259.25", "High": "259.75", "Low": "257.2699890136719", "Close": "258.67999267578125", "Adj Close": "258.67999267578125", "Volume": "258300"},
{"Date": "2019-12-30", "Open": "258.5199890136719", "High": "259.0", "Low": "255.02999877929688", "Close": "256.79998779296875", "Adj Close": "256.79998779296875", "Volume": "300800"},
{"Date": "2019-12-31", "Open": "256.1000061035156", "High": "258.3599853515625", "Low": "255.63999938964844", "Close": "257.4100036621094", "Adj Close": "257.4100036621094", "Volume": "442800"},
{"Date": "2020-01-02", "Open": "257.010009765625", "High": "259.6600036621094", "Low": "256.25", "Close": "259.5899963378906", "Adj Close": "259.5899963378906", "Volume": "657900"},
{"Date": "2020-01-03", "Open": "254.9600067138672", "High": "258.1099853515625", "Low": "253.75", "Close": "256.9700012207031", "Adj Close": "256.9700012207031", "Volume": "468400"},
{"Date": "2020-01-06", "Open": "255.4600067138672", "High": "255.8699951171875", "Low": "252.6199951171875", "Close": "254.58999633789062", "Adj Close": "254.58999633789062", "Volume": "612600"},
{"Date": "2020-01-07", "Open": "255.11000061035156", "High": "258.3399963378906", "Low": "253.5", "Close": "256.6700134277344", "Adj Close": "256.6700134277344", "Volume": "357100"},
{"Date": "2020-01-08", "Open": "256.4100036621094", "High": "258.8900146484375", "Low": "255.91000366210938", "Close": "257.7300109863281", "Adj Close": "257.7300109863281", "Volume": "445900"},
{"Date": "2020-01-09", "Open": "259.9800109863281", "High": "261.79998779296875", "Low": "258.5199890136719", "Close": "261.42999267578125", "Adj Close": "261.42999267578125", "Volume": "513200"},
{"Date": "2020-01-10", "Open": "262.57000732421875", "High": "263.05999755859375", "Low": "260.1400146484375", "Close": "260.79998779296875", "Adj Close": "260.79998779296875", "Volume": "266200"},
{"Date": "2020-01-13", "Open": "262.739990234375", "High": "264.5199890136719", "Low": "261.94000244140625", "Close": "264.04998779296875", "Adj Close": "264.04998779296875", "Volume": "437000"},
{"Date": "2020-01-14", "Open": "264.57000732421875", "High": "264.57000732421875", "Low": "261.57000732421875", "Close": "262.8699951171875", "Adj Close": "262.8699951171875", "Volume": "506100"},
{"Date": "2020-01-15", "Open": "263.0199890136719", "High": "265.42999267578125", "Low": "263.0199890136719", "Close": "264.2799987792969", "Adj Close": "264.2799987792969", "Volume": "426900"},
{"Date": "2020-01-16", "Open": "266.04998779296875", "High": "266.9100036621094", "Low": "264.69000244140625", "Close": "266.80999755859375", "Adj Close": "266.80999755859375", "Volume": "713100"},
{"Date": "2020-01-17", "Open": "269.20001220703125", "High": "270.6000061035156", "Low": "266.45001220703125", "Close": "270.2799987792969", "Adj Close": "270.2799987792969", "Volume": "531700"},
{"Date": "2020-01-21", "Open": "269.8999938964844", "High": "275.8800048828125", "Low": "268.67999267578125", "Close": "273.82000732421875", "Adj Close": "273.82000732421875", "Volume": "645800"},
{"Date": "2020-01-22", "Open": "274.9700012207031", "High": "277.29998779296875", "Low": "274.3299865722656", "Close": "274.7300109863281", "Adj Close": "274.7300109863281", "Volume": "530300"},
{"Date": "2020-01-23", "Open": "274.3699951171875", "High": "278.7099914550781", "Low": "273.5799865722656", "Close": "277.7099914550781", "Adj Close": "277.7099914550781", "Volume": "493900"},
{"Date": "2020-01-24", "Open": "278.30999755859375", "High": "280.2200012207031", "Low": "275.3399963378906", "Close": "277.3399963378906", "Adj Close": "277.3399963378906", "Volume": "460000"},
{"Date": "2020-01-27", "Open": "270.4800109863281", "High": "273.4599914550781", "Low": "268.1600036621094", "Close": "270.70001220703125", "Adj Close": "270.70001220703125", "Volume": "425100"},
{"Date": "2020-01-28", "Open": "273.3500061035156", "High": "279.1600036621094", "Low": "271.0", "Close": "278.3599853515625", "Adj Close": "278.3599853515625", "Volume": "383800"},
{"Date": "2020-01-29", "Open": "279.6700134277344", "High": "280.9700012207031", "Low": "276.0299987792969", "Close": "277.7200012207031", "Adj Close": "277.7200012207031", "Volume": "341200"},
{"Date": "2020-01-30", "Open": "276.0199890136719", "High": "280.3399963378906", "Low": "275.2799987792969", "Close": "280.1400146484375", "Adj Close": "280.1400146484375", "Volume": "298300"},
{"Date": "2020-01-31", "Open": "279.6700134277344", "High": "279.7900085449219", "Low": "272.8399963378906", "Close": "274.3299865722656", "Adj Close": "274.3299865722656", "Volume": "482400"},
{"Date": "2020-02-03", "Open": "279.6600036621094", "High": "282.739990234375", "Low": "276.7699890136719", "Close": "281.3299865722656", "Adj Close": "281.3299865722656", "Volume": "640300"},
{"Date": "2020-02-04", "Open": "285.0", "High": "289.760009765625", "Low": "282.6600036621094", "Close": "289.2200012207031", "Adj Close": "289.2200012207031", "Volume": "462300"},
{"Date": "2020-02-05", "Open": "292.3900146484375", "High": "293.42999267578125", "Low": "280.6300048828125", "Close": "283.95001220703125", "Adj Close": "283.95001220703125", "Volume": "672300"},
{"Date": "2020-02-06", "Open": "284.7300109863281", "High": "287.7699890136719", "Low": "283.6300048828125", "Close": "285.8800048828125", "Adj Close": "285.8800048828125", "Volume": "392400"},
{"Date": "2020-02-07", "Open": "285.44000244140625", "High": "287.55999755859375", "Low": "282.9800109863281", "Close": "284.8299865722656", "Adj Close": "284.8299865722656", "Volume": "417000"},
{"Date": "2020-02-10", "Open": "283.2200012207031", "High": "287.7300109863281", "Low": "281.29998779296875", "Close": "286.5199890136719", "Adj Close": "286.5199890136719", "Volume": "471400"},
{"Date": "2020-02-11", "Open": "287.5", "High": "289.1600036621094", "Low": "284.79998779296875", "Close": "288.2900085449219", "Adj Close": "288.2900085449219", "Volume": "435300"},
{"Date": "2020-02-12", "Open": "289.54998779296875", "High": "292.8900146484375", "Low": "288.42999267578125", "Close": "292.4599914550781", "Adj Close": "292.4599914550781", "Volume": "449200"},
{"Date": "2020-02-13", "Open": "291.75", "High": "293.44000244140625", "Low": "291.05999755859375", "Close": "291.67999267578125", "Adj Close": "291.67999267578125", "Volume": "600300"},
{"Date": "2020-02-14", "Open": "292.94000244140625", "High": "292.94000244140625", "Low": "290.4200134277344", "Close": "291.9800109863281", "Adj Close": "291.9800109863281", "Volume": "911900"},
{"Date": "2020-02-18", "Open": "292.6000061035156", "High": "292.6000061035156", "Low": "287.6300048828125", "Close": "290.8999938964844", "Adj Close": "290.8999938964844", "Volume": "700600"},
{"Date": "2020-02-19", "Open": "292.94000244140625", "High": "299.05999755859375", "Low": "290.30999755859375", "Close": "296.1400146484375", "Adj Close": "296.1400146484375", "Volume": "524700"},
{"Date": "2020-02-20", "Open": "295.8900146484375", "High": "296.75", "Low": "288.05999755859375", "Close": "294.0199890136719", "Adj Close": "294.0199890136719", "Volume": "525400"},
{"Date": "2020-02-21", "Open": "293.010009765625", "High": "293.8999938964844", "Low": "284.54998779296875", "Close": "287.1099853515625", "Adj Close": "287.1099853515625", "Volume": "584200"},
{"Date": "2020-02-24", "Open": "279.04998779296875", "High": "280.9100036621094", "Low": "274.44000244140625", "Close": "276.739990234375", "Adj Close": "276.739990234375", "Volume": "953900"},
{"Date": "2020-02-25", "Open": "278.8999938964844", "High": "281.6300048828125", "Low": "265.7699890136719", "Close": "266.44000244140625", "Adj Close": "266.44000244140625", "Volume": "681500"},
{"Date": "2020-02-26", "Open": "268.1700134277344", "High": "274.6499938964844", "Low": "266.3599853515625", "Close": "270.19000244140625", "Adj Close": "270.19000244140625", "Volume": "659300"},
{"Date": "2020-02-27", "Open": "241.86000061035156", "High": "261.0899963378906", "Low": "234.9600067138672", "Close": "244.14999389648438", "Adj Close": "244.14999389648438", "Volume": "1534800"},
{"Date": "2020-02-28", "Open": "234.02000427246094", "High": "246.1699981689453", "Low": "234.02000427246094", "Close": "242.19000244140625", "Adj Close": "242.19000244140625", "Volume": "1674500"},
{"Date": "2020-03-02", "Open": "242.0800018310547", "High": "259.0799865722656", "Low": "241.50999450683594", "Close": "258.80999755859375", "Adj Close": "258.80999755859375", "Volume": "1386600"},
{"Date": "2020-03-03", "Open": "256.9800109863281", "High": "261.8699951171875", "Low": "246.66000366210938", "Close": "249.07000732421875", "Adj Close": "249.07000732421875", "Volume": "811200"},
{"Date": "2020-03-04", "Open": "254.22000122070312", "High": "259.5", "Low": "249.52999877929688", "Close": "259.5", "Adj Close": "259.5", "Volume": "733200"},
{"Date": "2020-03-05", "Open": "251.02999877929688", "High": "254.86000061035156", "Low": "246.6199951171875", "Close": "248.05999755859375", "Adj Close": "248.05999755859375", "Volume": "821900"},
{"Date": "2020-03-06", "Open": "239.58999633789062", "High": "241.77000427246094", "Low": "230.5", "Close": "237.77999877929688", "Adj Close": "237.77999877929688", "Volume": "1034100"},
{"Date": "2020-03-09", "Open": "222.52999877929688", "High": "231.50999450683594", "Low": "216.6999969482422", "Close": "222.41000366210938", "Adj Close": "222.41000366210938", "Volume": "1058600"},
{"Date": "2020-03-10", "Open": "231.16000366210938", "High": "232.7100067138672", "Low": "219.60000610351562", "Close": "229.1199951171875", "Adj Close": "229.1199951171875", "Volume": "1003300"},
{"Date": "2020-03-11", "Open": "222.19000244140625", "High": "225.17999267578125", "Low": "214.61000061035156", "Close": "217.72999572753906", "Adj Close": "217.72999572753906", "Volume": "726200"},
{"Date": "2020-03-12", "Open": "201.50999450683594", "High": "219.2100067138672", "Low": "200.07000732421875", "Close": "204.4600067138672", "Adj Close": "204.4600067138672", "Volume": "1312300"},
{"Date": "2020-03-13", "Open": "215.0", "High": "235.5", "Low": "214.69000244140625", "Close": "235.4199981689453", "Adj Close": "235.4199981689453", "Volume": "1393700"},
{"Date": "2020-03-16", "Open": "226.6300048828125", "High": "226.6300048828125", "Low": "205.61000061035156", "Close": "206.35000610351562", "Adj Close": "206.35000610351562", "Volume": "1232900"},
{"Date": "2020-03-17", "Open": "211.88999938964844", "High": "237.39999389648438", "Low": "203.7100067138672", "Close": "234.2899932861328", "Adj Close": "234.2899932861328", "Volume": "1238000"},
{"Date": "2020-03-18", "Open": "215.39999389648438", "High": "226.42999267578125", "Low": "210.39999389648438", "Close": "221.6699981689453", "Adj Close": "221.6699981689453", "Volume": "1103700"},
{"Date": "2020-03-19", "Open": "220.50999450683594", "High": "229.02000427246094", "Low": "211.1199951171875", "Close": "221.08999633789062", "Adj Close": "221.08999633789062", "Volume": "910700"},
{"Date": "2020-03-20", "Open": "229.1699981689453", "High": "229.27000427246094", "Low": "209.32000732421875", "Close": "213.11000061035156", "Adj Close": "213.11000061035156", "Volume": "1309600"},
{"Date": "2020-03-23", "Open": "212.97000122070312", "High": "223.8699951171875", "Low": "204.27999877929688", "Close": "208.35000610351562", "Adj Close": "208.35000610351562", "Volume": "892200"},
{"Date": "2020-03-24", "Open": "218.75", "High": "223.8300018310547", "Low": "210.47999572753906", "Close": "217.42999267578125", "Adj Close": "217.42999267578125", "Volume": "1315100"},
{"Date": "2020-03-25", "Open": "214.80999755859375", "High": "221.83999633789062", "Low": "208.3699951171875", "Close": "212.30999755859375", "Adj Close": "212.30999755859375", "Volume": "1030000"},
{"Date": "2020-03-26", "Open": "214.41000366210938", "High": "232.38999938964844", "Low": "212.50999450683594", "Close": "230.3699951171875", "Adj Close": "230.3699951171875", "Volume": "728600"},
{"Date": "2020-03-27", "Open": "226.52999877929688", "High": "233.6300048828125", "Low": "221.57000732421875", "Close": "223.02000427246094", "Adj Close": "223.02000427246094", "Volume": "752100"},
{"Date": "2020-03-30", "Open": "226.30999755859375", "High": "237.36000061035156", "Low": "222.0", "Close": "235.1300048828125", "Adj Close": "235.1300048828125", "Volume": "645300"},
{"Date": "2020-03-31", "Open": "234.50999450683594", "High": "237.57000732421875", "Low": "229.11000061035156", "Close": "232.47000122070312", "Adj Close": "232.47000122070312", "Volume": "945700"},
{"Date": "2020-04-01", "Open": "223.13999938964844", "High": "226.92999267578125", "Low": "209.72000122070312", "Close": "211.25", "Adj Close": "211.25", "Volume": "920000"},
{"Date": "2020-04-02", "Open": "209.5", "High": "218.0", "Low": "207.7899932861328", "Close": "216.1999969482422", "Adj Close": "216.1999969482422", "Volume": "673600"},
{"Date": "2020-04-03", "Open": "215.33999633789062", "High": "219.64999389648438", "Low": "211.89999389648438", "Close": "218.3000030517578", "Adj Close": "218.3000030517578", "Volume": "576400"},
{"Date": "2020-04-06", "Open": "229.2100067138672", "High": "244.1999969482422", "Low": "227.75999450683594", "Close": "242.4600067138672", "Adj Close": "242.4600067138672", "Volume": "661000"},
{"Date": "2020-04-07", "Open": "247.25", "High": "252.0", "Low": "234.49000549316406", "Close": "239.64999389648438", "Adj Close": "239.64999389648438", "Volume": "698900"},
{"Date": "2020-04-08", "Open": "241.42999267578125", "High": "246.74000549316406", "Low": "238.0500030517578", "Close": "244.3699951171875", "Adj Close": "244.3699951171875", "Volume": "425700"},
{"Date": "2020-04-09", "Open": "243.1699981689453", "High": "244.22999572753906", "Low": "234.58999633789062", "Close": "237.9199981689453", "Adj Close": "237.9199981689453", "Volume": "821200"},
{"Date": "2020-04-13", "Open": "234.8800048828125", "High": "243.58999633789062", "Low": "234.2100067138672", "Close": "242.92999267578125", "Adj Close": "242.92999267578125", "Volume": "367400"},
{"Date": "2020-04-14", "Open": "247.3800048828125", "High": "256.7200012207031", "Low": "247.3800048828125", "Close": "254.8000030517578", "Adj Close": "254.8000030517578", "Volume": "556300"},
{"Date": "2020-04-15", "Open": "251.0500030517578", "High": "256.6099853515625", "Low": "249.3800048828125", "Close": "253.97999572753906", "Adj Close": "253.97999572753906", "Volume": "498900"},
{"Date": "2020-04-16", "Open": "255.94000244140625", "High": "259.2099914550781", "Low": "253.3699951171875", "Close": "257.82000732421875", "Adj Close": "257.82000732421875", "Volume": "556000"},
{"Date": "2020-04-17", "Open": "261.5", "High": "264.7900085449219", "Low": "256.32000732421875", "Close": "263.8999938964844", "Adj Close": "263.8999938964844", "Volume": "846100"},
{"Date": "2020-04-20", "Open": "262.44000244140625", "High": "268.44000244140625", "Low": "258.6099853515625", "Close": "266.7200012207031", "Adj Close": "266.7200012207031", "Volume": "429600"},
{"Date": "2020-04-21", "Open": "263.45001220703125", "High": "263.8800048828125", "Low": "252.72000122070312", "Close": "253.27999877929688", "Adj Close": "253.27999877929688", "Volume": "567400"},
{"Date": "2020-04-22", "Open": "260.3999938964844", "High": "264.8599853515625", "Low": "256.3999938964844", "Close": "263.2699890136719", "Adj Close": "263.2699890136719", "Volume": "508900"},
{"Date": "2020-04-23", "Open": "261.760009765625", "High": "264.989990234375", "Low": "257.8699951171875", "Close": "258.95001220703125", "Adj Close": "258.95001220703125", "Volume": "317000"},
{"Date": "2020-04-24", "Open": "264.32000732421875", "High": "264.92999267578125", "Low": "256.8900146484375", "Close": "259.45001220703125", "Adj Close": "259.45001220703125", "Volume": "472100"},
{"Date": "2020-04-27", "Open": "264.17999267578125", "High": "265.6099853515625", "Low": "260.4800109863281", "Close": "262.8699951171875", "Adj Close": "262.8699951171875", "Volume": "395300"},
{"Date": "2020-04-28", "Open": "266.3999938964844", "High": "266.9599914550781", "Low": "254.4199981689453", "Close": "257.3500061035156", "Adj Close": "257.3500061035156", "Volume": "485100"},
{"Date": "2020-04-29", "Open": "260.6199951171875", "High": "266.5299987792969", "Low": "258.1300048828125", "Close": "265.8399963378906", "Adj Close": "265.8399963378906", "Volume": "648600"},
{"Date": "2020-04-30", "Open": "263.5299987792969", "High": "268.0899963378906", "Low": "261.3900146484375", "Close": "261.8299865722656", "Adj Close": "261.8299865722656", "Volume": "842600"},
{"Date": "2020-05-01", "Open": "257.44000244140625", "High": "260.0", "Low": "252.77000427246094", "Close": "255.63999938964844", "Adj Close": "255.63999938964844", "Volume": "580900"},
{"Date": "2020-05-04", "Open": "254.5800018310547", "High": "260.25", "Low": "254.5500030517578", "Close": "258.79998779296875", "Adj Close": "258.79998779296875", "Volume": "447900"},
{"Date": "2020-05-05", "Open": "258.0", "High": "267.260009765625", "Low": "258.0", "Close": "262.2300109863281", "Adj Close": "262.2300109863281", "Volume": "763500"},
{"Date": "2020-05-06", "Open": "263.9200134277344", "High": "269.57000732421875", "Low": "260.17999267578125", "Close": "268.07000732421875", "Adj Close": "268.07000732421875", "Volume": "595300"},
{"Date": "2020-05-07", "Open": "260.2699890136719", "High": "266.32000732421875", "Low": "255.63999938964844", "Close": "260.760009765625", "Adj Close": "260.760009765625", "Volume": "874500"},
{"Date": "2020-05-08", "Open": "262.92999267578125", "High": "264.3900146484375", "Low": "259.05999755859375", "Close": "263.0199890136719", "Adj Close": "263.0199890136719", "Volume": "568600"},
{"Date": "2020-05-11", "Open": "259.989990234375", "High": "267.9800109863281", "Low": "259.20001220703125", "Close": "265.8500061035156", "Adj Close": "265.8500061035156", "Volume": "500400"},
{"Date": "2020-05-12", "Open": "268.20001220703125", "High": "268.20001220703125", "Low": "259.6000061035156", "Close": "259.7900085449219", "Adj Close": "259.7900085449219", "Volume": "538000"},
{"Date": "2020-05-13", "Open": "259.57000732421875", "High": "263.4800109863281", "Low": "249.3000030517578", "Close": "252.11000061035156", "Adj Close": "252.11000061035156", "Volume": "397700"},
{"Date": "2020-05-14", "Open": "249.25", "High": "252.25", "Low": "244.52999877929688", "Close": "252.14999389648438", "Adj Close": "252.14999389648438", "Volume": "541100"},
{"Date": "2020-05-15", "Open": "249.3000030517578", "High": "254.69000244140625", "Low": "247.52999877929688", "Close": "253.92999267578125", "Adj Close": "253.92999267578125", "Volume": "451100"},
{"Date": "2020-05-18", "Open": "258.5899963378906", "High": "264.55999755859375", "Low": "256.5400085449219", "Close": "263.510009765625", "Adj Close": "263.510009765625", "Volume": "399400"},
{"Date": "2020-05-19", "Open": "264.989990234375", "High": "268.739990234375", "Low": "262.4100036621094", "Close": "262.4100036621094", "Adj Close": "262.4100036621094", "Volume": "406900"},
{"Date": "2020-05-20", "Open": "267.0799865722656", "High": "274.6099853515625", "Low": "265.0299987792969", "Close": "272.2099914550781", "Adj Close": "272.2099914550781", "Volume": "442100"},
{"Date": "2020-05-21", "Open": "271.3500061035156", "High": "272.57000732421875", "Low": "266.17999267578125", "Close": "266.2799987792969", "Adj Close": "266.2799987792969", "Volume": "476500"},
{"Date": "2020-05-22", "Open": "265.8699951171875", "High": "271.239990234375", "Low": "264.8699951171875", "Close": "269.8699951171875", "Adj Close": "269.8699951171875", "Volume": "276500"},
{"Date": "2020-05-26", "Open": "274.3900146484375", "High": "275.0", "Low": "268.7099914550781", "Close": "268.9700012207031", "Adj Close": "268.9700012207031", "Volume": "526600"},
{"Date": "2020-05-27", "Open": "267.6499938964844", "High": "269.3399963378906", "Low": "259.0400085449219", "Close": "269.30999755859375", "Adj Close": "269.30999755859375", "Volume": "468100"},
{"Date": "2020-05-28", "Open": "268.8900146484375", "High": "281.0400085449219", "Low": "268.7099914550781", "Close": "275.1000061035156", "Adj Close": "275.1000061035156", "Volume": "615500"},
{"Date": "2020-05-29", "Open": "274.6600036621094", "High": "283.6300048828125", "Low": "273.92999267578125", "Close": "283.0", "Adj Close": "283.0", "Volume": "776100"},
{"Date": "2020-06-01", "Open": "281.8500061035156", "High": "289.2300109863281", "Low": "280.44000244140625", "Close": "286.70001220703125", "Adj Close": "286.70001220703125", "Volume": "536700"},
{"Date": "2020-06-02", "Open": "286.55999755859375", "High": "288.1400146484375", "Low": "281.0199890136719", "Close": "288.1400146484375", "Adj Close": "288.1400146484375", "Volume": "454900"},
{"Date": "2020-06-03", "Open": "289.20001220703125", "High": "290.989990234375", "Low": "282.7699890136719", "Close": "286.8999938964844", "Adj Close": "286.8999938964844", "Volume": "408300"},
{"Date": "2020-06-04", "Open": "284.6300048828125", "High": "286.9599914550781", "Low": "279.0", "Close": "282.1600036621094", "Adj Close": "282.1600036621094", "Volume": "349000"},
{"Date": "2020-06-05", "Open": "282.92999267578125", "High": "289.54998779296875", "Low": "280.8900146484375", "Close": "289.1000061035156", "Adj Close": "289.1000061035156", "Volume": "450300"},
{"Date": "2020-06-08", "Open": "286.3699951171875", "High": "292.32000732421875", "Low": "283.44000244140625", "Close": "290.75", "Adj Close": "290.75", "Volume": "412000"},
{"Date": "2020-06-09", "Open": "290.75", "High": "293.05999755859375", "Low": "284.5899963378906", "Close": "285.2699890136719", "Adj Close": "285.2699890136719", "Volume": "499700"},
{"Date": "2020-06-10", "Open": "288.9800109863281", "High": "291.0", "Low": "285.94000244140625", "Close": "286.0", "Adj Close": "286.0", "Volume": "670600"},
{"Date": "2020-06-11", "Open": "282.2099914550781", "High": "286.3599853515625", "Low": "271.3599853515625", "Close": "271.94000244140625", "Adj Close": "271.94000244140625", "Volume": "495700"},
{"Date": "2020-06-12", "Open": "277.739990234375", "High": "280.9599914550781", "Low": "266.7799987792969", "Close": "270.2699890136719", "Adj Close": "270.2699890136719", "Volume": "594300"},
{"Date": "2020-06-15", "Open": "265.67999267578125", "High": "278.7300109863281", "Low": "265.67999267578125", "Close": "274.8299865722656", "Adj Close": "274.8299865722656", "Volume": "448300"},
{"Date": "2020-06-16", "Open": "281.4800109863281", "High": "286.75", "Low": "278.32000732421875", "Close": "282.5899963378906", "Adj Close": "282.5899963378906", "Volume": "540900"},
{"Date": "2020-06-17", "Open": "284.510009765625", "High": "289.0199890136719", "Low": "283.5", "Close": "285.6400146484375", "Adj Close": "285.6400146484375", "Volume": "435100"},
{"Date": "2020-06-18", "Open": "286.1099853515625", "High": "291.2799987792969", "Low": "284.010009765625", "Close": "289.3599853515625", "Adj Close": "289.3599853515625", "Volume": "421200"},
{"Date": "2020-06-19", "Open": "292.94000244140625", "High": "295.1099853515625", "Low": "281.3599853515625", "Close": "281.5899963378906", "Adj Close": "281.5899963378906", "Volume": "1238700"},
{"Date": "2020-06-22", "Open": "283.489990234375", "High": "289.3599853515625", "Low": "281.8399963378906", "Close": "289.3599853515625", "Adj Close": "289.3599853515625", "Volume": "524200"},
{"Date": "2020-06-23", "Open": "290.489990234375", "High": "294.45001220703125", "Low": "288.9700012207031", "Close": "289.6600036621094", "Adj Close": "289.6600036621094", "Volume": "469800"},
{"Date": "2020-06-24", "Open": "286.7099914550781", "High": "290.9599914550781", "Low": "281.8500061035156", "Close": "285.25", "Adj Close": "285.25", "Volume": "468400"},
{"Date": "2020-06-25", "Open": "284.6300048828125", "High": "287.6499938964844", "Low": "281.7099914550781", "Close": "287.19000244140625", "Adj Close": "287.19000244140625", "Volume": "291400"},
{"Date": "2020-06-26", "Open": "287.5199890136719", "High": "289.1400146484375", "Low": "280.260009765625", "Close": "283.0799865722656", "Adj Close": "283.0799865722656", "Volume": "1122900"},
{"Date": "2020-06-29", "Open": "283.7900085449219", "High": "286.20001220703125", "Low": "277.1300048828125", "Close": "282.1300048828125", "Adj Close": "282.1300048828125", "Volume": "419600"},
{"Date": "2020-06-30", "Open": "282.69000244140625", "High": "293.239990234375", "Low": "279.989990234375", "Close": "291.7300109863281", "Adj Close": "291.7300109863281", "Volume": "473900"},
{"Date": "2020-07-01", "Open": "291.1199951171875", "High": "295.57000732421875", "Low": "287.3299865722656", "Close": "294.32000732421875", "Adj Close": "294.32000732421875", "Volume": "400800"},
{"Date": "2020-07-02", "Open": "295.3900146484375", "High": "299.739990234375", "Low": "295.3900146484375", "Close": "297.9700012207031", "Adj Close": "297.9700012207031", "Volume": "338400"},
{"Date": "2020-07-06", "Open": "300.19000244140625", "High": "307.30999755859375", "Low": "299.3999938964844", "Close": "301.6400146484375", "Adj Close": "301.6400146484375", "Volume": "537100"},
{"Date": "2020-07-07", "Open": "301.4200134277344", "High": "306.2300109863281", "Low": "299.1600036621094", "Close": "299.32000732421875", "Adj Close": "299.32000732421875", "Volume": "339000"},
{"Date": "2020-07-08", "Open": "301.69000244140625", "High": "303.0899963378906", "Low": "297.6199951171875", "Close": "301.8999938964844", "Adj Close": "301.8999938964844", "Volume": "249500"},
{"Date": "2020-07-09", "Open": "302.57000732421875", "High": "307.6000061035156", "Low": "301.19000244140625", "Close": "304.5", "Adj Close": "304.5", "Volume": "430300"},
{"Date": "2020-07-10", "Open": "303.25", "High": "305.1099853515625", "Low": "298.8399963378906", "Close": "301.6499938964844", "Adj Close": "301.6499938964844", "Volume": "247900"},
{"Date": "2020-07-13", "Open": "303.6700134277344", "High": "306.260009765625", "Low": "293.7300109863281", "Close": "295.55999755859375", "Adj Close": "295.55999755859375", "Volume": "432100"},
{"Date": "2020-07-14", "Open": "291.19000244140625", "High": "301.2699890136719", "Low": "289.0799865722656", "Close": "301.0400085449219", "Adj Close": "301.0400085449219", "Volume": "506900"},
{"Date": "2020-07-15", "Open": "301.2699890136719", "High": "304.489990234375", "Low": "297.260009765625", "Close": "301.0400085449219", "Adj Close": "301.0400085449219", "Volume": "298200"},
{"Date": "2020-07-16", "Open": "299.7200012207031", "High": "299.7200012207031", "Low": "291.45001220703125", "Close": "295.29998779296875", "Adj Close": "295.29998779296875", "Volume": "504000"},
{"Date": "2020-07-17", "Open": "297.1000061035156", "High": "301.45001220703125", "Low": "293.57000732421875", "Close": "301.1300048828125", "Adj Close": "301.1300048828125", "Volume": "551200"},
{"Date": "2020-07-20", "Open": "301.4800109863281", "High": "309.57000732421875", "Low": "299.8800048828125", "Close": "309.1099853515625", "Adj Close": "309.1099853515625", "Volume": "279200"},
{"Date": "2020-07-21", "Open": "309.8800048828125", "High": "310.04998779296875", "Low": "303.760009765625", "Close": "305.75", "Adj Close": "305.75", "Volume": "443000"},
{"Date": "2020-07-22", "Open": "307.6199951171875", "High": "310.0", "Low": "304.7099914550781", "Close": "306.8900146484375", "Adj Close": "306.8900146484375", "Volume": "247200"},
{"Date": "2020-07-23", "Open": "307.1300048828125", "High": "309.3399963378906", "Low": "298.55999755859375", "Close": "300.1499938964844", "Adj Close": "300.1499938964844", "Volume": "365100"},
{"Date": "2020-07-24", "Open": "297.1499938964844", "High": "298.0299987792969", "Low": "291.54998779296875", "Close": "293.510009765625", "Adj Close": "293.510009765625", "Volume": "620000"},
{"Date": "2020-07-27", "Open": "294.9700012207031", "High": "300.6199951171875", "Low": "294.9700012207031", "Close": "300.1700134277344", "Adj Close": "300.1700134277344", "Volume": "349000"},
{"Date": "2020-07-28", "Open": "299.8699951171875", "High": "303.2699890136719", "Low": "296.7799987792969", "Close": "298.2200012207031", "Adj Close": "298.2200012207031", "Volume": "543600"},
{"Date": "2020-07-29", "Open": "300.9800109863281", "High": "308.3299865722656", "Low": "300.55999755859375", "Close": "306.04998779296875", "Adj Close": "306.04998779296875", "Volume": "360000"},
{"Date": "2020-07-30", "Open": "302.1600036621094", "High": "311.4700012207031", "Low": "300.1400146484375", "Close": "309.6700134277344", "Adj Close": "309.6700134277344", "Volume": "344400"},
{"Date": "2020-07-31", "Open": "312.55999755859375", "High": "312.55999755859375", "Low": "304.80999755859375", "Close": "310.6000061035156", "Adj Close": "310.6000061035156", "Volume": "276000"},
{"Date": "2020-08-03", "Open": "311.6199951171875", "High": "316.5199890136719", "Low": "310.5899963378906", "Close": "315.2300109863281", "Adj Close": "315.2300109863281", "Volume": "370900"},
{"Date": "2020-08-04", "Open": "313.760009765625", "High": "314.94000244140625", "Low": "307.1600036621094", "Close": "308.7799987792969", "Adj Close": "308.7799987792969", "Volume": "524100"},
{"Date": "2020-08-05", "Open": "312.05999755859375", "High": "319.8299865722656", "Low": "309.8800048828125", "Close": "312.2699890136719", "Adj Close": "312.2699890136719", "Volume": "419500"},
{"Date": "2020-08-06", "Open": "313.04998779296875", "High": "319.8299865722656", "Low": "311.1000061035156", "Close": "315.25", "Adj Close": "315.25", "Volume": "521700"},
{"Date": "2020-08-07", "Open": "313.8500061035156", "High": "318.0", "Low": "308.75", "Close": "312.3699951171875", "Adj Close": "312.3699951171875", "Volume": "326100"},
{"Date": "2020-08-10", "Open": "311.6199951171875", "High": "311.6199951171875", "Low": "301.55999755859375", "Close": "308.7799987792969", "Adj Close": "308.7799987792969", "Volume": "366500"},
{"Date": "2020-08-11", "Open": "307.8699951171875", "High": "307.8699951171875", "Low": "300.4800109863281", "Close": "301.9200134277344", "Adj Close": "301.9200134277344", "Volume": "293600"},
{"Date": "2020-08-12", "Open": "302.2799987792969", "High": "310.1000061035156", "Low": "302.2799987792969", "Close": "308.3999938964844", "Adj Close": "308.3999938964844", "Volume": "242600"},
{"Date": "2020-08-13", "Open": "309.4100036621094", "High": "319.42999267578125", "Low": "309.4100036621094", "Close": "314.7699890136719", "Adj Close": "314.7699890136719", "Volume": "319400"},
{"Date": "2020-08-14", "Open": "314.239990234375", "High": "317.0799865722656", "Low": "311.05999755859375", "Close": "313.19000244140625", "Adj Close": "313.19000244140625", "Volume": "250900"},
{"Date": "2020-08-17", "Open": "315.1499938964844", "High": "319.67999267578125", "Low": "315.1499938964844", "Close": "317.3599853515625", "Adj Close": "317.3599853515625", "Volume": "277200"},
{"Date": "2020-08-18", "Open": "319.55999755859375", "High": "322.3999938964844", "Low": "317.5400085449219", "Close": "320.4700012207031", "Adj Close": "320.4700012207031", "Volume": "267300"},
{"Date": "2020-08-19", "Open": "321.510009765625", "High": "322.8599853515625", "Low": "316.2200012207031", "Close": "319.5299987792969", "Adj Close": "319.5299987792969", "Volume": "235000"},
{"Date": "2020-08-20", "Open": "319.1400146484375", "High": "328.9200134277344", "Low": "318.7799987792969", "Close": "328.32000732421875", "Adj Close": "328.32000732421875", "Volume": "300800"},
{"Date": "2020-08-21", "Open": "327.9200134277344", "High": "327.9200134277344", "Low": "322.3800048828125", "Close": "324.5", "Adj Close": "324.5", "Volume": "462800"},
{}]