[{"Date": "2019-08-23", "Open": "388.8399963378906", "High": "395.3699951171875", "Low": "384.42999267578125", "Close": "385.510009765625", "Adj Close": "385.510009765625", "Volume": "1333600"},
{"Date": "2019-08-26", "Open": "387.8500061035156", "High": "399.07000732421875", "Low": "387.1300048828125", "Close": "396.7799987792969", "Adj Close": "396.7799987792969", "Volume": "1460500"},
{"Date": "2019-08-27", "Open": "397.42999267578125", "High": "401.3999938964844", "Low": "395.0400085449219", "Close": "398.489990234375", "Adj Close": "398.489990234375", "Volume": "1014000"},
{"Date": "2019-08-28", "Open": "398.6499938964844", "High": "403.5", "Low": "395.6700134277344", "Close": "400.5", "Adj Close": "400.5", "Volume": "806400"},
{"Date": "2019-08-29", "Open": "404.6199951171875", "High": "410.0899963378906", "Low": "403.07000732421875", "Close": "407.239990234375", "Adj Close": "407.239990234375", "Volume": "892000"},
{"Date": "2019-08-30", "Open": "409.1199951171875", "High": "412.5", "Low": "407.42999267578125", "Close": "409.5899963378906", "Adj Close": "409.5899963378906", "Volume": "1140400"},
{"Date": "2019-09-03", "Open": "408.0799865722656", "High": "413.1600036621094", "Low": "407.260009765625", "Close": "411.80999755859375", "Adj Close": "411.80999755859375", "Volume": "977800"},
{"Date": "2019-09-04", "Open": "415.3800048828125", "High": "420.260009765625", "Low": "415.2200012207031", "Close": "419.4700012207031", "Adj Close": "419.4700012207031", "Volume": "1492900"},
{"Date": "2019-09-05", "Open": "424.75", "High": "428.95001220703125", "Low": "420.30999755859375", "Close": "422.04998779296875", "Adj Close": "422.04998779296875", "Volume": "1113400"},
{"Date": "2019-09-06", "Open": "423.1199951171875", "High": "427.8999938964844", "Low": "421.0199890136719", "Close": "425.7200012207031", "Adj Close": "425.7200012207031", "Volume": "973800"},
{"Date": "2019-09-09", "Open": "425.989990234375", "High": "427.1099853515625", "Low": "417.6600036621094", "Close": "419.7799987792969", "Adj Close": "419.7799987792969", "Volume": "1192900"},
{"Date": "2019-09-10", "Open": "418.9700012207031", "High": "423.9200134277344", "Low": "415.9700012207031", "Close": "421.3399963378906", "Adj Close": "421.3399963378906", "Volume": "1367700"},
{"Date": "2019-09-11", "Open": "420.17999267578125", "High": "425.7900085449219", "Low": "420.17999267578125", "Close": "425.0", "Adj Close": "425.0", "Volume": "751400"},
{"Date": "2019-09-12", "Open": "427.6700134277344", "High": "431.42999267578125", "Low": "423.54998779296875", "Close": "425.0", "Adj Close": "425.0", "Volume": "1233700"},
{"Date": "2019-09-13", "Open": "425.05999755859375", "High": "426.6499938964844", "Low": "421.9100036621094", "Close": "425.5199890136719", "Adj Close": "425.5199890136719", "Volume": "890800"},
{"Date": "2019-09-16", "Open": "425.19000244140625", "High": "427.0", "Low": "419.1499938964844", "Close": "423.25", "Adj Close": "423.25", "Volume": "908900"},
{"Date": "2019-09-17", "Open": "423.30999755859375", "High": "425.3599853515625", "Low": "419.04998779296875", "Close": "425.1499938964844", "Adj Close": "425.1499938964844", "Volume": "736600"},
{"Date": "2019-09-18", "Open": "424.239990234375", "High": "425.7099914550781", "Low": "419.07000732421875", "Close": "425.4200134277344", "Adj Close": "425.4200134277344", "Volume": "808600"},
{"Date": "2019-09-19", "Open": "426.7799987792969", "High": "429.8800048828125", "Low": "425.1000061035156", "Close": "427.4200134277344", "Adj Close": "427.4200134277344", "Volume": "831500"},
{"Date": "2019-09-20", "Open": "426.010009765625", "High": "427.2900085449219", "Low": "419.6499938964844", "Close": "420.3500061035156", "Adj Close": "420.3500061035156", "Volume": "2848400"},
{"Date": "2019-09-23", "Open": "421.69000244140625", "High": "423.510009765625", "Low": "420.1400146484375", "Close": "421.510009765625", "Adj Close": "421.510009765625", "Volume": "1036800"},
{"Date": "2019-09-24", "Open": "422.5400085449219", "High": "424.5899963378906", "Low": "416.69000244140625", "Close": "417.5299987792969", "Adj Close": "417.5299987792969", "Volume": "1291000"},
{"Date": "2019-09-25", "Open": "417.20001220703125", "High": "418.57000732421875", "Low": "414.510009765625", "Close": "416.6600036621094", "Adj Close": "416.6600036621094", "Volume": "1836900"},
{"Date": "2019-09-26", "Open": "418.45001220703125", "High": "418.75", "Low": "406.1600036621094", "Close": "411.0", "Adj Close": "411.0", "Volume": "2118300"},
{"Date": "2019-09-27", "Open": "411.8299865722656", "High": "411.8299865722656", "Low": "401.8399963378906", "Close": "406.2099914550781", "Adj Close": "406.2099914550781", "Volume": "1255000"},
{"Date": "2019-09-30", "Open": "408.2099914550781", "High": "413.7699890136719", "Low": "406.8900146484375", "Close": "412.1199951171875", "Adj Close": "412.1199951171875", "Volume": "838400"},
{"Date": "2019-10-01", "Open": "412.5299987792969", "High": "415.4800109863281", "Low": "405.0199890136719", "Close": "405.6000061035156", "Adj Close": "405.6000061035156", "Volume": "1062300"},
{"Date": "2019-10-02", "Open": "409.9100036621094", "High": "412.9200134277344", "Low": "405.79998779296875", "Close": "410.75", "Adj Close": "410.75", "Volume": "1148800"},
{"Date": "2019-10-03", "Open": "409.010009765625", "High": "416.9599914550781", "Low": "406.70001220703125", "Close": "416.6700134277344", "Adj Close": "416.6700134277344", "Volume": "798300"},
{"Date": "2019-10-04", "Open": "422.1700134277344", "High": "429.3999938964844", "Low": "420.8999938964844", "Close": "427.7200012207031", "Adj Close": "427.7200012207031", "Volume": "1074500"},
{"Date": "2019-10-07", "Open": "425.5299987792969", "High": "432.1600036621094", "Low": "425.2900085449219", "Close": "430.0400085449219", "Adj Close": "430.0400085449219", "Volume": "969800"},
{"Date": "2019-10-08", "Open": "426.9100036621094", "High": "430.94000244140625", "Low": "423.04998779296875", "Close": "428.07000732421875", "Adj Close": "428.07000732421875", "Volume": "1226000"},
{"Date": "2019-10-09", "Open": "431.2300109863281", "High": "431.510009765625", "Low": "427.4800109863281", "Close": "429.2799987792969", "Adj Close": "429.2799987792969", "Volume": "624400"},
{"Date": "2019-10-10", "Open": "428.9700012207031", "High": "430.29998779296875", "Low": "424.8800048828125", "Close": "426.92999267578125", "Adj Close": "426.92999267578125", "Volume": "693800"},
{"Date": "2019-10-11", "Open": "430.2200012207031", "High": "430.7200012207031", "Low": "422.8800048828125", "Close": "423.1600036621094", "Adj Close": "423.1600036621094", "Volume": "1235400"},
{"Date": "2019-10-14", "Open": "423.8900146484375", "High": "424.69000244140625", "Low": "421.9200134277344", "Close": "422.9599914550781", "Adj Close": "422.9599914550781", "Volume": "690000"},
{"Date": "2019-10-15", "Open": "423.6000061035156", "High": "435.45001220703125", "Low": "422.7900085449219", "Close": "432.9200134277344", "Adj Close": "432.9200134277344", "Volume": "1282900"},
{"Date": "2019-10-16", "Open": "432.8500061035156", "High": "440.2699890136719", "Low": "430.260009765625", "Close": "438.1000061035156", "Adj Close": "438.1000061035156", "Volume": "906000"},
{"Date": "2019-10-17", "Open": "439.54998779296875", "High": "445.0", "Low": "437.32000732421875", "Close": "441.92999267578125", "Adj Close": "441.92999267578125", "Volume": "723500"},
{"Date": "2019-10-18", "Open": "443.7900085449219", "High": "444.4100036621094", "Low": "439.6000061035156", "Close": "440.04998779296875", "Adj Close": "440.04998779296875", "Volume": "821700"},
{"Date": "2019-10-21", "Open": "442.2200012207031", "High": "444.989990234375", "Low": "437.260009765625", "Close": "438.1600036621094", "Adj Close": "438.1600036621094", "Volume": "746100"},
{"Date": "2019-10-22", "Open": "437.0400085449219", "High": "441.010009765625", "Low": "435.8699951171875", "Close": "437.2300109863281", "Adj Close": "437.2300109863281", "Volume": "1081300"},
{"Date": "2019-10-23", "Open": "436.25", "High": "439.3900146484375", "Low": "434.1199951171875", "Close": "435.55999755859375", "Adj Close": "435.55999755859375", "Volume": "911700"},
{"Date": "2019-10-24", "Open": "435.1099853515625", "High": "439.04998779296875", "Low": "432.6400146484375", "Close": "435.07000732421875", "Adj Close": "435.07000732421875", "Volume": "1033100"},
{"Date": "2019-10-25", "Open": "460.8699951171875", "High": "469.57000732421875", "Low": "442.25", "Close": "462.19000244140625", "Adj Close": "462.19000244140625", "Volume": "2254100"},
{"Date": "2019-10-28", "Open": "465.8299865722656", "High": "470.30999755859375", "Low": "465.2300109863281", "Close": "467.0899963378906", "Adj Close": "467.0899963378906", "Volume": "1072600"},
{"Date": "2019-10-29", "Open": "464.010009765625", "High": "468.989990234375", "Low": "463.19000244140625", "Close": "464.07000732421875", "Adj Close": "464.07000732421875", "Volume": "1054100"},
{"Date": "2019-10-30", "Open": "464.1000061035156", "High": "469.30999755859375", "Low": "462.30999755859375", "Close": "468.7799987792969", "Adj Close": "468.7799987792969", "Volume": "1597300"},
{"Date": "2019-10-31", "Open": "468.260009765625", "High": "469.45001220703125", "Low": "462.3500061035156", "Close": "467.8599853515625", "Adj Close": "467.8599853515625", "Volume": "1432000"},
{"Date": "2019-11-01", "Open": "469.9700012207031", "High": "478.07000732421875", "Low": "469.04998779296875", "Close": "476.4800109863281", "Adj Close": "476.4800109863281", "Volume": "1144300"},
{"Date": "2019-11-04", "Open": "477.70001220703125", "High": "479.17999267578125", "Low": "471.3699951171875", "Close": "473.5", "Adj Close": "473.5", "Volume": "1011700"},
{"Date": "2019-11-05", "Open": "474.42999267578125", "High": "474.42999267578125", "Low": "467.510009765625", "Close": "473.25", "Adj Close": "473.25", "Volume": "1043600"},
{"Date": "2019-11-06", "Open": "472.7200012207031", "High": "472.7200012207031", "Low": "462.989990234375", "Close": "469.0299987792969", "Adj Close": "469.0299987792969", "Volume": "1228400"},
{"Date": "2019-11-07", "Open": "468.6199951171875", "High": "471.07000732421875", "Low": "463.9599914550781", "Close": "468.44000244140625", "Adj Close": "468.44000244140625", "Volume": "1067600"},
{"Date": "2019-11-08", "Open": "467.260009765625", "High": "474.29998779296875", "Low": "465.4100036621094", "Close": "469.75", "Adj Close": "469.75", "Volume": "770200"},
{"Date": "2019-11-11", "Open": "468.3999938964844", "High": "474.6000061035156", "Low": "467.0199890136719", "Close": "473.5", "Adj Close": "473.5", "Volume": "777600"},
{"Date": "2019-11-12", "Open": "473.4100036621094", "High": "475.6400146484375", "Low": "472.2200012207031", "Close": "474.07000732421875", "Adj Close": "474.07000732421875", "Volume": "693000"},
{"Date": "2019-11-13", "Open": "474.3299865722656", "High": "482.6199951171875", "Low": "472.44000244140625", "Close": "480.1600036621094", "Adj Close": "480.1600036621094", "Volume": "1288600"},
{"Date": "2019-11-14", "Open": "479.2699890136719", "High": "480.2900085449219", "Low": "476.510009765625", "Close": "479.9700012207031", "Adj Close": "479.9700012207031", "Volume": "861000"},
{"Date": "2019-11-15", "Open": "482.44000244140625", "High": "485.989990234375", "Low": "473.2099914550781", "Close": "475.6000061035156", "Adj Close": "475.6000061035156", "Volume": "842300"},
{"Date": "2019-11-18", "Open": "475.1700134277344", "High": "477.45001220703125", "Low": "471.44000244140625", "Close": "474.07000732421875", "Adj Close": "474.07000732421875", "Volume": "1150900"},
{"Date": "2019-11-19", "Open": "475.9100036621094", "High": "480.5199890136719", "Low": "471.2799987792969", "Close": "478.9700012207031", "Adj Close": "478.9700012207031", "Volume": "794800"},
{"Date": "2019-11-20", "Open": "475.92999267578125", "High": "483.54998779296875", "Low": "474.8500061035156", "Close": "479.0799865722656", "Adj Close": "479.0799865722656", "Volume": "1148200"},
{"Date": "2019-11-21", "Open": "479.95001220703125", "High": "479.95001220703125", "Low": "474.2200012207031", "Close": "474.6499938964844", "Adj Close": "474.6499938964844", "Volume": "674200"},
{"Date": "2019-11-22", "Open": "474.510009765625", "High": "477.1199951171875", "Low": "467.4599914550781", "Close": "468.5", "Adj Close": "468.5", "Volume": "987700"},
{"Date": "2019-11-25", "Open": "471.3800048828125", "High": "472.9100036621094", "Low": "464.67999267578125", "Close": "466.05999755859375", "Adj Close": "466.05999755859375", "Volume": "1013500"},
{"Date": "2019-11-26", "Open": "467.29998779296875", "High": "469.4700012207031", "Low": "463.94000244140625", "Close": "467.30999755859375", "Adj Close": "467.30999755859375", "Volume": "1555400"},
{"Date": "2019-11-27", "Open": "467.239990234375", "High": "475.8699951171875", "Low": "466.3299865722656", "Close": "473.7799987792969", "Adj Close": "473.7799987792969", "Volume": "703700"},
{"Date": "2019-11-29", "Open": "473.44000244140625", "High": "473.57000732421875", "Low": "468.8699951171875", "Close": "470.010009765625", "Adj Close": "470.010009765625", "Volume": "554900"},
{"Date": "2019-12-02", "Open": "469.32000732421875", "High": "473.20001220703125", "Low": "467.4200134277344", "Close": "470.3299865722656", "Adj Close": "470.3299865722656", "Volume": "898200"},
{"Date": "2019-12-03", "Open": "469.82000732421875", "High": "470.510009765625", "Low": "465.3900146484375", "Close": "469.8599853515625", "Adj Close": "469.8599853515625", "Volume": "807700"},
{"Date": "2019-12-04", "Open": "466.6400146484375", "High": "469.2799987792969", "Low": "460.9599914550781", "Close": "462.04998779296875", "Adj Close": "462.04998779296875", "Volume": "1041000"},
{"Date": "2019-12-05", "Open": "462.1499938964844", "High": "468.2699890136719", "Low": "461.9100036621094", "Close": "467.2699890136719", "Adj Close": "467.2699890136719", "Volume": "1098200"},
{"Date": "2019-12-06", "Open": "470.5799865722656", "High": "473.2200012207031", "Low": "467.1000061035156", "Close": "467.8500061035156", "Adj Close": "467.8500061035156", "Volume": "848400"},
{"Date": "2019-12-09", "Open": "469.510009765625", "High": "475.5", "Low": "467.20001220703125", "Close": "468.6600036621094", "Adj Close": "468.6600036621094", "Volume": "842900"},
{"Date": "2019-12-10", "Open": "467.1000061035156", "High": "469.70001220703125", "Low": "460.4700012207031", "Close": "461.7099914550781", "Adj Close": "461.7099914550781", "Volume": "979900"},
{"Date": "2019-12-11", "Open": "462.5199890136719", "High": "467.32000732421875", "Low": "461.42999267578125", "Close": "465.8699951171875", "Adj Close": "465.8699951171875", "Volume": "884500"},
{"Date": "2019-12-12", "Open": "466.70001220703125", "High": "472.92999267578125", "Low": "464.8800048828125", "Close": "469.6000061035156", "Adj Close": "469.6000061035156", "Volume": "1013600"},
{"Date": "2019-12-13", "Open": "467.2799987792969", "High": "478.07000732421875", "Low": "465.8500061035156", "Close": "475.2699890136719", "Adj Close": "475.2699890136719", "Volume": "1258600"},
{"Date": "2019-12-16", "Open": "477.8699951171875", "High": "478.8299865722656", "Low": "468.05999755859375", "Close": "470.2300109863281", "Adj Close": "470.2300109863281", "Volume": "1341000"},
{"Date": "2019-12-17", "Open": "471.0299987792969", "High": "476.260009765625", "Low": "469.2300109863281", "Close": "471.1300048828125", "Adj Close": "471.1300048828125", "Volume": "1494300"},
{"Date": "2019-12-18", "Open": "472.6400146484375", "High": "476.17999267578125", "Low": "466.1400146484375", "Close": "466.5199890136719", "Adj Close": "466.5199890136719", "Volume": "1081200"},
{"Date": "2019-12-19", "Open": "466.5199890136719", "High": "475.8900146484375", "Low": "466.20001220703125", "Close": "475.6700134277344", "Adj Close": "475.6700134277344", "Volume": "1063200"},
{"Date": "2019-12-20", "Open": "479.9599914550781", "High": "480.8500061035156", "Low": "473.489990234375", "Close": "476.2200012207031", "Adj Close": "476.2200012207031", "Volume": "2831200"},
{"Date": "2019-12-23", "Open": "476.7200012207031", "High": "483.0799865722656", "Low": "475.4599914550781", "Close": "480.7200012207031", "Adj Close": "480.7200012207031", "Volume": "1225600"},
{"Date": "2019-12-24", "Open": "482.2200012207031", "High": "482.94000244140625", "Low": "480.260009765625", "Close": "480.8599853515625", "Adj Close": "480.8599853515625", "Volume": "463700"},
{"Date": "2019-12-26", "Open": "480.95001220703125", "High": "487.17999267578125", "Low": "480.95001220703125", "Close": "485.7300109863281", "Adj Close": "485.7300109863281", "Volume": "752900"},
{"Date": "2019-12-27", "Open": "487.5199890136719", "High": "487.5199890136719", "Low": "481.8900146484375", "Close": "483.69000244140625", "Adj Close": "483.69000244140625", "Volume": "507500"},
{"Date": "2019-12-30", "Open": "483.739990234375", "High": "484.92999267578125", "Low": "478.3900146484375", "Close": "483.0799865722656", "Adj Close": "483.0799865722656", "Volume": "702500"},
{"Date": "2019-12-31", "Open": "482.29998779296875", "High": "487.0799865722656", "Low": "481.9700012207031", "Close": "485.0799865722656", "Adj Close": "485.0799865722656", "Volume": "757100"},
{"Date": "2020-01-02", "Open": "487.4100036621094", "High": "491.4100036621094", "Low": "480.489990234375", "Close": "490.42999267578125", "Adj Close": "490.42999267578125", "Volume": "1378800"},
{"Date": "2020-01-03", "Open": "485.5299987792969", "High": "496.5899963378906", "Low": "485.5299987792969", "Close": "494.4700012207031", "Adj Close": "494.4700012207031", "Volume": "974100"},
{"Date": "2020-01-06", "Open": "492.6600036621094", "High": "498.1499938964844", "Low": "490.92999267578125", "Close": "497.45001220703125", "Adj Close": "497.45001220703125", "Volume": "829900"},
{"Date": "2020-01-07", "Open": "497.1300048828125", "High": "500.6499938964844", "Low": "495.54998779296875", "Close": "499.1600036621094", "Adj Close": "499.1600036621094", "Volume": "1050800"},
{"Date": "2020-01-08", "Open": "499.0", "High": "509.989990234375", "Low": "498.54998779296875", "Close": "500.7699890136719", "Adj Close": "500.7699890136719", "Volume": "1063200"},
{"Date": "2020-01-09", "Open": "501.5", "High": "508.8599853515625", "Low": "501.5", "Close": "507.2799987792969", "Adj Close": "507.2799987792969", "Volume": "924300"},
{"Date": "2020-01-10", "Open": "507.7900085449219", "High": "509.0299987792969", "Low": "503.5199890136719", "Close": "505.0299987792969", "Adj Close": "505.0299987792969", "Volume": "912700"},
{"Date": "2020-01-13", "Open": "506.0400085449219", "High": "512.6500244140625", "Low": "504.8900146484375", "Close": "510.1499938964844", "Adj Close": "510.1499938964844", "Volume": "933700"},
{"Date": "2020-01-14", "Open": "508.4700012207031", "High": "512.7000122070312", "Low": "506.239990234375", "Close": "509.6199951171875", "Adj Close": "509.6199951171875", "Volume": "1656100"},
{"Date": "2020-01-15", "Open": "510.1499938964844", "High": "517.0700073242188", "Low": "507.04998779296875", "Close": "515.4000244140625", "Adj Close": "515.4000244140625", "Volume": "611200"},
{"Date": "2020-01-16", "Open": "507.0", "High": "513.7100219726562", "Low": "506.1600036621094", "Close": "508.7799987792969", "Adj Close": "508.7799987792969", "Volume": "1104100"},
{"Date": "2020-01-17", "Open": "512.030029296875", "High": "512.030029296875", "Low": "501.3299865722656", "Close": "502.7300109863281", "Adj Close": "502.7300109863281", "Volume": "2252900"},
{"Date": "2020-01-21", "Open": "501.2799987792969", "High": "506.7300109863281", "Low": "498.94000244140625", "Close": "503.5899963378906", "Adj Close": "503.5899963378906", "Volume": "1041000"},
{"Date": "2020-01-22", "Open": "505.5400085449219", "High": "512.7899780273438", "Low": "504.6099853515625", "Close": "510.5", "Adj Close": "510.5", "Volume": "1878600"},
{"Date": "2020-01-23", "Open": "509.6300048828125", "High": "516.7000122070312", "Low": "505.45001220703125", "Close": "513.1400146484375", "Adj Close": "513.1400146484375", "Volume": "1182300"},
{"Date": "2020-01-24", "Open": "512.6300048828125", "High": "514.260009765625", "Low": "503.8999938964844", "Close": "504.6700134277344", "Adj Close": "504.6700134277344", "Volume": "1183000"},
{"Date": "2020-01-27", "Open": "499.1400146484375", "High": "507.3599853515625", "Low": "497.4200134277344", "Close": "504.0799865722656", "Adj Close": "504.0799865722656", "Volume": "1930900"},
{"Date": "2020-01-28", "Open": "501.7300109863281", "High": "507.45001220703125", "Low": "498.80999755859375", "Close": "499.3399963378906", "Adj Close": "499.3399963378906", "Volume": "1326700"},
{"Date": "2020-01-29", "Open": "498.32000732421875", "High": "499.07000732421875", "Low": "487.82000732421875", "Close": "490.739990234375", "Adj Close": "490.739990234375", "Volume": "1208800"},
{"Date": "2020-01-30", "Open": "486.8800048828125", "High": "494.3299865722656", "Low": "484.9599914550781", "Close": "492.9800109863281", "Adj Close": "492.9800109863281", "Volume": "1067200"},
{"Date": "2020-01-31", "Open": "504.760009765625", "High": "521.6900024414062", "Low": "495.0", "Close": "517.4600219726562", "Adj Close": "517.4600219726562", "Volume": "2053600"},
{"Date": "2020-02-03", "Open": "522.8400268554688", "High": "537.5399780273438", "Low": "522.6900024414062", "Close": "532.0499877929688", "Adj Close": "532.0499877929688", "Volume": "1666700"},
{"Date": "2020-02-04", "Open": "528.8499755859375", "High": "532.6500244140625", "Low": "519.8499755859375", "Close": "531.75", "Adj Close": "531.75", "Volume": "1596200"},
{"Date": "2020-02-05", "Open": "522.0", "High": "530.530029296875", "Low": "521.030029296875", "Close": "522.1799926757812", "Adj Close": "522.1799926757812", "Volume": "1819300"},
{"Date": "2020-02-06", "Open": "524.8599853515625", "High": "529.4600219726562", "Low": "522.9199829101562", "Close": "526.5599975585938", "Adj Close": "526.5599975585938", "Volume": "830700"},
{"Date": "2020-02-07", "Open": "526.1099853515625", "High": "526.5499877929688", "Low": "521.3400268554688", "Close": "525.2100219726562", "Adj Close": "525.2100219726562", "Volume": "753600"},
{"Date": "2020-02-10", "Open": "525.75", "High": "531.75", "Low": "524.4199829101562", "Close": "530.3400268554688", "Adj Close": "530.3400268554688", "Volume": "1252900"},
{"Date": "2020-02-11", "Open": "531.0", "High": "532.2999877929688", "Low": "524.010009765625", "Close": "530.9400024414062", "Adj Close": "530.9400024414062", "Volume": "1098100"},
{"Date": "2020-02-12", "Open": "531.489990234375", "High": "535.4199829101562", "Low": "528.6300048828125", "Close": "534.0", "Adj Close": "534.0", "Volume": "891300"},
{"Date": "2020-02-13", "Open": "534.1199951171875", "High": "536.25", "Low": "532.5499877929688", "Close": "534.72998046875", "Adj Close": "534.72998046875", "Volume": "709400"},
{"Date": "2020-02-14", "Open": "532.489990234375", "High": "536.25", "Low": "532.2000122070312", "Close": "534.8900146484375", "Adj Close": "534.8900146484375", "Volume": "658200"},
{"Date": "2020-02-18", "Open": "535.25", "High": "538.7000122070312", "Low": "533.3800048828125", "Close": "537.5999755859375", "Adj Close": "537.5999755859375", "Volume": "739500"},
{"Date": "2020-02-19", "Open": "539.72998046875", "High": "546.5399780273438", "Low": "536.9400024414062", "Close": "542.4600219726562", "Adj Close": "542.4600219726562", "Volume": "1041500"},
{"Date": "2020-02-20", "Open": "542.010009765625", "High": "544.0900268554688", "Low": "532.0900268554688", "Close": "539.219970703125", "Adj Close": "539.219970703125", "Volume": "1049400"},
{"Date": "2020-02-21", "Open": "537.3400268554688", "High": "538.4299926757812", "Low": "529.239990234375", "Close": "535.3400268554688", "Adj Close": "535.3400268554688", "Volume": "1243500"},
{"Date": "2020-02-24", "Open": "529.7999877929688", "High": "534.0", "Low": "525.5900268554688", "Close": "528.7000122070312", "Adj Close": "528.7000122070312", "Volume": "1410600"},
{"Date": "2020-02-25", "Open": "530.8400268554688", "High": "534.8300170898438", "Low": "517.010009765625", "Close": "517.989990234375", "Adj Close": "517.989990234375", "Volume": "1698000"},
{"Date": "2020-02-26", "Open": "524.780029296875", "High": "527.5", "Low": "516.6799926757812", "Close": "518.0900268554688", "Adj Close": "518.0900268554688", "Volume": "1617800"},
{"Date": "2020-02-27", "Open": "513.2100219726562", "High": "520.489990234375", "Low": "507.510009765625", "Close": "508.54998779296875", "Adj Close": "508.54998779296875", "Volume": "2609100"},
{"Date": "2020-02-28", "Open": "500.70001220703125", "High": "509.8800048828125", "Low": "485.4599914550781", "Close": "493.1700134277344", "Adj Close": "493.1700134277344", "Volume": "3590000"},
{"Date": "2020-03-02", "Open": "494.4700012207031", "High": "500.70001220703125", "Low": "490.3399963378906", "Close": "497.1300048828125", "Adj Close": "497.1300048828125", "Volume": "2951700"},
{"Date": "2020-03-03", "Open": "489.17999267578125", "High": "505.5", "Low": "489.17999267578125", "Close": "495.0299987792969", "Adj Close": "495.0299987792969", "Volume": "2884900"},
{"Date": "2020-03-04", "Open": "502.3800048828125", "High": "524.6500244140625", "Low": "498.80999755859375", "Close": "522.8400268554688", "Adj Close": "522.8400268554688", "Volume": "2014000"},
{"Date": "2020-03-05", "Open": "514.3400268554688", "High": "522.760009765625", "Low": "501.2300109863281", "Close": "505.1400146484375", "Adj Close": "505.1400146484375", "Volume": "4485300"},
{"Date": "2020-03-06", "Open": "486.8399963378906", "High": "498.6199951171875", "Low": "480.6499938964844", "Close": "496.7200012207031", "Adj Close": "496.7200012207031", "Volume": "2145300"},
{"Date": "2020-03-09", "Open": "466.5799865722656", "High": "478.6199951171875", "Low": "460.739990234375", "Close": "463.2099914550781", "Adj Close": "463.2099914550781", "Volume": "2565900"},
{"Date": "2020-03-10", "Open": "467.79998779296875", "High": "477.8699951171875", "Low": "460.3599853515625", "Close": "476.760009765625", "Adj Close": "476.760009765625", "Volume": "2660500"},
{"Date": "2020-03-11", "Open": "466.82000732421875", "High": "477.0", "Low": "443.9200134277344", "Close": "450.6499938964844", "Adj Close": "450.6499938964844", "Volume": "3023500"},
{"Date": "2020-03-12", "Open": "434.0", "High": "446.739990234375", "Low": "421.8599853515625", "Close": "427.5400085449219", "Adj Close": "427.5400085449219", "Volume": "3459100"},
{"Date": "2020-03-13", "Open": "446.4800109863281", "High": "454.5199890136719", "Low": "413.6600036621094", "Close": "454.19000244140625", "Adj Close": "454.19000244140625", "Volume": "3147600"},
{"Date": "2020-03-16", "Open": "414.9800109863281", "High": "418.3800048828125", "Low": "388.1300048828125", "Close": "389.1099853515625", "Adj Close": "389.1099853515625", "Volume": "3274200"},
{"Date": "2020-03-17", "Open": "397.4700012207031", "High": "406.6300048828125", "Low": "388.2300109863281", "Close": "393.0199890136719", "Adj Close": "393.0199890136719", "Volume": "3736000"},
{"Date": "2020-03-18", "Open": "374.7799987792969", "High": "390.75", "Low": "345.6700134277344", "Close": "381.5199890136719", "Adj Close": "381.5199890136719", "Volume": "4954800"},
{"Date": "2020-03-19", "Open": "379.57000732421875", "High": "414.3999938964844", "Low": "372.94000244140625", "Close": "393.05999755859375", "Adj Close": "393.05999755859375", "Volume": "2466800"},
{"Date": "2020-03-20", "Open": "394.80999755859375", "High": "404.55999755859375", "Low": "370.0", "Close": "371.70001220703125", "Adj Close": "371.70001220703125", "Volume": "3322200"},
{"Date": "2020-03-23", "Open": "371.0", "High": "399.989990234375", "Low": "364.6700134277344", "Close": "381.7799987792969", "Adj Close": "381.7799987792969", "Volume": "2462500"},
{"Date": "2020-03-24", "Open": "396.5199890136719", "High": "421.2099914550781", "Low": "396.5199890136719", "Close": "419.3999938964844", "Adj Close": "419.3999938964844", "Volume": "2817600"},
{"Date": "2020-03-25", "Open": "416.010009765625", "High": "441.0", "Low": "408.5400085449219", "Close": "420.7699890136719", "Adj Close": "420.7699890136719", "Volume": "2222800"},
{"Date": "2020-03-26", "Open": "424.4700012207031", "High": "460.5400085449219", "Low": "422.04998779296875", "Close": "454.1700134277344", "Adj Close": "454.1700134277344", "Volume": "2182700"},
{"Date": "2020-03-27", "Open": "439.010009765625", "High": "456.3999938964844", "Low": "434.8999938964844", "Close": "439.70001220703125", "Adj Close": "439.70001220703125", "Volume": "1909800"},
{"Date": "2020-03-30", "Open": "440.739990234375", "High": "454.510009765625", "Low": "440.739990234375", "Close": "450.7799987792969", "Adj Close": "450.7799987792969", "Volume": "2043900"},
{"Date": "2020-03-31", "Open": "443.7699890136719", "High": "449.1700134277344", "Low": "432.05999755859375", "Close": "436.30999755859375", "Adj Close": "436.30999755859375", "Volume": "2072800"},
{"Date": "2020-04-01", "Open": "418.29998779296875", "High": "434.8299865722656", "Low": "413.3900146484375", "Close": "424.0299987792969", "Adj Close": "424.0299987792969", "Volume": "1360900"},
{"Date": "2020-04-02", "Open": "420.260009765625", "High": "436.8800048828125", "Low": "418.010009765625", "Close": "435.6600036621094", "Adj Close": "435.6600036621094", "Volume": "1377200"},
{"Date": "2020-04-03", "Open": "433.239990234375", "High": "440.6199951171875", "Low": "425.989990234375", "Close": "433.79998779296875", "Adj Close": "433.79998779296875", "Volume": "1027900"},
{"Date": "2020-04-06", "Open": "451.9700012207031", "High": "464.5", "Low": "442.75", "Close": "459.54998779296875", "Adj Close": "459.54998779296875", "Volume": "1627400"},
{"Date": "2020-04-07", "Open": "472.8299865722656", "High": "475.1499938964844", "Low": "449.8299865722656", "Close": "451.75", "Adj Close": "451.75", "Volume": "1632600"},
{"Date": "2020-04-08", "Open": "461.6199951171875", "High": "466.1400146484375", "Low": "450.9700012207031", "Close": "463.92999267578125", "Adj Close": "463.92999267578125", "Volume": "1070800"},
{"Date": "2020-04-09", "Open": "465.6499938964844", "High": "476.1499938964844", "Low": "456.19000244140625", "Close": "466.6400146484375", "Adj Close": "466.6400146484375", "Volume": "1634300"},
{"Date": "2020-04-13", "Open": "468.9700012207031", "High": "473.20001220703125", "Low": "462.1600036621094", "Close": "469.70001220703125", "Adj Close": "469.70001220703125", "Volume": "988100"},
{"Date": "2020-04-14", "Open": "473.4800109863281", "High": "495.9200134277344", "Low": "473.1300048828125", "Close": "489.57000732421875", "Adj Close": "489.57000732421875", "Volume": "1366600"},
{"Date": "2020-04-15", "Open": "477.7099914550781", "High": "497.9800109863281", "Low": "474.5400085449219", "Close": "496.32000732421875", "Adj Close": "496.32000732421875", "Volume": "1041200"},
{"Date": "2020-04-16", "Open": "499.94000244140625", "High": "507.7699890136719", "Low": "493.5", "Close": "496.3500061035156", "Adj Close": "496.3500061035156", "Volume": "1158400"},
{"Date": "2020-04-17", "Open": "504.3500061035156", "High": "509.1199951171875", "Low": "486.07000732421875", "Close": "499.4200134277344", "Adj Close": "499.4200134277344", "Volume": "1487900"},
{"Date": "2020-04-20", "Open": "495.989990234375", "High": "506.260009765625", "Low": "490.45001220703125", "Close": "498.6700134277344", "Adj Close": "498.6700134277344", "Volume": "947600"},
{"Date": "2020-04-21", "Open": "493.3800048828125", "High": "497.5899963378906", "Low": "486.7699890136719", "Close": "490.7799987792969", "Adj Close": "490.7799987792969", "Volume": "1178400"},
{"Date": "2020-04-22", "Open": "500.3900146484375", "High": "501.3500061035156", "Low": "490.239990234375", "Close": "496.0799865722656", "Adj Close": "496.0799865722656", "Volume": "878300"},
{"Date": "2020-04-23", "Open": "498.5", "High": "508.05999755859375", "Low": "495.6099853515625", "Close": "499.1199951171875", "Adj Close": "499.1199951171875", "Volume": "713800"},
{"Date": "2020-04-24", "Open": "501.5299987792969", "High": "508.8599853515625", "Low": "494.1099853515625", "Close": "508.54998779296875", "Adj Close": "508.54998779296875", "Volume": "767800"},
{"Date": "2020-04-27", "Open": "511.80999755859375", "High": "515.6300048828125", "Low": "505.7799987792969", "Close": "508.44000244140625", "Adj Close": "508.44000244140625", "Volume": "933000"},
{"Date": "2020-04-28", "Open": "514.72998046875", "High": "514.72998046875", "Low": "494.3299865722656", "Close": "497.1600036621094", "Adj Close": "497.1600036621094", "Volume": "963900"},
{"Date": "2020-04-29", "Open": "501.9100036621094", "High": "505.57000732421875", "Low": "492.4200134277344", "Close": "494.6700134277344", "Adj Close": "494.6700134277344", "Volume": "1117000"},
{"Date": "2020-04-30", "Open": "492.6700134277344", "High": "511.3299865722656", "Low": "490.3500061035156", "Close": "495.2300109863281", "Adj Close": "495.2300109863281", "Volume": "2353600"},
{"Date": "2020-05-01", "Open": "511.0", "High": "517.9099731445312", "Low": "495.510009765625", "Close": "509.6400146484375", "Adj Close": "509.6400146484375", "Volume": "1671400"},
{"Date": "2020-05-04", "Open": "514.1199951171875", "High": "521.7999877929688", "Low": "508.8699951171875", "Close": "515.72998046875", "Adj Close": "515.72998046875", "Volume": "1153500"},
{"Date": "2020-05-05", "Open": "517.010009765625", "High": "518.4199829101562", "Low": "508.8800048828125", "Close": "513.4400024414062", "Adj Close": "513.4400024414062", "Volume": "939600"},
{"Date": "2020-05-06", "Open": "516.5599975585938", "High": "517.8699951171875", "Low": "496.6199951171875", "Close": "503.9599914550781", "Adj Close": "503.9599914550781", "Volume": "806900"},
{"Date": "2020-05-07", "Open": "511.80999755859375", "High": "520.0", "Low": "507.6099853515625", "Close": "514.25", "Adj Close": "514.25", "Volume": "862800"},
{"Date": "2020-05-08", "Open": "521.4600219726562", "High": "521.4600219726562", "Low": "513.1300048828125", "Close": "515.280029296875", "Adj Close": "515.280029296875", "Volume": "607700"},
{"Date": "2020-05-11", "Open": "510.6600036621094", "High": "515.6500244140625", "Low": "507.20001220703125", "Close": "510.739990234375", "Adj Close": "510.739990234375", "Volume": "835900"},
{"Date": "2020-05-12", "Open": "507.30999755859375", "High": "514.5900268554688", "Low": "501.3699951171875", "Close": "501.92999267578125", "Adj Close": "501.92999267578125", "Volume": "776000"},
{"Date": "2020-05-13", "Open": "500.0899963378906", "High": "503.0", "Low": "487.6700134277344", "Close": "498.29998779296875", "Adj Close": "498.29998779296875", "Volume": "1078900"},
{"Date": "2020-05-14", "Open": "499.0899963378906", "High": "502.05999755859375", "Low": "489.2699890136719", "Close": "497.44000244140625", "Adj Close": "497.44000244140625", "Volume": "831200"},
{"Date": "2020-05-15", "Open": "491.3599853515625", "High": "503.4700012207031", "Low": "485.010009765625", "Close": "503.3900146484375", "Adj Close": "503.3900146484375", "Volume": "905300"},
{"Date": "2020-05-18", "Open": "511.1499938964844", "High": "524.6599731445312", "Low": "505.79998779296875", "Close": "517.7899780273438", "Adj Close": "517.7899780273438", "Volume": "1194900"},
{"Date": "2020-05-19", "Open": "512.9299926757812", "High": "523.2899780273438", "Low": "512.4000244140625", "Close": "520.4400024414062", "Adj Close": "520.4400024414062", "Volume": "1082900"},
{"Date": "2020-05-20", "Open": "519.3499755859375", "High": "525.77001953125", "Low": "510.8999938964844", "Close": "512.7999877929688", "Adj Close": "512.7999877929688", "Volume": "1089500"},
{"Date": "2020-05-21", "Open": "511.25", "High": "519.6400146484375", "Low": "510.0", "Close": "516.9600219726562", "Adj Close": "516.9600219726562", "Volume": "788200"},
{"Date": "2020-05-22", "Open": "513.7100219726562", "High": "519.0999755859375", "Low": "509.239990234375", "Close": "512.9000244140625", "Adj Close": "512.9000244140625", "Volume": "714400"},
{"Date": "2020-05-26", "Open": "515.0", "High": "517.6900024414062", "Low": "508.20001220703125", "Close": "509.8500061035156", "Adj Close": "509.8500061035156", "Volume": "977600"},
{"Date": "2020-05-27", "Open": "512.760009765625", "High": "528.0599975585938", "Low": "511.010009765625", "Close": "525.1099853515625", "Adj Close": "525.1099853515625", "Volume": "1479400"},
{"Date": "2020-05-28", "Open": "528.5399780273438", "High": "539.8800048828125", "Low": "528.5399780273438", "Close": "534.6699829101562", "Adj Close": "534.6699829101562", "Volume": "1577400"},
{"Date": "2020-05-29", "Open": "535.5", "High": "545.6300048828125", "Low": "531.0800170898438", "Close": "544.0", "Adj Close": "544.0", "Volume": "1606100"},
{"Date": "2020-06-01", "Open": "545.0399780273438", "High": "548.0399780273438", "Low": "540.02001953125", "Close": "541.2999877929688", "Adj Close": "541.2999877929688", "Volume": "849200"},
{"Date": "2020-06-02", "Open": "541.6900024414062", "High": "549.0", "Low": "540.8300170898438", "Close": "545.219970703125", "Adj Close": "545.219970703125", "Volume": "960600"},
{"Date": "2020-06-03", "Open": "545.469970703125", "High": "548.8099975585938", "Low": "542.260009765625", "Close": "547.2999877929688", "Adj Close": "547.2999877929688", "Volume": "674500"},
{"Date": "2020-06-04", "Open": "544.469970703125", "High": "548.9099731445312", "Low": "534.6599731445312", "Close": "540.030029296875", "Adj Close": "540.030029296875", "Volume": "1109500"},
{"Date": "2020-06-05", "Open": "538.6500244140625", "High": "546.0700073242188", "Low": "528.02001953125", "Close": "530.719970703125", "Adj Close": "530.719970703125", "Volume": "1394800"},
{"Date": "2020-06-08", "Open": "524.0", "High": "540.4000244140625", "Low": "522.0800170898438", "Close": "540.3599853515625", "Adj Close": "540.3599853515625", "Volume": "1225300"},
{"Date": "2020-06-09", "Open": "541.0900268554688", "High": "542.3599853515625", "Low": "529.4299926757812", "Close": "531.5700073242188", "Adj Close": "531.5700073242188", "Volume": "892900"},
{"Date": "2020-06-10", "Open": "536.3499755859375", "High": "536.3499755859375", "Low": "528.5", "Close": "533.8099975585938", "Adj Close": "533.8099975585938", "Volume": "951800"},
{"Date": "2020-06-11", "Open": "532.7100219726562", "High": "535.6699829101562", "Low": "517.1500244140625", "Close": "517.1699829101562", "Adj Close": "517.1699829101562", "Volume": "1485400"},
{"Date": "2020-06-12", "Open": "524.3499755859375", "High": "530.719970703125", "Low": "515.2899780273438", "Close": "522.5700073242188", "Adj Close": "522.5700073242188", "Volume": "1043100"},
{"Date": "2020-06-15", "Open": "514.0499877929688", "High": "526.75", "Low": "511.54998779296875", "Close": "526.02001953125", "Adj Close": "526.02001953125", "Volume": "910400"},
{"Date": "2020-06-16", "Open": "528.0", "High": "538.02001953125", "Low": "525.8900146484375", "Close": "532.4500122070312", "Adj Close": "532.4500122070312", "Volume": "976600"},
{"Date": "2020-06-17", "Open": "535.3699951171875", "High": "539.1099853515625", "Low": "532.8200073242188", "Close": "534.22998046875", "Adj Close": "534.22998046875", "Volume": "953300"},
{"Date": "2020-06-18", "Open": "531.9400024414062", "High": "538.969970703125", "Low": "530.4199829101562", "Close": "535.1099853515625", "Adj Close": "535.1099853515625", "Volume": "886100"},
{"Date": "2020-06-19", "Open": "540.0", "High": "540.9000244140625", "Low": "524.469970703125", "Close": "536.6699829101562", "Adj Close": "536.6699829101562", "Volume": "2643800"},
{"Date": "2020-06-22", "Open": "532.4500122070312", "High": "534.010009765625", "Low": "523.4000244140625", "Close": "527.6699829101562", "Adj Close": "527.6699829101562", "Volume": "886700"},
{"Date": "2020-06-23", "Open": "532.0599975585938", "High": "532.0599975585938", "Low": "516.0999755859375", "Close": "521.0399780273438", "Adj Close": "521.0399780273438", "Volume": "1199400"},
{"Date": "2020-06-24", "Open": "512.1199951171875", "High": "517.8400268554688", "Low": "505.57000732421875", "Close": "507.989990234375", "Adj Close": "507.989990234375", "Volume": "1380500"},
{"Date": "2020-06-25", "Open": "507.4599914550781", "High": "512.5499877929688", "Low": "500.1600036621094", "Close": "510.0199890136719", "Adj Close": "510.0199890136719", "Volume": "792900"},
{"Date": "2020-06-26", "Open": "510.5", "High": "510.5", "Low": "500.5", "Close": "502.2699890136719", "Adj Close": "502.2699890136719", "Volume": "1615500"},
{"Date": "2020-06-29", "Open": "509.7300109863281", "High": "513.5599975585938", "Low": "499.510009765625", "Close": "509.2200012207031", "Adj Close": "509.2200012207031", "Volume": "1009900"},
{"Date": "2020-06-30", "Open": "509.6300048828125", "High": "511.9599914550781", "Low": "498.0799865722656", "Close": "510.0400085449219", "Adj Close": "510.0400085449219", "Volume": "1256400"},
{"Date": "2020-07-01", "Open": "510.0400085449219", "High": "525.780029296875", "Low": "505.45001220703125", "Close": "521.9099731445312", "Adj Close": "521.9099731445312", "Volume": "1112600"},
{"Date": "2020-07-02", "Open": "522.0999755859375", "High": "528.8699951171875", "Low": "517.02001953125", "Close": "517.6900024414062", "Adj Close": "517.6900024414062", "Volume": "785800"},
{"Date": "2020-07-06", "Open": "525.5599975585938", "High": "527.1699829101562", "Low": "520.47998046875", "Close": "526.2899780273438", "Adj Close": "526.2899780273438", "Volume": "814900"},
{"Date": "2020-07-07", "Open": "522.739990234375", "High": "532.3400268554688", "Low": "521.97998046875", "Close": "528.02001953125", "Adj Close": "528.02001953125", "Volume": "852800"},
{"Date": "2020-07-08", "Open": "527.97998046875", "High": "530.1699829101562", "Low": "523.0", "Close": "528.3099975585938", "Adj Close": "528.3099975585938", "Volume": "773600"},
{"Date": "2020-07-09", "Open": "529.5900268554688", "High": "532.25", "Low": "520.6699829101562", "Close": "530.1900024414062", "Adj Close": "530.1900024414062", "Volume": "792900"},
{"Date": "2020-07-10", "Open": "530.3900146484375", "High": "540.4400024414062", "Low": "527.5", "Close": "537.9199829101562", "Adj Close": "537.9199829101562", "Volume": "789900"},
{"Date": "2020-07-13", "Open": "536.6300048828125", "High": "544.4500122070312", "Low": "532.8599853515625", "Close": "533.780029296875", "Adj Close": "533.780029296875", "Volume": "958400"},
{"Date": "2020-07-14", "Open": "530.4299926757812", "High": "543.97998046875", "Low": "525.8699951171875", "Close": "542.9500122070312", "Adj Close": "542.9500122070312", "Volume": "706000"},
{"Date": "2020-07-15", "Open": "543.75", "High": "552.5399780273438", "Low": "542.530029296875", "Close": "552.010009765625", "Adj Close": "552.010009765625", "Volume": "936500"},
{"Date": "2020-07-16", "Open": "552.8200073242188", "High": "558.0999755859375", "Low": "547.780029296875", "Close": "558.030029296875", "Adj Close": "558.030029296875", "Volume": "1061200"},
{"Date": "2020-07-17", "Open": "562.4500122070312", "High": "569.8699951171875", "Low": "560.010009765625", "Close": "564.6599731445312", "Adj Close": "564.6599731445312", "Volume": "1420700"},
{"Date": "2020-07-20", "Open": "564.6599731445312", "High": "571.5999755859375", "Low": "562.5800170898438", "Close": "565.510009765625", "Adj Close": "565.510009765625", "Volume": "728000"},
{"Date": "2020-07-21", "Open": "567.9600219726562", "High": "570.9099731445312", "Low": "563.4000244140625", "Close": "564.6799926757812", "Adj Close": "564.6799926757812", "Volume": "719600"},
{"Date": "2020-07-22", "Open": "566.9600219726562", "High": "568.2000122070312", "Low": "561.2999877929688", "Close": "565.1199951171875", "Adj Close": "565.1199951171875", "Volume": "540400"},
{"Date": "2020-07-23", "Open": "567.3699951171875", "High": "569.1500244140625", "Low": "556.1900024414062", "Close": "560.4199829101562", "Adj Close": "560.4199829101562", "Volume": "540600"},
{"Date": "2020-07-24", "Open": "558.6199951171875", "High": "562.969970703125", "Low": "554.3599853515625", "Close": "561.719970703125", "Adj Close": "561.719970703125", "Volume": "587700"},
{"Date": "2020-07-27", "Open": "562.5399780273438", "High": "563.0999755859375", "Low": "555.27001953125", "Close": "559.9099731445312", "Adj Close": "559.9099731445312", "Volume": "733600"},
{"Date": "2020-07-28", "Open": "558.7999877929688", "High": "566.4600219726562", "Low": "557.02001953125", "Close": "561.4099731445312", "Adj Close": "561.4099731445312", "Volume": "522600"},
{"Date": "2020-07-29", "Open": "564.2100219726562", "High": "569.6799926757812", "Low": "560.5999755859375", "Close": "566.4199829101562", "Adj Close": "566.4199829101562", "Volume": "644300"},
{"Date": "2020-07-30", "Open": "559.530029296875", "High": "568.510009765625", "Low": "558.1699829101562", "Close": "563.4400024414062", "Adj Close": "563.4400024414062", "Volume": "771500"},
{"Date": "2020-07-31", "Open": "594.3099975585938", "High": "594.3099975585938", "Low": "554.260009765625", "Close": "580.0", "Adj Close": "580.0", "Volume": "1639500"},
{"Date": "2020-08-03", "Open": "585.010009765625", "High": "593.9000244140625", "Low": "581.1400146484375", "Close": "589.7000122070312", "Adj Close": "589.7000122070312", "Volume": "1013500"},
{"Date": "2020-08-04", "Open": "580.0", "High": "601.760009765625", "Low": "579.0", "Close": "600.010009765625", "Adj Close": "600.010009765625", "Volume": "952000"},
{"Date": "2020-08-05", "Open": "598.75", "High": "603.5999755859375", "Low": "597.22998046875", "Close": "598.260009765625", "Adj Close": "598.260009765625", "Volume": "682000"},
{"Date": "2020-08-06", "Open": "595.3499755859375", "High": "604.1199951171875", "Low": "594.6799926757812", "Close": "602.1400146484375", "Adj Close": "602.1400146484375", "Volume": "716100"},
{"Date": "2020-08-07", "Open": "603.3900146484375", "High": "611.469970703125", "Low": "598.25", "Close": "601.8699951171875", "Adj Close": "601.8699951171875", "Volume": "810900"},
{"Date": "2020-08-10", "Open": "598.6500244140625", "High": "606.0", "Low": "598.0999755859375", "Close": "602.3400268554688", "Adj Close": "602.3400268554688", "Volume": "789500"},
{"Date": "2020-08-11", "Open": "604.4199829101562", "High": "604.4199829101562", "Low": "588.969970703125", "Close": "590.47998046875", "Adj Close": "590.47998046875", "Volume": "862900"},
{"Date": "2020-08-12", "Open": "590.989990234375", "High": "607.0", "Low": "590.989990234375", "Close": "598.739990234375", "Adj Close": "598.739990234375", "Volume": "1033900"},
{"Date": "2020-08-13", "Open": "595.4600219726562", "High": "609.3099975585938", "Low": "595.4600219726562", "Close": "604.219970703125", "Adj Close": "604.219970703125", "Volume": "854000"},
{"Date": "2020-08-14", "Open": "604.5499877929688", "High": "610.9500122070312", "Low": "602.8800048828125", "Close": "604.989990234375", "Adj Close": "604.989990234375", "Volume": "664700"},
{"Date": "2020-08-17", "Open": "608.8499755859375", "High": "610.2000122070312", "Low": "601.0999755859375", "Close": "604.969970703125", "Adj Close": "604.969970703125", "Volume": "650200"},
{"Date": "2020-08-18", "Open": "608.22998046875", "High": "612.9299926757812", "Low": "606.510009765625", "Close": "610.6900024414062", "Adj Close": "610.6900024414062", "Volume": "700300"},
{"Date": "2020-08-19", "Open": "612.4600219726562", "High": "616.0700073242188", "Low": "607.7999877929688", "Close": "611.6599731445312", "Adj Close": "611.6599731445312", "Volume": "961500"},
{"Date": "2020-08-20", "Open": "607.9400024414062", "High": "614.3699951171875", "Low": "607.9400024414062", "Close": "612.5399780273438", "Adj Close": "612.5399780273438", "Volume": "630500"},
{"Date": "2020-08-21", "Open": "610.97998046875", "High": "614.7999877929688", "Low": "606.6099853515625", "Close": "613.9600219726562", "Adj Close": "613.9600219726562", "Volume": "677900"},
{}]