[{"Date": "2019-08-23", "Open": "92.76000213623047", "High": "93.29000091552734", "Low": "91.37999725341797", "Close": "91.45999908447266", "Adj Close": "90.31307983398438", "Volume": "2279500"},
{"Date": "2019-08-26", "Open": "92.1500015258789", "High": "92.5999984741211", "Low": "91.72000122070312", "Close": "92.19000244140625", "Adj Close": "91.03392028808594", "Volume": "1365400"},
{"Date": "2019-08-27", "Open": "92.7699966430664", "High": "92.79000091552734", "Low": "92.11000061035156", "Close": "92.41000366210938", "Adj Close": "91.25116729736328", "Volume": "1803700"},
{"Date": "2019-08-28", "Open": "92.04000091552734", "High": "92.77999877929688", "Low": "91.19000244140625", "Close": "92.12000274658203", "Adj Close": "90.96480560302734", "Volume": "1281200"},
{"Date": "2019-08-29", "Open": "92.8499984741211", "High": "93.30999755859375", "Low": "92.58999633789062", "Close": "92.76000213623047", "Adj Close": "91.59678649902344", "Volume": "1226800"},
{"Date": "2019-08-30", "Open": "93.48999786376953", "High": "93.62999725341797", "Low": "92.62999725341797", "Close": "92.9800033569336", "Adj Close": "91.81401824951172", "Volume": "1254300"},
{"Date": "2019-09-03", "Open": "92.33999633789062", "High": "92.9000015258789", "Low": "92.11000061035156", "Close": "92.9000015258789", "Adj Close": "91.73502349853516", "Volume": "1405300"},
{"Date": "2019-09-04", "Open": "93.70999908447266", "High": "93.70999908447266", "Low": "92.87000274658203", "Close": "93.16999816894531", "Adj Close": "92.00163269042969", "Volume": "1078400"},
{"Date": "2019-09-05", "Open": "93.6500015258789", "High": "94.97000122070312", "Low": "93.36000061035156", "Close": "94.3499984741211", "Adj Close": "93.51814270019531", "Volume": "2171200"},
{"Date": "2019-09-06", "Open": "94.51000213623047", "High": "95.16999816894531", "Low": "94.2699966430664", "Close": "94.41000366210938", "Adj Close": "93.57762145996094", "Volume": "1452800"},
{"Date": "2019-09-09", "Open": "94.73999786376953", "High": "95.13999938964844", "Low": "94.23999786376953", "Close": "94.97000122070312", "Adj Close": "94.13268280029297", "Volume": "2114500"},
{"Date": "2019-09-10", "Open": "94.58000183105469", "High": "95.79000091552734", "Low": "94.2300033569336", "Close": "95.76000213623047", "Adj Close": "94.91571807861328", "Volume": "1535400"},
{"Date": "2019-09-11", "Open": "96.04000091552734", "High": "96.76000213623047", "Low": "95.58999633789062", "Close": "96.5", "Adj Close": "95.64918518066406", "Volume": "1575800"},
{"Date": "2019-09-12", "Open": "96.94000244140625", "High": "97.3499984741211", "Low": "96.4800033569336", "Close": "96.52999877929688", "Adj Close": "95.67891693115234", "Volume": "1604300"},
{"Date": "2019-09-13", "Open": "96.37000274658203", "High": "96.68000030517578", "Low": "95.56999969482422", "Close": "95.94999694824219", "Adj Close": "95.10404205322266", "Volume": "1506800"},
{"Date": "2019-09-16", "Open": "95.66000366210938", "High": "96.77999877929688", "Low": "95.12000274658203", "Close": "96.63999938964844", "Adj Close": "95.78795623779297", "Volume": "1480400"},
{"Date": "2019-09-17", "Open": "96.52999877929688", "High": "96.7699966430664", "Low": "95.38999938964844", "Close": "95.72000122070312", "Adj Close": "94.87606048583984", "Volume": "1756600"},
{"Date": "2019-09-18", "Open": "95.7300033569336", "High": "96.91000366210938", "Low": "95.37000274658203", "Close": "96.72000122070312", "Adj Close": "95.86724853515625", "Volume": "1556300"},
{"Date": "2019-09-19", "Open": "96.63999938964844", "High": "97.22000122070312", "Low": "95.97000122070312", "Close": "96.44999694824219", "Adj Close": "95.59962463378906", "Volume": "1506100"},
{"Date": "2019-09-20", "Open": "96.22000122070312", "High": "97.12000274658203", "Low": "96.12000274658203", "Close": "96.97000122070312", "Adj Close": "96.11505126953125", "Volume": "3237900"},
{"Date": "2019-09-23", "Open": "96.76000213623047", "High": "97.16999816894531", "Low": "96.2300033569336", "Close": "96.25", "Adj Close": "95.40139770507812", "Volume": "1300900"},
{"Date": "2019-09-24", "Open": "96.51000213623047", "High": "96.83999633789062", "Low": "94.68000030517578", "Close": "95.16000366210938", "Adj Close": "94.32100677490234", "Volume": "2117900"},
{"Date": "2019-09-25", "Open": "95.41999816894531", "High": "96.1500015258789", "Low": "94.36000061035156", "Close": "95.97000122070312", "Adj Close": "95.12385559082031", "Volume": "1370400"},
{"Date": "2019-09-26", "Open": "96.12999725341797", "High": "96.58999633789062", "Low": "95.62000274658203", "Close": "95.83999633789062", "Adj Close": "94.99500274658203", "Volume": "1698300"},
{"Date": "2019-09-27", "Open": "96.41999816894531", "High": "96.6500015258789", "Low": "94.98999786376953", "Close": "95.80999755859375", "Adj Close": "94.96527099609375", "Volume": "1572200"},
{"Date": "2019-09-30", "Open": "95.88999938964844", "High": "96.94000244140625", "Low": "95.76000213623047", "Close": "96.5199966430664", "Adj Close": "95.66901397705078", "Volume": "1440500"},
{"Date": "2019-10-01", "Open": "96.94999694824219", "High": "97.38999938964844", "Low": "95.70999908447266", "Close": "96.02999877929688", "Adj Close": "95.18333435058594", "Volume": "1677900"},
{"Date": "2019-10-02", "Open": "95.30000305175781", "High": "95.69999694824219", "Low": "94.75", "Close": "95.18000030517578", "Adj Close": "94.3408203125", "Volume": "1825700"},
{"Date": "2019-10-03", "Open": "95.04000091552734", "High": "95.91999816894531", "Low": "94.16999816894531", "Close": "95.69000244140625", "Adj Close": "94.8463363647461", "Volume": "1437000"},
{"Date": "2019-10-04", "Open": "96.11000061035156", "High": "96.73999786376953", "Low": "95.68000030517578", "Close": "96.51000213623047", "Adj Close": "95.65910339355469", "Volume": "1291700"},
{"Date": "2019-10-07", "Open": "96.2300033569336", "High": "97.58000183105469", "Low": "95.58000183105469", "Close": "96.80000305175781", "Adj Close": "95.94654846191406", "Volume": "2565800"},
{"Date": "2019-10-08", "Open": "96.06999969482422", "High": "96.54000091552734", "Low": "94.19999694824219", "Close": "95.77999877929688", "Adj Close": "94.93553161621094", "Volume": "1482600"},
{"Date": "2019-10-09", "Open": "96.62999725341797", "High": "96.91999816894531", "Low": "95.98999786376953", "Close": "96.58999633789062", "Adj Close": "95.73839569091797", "Volume": "1020900"},
{"Date": "2019-10-10", "Open": "96.29000091552734", "High": "97.33000183105469", "Low": "96.29000091552734", "Close": "96.95999908447266", "Adj Close": "96.10513305664062", "Volume": "1198400"},
{"Date": "2019-10-11", "Open": "98.0", "High": "99.45999908447266", "Low": "97.44999694824219", "Close": "98.22000122070312", "Adj Close": "97.3540267944336", "Volume": "1157800"},
{"Date": "2019-10-14", "Open": "98.12999725341797", "High": "98.87999725341797", "Low": "97.68000030517578", "Close": "98.29000091552734", "Adj Close": "97.42340850830078", "Volume": "1004600"},
{"Date": "2019-10-15", "Open": "98.76000213623047", "High": "99.7699966430664", "Low": "98.44999694824219", "Close": "99.44999694824219", "Adj Close": "98.57318115234375", "Volume": "1049700"},
{"Date": "2019-10-16", "Open": "99.04000091552734", "High": "99.94000244140625", "Low": "98.33999633789062", "Close": "99.93000030517578", "Adj Close": "99.0489501953125", "Volume": "1178400"},
{"Date": "2019-10-17", "Open": "99.91000366210938", "High": "100.86000061035156", "Low": "99.08999633789062", "Close": "100.79000091552734", "Adj Close": "99.90135955810547", "Volume": "963300"},
{"Date": "2019-10-18", "Open": "100.79000091552734", "High": "101.94999694824219", "Low": "100.51000213623047", "Close": "101.5199966430664", "Adj Close": "100.62492370605469", "Volume": "2334500"},
{"Date": "2019-10-21", "Open": "101.6500015258789", "High": "103.95999908447266", "Low": "101.6500015258789", "Close": "103.19000244140625", "Adj Close": "102.28020477294922", "Volume": "2003000"},
{"Date": "2019-10-22", "Open": "103.29000091552734", "High": "104.36000061035156", "Low": "103.22000122070312", "Close": "104.0999984741211", "Adj Close": "103.18218231201172", "Volume": "1598200"},
{"Date": "2019-10-23", "Open": "104.23999786376953", "High": "104.58999633789062", "Low": "103.3499984741211", "Close": "103.66999816894531", "Adj Close": "102.75596618652344", "Volume": "2049400"},
{"Date": "2019-10-24", "Open": "106.9800033569336", "High": "108.45999908447266", "Low": "105.0", "Close": "107.7699966430664", "Adj Close": "106.81981658935547", "Volume": "3182800"},
{"Date": "2019-10-25", "Open": "108.12000274658203", "High": "108.12000274658203", "Low": "104.31999969482422", "Close": "105.63999938964844", "Adj Close": "104.70860290527344", "Volume": "2957500"},
{"Date": "2019-10-28", "Open": "105.52999877929688", "High": "107.11000061035156", "Low": "105.37999725341797", "Close": "106.87000274658203", "Adj Close": "105.92776489257812", "Volume": "1590300"},
{"Date": "2019-10-29", "Open": "107.04000091552734", "High": "107.58000183105469", "Low": "106.73999786376953", "Close": "107.16999816894531", "Adj Close": "106.22511291503906", "Volume": "1795300"},
{"Date": "2019-10-30", "Open": "107.36000061035156", "High": "108.8499984741211", "Low": "106.98999786376953", "Close": "108.81999969482422", "Adj Close": "107.86056518554688", "Volume": "1643600"},
{"Date": "2019-10-31", "Open": "108.58000183105469", "High": "108.97000122070312", "Low": "108.16000366210938", "Close": "108.86000061035156", "Adj Close": "107.90021514892578", "Volume": "1421900"},
{"Date": "2019-11-01", "Open": "109.06999969482422", "High": "109.93000030517578", "Low": "108.5999984741211", "Close": "109.54000091552734", "Adj Close": "108.57421875", "Volume": "1510000"},
{"Date": "2019-11-04", "Open": "109.56999969482422", "High": "110.05999755859375", "Low": "109.22000122070312", "Close": "109.25", "Adj Close": "108.28677368164062", "Volume": "1437400"},
{"Date": "2019-11-05", "Open": "109.79000091552734", "High": "110.02999877929688", "Low": "108.63999938964844", "Close": "108.79000091552734", "Adj Close": "107.8308334350586", "Volume": "2124500"},
{"Date": "2019-11-06", "Open": "108.73999786376953", "High": "109.88999938964844", "Low": "108.5999984741211", "Close": "109.58999633789062", "Adj Close": "108.623779296875", "Volume": "1467200"},
{"Date": "2019-11-07", "Open": "109.9000015258789", "High": "110.3499984741211", "Low": "109.3499984741211", "Close": "110.11000061035156", "Adj Close": "109.13919067382812", "Volume": "2039000"},
{"Date": "2019-11-08", "Open": "109.94999694824219", "High": "110.76000213623047", "Low": "109.5999984741211", "Close": "110.7300033569336", "Adj Close": "109.75373077392578", "Volume": "1139400"},
{"Date": "2019-11-11", "Open": "110.6500015258789", "High": "111.51000213623047", "Low": "110.30999755859375", "Close": "111.30999755859375", "Adj Close": "110.32860565185547", "Volume": "1546100"},
{"Date": "2019-11-12", "Open": "111.56999969482422", "High": "111.80999755859375", "Low": "111.02999877929688", "Close": "111.43000030517578", "Adj Close": "110.44755554199219", "Volume": "1909500"},
{"Date": "2019-11-13", "Open": "111.05000305175781", "High": "112.26000213623047", "Low": "111.05000305175781", "Close": "111.94000244140625", "Adj Close": "110.95305633544922", "Volume": "989200"},
{"Date": "2019-11-14", "Open": "111.45999908447266", "High": "111.93000030517578", "Low": "111.13999938964844", "Close": "111.38999938964844", "Adj Close": "110.40790557861328", "Volume": "1213900"},
{"Date": "2019-11-15", "Open": "111.9000015258789", "High": "112.66999816894531", "Low": "111.4000015258789", "Close": "112.58999633789062", "Adj Close": "111.59732055664062", "Volume": "2285400"},
{"Date": "2019-11-18", "Open": "112.61000061035156", "High": "112.87999725341797", "Low": "112.22000122070312", "Close": "112.55000305175781", "Adj Close": "111.55768585205078", "Volume": "1458800"},
{"Date": "2019-11-19", "Open": "113.05999755859375", "High": "113.69999694824219", "Low": "112.4800033569336", "Close": "113.33000183105469", "Adj Close": "112.33080291748047", "Volume": "1481900"},
{"Date": "2019-11-20", "Open": "113.08000183105469", "High": "113.69000244140625", "Low": "112.4800033569336", "Close": "112.91999816894531", "Adj Close": "111.9244155883789", "Volume": "1536000"},
{"Date": "2019-11-21", "Open": "113.05000305175781", "High": "113.44999694824219", "Low": "112.5", "Close": "113.23999786376953", "Adj Close": "112.24159240722656", "Volume": "1876000"},
{"Date": "2019-11-22", "Open": "113.37999725341797", "High": "114.29000091552734", "Low": "112.95999908447266", "Close": "113.75", "Adj Close": "112.74710083007812", "Volume": "1800200"},
{"Date": "2019-11-25", "Open": "114.16000366210938", "High": "114.7300033569336", "Low": "113.91000366210938", "Close": "114.04000091552734", "Adj Close": "113.0345458984375", "Volume": "1423700"},
{"Date": "2019-11-26", "Open": "114.23999786376953", "High": "114.6500015258789", "Low": "113.16000366210938", "Close": "113.97000122070312", "Adj Close": "112.96515655517578", "Volume": "7134700"},
{"Date": "2019-11-27", "Open": "114.27999877929688", "High": "114.27999877929688", "Low": "112.68000030517578", "Close": "113.5199966430664", "Adj Close": "112.51912689208984", "Volume": "1523900"},
{"Date": "2019-11-29", "Open": "113.01000213623047", "High": "113.13999938964844", "Low": "112.55000305175781", "Close": "112.80999755859375", "Adj Close": "111.81538391113281", "Volume": "1147700"},
{"Date": "2019-12-02", "Open": "112.4800033569336", "High": "112.73999786376953", "Low": "110.88999938964844", "Close": "111.91000366210938", "Adj Close": "110.92332458496094", "Volume": "1462900"},
{"Date": "2019-12-03", "Open": "111.55000305175781", "High": "111.58999633789062", "Low": "110.23999786376953", "Close": "111.22000122070312", "Adj Close": "110.23941040039062", "Volume": "2036300"},
{"Date": "2019-12-04", "Open": "111.23999786376953", "High": "111.97000122070312", "Low": "110.73999786376953", "Close": "110.87000274658203", "Adj Close": "109.89250183105469", "Volume": "980400"},
{"Date": "2019-12-05", "Open": "110.80000305175781", "High": "110.94999694824219", "Low": "110.30000305175781", "Close": "110.77999877929688", "Adj Close": "110.15101623535156", "Volume": "874800"},
{"Date": "2019-12-06", "Open": "111.38999938964844", "High": "111.73999786376953", "Low": "110.61000061035156", "Close": "110.62000274658203", "Adj Close": "109.99192810058594", "Volume": "1063900"},
{"Date": "2019-12-09", "Open": "110.3499984741211", "High": "111.19999694824219", "Low": "110.27999877929688", "Close": "110.33000183105469", "Adj Close": "109.70357513427734", "Volume": "1323600"},
{"Date": "2019-12-10", "Open": "110.22000122070312", "High": "110.6500015258789", "Low": "109.58999633789062", "Close": "109.68000030517578", "Adj Close": "109.05725860595703", "Volume": "1216600"},
{"Date": "2019-12-11", "Open": "109.95999908447266", "High": "110.2300033569336", "Low": "109.29000091552734", "Close": "109.44999694824219", "Adj Close": "108.82855987548828", "Volume": "1190800"},
{"Date": "2019-12-12", "Open": "109.23999786376953", "High": "110.33000183105469", "Low": "108.86000061035156", "Close": "110.30000305175781", "Adj Close": "109.67374420166016", "Volume": "1595100"},
{"Date": "2019-12-13", "Open": "109.93000030517578", "High": "110.66999816894531", "Low": "109.7699966430664", "Close": "110.3499984741211", "Adj Close": "109.72345733642578", "Volume": "1032600"},
{"Date": "2019-12-16", "Open": "110.72000122070312", "High": "111.7699966430664", "Low": "110.66000366210938", "Close": "111.69999694824219", "Adj Close": "111.06578826904297", "Volume": "1873000"},
{"Date": "2019-12-17", "Open": "111.66000366210938", "High": "112.25", "Low": "111.05999755859375", "Close": "111.20999908447266", "Adj Close": "110.57857513427734", "Volume": "1147200"},
{"Date": "2019-12-18", "Open": "111.01000213623047", "High": "111.88999938964844", "Low": "110.83999633789062", "Close": "111.2699966430664", "Adj Close": "110.63822937011719", "Volume": "1133400"},
{"Date": "2019-12-19", "Open": "111.41999816894531", "High": "112.12999725341797", "Low": "111.13999938964844", "Close": "111.81999969482422", "Adj Close": "111.18511199951172", "Volume": "809300"},
{"Date": "2019-12-20", "Open": "112.25", "High": "112.25", "Low": "110.97000122070312", "Close": "111.05999755859375", "Adj Close": "110.4294204711914", "Volume": "2323400"},
{"Date": "2019-12-23", "Open": "111.22000122070312", "High": "111.4800033569336", "Low": "110.05000305175781", "Close": "110.16000366210938", "Adj Close": "109.53453826904297", "Volume": "1000800"},
{"Date": "2019-12-24", "Open": "110.52999877929688", "High": "111.0", "Low": "110.16000366210938", "Close": "110.66999816894531", "Adj Close": "110.04164123535156", "Volume": "520900"},
{"Date": "2019-12-26", "Open": "110.9000015258789", "High": "111.36000061035156", "Low": "110.76000213623047", "Close": "111.26000213623047", "Adj Close": "110.62828826904297", "Volume": "597300"},
{"Date": "2019-12-27", "Open": "111.04000091552734", "High": "111.56999969482422", "Low": "110.41000366210938", "Close": "110.79000091552734", "Adj Close": "110.16095733642578", "Volume": "698600"},
{"Date": "2019-12-30", "Open": "110.94999694824219", "High": "111.31999969482422", "Low": "110.2699966430664", "Close": "110.36000061035156", "Adj Close": "109.7333984375", "Volume": "599400"},
{"Date": "2019-12-31", "Open": "110.05999755859375", "High": "110.97000122070312", "Low": "110.05999755859375", "Close": "110.9000015258789", "Adj Close": "110.27033233642578", "Volume": "655200"},
{"Date": "2020-01-02", "Open": "111.58999633789062", "High": "111.98999786376953", "Low": "111.05999755859375", "Close": "111.66999816894531", "Adj Close": "111.03595733642578", "Volume": "1352600"},
{"Date": "2020-01-03", "Open": "110.56999969482422", "High": "111.97000122070312", "Low": "110.36000061035156", "Close": "111.81999969482422", "Adj Close": "111.18511199951172", "Volume": "1107000"},
{"Date": "2020-01-06", "Open": "111.31999969482422", "High": "113.05999755859375", "Low": "111.31999969482422", "Close": "113.01000213623047", "Adj Close": "112.36835479736328", "Volume": "1046700"},
{"Date": "2020-01-07", "Open": "112.51000213623047", "High": "113.43000030517578", "Low": "112.22000122070312", "Close": "112.41000366210938", "Adj Close": "111.77176666259766", "Volume": "933700"},
{"Date": "2020-01-08", "Open": "112.62999725341797", "High": "114.02999877929688", "Low": "112.61000061035156", "Close": "113.76000213623047", "Adj Close": "113.11409759521484", "Volume": "1261600"},
{"Date": "2020-01-09", "Open": "113.98999786376953", "High": "114.37000274658203", "Low": "113.51000213623047", "Close": "114.05000305175781", "Adj Close": "113.40245056152344", "Volume": "1605900"},
{"Date": "2020-01-10", "Open": "114.62999725341797", "High": "114.80999755859375", "Low": "113.45999908447266", "Close": "113.73999786376953", "Adj Close": "113.09420776367188", "Volume": "964600"},
{"Date": "2020-01-13", "Open": "114.20999908447266", "High": "115.51000213623047", "Low": "112.29000091552734", "Close": "115.13999938964844", "Adj Close": "114.48625946044922", "Volume": "1548900"},
{"Date": "2020-01-14", "Open": "115.0", "High": "115.38999938964844", "Low": "114.38999938964844", "Close": "114.95999908447266", "Adj Close": "114.30728149414062", "Volume": "895100"},
{"Date": "2020-01-15", "Open": "114.88999938964844", "High": "116.13999938964844", "Low": "114.30999755859375", "Close": "115.30999755859375", "Adj Close": "114.65528869628906", "Volume": "892100"},
{"Date": "2020-01-16", "Open": "115.69999694824219", "High": "117.47000122070312", "Low": "115.69999694824219", "Close": "116.87999725341797", "Adj Close": "116.21637725830078", "Volume": "796000"},
{"Date": "2020-01-17", "Open": "117.1500015258789", "High": "117.29000091552734", "Low": "116.08999633789062", "Close": "117.22000122070312", "Adj Close": "116.55445098876953", "Volume": "1416400"},
{"Date": "2020-01-21", "Open": "116.69999694824219", "High": "118.1500015258789", "Low": "116.69999694824219", "Close": "117.8499984741211", "Adj Close": "117.18087005615234", "Volume": "1442000"},
{"Date": "2020-01-22", "Open": "118.0199966430664", "High": "119.62000274658203", "Low": "118.0199966430664", "Close": "119.16000366210938", "Adj Close": "118.48343658447266", "Volume": "1948100"},
{"Date": "2020-01-23", "Open": "123.08999633789062", "High": "130.5500030517578", "Low": "122.19999694824219", "Close": "128.47999572753906", "Adj Close": "127.75051879882812", "Volume": "4300600"},
{"Date": "2020-01-24", "Open": "128.44000244140625", "High": "129.25999450683594", "Low": "126.76000213623047", "Close": "128.25999450683594", "Adj Close": "127.53176879882812", "Volume": "2063800"},
{"Date": "2020-01-27", "Open": "127.33000183105469", "High": "128.24000549316406", "Low": "126.75", "Close": "126.9000015258789", "Adj Close": "126.17948913574219", "Volume": "1312300"},
{"Date": "2020-01-28", "Open": "126.55000305175781", "High": "127.19999694824219", "Low": "125.20999908447266", "Close": "125.55000305175781", "Adj Close": "124.837158203125", "Volume": "1530400"},
{"Date": "2020-01-29", "Open": "126.06999969482422", "High": "126.06999969482422", "Low": "122.87999725341797", "Close": "123.01000213623047", "Adj Close": "122.31158447265625", "Volume": "1570500"},
{"Date": "2020-01-30", "Open": "122.44000244140625", "High": "123.4000015258789", "Low": "121.62000274658203", "Close": "122.54000091552734", "Adj Close": "121.84424591064453", "Volume": "1541200"},
{"Date": "2020-01-31", "Open": "123.55000305175781", "High": "123.77999877929688", "Low": "120.69000244140625", "Close": "121.22000122070312", "Adj Close": "120.53173828125", "Volume": "2397800"},
{"Date": "2020-02-03", "Open": "121.08999633789062", "High": "123.29000091552734", "Low": "121.08999633789062", "Close": "122.66999816894531", "Adj Close": "121.97350311279297", "Volume": "1373300"},
{"Date": "2020-02-04", "Open": "122.93000030517578", "High": "124.11000061035156", "Low": "122.66999816894531", "Close": "123.48999786376953", "Adj Close": "122.78884887695312", "Volume": "1698700"},
{"Date": "2020-02-05", "Open": "123.66999816894531", "High": "124.12000274658203", "Low": "122.26000213623047", "Close": "122.75", "Adj Close": "122.05305480957031", "Volume": "1882500"},
{"Date": "2020-02-06", "Open": "123.19999694824219", "High": "123.83000183105469", "Low": "121.75", "Close": "122.2300033569336", "Adj Close": "121.5360107421875", "Volume": "1305500"},
{"Date": "2020-02-07", "Open": "121.9000015258789", "High": "122.54000091552734", "Low": "120.86000061035156", "Close": "121.08000183105469", "Adj Close": "120.39253997802734", "Volume": "1014900"},
{"Date": "2020-02-10", "Open": "120.94000244140625", "High": "121.87000274658203", "Low": "120.29000091552734", "Close": "121.81999969482422", "Adj Close": "121.12833404541016", "Volume": "1618800"},
{"Date": "2020-02-11", "Open": "122.41000366210938", "High": "122.62000274658203", "Low": "121.38999938964844", "Close": "121.62000274658203", "Adj Close": "120.92947387695312", "Volume": "1006300"},
{"Date": "2020-02-12", "Open": "122.18000030517578", "High": "122.58999633789062", "Low": "121.33999633789062", "Close": "122.04000091552734", "Adj Close": "121.34708404541016", "Volume": "1036000"},
{"Date": "2020-02-13", "Open": "121.58999633789062", "High": "123.43000030517578", "Low": "121.58999633789062", "Close": "123.0", "Adj Close": "122.3016357421875", "Volume": "867900"},
{"Date": "2020-02-14", "Open": "122.87999725341797", "High": "123.44999694824219", "Low": "121.75", "Close": "122.02999877929688", "Adj Close": "121.33714294433594", "Volume": "1257200"},
{"Date": "2020-02-18", "Open": "121.94000244140625", "High": "123.54000091552734", "Low": "121.83999633789062", "Close": "123.51000213623047", "Adj Close": "122.8087387084961", "Volume": "1915100"},
{"Date": "2020-02-19", "Open": "123.63999938964844", "High": "124.48999786376953", "Low": "122.0999984741211", "Close": "122.25", "Adj Close": "121.55589294433594", "Volume": "1273100"},
{"Date": "2020-02-20", "Open": "122.13999938964844", "High": "122.5199966430664", "Low": "118.91000366210938", "Close": "119.56999969482422", "Adj Close": "118.89111328125", "Volume": "1384700"},
{"Date": "2020-02-21", "Open": "119.01000213623047", "High": "119.91999816894531", "Low": "115.83999633789062", "Close": "116.08000183105469", "Adj Close": "115.4209213256836", "Volume": "1740000"},
{"Date": "2020-02-24", "Open": "114.12999725341797", "High": "114.88999938964844", "Low": "111.83999633789062", "Close": "111.94000244140625", "Adj Close": "111.30443572998047", "Volume": "2128200"},
{"Date": "2020-02-25", "Open": "112.08000183105469", "High": "112.4000015258789", "Low": "108.36000061035156", "Close": "108.6500015258789", "Adj Close": "108.03311157226562", "Volume": "2277700"},
{"Date": "2020-02-26", "Open": "109.68000030517578", "High": "110.38999938964844", "Low": "106.41000366210938", "Close": "106.80000305175781", "Adj Close": "106.19361877441406", "Volume": "1676200"},
{"Date": "2020-02-27", "Open": "105.05000305175781", "High": "107.04000091552734", "Low": "102.91000366210938", "Close": "102.97000122070312", "Adj Close": "102.38536071777344", "Volume": "2536900"},
{"Date": "2020-02-28", "Open": "100.69999694824219", "High": "103.47000122070312", "Low": "100.30999755859375", "Close": "103.38999938964844", "Adj Close": "102.80297088623047", "Volume": "4823400"},
{"Date": "2020-03-02", "Open": "104.05999755859375", "High": "108.97000122070312", "Low": "103.79000091552734", "Close": "108.77999877929688", "Adj Close": "108.16236877441406", "Volume": "3897100"},
{"Date": "2020-03-03", "Open": "108.16999816894531", "High": "109.41999816894531", "Low": "105.05999755859375", "Close": "106.4000015258789", "Adj Close": "105.79589080810547", "Volume": "2596200"},
{"Date": "2020-03-04", "Open": "107.86000061035156", "High": "110.12999725341797", "Low": "107.25", "Close": "110.12999725341797", "Adj Close": "109.50470733642578", "Volume": "2649300"},
{"Date": "2020-03-05", "Open": "107.51000213623047", "High": "117.37000274658203", "Low": "107.51000213623047", "Close": "116.45999908447266", "Adj Close": "116.16795349121094", "Volume": "4652300"},
{"Date": "2020-03-06", "Open": "112.23999786376953", "High": "120.12999725341797", "Low": "112.0999984741211", "Close": "117.91000366210938", "Adj Close": "117.61431884765625", "Volume": "4220900"},
{"Date": "2020-03-09", "Open": "112.0", "High": "118.69999694824219", "Low": "111.05000305175781", "Close": "115.94999694824219", "Adj Close": "115.65923309326172", "Volume": "2854100"},
{"Date": "2020-03-10", "Open": "118.80000305175781", "High": "119.25", "Low": "109.87999725341797", "Close": "114.77999877929688", "Adj Close": "114.4921646118164", "Volume": "2749600"},
{"Date": "2020-03-11", "Open": "111.81999969482422", "High": "116.95999908447266", "Low": "110.68000030517578", "Close": "114.80000305175781", "Adj Close": "114.51212310791016", "Volume": "3315400"},
{"Date": "2020-03-12", "Open": "110.01000213623047", "High": "113.69000244140625", "Low": "103.80999755859375", "Close": "105.05999755859375", "Adj Close": "104.79653930664062", "Volume": "3493100"},
{"Date": "2020-03-13", "Open": "108.81999969482422", "High": "113.83999633789062", "Low": "106.37999725341797", "Close": "113.66999816894531", "Adj Close": "113.38494873046875", "Volume": "3337800"},
{"Date": "2020-03-16", "Open": "106.16000366210938", "High": "119.80999755859375", "Low": "104.75", "Close": "110.73999786376953", "Adj Close": "110.46229553222656", "Volume": "4232400"},
{"Date": "2020-03-17", "Open": "113.76000213623047", "High": "134.41000366210938", "Low": "113.7300033569336", "Close": "127.45999908447266", "Adj Close": "127.14036560058594", "Volume": "5231600"},
{"Date": "2020-03-18", "Open": "122.63999938964844", "High": "139.14999389648438", "Low": "120.0", "Close": "130.5", "Adj Close": "130.17274475097656", "Volume": "3862500"},
{"Date": "2020-03-19", "Open": "132.08999633789062", "High": "141.00999450683594", "Low": "123.62999725341797", "Close": "125.30999755859375", "Adj Close": "124.99575805664062", "Volume": "3889200"},
{"Date": "2020-03-20", "Open": "126.0", "High": "131.97000122070312", "Low": "116.83000183105469", "Close": "119.33000183105469", "Adj Close": "119.03076171875", "Volume": "4509400"},
{"Date": "2020-03-23", "Open": "121.33000183105469", "High": "123.29000091552734", "Low": "114.56999969482422", "Close": "121.5999984741211", "Adj Close": "121.2950668334961", "Volume": "3061600"},
{"Date": "2020-03-24", "Open": "125.23999786376953", "High": "126.0", "Low": "116.20999908447266", "Close": "122.0", "Adj Close": "121.69406127929688", "Volume": "3012900"},
{"Date": "2020-03-25", "Open": "126.0", "High": "131.11000061035156", "Low": "121.83999633789062", "Close": "126.66000366210938", "Adj Close": "126.34237670898438", "Volume": "3576400"},
{"Date": "2020-03-26", "Open": "125.98999786376953", "High": "139.49000549316406", "Low": "125.97000122070312", "Close": "137.80999755859375", "Adj Close": "137.46441650390625", "Volume": "3458300"},
{"Date": "2020-03-27", "Open": "135.36000061035156", "High": "142.97000122070312", "Low": "133.02000427246094", "Close": "140.0399932861328", "Adj Close": "139.68881225585938", "Volume": "3330300"},
{"Date": "2020-03-30", "Open": "141.3000030517578", "High": "146.25", "Low": "134.57000732421875", "Close": "145.91000366210938", "Adj Close": "145.5441131591797", "Volume": "2991600"},
{"Date": "2020-03-31", "Open": "144.0800018310547", "High": "146.39999389648438", "Low": "140.52999877929688", "Close": "141.5500030517578", "Adj Close": "141.19503784179688", "Volume": "2957000"},
{"Date": "2020-04-01", "Open": "138.9600067138672", "High": "142.64999389648438", "Low": "136.38999938964844", "Close": "139.13999938964844", "Adj Close": "138.79107666015625", "Volume": "2344700"},
{"Date": "2020-04-02", "Open": "137.86000061035156", "High": "145.42999267578125", "Low": "137.38999938964844", "Close": "142.52000427246094", "Adj Close": "142.16261291503906", "Volume": "2950400"},
{"Date": "2020-04-03", "Open": "142.00999450683594", "High": "145.89999389648438", "Low": "140.66000366210938", "Close": "141.3300018310547", "Adj Close": "140.9755859375", "Volume": "2793300"},
{"Date": "2020-04-06", "Open": "142.69000244140625", "High": "150.3300018310547", "Low": "136.30999755859375", "Close": "147.13999938964844", "Adj Close": "146.77101135253906", "Volume": "3663100"},
{"Date": "2020-04-07", "Open": "147.38999938964844", "High": "148.0", "Low": "142.91000366210938", "Close": "145.8000030517578", "Adj Close": "145.43438720703125", "Volume": "3177700"},
{"Date": "2020-04-08", "Open": "146.61000061035156", "High": "148.22000122070312", "Low": "145.0", "Close": "146.82000732421875", "Adj Close": "146.4518280029297", "Volume": "2128300"},
{"Date": "2020-04-09", "Open": "146.22999572753906", "High": "146.63999938964844", "Low": "138.75999450683594", "Close": "139.39999389648438", "Adj Close": "139.0504150390625", "Volume": "3334900"},
{"Date": "2020-04-13", "Open": "138.82000732421875", "High": "142.6199951171875", "Low": "138.41000366210938", "Close": "139.99000549316406", "Adj Close": "139.6389617919922", "Volume": "2060900"},
{"Date": "2020-04-14", "Open": "141.50999450683594", "High": "143.83999633789062", "Low": "140.1199951171875", "Close": "143.75999450683594", "Adj Close": "143.3994903564453", "Volume": "2305800"},
{"Date": "2020-04-15", "Open": "142.80999755859375", "High": "145.57000732421875", "Low": "141.44000244140625", "Close": "145.08999633789062", "Adj Close": "144.7261505126953", "Volume": "1989000"},
{"Date": "2020-04-16", "Open": "147.1999969482422", "High": "151.52999877929688", "Low": "146.00999450683594", "Close": "150.55999755859375", "Adj Close": "150.18243408203125", "Volume": "2055000"},
{"Date": "2020-04-17", "Open": "147.69000244140625", "High": "150.72000122070312", "Low": "144.52000427246094", "Close": "150.41000366210938", "Adj Close": "150.03282165527344", "Volume": "2114000"},
{"Date": "2020-04-20", "Open": "150.7100067138672", "High": "152.49000549316406", "Low": "148.9199981689453", "Close": "150.6699981689453", "Adj Close": "150.2921600341797", "Volume": "1562300"},
{"Date": "2020-04-21", "Open": "150.16000366210938", "High": "150.64999389648438", "Low": "145.22000122070312", "Close": "146.63999938964844", "Adj Close": "146.27227783203125", "Volume": "1821400"},
{"Date": "2020-04-22", "Open": "148.3000030517578", "High": "151.9199981689453", "Low": "147.17999267578125", "Close": "151.69000244140625", "Adj Close": "151.3096160888672", "Volume": "2119900"},
{"Date": "2020-04-23", "Open": "143.27000427246094", "High": "145.63999938964844", "Low": "139.2899932861328", "Close": "141.55999755859375", "Adj Close": "141.2050018310547", "Volume": "5615000"},
{"Date": "2020-04-24", "Open": "142.60000610351562", "High": "146.2100067138672", "Low": "142.0500030517578", "Close": "146.0399932861328", "Adj Close": "145.67376708984375", "Volume": "3317200"},
{"Date": "2020-04-27", "Open": "146.5", "High": "148.6999969482422", "Low": "146.1999969482422", "Close": "147.47999572753906", "Adj Close": "147.11016845703125", "Volume": "2390900"},
{"Date": "2020-04-28", "Open": "147.19000244140625", "High": "147.49000549316406", "Low": "141.00999450683594", "Close": "141.19000244140625", "Adj Close": "140.8359375", "Volume": "2388800"},
{"Date": "2020-04-29", "Open": "141.32000732421875", "High": "141.92999267578125", "Low": "139.16000366210938", "Close": "139.97999572753906", "Adj Close": "139.62896728515625", "Volume": "2774100"},
{"Date": "2020-04-30", "Open": "140.57000732421875", "High": "145.36000061035156", "Low": "140.02000427246094", "Close": "145.00999450683594", "Adj Close": "144.6463623046875", "Volume": "2177500"},
{"Date": "2020-05-01", "Open": "143.6199951171875", "High": "144.7899932861328", "Low": "140.4600067138672", "Close": "142.5800018310547", "Adj Close": "142.2224578857422", "Volume": "1545400"},
{"Date": "2020-05-04", "Open": "143.4199981689453", "High": "146.4199981689453", "Low": "142.58999633789062", "Close": "146.32000732421875", "Adj Close": "145.9530792236328", "Volume": "1500700"},
{"Date": "2020-05-05", "Open": "146.30999755859375", "High": "148.1999969482422", "Low": "144.9600067138672", "Close": "146.5800018310547", "Adj Close": "146.21241760253906", "Volume": "1624900"},
{"Date": "2020-05-06", "Open": "147.6999969482422", "High": "149.97999572753906", "Low": "145.60000610351562", "Close": "147.72000122070312", "Adj Close": "147.3495635986328", "Volume": "1533800"},
{"Date": "2020-05-07", "Open": "149.02999877929688", "High": "152.4199981689453", "Low": "147.6199951171875", "Close": "150.67999267578125", "Adj Close": "150.30213928222656", "Volume": "1771700"},
{"Date": "2020-05-08", "Open": "151.58999633789062", "High": "151.58999633789062", "Low": "147.94000244140625", "Close": "150.97999572753906", "Adj Close": "150.60137939453125", "Volume": "1485400"},
{"Date": "2020-05-11", "Open": "151.88999938964844", "High": "155.10000610351562", "Low": "151.24000549316406", "Close": "154.02000427246094", "Adj Close": "153.63377380371094", "Volume": "1432100"},
{"Date": "2020-05-12", "Open": "154.6999969482422", "High": "154.99000549316406", "Low": "146.72000122070312", "Close": "146.83999633789062", "Adj Close": "146.47177124023438", "Volume": "1934800"},
{"Date": "2020-05-13", "Open": "147.36000061035156", "High": "149.50999450683594", "Low": "144.22000122070312", "Close": "146.50999450683594", "Adj Close": "146.14259338378906", "Volume": "1758500"},
{"Date": "2020-05-14", "Open": "146.27999877929688", "High": "146.9600067138672", "Low": "143.47999572753906", "Close": "146.05999755859375", "Adj Close": "145.6937255859375", "Volume": "1430900"},
{"Date": "2020-05-15", "Open": "144.88999938964844", "High": "148.17999267578125", "Low": "144.44000244140625", "Close": "146.72000122070312", "Adj Close": "146.35206604003906", "Volume": "1616100"},
{"Date": "2020-05-18", "Open": "146.44000244140625", "High": "147.25999450683594", "Low": "139.72999572753906", "Close": "139.88999938964844", "Adj Close": "139.53919982910156", "Volume": "3602200"},
{"Date": "2020-05-19", "Open": "140.66000366210938", "High": "141.16000366210938", "Low": "137.0500030517578", "Close": "137.1699981689453", "Adj Close": "136.82601928710938", "Volume": "2467600"},
{"Date": "2020-05-20", "Open": "138.0399932861328", "High": "138.9600067138672", "Low": "135.17999267578125", "Close": "137.44000244140625", "Adj Close": "137.09535217285156", "Volume": "1804400"},
{"Date": "2020-05-21", "Open": "137.80999755859375", "High": "138.3000030517578", "Low": "135.0500030517578", "Close": "136.72999572753906", "Adj Close": "136.38711547851562", "Volume": "1616100"},
{"Date": "2020-05-22", "Open": "137.16000366210938", "High": "137.8800048828125", "Low": "135.1300048828125", "Close": "137.0399932861328", "Adj Close": "136.6963348388672", "Volume": "1616300"},
{"Date": "2020-05-26", "Open": "138.80999755859375", "High": "140.27000427246094", "Low": "137.24000549316406", "Close": "138.9499969482422", "Adj Close": "138.60154724121094", "Volume": "2347600"},
{"Date": "2020-05-27", "Open": "136.83999633789062", "High": "139.41000366210938", "Low": "135.50999450683594", "Close": "139.2100067138672", "Adj Close": "138.8609161376953", "Volume": "1642400"},
{"Date": "2020-05-28", "Open": "139.30999755859375", "High": "142.7899932861328", "Low": "139.02000427246094", "Close": "141.19000244140625", "Adj Close": "140.8359375", "Volume": "1670800"},
{"Date": "2020-05-29", "Open": "141.72000122070312", "High": "148.52999877929688", "Low": "141.5399932861328", "Close": "148.1199951171875", "Adj Close": "147.74855041503906", "Volume": "3616400"},
{"Date": "2020-06-01", "Open": "147.38999938964844", "High": "148.7100067138672", "Low": "145.1699981689453", "Close": "146.64999389648438", "Adj Close": "146.28224182128906", "Volume": "1352200"},
{"Date": "2020-06-02", "Open": "145.89999389648438", "High": "146.02999877929688", "Low": "140.75999450683594", "Close": "143.8699951171875", "Adj Close": "143.50921630859375", "Volume": "1617900"},
{"Date": "2020-06-03", "Open": "143.85000610351562", "High": "143.85000610351562", "Low": "139.0800018310547", "Close": "139.57000732421875", "Adj Close": "139.2200164794922", "Volume": "1498900"},
{"Date": "2020-06-04", "Open": "137.97000122070312", "High": "140.7100067138672", "Low": "137.8000030517578", "Close": "139.92999267578125", "Adj Close": "139.92999267578125", "Volume": "1413500"},
{"Date": "2020-06-05", "Open": "137.6199951171875", "High": "139.5500030517578", "Low": "135.33999633789062", "Close": "139.14999389648438", "Adj Close": "139.14999389648438", "Volume": "2048300"},
{"Date": "2020-06-08", "Open": "136.41000366210938", "High": "140.5399932861328", "Low": "136.10000610351562", "Close": "139.88999938964844", "Adj Close": "139.88999938964844", "Volume": "1765300"},
{"Date": "2020-06-09", "Open": "141.36000061035156", "High": "142.3699951171875", "Low": "139.11000061035156", "Close": "140.22000122070312", "Adj Close": "140.22000122070312", "Volume": "1311300"},
{"Date": "2020-06-10", "Open": "141.72000122070312", "High": "143.58999633789062", "Low": "140.22000122070312", "Close": "141.3699951171875", "Adj Close": "141.3699951171875", "Volume": "2056200"},
{"Date": "2020-06-11", "Open": "140.72999572753906", "High": "143.3699951171875", "Low": "137.5", "Close": "137.8800048828125", "Adj Close": "137.8800048828125", "Volume": "1713200"},
{"Date": "2020-06-12", "Open": "139.49000549316406", "High": "142.66000366210938", "Low": "138.8300018310547", "Close": "140.74000549316406", "Adj Close": "140.74000549316406", "Volume": "1863600"},
{"Date": "2020-06-15", "Open": "140.05999755859375", "High": "143.3300018310547", "Low": "139.1300048828125", "Close": "143.22999572753906", "Adj Close": "143.22999572753906", "Volume": "1491400"},
{"Date": "2020-06-16", "Open": "143.6699981689453", "High": "146.99000549316406", "Low": "143.60000610351562", "Close": "145.4600067138672", "Adj Close": "145.4600067138672", "Volume": "1254100"},
{"Date": "2020-06-17", "Open": "145.4199981689453", "High": "146.97999572753906", "Low": "144.50999450683594", "Close": "145.3699951171875", "Adj Close": "145.3699951171875", "Volume": "964600"},
{"Date": "2020-06-18", "Open": "145.9199981689453", "High": "146.99000549316406", "Low": "144.24000549316406", "Close": "146.72999572753906", "Adj Close": "146.72999572753906", "Volume": "1364400"},
{"Date": "2020-06-19", "Open": "148.0", "High": "148.75", "Low": "144.52000427246094", "Close": "144.60000610351562", "Adj Close": "144.60000610351562", "Volume": "2929600"},
{"Date": "2020-06-22", "Open": "145.02999877929688", "High": "145.47999572753906", "Low": "143.08999633789062", "Close": "144.83999633789062", "Adj Close": "144.83999633789062", "Volume": "1019100"},
{"Date": "2020-06-23", "Open": "145.05999755859375", "High": "145.47999572753906", "Low": "142.57000732421875", "Close": "142.72000122070312", "Adj Close": "142.72000122070312", "Volume": "1121300"},
{"Date": "2020-06-24", "Open": "142.94000244140625", "High": "144.92999267578125", "Low": "141.58999633789062", "Close": "142.1699981689453", "Adj Close": "142.1699981689453", "Volume": "1285600"},
{"Date": "2020-06-25", "Open": "142.66000366210938", "High": "143.63999938964844", "Low": "140.11000061035156", "Close": "140.88999938964844", "Adj Close": "140.88999938964844", "Volume": "1298400"},
{"Date": "2020-06-26", "Open": "140.88999938964844", "High": "144.13999938964844", "Low": "139.89999389648438", "Close": "142.77000427246094", "Adj Close": "142.77000427246094", "Volume": "2984500"},
{"Date": "2020-06-29", "Open": "142.4600067138672", "High": "145.39999389648438", "Low": "141.02999877929688", "Close": "144.82000732421875", "Adj Close": "144.82000732421875", "Volume": "1492600"},
{"Date": "2020-06-30", "Open": "146.57000732421875", "High": "148.36000061035156", "Low": "145.57000732421875", "Close": "147.91000366210938", "Adj Close": "147.91000366210938", "Volume": "1145100"},
{"Date": "2020-07-01", "Open": "147.00999450683594", "High": "149.83999633789062", "Low": "145.66000366210938", "Close": "149.3800048828125", "Adj Close": "149.3800048828125", "Volume": "1058900"},
{"Date": "2020-07-02", "Open": "150.0", "High": "151.6199951171875", "Low": "149.27000427246094", "Close": "150.05999755859375", "Adj Close": "150.05999755859375", "Volume": "1115000"},
{"Date": "2020-07-06", "Open": "151.49000549316406", "High": "152.2100067138672", "Low": "148.91000366210938", "Close": "150.3800048828125", "Adj Close": "150.3800048828125", "Volume": "1267700"},
{"Date": "2020-07-07", "Open": "150.1300048828125", "High": "152.60000610351562", "Low": "149.82000732421875", "Close": "150.0800018310547", "Adj Close": "150.0800018310547", "Volume": "984500"},
{"Date": "2020-07-08", "Open": "151.0399932861328", "High": "151.66000366210938", "Low": "148.75", "Close": "149.69000244140625", "Adj Close": "149.69000244140625", "Volume": "1097500"},
{"Date": "2020-07-09", "Open": "151.2899932861328", "High": "153.2899932861328", "Low": "150.0500030517578", "Close": "152.67999267578125", "Adj Close": "152.67999267578125", "Volume": "1016500"},
{"Date": "2020-07-10", "Open": "152.8699951171875", "High": "153.38999938964844", "Low": "150.82000732421875", "Close": "152.27999877929688", "Adj Close": "152.27999877929688", "Volume": "880800"},
{"Date": "2020-07-13", "Open": "153.05999755859375", "High": "154.5", "Low": "148.99000549316406", "Close": "149.0800018310547", "Adj Close": "149.0800018310547", "Volume": "1697400"},
{"Date": "2020-07-14", "Open": "147.9600067138672", "High": "153.8800048828125", "Low": "146.75", "Close": "153.6699981689453", "Adj Close": "153.6699981689453", "Volume": "1852300"},
{"Date": "2020-07-15", "Open": "152.0800018310547", "High": "154.2899932861328", "Low": "150.38999938964844", "Close": "150.82000732421875", "Adj Close": "150.82000732421875", "Volume": "1556400"},
{"Date": "2020-07-16", "Open": "150.41000366210938", "High": "152.55999755859375", "Low": "149.3699951171875", "Close": "151.8699951171875", "Adj Close": "151.8699951171875", "Volume": "1246600"},
{"Date": "2020-07-17", "Open": "152.80999755859375", "High": "156.3000030517578", "Low": "152.11000061035156", "Close": "155.8300018310547", "Adj Close": "155.8300018310547", "Volume": "1267700"},
{"Date": "2020-07-20", "Open": "159.44000244140625", "High": "167.9499969482422", "Low": "158.4600067138672", "Close": "167.72999572753906", "Adj Close": "167.72999572753906", "Volume": "2306600"},
{"Date": "2020-07-21", "Open": "167.0", "High": "169.32000732421875", "Low": "164.10000610351562", "Close": "165.80999755859375", "Adj Close": "165.80999755859375", "Volume": "2164900"},
{"Date": "2020-07-22", "Open": "168.7100067138672", "High": "173.55999755859375", "Low": "167.0500030517578", "Close": "167.14999389648438", "Adj Close": "167.14999389648438", "Volume": "2168000"},
{"Date": "2020-07-23", "Open": "153.42999267578125", "High": "160.6999969482422", "Low": "143.9199981689453", "Close": "145.5399932861328", "Adj Close": "145.5399932861328", "Volume": "7656200"},
{"Date": "2020-07-24", "Open": "145.47999572753906", "High": "147.58999633789062", "Low": "141.1699981689453", "Close": "142.49000549316406", "Adj Close": "142.49000549316406", "Volume": "3391200"},
{"Date": "2020-07-27", "Open": "143.5", "High": "144.38999938964844", "Low": "140.10000610351562", "Close": "142.0", "Adj Close": "142.0", "Volume": "2010500"},
{"Date": "2020-07-28", "Open": "142.0800018310547", "High": "142.0800018310547", "Low": "137.52999877929688", "Close": "138.02999877929688", "Adj Close": "138.02999877929688", "Volume": "2114800"},
{"Date": "2020-07-29", "Open": "138.92999267578125", "High": "140.77000427246094", "Low": "137.6699981689453", "Close": "139.2899932861328", "Adj Close": "139.2899932861328", "Volume": "1540200"},
{"Date": "2020-07-30", "Open": "138.39999389648438", "High": "142.00999450683594", "Low": "136.92999267578125", "Close": "141.69000244140625", "Adj Close": "141.69000244140625", "Volume": "1844100"},
{"Date": "2020-07-31", "Open": "142.5399932861328", "High": "144.14999389648438", "Low": "138.17999267578125", "Close": "142.75999450683594", "Adj Close": "142.75999450683594", "Volume": "2194500"},
{"Date": "2020-08-03", "Open": "142.91000366210938", "High": "143.44000244140625", "Low": "139.30999755859375", "Close": "139.85000610351562", "Adj Close": "139.85000610351562", "Volume": "2254000"},
{"Date": "2020-08-04", "Open": "138.85000610351562", "High": "142.75", "Low": "137.8000030517578", "Close": "142.63999938964844", "Adj Close": "142.63999938964844", "Volume": "1467100"},
{"Date": "2020-08-05", "Open": "142.75", "High": "142.77999877929688", "Low": "140.14999389648438", "Close": "142.63999938964844", "Adj Close": "142.63999938964844", "Volume": "1342100"},
{"Date": "2020-08-06", "Open": "142.2899932861328", "High": "142.97999572753906", "Low": "140.14999389648438", "Close": "140.7899932861328", "Adj Close": "140.7899932861328", "Volume": "1186300"},
{"Date": "2020-08-07", "Open": "141.02999877929688", "High": "143.30999755859375", "Low": "140.32000732421875", "Close": "141.13999938964844", "Adj Close": "141.13999938964844", "Volume": "1140100"},
{"Date": "2020-08-10", "Open": "141.0", "High": "141.0", "Low": "136.00999450683594", "Close": "137.57000732421875", "Adj Close": "137.57000732421875", "Volume": "1241800"},
{"Date": "2020-08-11", "Open": "138.1300048828125", "High": "138.3800048828125", "Low": "135.36000061035156", "Close": "135.72999572753906", "Adj Close": "135.72999572753906", "Volume": "1490800"},
{"Date": "2020-08-12", "Open": "135.7100067138672", "High": "137.88999938964844", "Low": "135.4499969482422", "Close": "136.49000549316406", "Adj Close": "136.49000549316406", "Volume": "860500"},
{"Date": "2020-08-13", "Open": "137.0", "High": "138.47999572753906", "Low": "136.4199981689453", "Close": "137.39999389648438", "Adj Close": "137.39999389648438", "Volume": "972800"},
{"Date": "2020-08-14", "Open": "137.32000732421875", "High": "138.4600067138672", "Low": "135.9600067138672", "Close": "136.35000610351562", "Adj Close": "136.35000610351562", "Volume": "706300"},
{"Date": "2020-08-17", "Open": "137.10000610351562", "High": "138.74000549316406", "Low": "136.91000366210938", "Close": "138.0800018310547", "Adj Close": "138.0800018310547", "Volume": "904000"},
{"Date": "2020-08-18", "Open": "138.9600067138672", "High": "141.1199951171875", "Low": "138.3699951171875", "Close": "140.38999938964844", "Adj Close": "140.38999938964844", "Volume": "962600"},
{"Date": "2020-08-19", "Open": "139.89999389648438", "High": "141.97999572753906", "Low": "139.07000732421875", "Close": "140.49000549316406", "Adj Close": "140.49000549316406", "Volume": "898800"},
{"Date": "2020-08-20", "Open": "140.1999969482422", "High": "141.99000549316406", "Low": "139.6699981689453", "Close": "141.50999450683594", "Adj Close": "141.50999450683594", "Volume": "804000"},
{"Date": "2020-08-21", "Open": "141.3000030517578", "High": "143.72999572753906", "Low": "140.27000427246094", "Close": "143.22999572753906", "Adj Close": "143.22999572753906", "Volume": "1364800"},
{}]