[{"Date": "2019-08-23", "Open": "44.65999984741211", "High": "45.2400016784668", "Low": "43.77000045776367", "Close": "43.97999954223633", "Adj Close": "43.97999954223633", "Volume": "1247500"},
{"Date": "2019-08-26", "Open": "44.630001068115234", "High": "45.34000015258789", "Low": "43.90999984741211", "Close": "45.22999954223633", "Adj Close": "45.22999954223633", "Volume": "1183300"},
{"Date": "2019-08-27", "Open": "45.66999816894531", "High": "45.66999816894531", "Low": "44.16999816894531", "Close": "44.7599983215332", "Adj Close": "44.7599983215332", "Volume": "1340200"},
{"Date": "2019-08-28", "Open": "44.45000076293945", "High": "45.56999969482422", "Low": "44.08000183105469", "Close": "45.439998626708984", "Adj Close": "45.439998626708984", "Volume": "1349700"},
{"Date": "2019-08-29", "Open": "45.90999984741211", "High": "46.630001068115234", "Low": "45.68000030517578", "Close": "46.41999816894531", "Adj Close": "46.41999816894531", "Volume": "1215100"},
{"Date": "2019-08-30", "Open": "46.900001525878906", "High": "46.97999954223633", "Low": "45.83000183105469", "Close": "46.689998626708984", "Adj Close": "46.689998626708984", "Volume": "1630400"},
{"Date": "2019-09-03", "Open": "46.56999969482422", "High": "47.349998474121094", "Low": "46.09000015258789", "Close": "46.61000061035156", "Adj Close": "46.61000061035156", "Volume": "2236000"},
{"Date": "2019-09-04", "Open": "47.20000076293945", "High": "47.755001068115234", "Low": "46.41999816894531", "Close": "46.849998474121094", "Adj Close": "46.849998474121094", "Volume": "2322000"},
{"Date": "2019-09-05", "Open": "47.47999954223633", "High": "47.4900016784668", "Low": "45.52000045776367", "Close": "46.25", "Adj Close": "46.25", "Volume": "6858000"},
{"Date": "2019-09-06", "Open": "55.70000076293945", "High": "57.29999923706055", "Low": "54.099998474121094", "Close": "56.27000045776367", "Adj Close": "56.27000045776367", "Volume": "25958200"},
{"Date": "2019-09-09", "Open": "56.0", "High": "59.7400016784668", "Low": "55.54999923706055", "Close": "58.56999969482422", "Adj Close": "58.56999969482422", "Volume": "9313800"},
{"Date": "2019-09-10", "Open": "56.22999954223633", "High": "60.803001403808594", "Low": "55.79999923706055", "Close": "59.90999984741211", "Adj Close": "59.90999984741211", "Volume": "8136900"},
{"Date": "2019-09-11", "Open": "59.5", "High": "63.45000076293945", "Low": "59.178001403808594", "Close": "63.29999923706055", "Adj Close": "63.29999923706055", "Volume": "5257400"},
{"Date": "2019-09-12", "Open": "62.970001220703125", "High": "64.18000030517578", "Low": "62.29999923706055", "Close": "62.93000030517578", "Adj Close": "62.93000030517578", "Volume": "5089500"},
{"Date": "2019-09-13", "Open": "62.9900016784668", "High": "63.9900016784668", "Low": "62.40999984741211", "Close": "62.4900016784668", "Adj Close": "62.4900016784668", "Volume": "3438900"},
{"Date": "2019-09-16", "Open": "61.04999923706055", "High": "62.85100173950195", "Low": "59.9900016784668", "Close": "61.880001068115234", "Adj Close": "61.880001068115234", "Volume": "4190600"},
{"Date": "2019-09-17", "Open": "61.15999984741211", "High": "62.1150016784668", "Low": "61.040000915527344", "Close": "61.900001525878906", "Adj Close": "61.900001525878906", "Volume": "3333700"},
{"Date": "2019-09-18", "Open": "61.849998474121094", "High": "63.83000183105469", "Low": "61.5", "Close": "63.29999923706055", "Adj Close": "63.29999923706055", "Volume": "3659500"},
{"Date": "2019-09-19", "Open": "63.130001068115234", "High": "63.625", "Low": "62.599998474121094", "Close": "63.36000061035156", "Adj Close": "63.36000061035156", "Volume": "3615000"},
{"Date": "2019-09-20", "Open": "63.720001220703125", "High": "65.06999969482422", "Low": "63.5099983215332", "Close": "64.80000305175781", "Adj Close": "64.80000305175781", "Volume": "8976600"},
{"Date": "2019-09-23", "Open": "64.51000213623047", "High": "64.77999877929688", "Low": "63.79999923706055", "Close": "64.5199966430664", "Adj Close": "64.5199966430664", "Volume": "4093200"},
{"Date": "2019-09-24", "Open": "64.69999694824219", "High": "64.77999877929688", "Low": "61.375", "Close": "61.720001220703125", "Adj Close": "61.720001220703125", "Volume": "4428300"},
{"Date": "2019-09-25", "Open": "61.7400016784668", "High": "62.86000061035156", "Low": "60.61000061035156", "Close": "62.61000061035156", "Adj Close": "62.61000061035156", "Volume": "2786300"},
{"Date": "2019-09-26", "Open": "62.310001373291016", "High": "62.70000076293945", "Low": "61.540000915527344", "Close": "62.38999938964844", "Adj Close": "62.38999938964844", "Volume": "1825100"},
{"Date": "2019-09-27", "Open": "62.709999084472656", "High": "62.88999938964844", "Low": "60.130001068115234", "Close": "60.63999938964844", "Adj Close": "60.63999938964844", "Volume": "2277600"},
{"Date": "2019-09-30", "Open": "60.619998931884766", "High": "62.220001220703125", "Low": "59.58000183105469", "Close": "61.91999816894531", "Adj Close": "61.91999816894531", "Volume": "2228800"},
{"Date": "2019-10-01", "Open": "62.029998779296875", "High": "62.2400016784668", "Low": "60.650001525878906", "Close": "60.88999938964844", "Adj Close": "60.88999938964844", "Volume": "2744100"},
{"Date": "2019-10-02", "Open": "60.79999923706055", "High": "61.03799819946289", "Low": "59.77000045776367", "Close": "60.7599983215332", "Adj Close": "60.7599983215332", "Volume": "2879200"},
{"Date": "2019-10-03", "Open": "61.45000076293945", "High": "63.0", "Low": "60.380001068115234", "Close": "62.209999084472656", "Adj Close": "62.209999084472656", "Volume": "5346100"},
{"Date": "2019-10-04", "Open": "62.459999084472656", "High": "63.380001068115234", "Low": "61.93000030517578", "Close": "62.400001525878906", "Adj Close": "62.400001525878906", "Volume": "2598400"},
{"Date": "2019-10-07", "Open": "62.56999969482422", "High": "65.5999984741211", "Low": "62.08000183105469", "Close": "65.05000305175781", "Adj Close": "65.05000305175781", "Volume": "4845700"},
{"Date": "2019-10-08", "Open": "64.4000015258789", "High": "65.36499786376953", "Low": "63.060001373291016", "Close": "64.62000274658203", "Adj Close": "64.62000274658203", "Volume": "3478400"},
{"Date": "2019-10-09", "Open": "65.26000213623047", "High": "67.61000061035156", "Low": "64.69999694824219", "Close": "67.04000091552734", "Adj Close": "67.04000091552734", "Volume": "4472300"},
{"Date": "2019-10-10", "Open": "66.80999755859375", "High": "67.7699966430664", "Low": "66.51000213623047", "Close": "67.13999938964844", "Adj Close": "67.13999938964844", "Volume": "2667000"},
{"Date": "2019-10-11", "Open": "67.80000305175781", "High": "68.11000061035156", "Low": "65.61000061035156", "Close": "66.52999877929688", "Adj Close": "66.52999877929688", "Volume": "2678500"},
{"Date": "2019-10-14", "Open": "66.7300033569336", "High": "67.7699966430664", "Low": "66.62000274658203", "Close": "67.08999633789062", "Adj Close": "67.08999633789062", "Volume": "1618700"},
{"Date": "2019-10-15", "Open": "67.63999938964844", "High": "67.94000244140625", "Low": "66.8499984741211", "Close": "66.98999786376953", "Adj Close": "66.98999786376953", "Volume": "1758300"},
{"Date": "2019-10-16", "Open": "67.16999816894531", "High": "68.16999816894531", "Low": "65.8499984741211", "Close": "67.05999755859375", "Adj Close": "67.05999755859375", "Volume": "2238500"},
{"Date": "2019-10-17", "Open": "67.1500015258789", "High": "67.625", "Low": "66.1500015258789", "Close": "66.72000122070312", "Adj Close": "66.72000122070312", "Volume": "1565000"},
{"Date": "2019-10-18", "Open": "66.55000305175781", "High": "66.87999725341797", "Low": "61.68000030517578", "Close": "64.5199966430664", "Adj Close": "64.5199966430664", "Volume": "3705900"},
{"Date": "2019-10-21", "Open": "64.91000366210938", "High": "66.31999969482422", "Low": "64.62999725341797", "Close": "66.02999877929688", "Adj Close": "66.02999877929688", "Volume": "2172300"},
{"Date": "2019-10-22", "Open": "66.11000061035156", "High": "66.37000274658203", "Low": "62.939998626708984", "Close": "63.20000076293945", "Adj Close": "63.20000076293945", "Volume": "2185000"},
{"Date": "2019-10-23", "Open": "62.959999084472656", "High": "64.88999938964844", "Low": "62.060001373291016", "Close": "62.83000183105469", "Adj Close": "62.83000183105469", "Volume": "2382900"},
{"Date": "2019-10-24", "Open": "63.709999084472656", "High": "65.22000122070312", "Low": "63.369998931884766", "Close": "64.91000366210938", "Adj Close": "64.91000366210938", "Volume": "1518100"},
{"Date": "2019-10-25", "Open": "64.62000274658203", "High": "66.11000061035156", "Low": "64.19999694824219", "Close": "65.4000015258789", "Adj Close": "65.4000015258789", "Volume": "1051900"},
{"Date": "2019-10-28", "Open": "65.66999816894531", "High": "66.87000274658203", "Low": "65.58999633789062", "Close": "66.37000274658203", "Adj Close": "66.37000274658203", "Volume": "1159900"},
{"Date": "2019-10-29", "Open": "66.19000244140625", "High": "67.0999984741211", "Low": "65.83000183105469", "Close": "66.38999938964844", "Adj Close": "66.38999938964844", "Volume": "1125400"},
{"Date": "2019-10-30", "Open": "66.62999725341797", "High": "66.9000015258789", "Low": "65.23999786376953", "Close": "66.7699966430664", "Adj Close": "66.7699966430664", "Volume": "1209600"},
{"Date": "2019-10-31", "Open": "66.7699966430664", "High": "66.7699966430664", "Low": "64.97000122070312", "Close": "66.19000244140625", "Adj Close": "66.19000244140625", "Volume": "1191400"},
{"Date": "2019-11-01", "Open": "66.77999877929688", "High": "68.0", "Low": "65.77999877929688", "Close": "66.87999725341797", "Adj Close": "66.87999725341797", "Volume": "1791200"},
{"Date": "2019-11-04", "Open": "68.0", "High": "69.88999938964844", "Low": "67.62000274658203", "Close": "68.44999694824219", "Adj Close": "68.44999694824219", "Volume": "3044900"},
{"Date": "2019-11-05", "Open": "68.61000061035156", "High": "68.83999633789062", "Low": "65.91000366210938", "Close": "66.0", "Adj Close": "66.0", "Volume": "2233400"},
{"Date": "2019-11-06", "Open": "66.27999877929688", "High": "66.30999755859375", "Low": "64.25", "Close": "66.08000183105469", "Adj Close": "66.08000183105469", "Volume": "1989600"},
{"Date": "2019-11-07", "Open": "66.25", "High": "67.3499984741211", "Low": "65.31999969482422", "Close": "65.41000366210938", "Adj Close": "65.41000366210938", "Volume": "1210900"},
{"Date": "2019-11-08", "Open": "65.47000122070312", "High": "66.79000091552734", "Low": "65.00499725341797", "Close": "66.7300033569336", "Adj Close": "66.7300033569336", "Volume": "1331000"},
{"Date": "2019-11-11", "Open": "66.6500015258789", "High": "68.47000122070312", "Low": "66.54000091552734", "Close": "67.25", "Adj Close": "67.25", "Volume": "1335100"},
{"Date": "2019-11-12", "Open": "67.4800033569336", "High": "67.76699829101562", "Low": "66.36000061035156", "Close": "67.01000213623047", "Adj Close": "67.01000213623047", "Volume": "1268800"},
{"Date": "2019-11-13", "Open": "66.69000244140625", "High": "68.02999877929688", "Low": "66.447998046875", "Close": "67.81999969482422", "Adj Close": "67.81999969482422", "Volume": "1110200"},
{"Date": "2019-11-14", "Open": "68.0", "High": "68.5999984741211", "Low": "67.4000015258789", "Close": "67.75", "Adj Close": "67.75", "Volume": "988400"},
{"Date": "2019-11-15", "Open": "67.9000015258789", "High": "68.47000122070312", "Low": "67.08000183105469", "Close": "67.77999877929688", "Adj Close": "67.77999877929688", "Volume": "1151300"},
{"Date": "2019-11-18", "Open": "67.4800033569336", "High": "67.75", "Low": "66.23999786376953", "Close": "66.66000366210938", "Adj Close": "66.66000366210938", "Volume": "1756800"},
{"Date": "2019-11-19", "Open": "66.91999816894531", "High": "67.1500015258789", "Low": "65.8280029296875", "Close": "66.56999969482422", "Adj Close": "66.56999969482422", "Volume": "2483700"},
{"Date": "2019-11-20", "Open": "66.54000091552734", "High": "68.30000305175781", "Low": "66.4000015258789", "Close": "67.88999938964844", "Adj Close": "67.88999938964844", "Volume": "1878300"},
{"Date": "2019-11-21", "Open": "69.29000091552734", "High": "71.5", "Low": "69.197998046875", "Close": "69.94000244140625", "Adj Close": "69.94000244140625", "Volume": "3687100"},
{"Date": "2019-11-22", "Open": "70.30000305175781", "High": "71.30999755859375", "Low": "69.29000091552734", "Close": "71.12000274658203", "Adj Close": "71.12000274658203", "Volume": "2055800"},
{"Date": "2019-11-25", "Open": "71.62999725341797", "High": "73.22000122070312", "Low": "71.26000213623047", "Close": "71.5", "Adj Close": "71.5", "Volume": "3016800"},
{"Date": "2019-11-26", "Open": "71.75", "High": "72.61000061035156", "Low": "70.7300033569336", "Close": "72.30999755859375", "Adj Close": "72.30999755859375", "Volume": "1765800"},
{"Date": "2019-11-27", "Open": "72.16000366210938", "High": "72.69000244140625", "Low": "71.18000030517578", "Close": "71.66000366210938", "Adj Close": "71.66000366210938", "Volume": "1115600"},
{"Date": "2019-11-29", "Open": "71.44000244140625", "High": "71.97000122070312", "Low": "70.87999725341797", "Close": "71.20999908447266", "Adj Close": "71.20999908447266", "Volume": "691700"},
{"Date": "2019-12-02", "Open": "72.44000244140625", "High": "72.5", "Low": "68.36699676513672", "Close": "69.91999816894531", "Adj Close": "69.91999816894531", "Volume": "2258600"},
{"Date": "2019-12-03", "Open": "67.69000244140625", "High": "70.87000274658203", "Low": "66.97000122070312", "Close": "70.68000030517578", "Adj Close": "70.68000030517578", "Volume": "2003300"},
{"Date": "2019-12-04", "Open": "71.01000213623047", "High": "71.9000015258789", "Low": "69.0999984741211", "Close": "70.0", "Adj Close": "70.0", "Volume": "2347900"},
{"Date": "2019-12-05", "Open": "70.19999694824219", "High": "70.46600341796875", "Low": "68.94999694824219", "Close": "69.5", "Adj Close": "69.5", "Volume": "3233000"},
{"Date": "2019-12-06", "Open": "74.94000244140625", "High": "75.8499984741211", "Low": "71.05999755859375", "Close": "75.56999969482422", "Adj Close": "75.56999969482422", "Volume": "9987500"},
{"Date": "2019-12-09", "Open": "75.51000213623047", "High": "76.27999877929688", "Low": "73.9000015258789", "Close": "75.45999908447266", "Adj Close": "75.45999908447266", "Volume": "2735700"},
{"Date": "2019-12-10", "Open": "75.30000305175781", "High": "75.3759994506836", "Low": "71.79000091552734", "Close": "72.79000091552734", "Adj Close": "72.79000091552734", "Volume": "3156200"},
{"Date": "2019-12-11", "Open": "72.8499984741211", "High": "72.95999908447266", "Low": "71.19999694824219", "Close": "72.45999908447266", "Adj Close": "72.45999908447266", "Volume": "1951500"},
{"Date": "2019-12-12", "Open": "72.76000213623047", "High": "72.83000183105469", "Low": "71.43800354003906", "Close": "71.97000122070312", "Adj Close": "71.97000122070312", "Volume": "1419400"},
{"Date": "2019-12-13", "Open": "71.77999877929688", "High": "73.94999694824219", "Low": "71.77999877929688", "Close": "73.72000122070312", "Adj Close": "73.72000122070312", "Volume": "2317200"},
{"Date": "2019-12-16", "Open": "74.09400177001953", "High": "74.83000183105469", "Low": "73.2300033569336", "Close": "73.63999938964844", "Adj Close": "73.63999938964844", "Volume": "1407400"},
{"Date": "2019-12-17", "Open": "73.63999938964844", "High": "73.97000122070312", "Low": "72.70999908447266", "Close": "73.62999725341797", "Adj Close": "73.62999725341797", "Volume": "1930700"},
{"Date": "2019-12-18", "Open": "73.3499984741211", "High": "75.05999755859375", "Low": "73.08000183105469", "Close": "73.55000305175781", "Adj Close": "73.55000305175781", "Volume": "1401700"},
{"Date": "2019-12-19", "Open": "73.41000366210938", "High": "74.44999694824219", "Low": "73.16999816894531", "Close": "73.37999725341797", "Adj Close": "73.37999725341797", "Volume": "999100"},
{"Date": "2019-12-20", "Open": "74.20999908447266", "High": "74.25", "Low": "73.05999755859375", "Close": "74.18000030517578", "Adj Close": "74.18000030517578", "Volume": "1641000"},
{"Date": "2019-12-23", "Open": "74.01000213623047", "High": "74.4000015258789", "Low": "73.16000366210938", "Close": "73.3499984741211", "Adj Close": "73.3499984741211", "Volume": "995400"},
{"Date": "2019-12-24", "Open": "73.19999694824219", "High": "73.87000274658203", "Low": "72.86000061035156", "Close": "73.69999694824219", "Adj Close": "73.69999694824219", "Volume": "361800"},
{"Date": "2019-12-26", "Open": "73.80000305175781", "High": "75.0199966430664", "Low": "73.5", "Close": "74.44000244140625", "Adj Close": "74.44000244140625", "Volume": "1011600"},
{"Date": "2019-12-27", "Open": "74.94000244140625", "High": "74.9800033569336", "Low": "73.55000305175781", "Close": "74.38999938964844", "Adj Close": "74.38999938964844", "Volume": "924500"},
{"Date": "2019-12-30", "Open": "74.12999725341797", "High": "74.5", "Low": "72.19999694824219", "Close": "73.75", "Adj Close": "73.75", "Volume": "1266000"},
{"Date": "2019-12-31", "Open": "73.66999816894531", "High": "74.29000091552734", "Low": "73.13999938964844", "Close": "74.11000061035156", "Adj Close": "74.11000061035156", "Volume": "799600"},
{"Date": "2020-01-02", "Open": "74.30999755859375", "High": "76.83000183105469", "Low": "74.11000061035156", "Close": "75.9000015258789", "Adj Close": "75.9000015258789", "Volume": "2043300"},
{"Date": "2020-01-03", "Open": "74.87000274658203", "High": "75.80999755859375", "Low": "73.68000030517578", "Close": "75.55999755859375", "Adj Close": "75.55999755859375", "Volume": "1255500"},
{"Date": "2020-01-06", "Open": "74.37999725341797", "High": "75.45999908447266", "Low": "73.72000122070312", "Close": "75.38999938964844", "Adj Close": "75.38999938964844", "Volume": "2271300"},
{"Date": "2020-01-07", "Open": "75.66999816894531", "High": "75.66999816894531", "Low": "74.01000213623047", "Close": "75.23999786376953", "Adj Close": "75.23999786376953", "Volume": "2289200"},
{"Date": "2020-01-08", "Open": "75.12999725341797", "High": "76.9000015258789", "Low": "74.80999755859375", "Close": "76.2699966430664", "Adj Close": "76.2699966430664", "Volume": "3421300"},
{"Date": "2020-01-09", "Open": "76.48999786376953", "High": "77.01000213623047", "Low": "75.52999877929688", "Close": "75.80000305175781", "Adj Close": "75.80000305175781", "Volume": "1849700"},
{"Date": "2020-01-10", "Open": "75.55000305175781", "High": "75.8499984741211", "Low": "74.36000061035156", "Close": "74.83000183105469", "Adj Close": "74.83000183105469", "Volume": "2317300"},
{"Date": "2020-01-13", "Open": "73.69000244140625", "High": "74.83000183105469", "Low": "72.81300354003906", "Close": "74.1500015258789", "Adj Close": "74.1500015258789", "Volume": "1617100"},
{"Date": "2020-01-14", "Open": "73.95999908447266", "High": "74.36000061035156", "Low": "71.68000030517578", "Close": "72.80000305175781", "Adj Close": "72.80000305175781", "Volume": "2158300"},
{"Date": "2020-01-15", "Open": "73.0", "High": "75.13999938964844", "Low": "72.72000122070312", "Close": "73.02999877929688", "Adj Close": "73.02999877929688", "Volume": "1528500"},
{"Date": "2020-01-16", "Open": "73.19999694824219", "High": "74.08999633789062", "Low": "72.62999725341797", "Close": "73.08000183105469", "Adj Close": "73.08000183105469", "Volume": "1148200"},
{"Date": "2020-01-17", "Open": "73.43000030517578", "High": "73.70999908447266", "Low": "72.26499938964844", "Close": "72.52999877929688", "Adj Close": "72.52999877929688", "Volume": "1958300"},
{"Date": "2020-01-21", "Open": "72.3499984741211", "High": "74.83000183105469", "Low": "72.04000091552734", "Close": "73.12999725341797", "Adj Close": "73.12999725341797", "Volume": "1935900"},
{"Date": "2020-01-22", "Open": "73.69999694824219", "High": "75.19000244140625", "Low": "73.69999694824219", "Close": "74.4000015258789", "Adj Close": "74.4000015258789", "Volume": "1799100"},
{"Date": "2020-01-23", "Open": "74.61000061035156", "High": "74.73500061035156", "Low": "73.1500015258789", "Close": "74.33000183105469", "Adj Close": "74.33000183105469", "Volume": "1823900"},
{"Date": "2020-01-24", "Open": "74.72000122070312", "High": "75.9800033569336", "Low": "73.08999633789062", "Close": "74.18000030517578", "Adj Close": "74.18000030517578", "Volume": "1399500"},
{"Date": "2020-01-27", "Open": "72.41000366210938", "High": "73.29000091552734", "Low": "70.55000305175781", "Close": "72.7699966430664", "Adj Close": "72.7699966430664", "Volume": "1584300"},
{"Date": "2020-01-28", "Open": "73.05999755859375", "High": "75.19999694824219", "Low": "72.78099822998047", "Close": "74.93000030517578", "Adj Close": "74.93000030517578", "Volume": "1169400"},
{"Date": "2020-01-29", "Open": "75.30000305175781", "High": "77.7699966430664", "Low": "74.93000030517578", "Close": "76.91999816894531", "Adj Close": "76.91999816894531", "Volume": "2615800"},
{"Date": "2020-01-30", "Open": "76.69999694824219", "High": "79.26000213623047", "Low": "76.2699966430664", "Close": "79.11000061035156", "Adj Close": "79.11000061035156", "Volume": "2672800"},
{"Date": "2020-01-31", "Open": "78.83000183105469", "High": "80.26000213623047", "Low": "77.16000366210938", "Close": "78.51000213623047", "Adj Close": "78.51000213623047", "Volume": "2502800"},
{"Date": "2020-02-03", "Open": "79.0999984741211", "High": "80.73999786376953", "Low": "79.04000091552734", "Close": "80.62999725341797", "Adj Close": "80.62999725341797", "Volume": "1735100"},
{"Date": "2020-02-04", "Open": "81.45999908447266", "High": "83.19999694824219", "Low": "80.46099853515625", "Close": "82.0199966430664", "Adj Close": "82.0199966430664", "Volume": "2372400"},
{"Date": "2020-02-05", "Open": "82.91000366210938", "High": "83.30000305175781", "Low": "79.93000030517578", "Close": "80.73999786376953", "Adj Close": "80.73999786376953", "Volume": "1584700"},
{"Date": "2020-02-06", "Open": "80.69999694824219", "High": "82.0", "Low": "80.58999633789062", "Close": "81.44000244140625", "Adj Close": "81.44000244140625", "Volume": "825400"},
{"Date": "2020-02-07", "Open": "81.44000244140625", "High": "84.04000091552734", "Low": "80.88999938964844", "Close": "83.16000366210938", "Adj Close": "83.16000366210938", "Volume": "1517400"},
{"Date": "2020-02-10", "Open": "82.94999694824219", "High": "85.08000183105469", "Low": "82.87000274658203", "Close": "84.61000061035156", "Adj Close": "84.61000061035156", "Volume": "1839500"},
{"Date": "2020-02-11", "Open": "84.86000061035156", "High": "85.9800033569336", "Low": "84.26000213623047", "Close": "85.33000183105469", "Adj Close": "85.33000183105469", "Volume": "1125400"},
{"Date": "2020-02-12", "Open": "87.18000030517578", "High": "87.41000366210938", "Low": "84.23999786376953", "Close": "87.33000183105469", "Adj Close": "87.33000183105469", "Volume": "1624000"},
{"Date": "2020-02-13", "Open": "87.11000061035156", "High": "88.4800033569336", "Low": "86.91999816894531", "Close": "88.02999877929688", "Adj Close": "88.02999877929688", "Volume": "1770400"},
{"Date": "2020-02-14", "Open": "88.43000030517578", "High": "89.5999984741211", "Low": "88.0", "Close": "89.41000366210938", "Adj Close": "89.41000366210938", "Volume": "1122300"},
{"Date": "2020-02-18", "Open": "88.83000183105469", "High": "91.0199966430664", "Low": "88.5", "Close": "90.76000213623047", "Adj Close": "90.76000213623047", "Volume": "1167800"},
{"Date": "2020-02-19", "Open": "91.68000030517578", "High": "92.55000305175781", "Low": "90.86000061035156", "Close": "91.48999786376953", "Adj Close": "91.48999786376953", "Volume": "1599500"},
{"Date": "2020-02-20", "Open": "91.77999877929688", "High": "92.5199966430664", "Low": "87.51000213623047", "Close": "90.30999755859375", "Adj Close": "90.30999755859375", "Volume": "1806300"},
{"Date": "2020-02-21", "Open": "89.98999786376953", "High": "91.11000061035156", "Low": "87.08000183105469", "Close": "88.7300033569336", "Adj Close": "88.7300033569336", "Volume": "2238700"},
{"Date": "2020-02-24", "Open": "83.61000061035156", "High": "86.99500274658203", "Low": "80.13999938964844", "Close": "86.37000274658203", "Adj Close": "86.37000274658203", "Volume": "2206500"},
{"Date": "2020-02-25", "Open": "87.38999938964844", "High": "88.08999633789062", "Low": "82.66999816894531", "Close": "83.05999755859375", "Adj Close": "83.05999755859375", "Volume": "1962700"},
{"Date": "2020-02-26", "Open": "83.12000274658203", "High": "86.45999908447266", "Low": "82.83000183105469", "Close": "83.58000183105469", "Adj Close": "83.58000183105469", "Volume": "1908100"},
{"Date": "2020-02-27", "Open": "80.19000244140625", "High": "86.44000244140625", "Low": "76.18000030517578", "Close": "83.20999908447266", "Adj Close": "83.20999908447266", "Volume": "2852800"},
{"Date": "2020-02-28", "Open": "80.11000061035156", "High": "86.87999725341797", "Low": "79.88999938964844", "Close": "86.30999755859375", "Adj Close": "86.30999755859375", "Volume": "3016000"},
{"Date": "2020-03-02", "Open": "87.38999938964844", "High": "88.54499816894531", "Low": "84.80999755859375", "Close": "87.95999908447266", "Adj Close": "87.95999908447266", "Volume": "2521300"},
{"Date": "2020-03-03", "Open": "87.7699966430664", "High": "88.37000274658203", "Low": "83.5", "Close": "85.80999755859375", "Adj Close": "85.80999755859375", "Volume": "1965200"},
{"Date": "2020-03-04", "Open": "87.4800033569336", "High": "89.55000305175781", "Low": "85.87000274658203", "Close": "89.55000305175781", "Adj Close": "89.55000305175781", "Volume": "1988400"},
{"Date": "2020-03-05", "Open": "88.06999969482422", "High": "90.73500061035156", "Low": "87.66000366210938", "Close": "88.5999984741211", "Adj Close": "88.5999984741211", "Volume": "2102500"},
{"Date": "2020-03-06", "Open": "87.0999984741211", "High": "87.77999877929688", "Low": "81.25", "Close": "84.0199966430664", "Adj Close": "84.0199966430664", "Volume": "2573800"},
{"Date": "2020-03-09", "Open": "77.18000030517578", "High": "80.97000122070312", "Low": "75.25499725341797", "Close": "77.62999725341797", "Adj Close": "77.62999725341797", "Volume": "3110400"},
{"Date": "2020-03-10", "Open": "80.0", "High": "80.0", "Low": "75.30000305175781", "Close": "79.81999969482422", "Adj Close": "79.81999969482422", "Volume": "2338800"},
{"Date": "2020-03-11", "Open": "78.54000091552734", "High": "80.3499984741211", "Low": "74.05999755859375", "Close": "75.0", "Adj Close": "75.0", "Volume": "2708400"},
{"Date": "2020-03-12", "Open": "68.35399627685547", "High": "71.69999694824219", "Low": "64.87999725341797", "Close": "68.68000030517578", "Adj Close": "68.68000030517578", "Volume": "4354300"},
{"Date": "2020-03-13", "Open": "75.0199966430664", "High": "79.58999633789062", "Low": "70.0199966430664", "Close": "77.31999969482422", "Adj Close": "77.31999969482422", "Volume": "6006400"},
{"Date": "2020-03-16", "Open": "68.87999725341797", "High": "85.75", "Low": "66.12000274658203", "Close": "72.30999755859375", "Adj Close": "72.30999755859375", "Volume": "7015000"},
{"Date": "2020-03-17", "Open": "73.06999969482422", "High": "75.63200378417969", "Low": "68.5199966430664", "Close": "70.94000244140625", "Adj Close": "70.94000244140625", "Volume": "5056800"},
{"Date": "2020-03-18", "Open": "66.80000305175781", "High": "77.19000244140625", "Low": "65.61000061035156", "Close": "76.61000061035156", "Adj Close": "76.61000061035156", "Volume": "4420500"},
{"Date": "2020-03-19", "Open": "76.52999877929688", "High": "83.45999908447266", "Low": "74.5199966430664", "Close": "75.87999725341797", "Adj Close": "75.87999725341797", "Volume": "5673500"},
{"Date": "2020-03-20", "Open": "77.0", "High": "82.05999755859375", "Low": "75.30500030517578", "Close": "79.69999694824219", "Adj Close": "79.69999694824219", "Volume": "6081200"},
{"Date": "2020-03-23", "Open": "80.01000213623047", "High": "87.0", "Low": "79.58999633789062", "Close": "83.5", "Adj Close": "83.5", "Volume": "4712100"},
{"Date": "2020-03-24", "Open": "88.0", "High": "88.2699966430664", "Low": "84.05999755859375", "Close": "85.0", "Adj Close": "85.0", "Volume": "4768400"},
{"Date": "2020-03-25", "Open": "85.0", "High": "86.69999694824219", "Low": "80.25", "Close": "81.37000274658203", "Adj Close": "81.37000274658203", "Volume": "2700100"},
{"Date": "2020-03-26", "Open": "82.0199966430664", "High": "84.81999969482422", "Low": "81.27100372314453", "Close": "83.66000366210938", "Adj Close": "83.66000366210938", "Volume": "3292100"},
{"Date": "2020-03-27", "Open": "83.05999755859375", "High": "83.08999633789062", "Low": "79.73999786376953", "Close": "82.56999969482422", "Adj Close": "82.56999969482422", "Volume": "3329600"},
{"Date": "2020-03-30", "Open": "83.9800033569336", "High": "89.29000091552734", "Low": "83.19999694824219", "Close": "88.13999938964844", "Adj Close": "88.13999938964844", "Volume": "4910900"},
{"Date": "2020-03-31", "Open": "88.08000183105469", "High": "98.37999725341797", "Low": "87.91999816894531", "Close": "92.4000015258789", "Adj Close": "92.4000015258789", "Volume": "7079300"},
{"Date": "2020-04-01", "Open": "90.81999969482422", "High": "95.62999725341797", "Low": "88.75", "Close": "92.08999633789062", "Adj Close": "92.08999633789062", "Volume": "4680800"},
{"Date": "2020-04-02", "Open": "92.44999694824219", "High": "93.94999694824219", "Low": "82.60900115966797", "Close": "84.04000091552734", "Adj Close": "84.04000091552734", "Volume": "4900900"},
{"Date": "2020-04-03", "Open": "84.26000213623047", "High": "85.93000030517578", "Low": "78.72000122070312", "Close": "79.0", "Adj Close": "79.0", "Volume": "4043600"},
{"Date": "2020-04-06", "Open": "81.62999725341797", "High": "90.4800033569336", "Low": "80.55000305175781", "Close": "90.1500015258789", "Adj Close": "90.1500015258789", "Volume": "5594100"},
{"Date": "2020-04-07", "Open": "90.91000366210938", "High": "91.04000091552734", "Low": "86.01000213623047", "Close": "87.97000122070312", "Adj Close": "87.97000122070312", "Volume": "3167900"},
{"Date": "2020-04-08", "Open": "88.98999786376953", "High": "90.6500015258789", "Low": "85.83999633789062", "Close": "88.37000274658203", "Adj Close": "88.37000274658203", "Volume": "2399100"},
{"Date": "2020-04-09", "Open": "89.0", "High": "91.37999725341797", "Low": "86.12999725341797", "Close": "90.62999725341797", "Adj Close": "90.62999725341797", "Volume": "3370500"},
{"Date": "2020-04-13", "Open": "91.44000244140625", "High": "94.95999908447266", "Low": "90.04000091552734", "Close": "93.97000122070312", "Adj Close": "93.97000122070312", "Volume": "3264900"},
{"Date": "2020-04-14", "Open": "95.69000244140625", "High": "99.6500015258789", "Low": "95.04000091552734", "Close": "98.43000030517578", "Adj Close": "98.43000030517578", "Volume": "3830300"},
{"Date": "2020-04-15", "Open": "97.93000030517578", "High": "101.5", "Low": "95.91999816894531", "Close": "100.52999877929688", "Adj Close": "100.52999877929688", "Volume": "2883500"},
{"Date": "2020-04-16", "Open": "102.9000015258789", "High": "105.1500015258789", "Low": "99.01000213623047", "Close": "100.68000030517578", "Adj Close": "100.68000030517578", "Volume": "4618800"},
{"Date": "2020-04-17", "Open": "99.43000030517578", "High": "102.06800079345703", "Low": "96.79000091552734", "Close": "100.3499984741211", "Adj Close": "100.3499984741211", "Volume": "2906300"},
{"Date": "2020-04-20", "Open": "101.37000274658203", "High": "103.44999694824219", "Low": "100.5999984741211", "Close": "101.80000305175781", "Adj Close": "101.80000305175781", "Volume": "2576900"},
{"Date": "2020-04-21", "Open": "102.25", "High": "103.06300354003906", "Low": "96.55000305175781", "Close": "99.33000183105469", "Adj Close": "99.33000183105469", "Volume": "2885500"},
{"Date": "2020-04-22", "Open": "100.70999908447266", "High": "102.4800033569336", "Low": "98.25", "Close": "101.79000091552734", "Adj Close": "101.79000091552734", "Volume": "2746200"},
{"Date": "2020-04-23", "Open": "101.83000183105469", "High": "104.30000305175781", "Low": "100.5", "Close": "102.19000244140625", "Adj Close": "102.19000244140625", "Volume": "2624400"},
{"Date": "2020-04-24", "Open": "103.25", "High": "105.44000244140625", "Low": "100.11499786376953", "Close": "105.06999969482422", "Adj Close": "105.06999969482422", "Volume": "2934000"},
{"Date": "2020-04-27", "Open": "106.70999908447266", "High": "109.44999694824219", "Low": "106.19999694824219", "Close": "108.25", "Adj Close": "108.25", "Volume": "2462600"},
{"Date": "2020-04-28", "Open": "109.5199966430664", "High": "111.36000061035156", "Low": "103.30000305175781", "Close": "103.94000244140625", "Adj Close": "103.94000244140625", "Volume": "2910500"},
{"Date": "2020-04-29", "Open": "103.41999816894531", "High": "105.41999816894531", "Low": "100.70999908447266", "Close": "103.4000015258789", "Adj Close": "103.4000015258789", "Volume": "3220700"},
{"Date": "2020-04-30", "Open": "103.58999633789062", "High": "107.8499984741211", "Low": "103.29399871826172", "Close": "104.75", "Adj Close": "104.75", "Volume": "2305400"},
{"Date": "2020-05-01", "Open": "103.19000244140625", "High": "105.47899627685547", "Low": "101.87999725341797", "Close": "103.5199966430664", "Adj Close": "103.5199966430664", "Volume": "1431200"},
{"Date": "2020-05-04", "Open": "103.43000030517578", "High": "108.95999908447266", "Low": "103.16000366210938", "Close": "107.08000183105469", "Adj Close": "107.08000183105469", "Volume": "2089200"},
{"Date": "2020-05-05", "Open": "109.0", "High": "111.76000213623047", "Low": "107.36000061035156", "Close": "109.3499984741211", "Adj Close": "109.3499984741211", "Volume": "2006100"},
{"Date": "2020-05-06", "Open": "110.87999725341797", "High": "116.0", "Low": "110.87999725341797", "Close": "115.48999786376953", "Adj Close": "115.48999786376953", "Volume": "2984200"},
{"Date": "2020-05-07", "Open": "117.37999725341797", "High": "119.53800201416016", "Low": "115.11000061035156", "Close": "117.69999694824219", "Adj Close": "117.69999694824219", "Volume": "3750900"},
{"Date": "2020-05-08", "Open": "118.4800033569336", "High": "120.9000015258789", "Low": "115.66000366210938", "Close": "116.55999755859375", "Adj Close": "116.55999755859375", "Volume": "3157300"},
{"Date": "2020-05-11", "Open": "117.68000030517578", "High": "121.83999633789062", "Low": "117.5", "Close": "120.6500015258789", "Adj Close": "120.6500015258789", "Volume": "4240800"},
{"Date": "2020-05-12", "Open": "122.0", "High": "123.79000091552734", "Low": "118.12000274658203", "Close": "120.26000213623047", "Adj Close": "120.26000213623047", "Volume": "2618800"},
{"Date": "2020-05-13", "Open": "121.11000061035156", "High": "124.27999877929688", "Low": "115.56999969482422", "Close": "119.06999969482422", "Adj Close": "119.06999969482422", "Volume": "3581100"},
{"Date": "2020-05-14", "Open": "118.30000305175781", "High": "123.48999786376953", "Low": "117.11000061035156", "Close": "122.01000213623047", "Adj Close": "122.01000213623047", "Volume": "3045300"},
{"Date": "2020-05-15", "Open": "121.75", "High": "126.27999877929688", "Low": "121.47000122070312", "Close": "125.87999725341797", "Adj Close": "125.87999725341797", "Volume": "2596200"},
{"Date": "2020-05-18", "Open": "126.77999877929688", "High": "128.4600067138672", "Low": "121.61000061035156", "Close": "122.91999816894531", "Adj Close": "122.91999816894531", "Volume": "3901600"},
{"Date": "2020-05-19", "Open": "124.13999938964844", "High": "130.36000061035156", "Low": "123.38999938964844", "Close": "127.22000122070312", "Adj Close": "127.22000122070312", "Volume": "2963700"},
{"Date": "2020-05-20", "Open": "130.0", "High": "134.74000549316406", "Low": "127.33000183105469", "Close": "128.77000427246094", "Adj Close": "128.77000427246094", "Volume": "4327900"},
{"Date": "2020-05-21", "Open": "132.0", "High": "136.2899932861328", "Low": "131.0800018310547", "Close": "132.85000610351562", "Adj Close": "132.85000610351562", "Volume": "4879000"},
{"Date": "2020-05-22", "Open": "136.1699981689453", "High": "136.17999267578125", "Low": "131.63999938964844", "Close": "133.0", "Adj Close": "133.0", "Volume": "2937600"},
{"Date": "2020-05-26", "Open": "136.00999450683594", "High": "136.0399932861328", "Low": "126.5", "Close": "128.9499969482422", "Adj Close": "128.9499969482422", "Volume": "4884900"},
{"Date": "2020-05-27", "Open": "126.6500015258789", "High": "127.45999908447266", "Low": "118.20999908447266", "Close": "126.54000091552734", "Adj Close": "126.54000091552734", "Volume": "4472700"},
{"Date": "2020-05-28", "Open": "126.75", "High": "132.1300048828125", "Low": "126.54000091552734", "Close": "127.80000305175781", "Adj Close": "127.80000305175781", "Volume": "4278100"},
{"Date": "2020-05-29", "Open": "130.02999877929688", "High": "141.42999267578125", "Low": "129.89999389648438", "Close": "139.74000549316406", "Adj Close": "139.74000549316406", "Volume": "8932600"},
{"Date": "2020-06-01", "Open": "142.35000610351562", "High": "150.5800018310547", "Low": "140.44900512695312", "Close": "147.22000122070312", "Adj Close": "147.22000122070312", "Volume": "6854300"},
{"Date": "2020-06-02", "Open": "151.97000122070312", "High": "152.0", "Low": "141.02999877929688", "Close": "147.67999267578125", "Adj Close": "147.67999267578125", "Volume": "7561700"},
{"Date": "2020-06-03", "Open": "146.86000061035156", "High": "150.57000732421875", "Low": "145.22000122070312", "Close": "147.4499969482422", "Adj Close": "147.4499969482422", "Volume": "4485000"},
{"Date": "2020-06-04", "Open": "147.75", "High": "148.63999938964844", "Low": "138.5399932861328", "Close": "140.05999755859375", "Adj Close": "140.05999755859375", "Volume": "8408800"},
{"Date": "2020-06-05", "Open": "139.82000732421875", "High": "144.9499969482422", "Low": "131.25999450683594", "Close": "139.63999938964844", "Adj Close": "139.63999938964844", "Volume": "8238800"},
{"Date": "2020-06-08", "Open": "136.99000549316406", "High": "147.07000732421875", "Low": "135.4199981689453", "Close": "146.5399932861328", "Adj Close": "146.5399932861328", "Volume": "4928400"},
{"Date": "2020-06-09", "Open": "145.41000366210938", "High": "146.0500030517578", "Low": "140.33999633789062", "Close": "141.9199981689453", "Adj Close": "141.9199981689453", "Volume": "4231200"},
{"Date": "2020-06-10", "Open": "144.5", "High": "149.94000244140625", "Low": "143.66000366210938", "Close": "148.0500030517578", "Adj Close": "148.0500030517578", "Volume": "4206300"},
{"Date": "2020-06-11", "Open": "145.0", "High": "154.0", "Low": "144.2899932861328", "Close": "148.89999389648438", "Adj Close": "148.89999389648438", "Volume": "5593900"},
{"Date": "2020-06-12", "Open": "152.05999755859375", "High": "155.13999938964844", "Low": "146.27999877929688", "Close": "150.60000610351562", "Adj Close": "150.60000610351562", "Volume": "3983600"},
{"Date": "2020-06-15", "Open": "154.8800048828125", "High": "163.6999969482422", "Low": "152.86300659179688", "Close": "162.69000244140625", "Adj Close": "162.69000244140625", "Volume": "8193800"},
{"Date": "2020-06-16", "Open": "164.94000244140625", "High": "165.0800018310547", "Low": "158.1840057373047", "Close": "163.0500030517578", "Adj Close": "163.0500030517578", "Volume": "5554100"},
{"Date": "2020-06-17", "Open": "164.27000427246094", "High": "167.8679962158203", "Low": "160.92999267578125", "Close": "161.7100067138672", "Adj Close": "161.7100067138672", "Volume": "6208100"},
{"Date": "2020-06-18", "Open": "161.7100067138672", "High": "163.60000610351562", "Low": "160.41000366210938", "Close": "162.3000030517578", "Adj Close": "162.3000030517578", "Volume": "5971900"},
{"Date": "2020-06-19", "Open": "163.07000732421875", "High": "165.0", "Low": "160.0", "Close": "161.4199981689453", "Adj Close": "161.4199981689453", "Volume": "14150300"},
{"Date": "2020-06-22", "Open": "164.3300018310547", "High": "169.85000610351562", "Low": "163.49000549316406", "Close": "168.3000030517578", "Adj Close": "168.3000030517578", "Volume": "5687700"},
{"Date": "2020-06-23", "Open": "170.33999633789062", "High": "171.1999969482422", "Low": "165.38999938964844", "Close": "166.8000030517578", "Adj Close": "166.8000030517578", "Volume": "6113700"},
{"Date": "2020-06-24", "Open": "167.41000366210938", "High": "172.2100067138672", "Low": "163.72999572753906", "Close": "163.91000366210938", "Adj Close": "163.91000366210938", "Volume": "5546100"},
{"Date": "2020-06-25", "Open": "165.0", "High": "169.8000030517578", "Low": "161.6300048828125", "Close": "168.39999389648438", "Adj Close": "168.39999389648438", "Volume": "3364900"},
{"Date": "2020-06-26", "Open": "168.77000427246094", "High": "180.4510040283203", "Low": "164.22000122070312", "Close": "177.5800018310547", "Adj Close": "177.5800018310547", "Volume": "8570600"},
{"Date": "2020-06-29", "Open": "176.24000549316406", "High": "177.0", "Low": "166.61300659179688", "Close": "171.6699981689453", "Adj Close": "171.6699981689453", "Volume": "5126900"},
{"Date": "2020-06-30", "Open": "172.35800170898438", "High": "174.47999572753906", "Low": "169.77000427246094", "Close": "172.2100067138672", "Adj Close": "172.2100067138672", "Volume": "3462400"},
{"Date": "2020-07-01", "Open": "171.25", "High": "180.3800048828125", "Low": "170.8000030517578", "Close": "178.9600067138672", "Adj Close": "178.9600067138672", "Volume": "3770500"},
{"Date": "2020-07-02", "Open": "181.0", "High": "199.49000549316406", "Low": "178.51499938964844", "Close": "190.99000549316406", "Adj Close": "190.99000549316406", "Volume": "13225100"},
{"Date": "2020-07-06", "Open": "196.4499969482422", "High": "199.4499969482422", "Low": "190.0", "Close": "190.66000366210938", "Adj Close": "190.66000366210938", "Volume": "6495700"},
{"Date": "2020-07-07", "Open": "191.38999938964844", "High": "202.64999389648438", "Low": "189.5850067138672", "Close": "197.75", "Adj Close": "197.75", "Volume": "6189500"},
{"Date": "2020-07-08", "Open": "200.97000122070312", "High": "206.5500030517578", "Low": "200.27999877929688", "Close": "206.35000610351562", "Adj Close": "206.35000610351562", "Volume": "6248700"},
{"Date": "2020-07-09", "Open": "211.5", "High": "217.0", "Low": "206.58999633789062", "Close": "212.4199981689453", "Adj Close": "212.4199981689453", "Volume": "10243100"},
{"Date": "2020-07-10", "Open": "212.52999877929688", "High": "213.39999389648438", "Low": "204.14999389648438", "Close": "210.11000061035156", "Adj Close": "210.11000061035156", "Volume": "4808000"},
{"Date": "2020-07-13", "Open": "211.50999450683594", "High": "211.83900451660156", "Low": "185.13999938964844", "Close": "190.02000427246094", "Adj Close": "190.02000427246094", "Volume": "9412900"},
{"Date": "2020-07-14", "Open": "191.0", "High": "196.94000244140625", "Low": "181.5", "Close": "196.42999267578125", "Adj Close": "196.42999267578125", "Volume": "7466200"},
{"Date": "2020-07-15", "Open": "193.92999267578125", "High": "195.1999969482422", "Low": "188.33999633789062", "Close": "192.8300018310547", "Adj Close": "192.8300018310547", "Volume": "5429600"},
{"Date": "2020-07-16", "Open": "190.0", "High": "193.5", "Low": "186.20199584960938", "Close": "191.72000122070312", "Adj Close": "191.72000122070312", "Volume": "3771200"},
{"Date": "2020-07-17", "Open": "191.10000610351562", "High": "196.83999633789062", "Low": "188.66000366210938", "Close": "196.41000366210938", "Adj Close": "196.41000366210938", "Volume": "3102400"},
{"Date": "2020-07-20", "Open": "197.89999389648438", "High": "202.91000366210938", "Low": "196.5800018310547", "Close": "201.99000549316406", "Adj Close": "201.99000549316406", "Volume": "4309000"},
{"Date": "2020-07-21", "Open": "203.82000732421875", "High": "204.8699951171875", "Low": "198.29200744628906", "Close": "201.02999877929688", "Adj Close": "201.02999877929688", "Volume": "3955600"},
{"Date": "2020-07-22", "Open": "201.3699951171875", "High": "204.5", "Low": "199.3300018310547", "Close": "203.97999572753906", "Adj Close": "203.97999572753906", "Volume": "3011500"},
{"Date": "2020-07-23", "Open": "204.0", "High": "208.8000030517578", "Low": "196.61000061035156", "Close": "198.49000549316406", "Adj Close": "198.49000549316406", "Volume": "3302400"},
{"Date": "2020-07-24", "Open": "193.0", "High": "194.74000549316406", "Low": "186.77000427246094", "Close": "190.9499969482422", "Adj Close": "190.9499969482422", "Volume": "3984200"},
{"Date": "2020-07-27", "Open": "191.64999389648438", "High": "197.8000030517578", "Low": "188.7100067138672", "Close": "196.27000427246094", "Adj Close": "196.27000427246094", "Volume": "2341800"},
{"Date": "2020-07-28", "Open": "196.27000427246094", "High": "202.11000061035156", "Low": "195.13999938964844", "Close": "196.72999572753906", "Adj Close": "196.72999572753906", "Volume": "2475200"},
{"Date": "2020-07-29", "Open": "198.60000610351562", "High": "210.47999572753906", "Low": "198.60000610351562", "Close": "209.14999389648438", "Adj Close": "209.14999389648438", "Volume": "4529500"},
{"Date": "2020-07-30", "Open": "206.11000061035156", "High": "215.0", "Low": "205.0", "Close": "213.94000244140625", "Adj Close": "213.94000244140625", "Volume": "4382800"},
{"Date": "2020-07-31", "Open": "216.8800048828125", "High": "217.6999969482422", "Low": "210.3459930419922", "Close": "216.8300018310547", "Adj Close": "216.8300018310547", "Volume": "3083300"},
{"Date": "2020-08-03", "Open": "218.72000122070312", "High": "227.3300018310547", "Low": "218.3300018310547", "Close": "226.27999877929688", "Adj Close": "226.27999877929688", "Volume": "3207100"},
{"Date": "2020-08-04", "Open": "225.1999969482422", "High": "229.41000366210938", "Low": "221.24000549316406", "Close": "227.67999267578125", "Adj Close": "227.67999267578125", "Volume": "2598200"},
{"Date": "2020-08-05", "Open": "227.67999267578125", "High": "229.8300018310547", "Low": "225.05999755859375", "Close": "226.02000427246094", "Adj Close": "226.02000427246094", "Volume": "1962800"},
{"Date": "2020-08-06", "Open": "226.75", "High": "228.5", "Low": "212.05999755859375", "Close": "215.67999267578125", "Adj Close": "215.67999267578125", "Volume": "4525300"},
{"Date": "2020-08-07", "Open": "215.19000244140625", "High": "215.4199981689453", "Low": "199.1699981689453", "Close": "204.75999450683594", "Adj Close": "204.75999450683594", "Volume": "5653500"},
{"Date": "2020-08-10", "Open": "206.36000061035156", "High": "207.5970001220703", "Low": "193.60000610351562", "Close": "198.3800048828125", "Adj Close": "198.3800048828125", "Volume": "5006500"},
{"Date": "2020-08-11", "Open": "197.50999450683594", "High": "199.83999633789062", "Low": "191.3800048828125", "Close": "191.82000732421875", "Adj Close": "191.82000732421875", "Volume": "4488600"},
{"Date": "2020-08-12", "Open": "192.64999389648438", "High": "196.8800048828125", "Low": "189.1199951171875", "Close": "193.3000030517578", "Adj Close": "193.3000030517578", "Volume": "4591100"},
{"Date": "2020-08-13", "Open": "194.22000122070312", "High": "203.85000610351562", "Low": "193.6199951171875", "Close": "199.3800048828125", "Adj Close": "199.3800048828125", "Volume": "4048000"},
{"Date": "2020-08-14", "Open": "201.35499572753906", "High": "204.4600067138672", "Low": "197.2100067138672", "Close": "199.7100067138672", "Adj Close": "199.7100067138672", "Volume": "1952600"},
{"Date": "2020-08-17", "Open": "202.24000549316406", "High": "209.8300018310547", "Low": "201.97999572753906", "Close": "207.6999969482422", "Adj Close": "207.6999969482422", "Volume": "2590500"},
{"Date": "2020-08-18", "Open": "213.49000549316406", "High": "213.52999877929688", "Low": "207.68800354003906", "Close": "209.47000122070312", "Adj Close": "209.47000122070312", "Volume": "2763900"},
{"Date": "2020-08-19", "Open": "209.91000366210938", "High": "212.1699981689453", "Low": "205.3300018310547", "Close": "208.2100067138672", "Adj Close": "208.2100067138672", "Volume": "1880800"},
{"Date": "2020-08-20", "Open": "207.49000549316406", "High": "215.5", "Low": "206.27000427246094", "Close": "214.47999572753906", "Adj Close": "214.47999572753906", "Volume": "2359200"},
{"Date": "2020-08-21", "Open": "214.4199981689453", "High": "216.39999389648438", "Low": "209.1699981689453", "Close": "210.17999267578125", "Adj Close": "210.17999267578125", "Volume": "2964600"},
{}]