[{"Date": "2019-08-23", "Open": "207.64999389648438", "High": "209.5", "Low": "199.75", "Close": "200.38999938964844", "Adj Close": "196.5694580078125", "Volume": "2031200"},
{"Date": "2019-08-26", "Open": "204.32000732421875", "High": "205.52999877929688", "Low": "200.0399932861328", "Close": "201.33999633789062", "Adj Close": "197.5013427734375", "Volume": "1250200"},
{"Date": "2019-08-27", "Open": "203.42999267578125", "High": "203.42999267578125", "Low": "198.13999938964844", "Close": "199.77000427246094", "Adj Close": "195.96128845214844", "Volume": "1291700"},
{"Date": "2019-08-28", "Open": "199.66000366210938", "High": "203.80999755859375", "Low": "197.16000366210938", "Close": "203.27999877929688", "Adj Close": "199.4043426513672", "Volume": "1195400"},
{"Date": "2019-08-29", "Open": "207.0", "High": "210.0", "Low": "206.27999877929688", "Close": "207.66000366210938", "Adj Close": "203.70083618164062", "Volume": "1817300"},
{"Date": "2019-08-30", "Open": "211.3800048828125", "High": "213.0500030517578", "Low": "209.33999633789062", "Close": "210.50999450683594", "Adj Close": "206.49652099609375", "Volume": "1194300"},
{"Date": "2019-09-03", "Open": "211.0", "High": "214.00999450683594", "Low": "209.02000427246094", "Close": "212.94000244140625", "Adj Close": "208.8801727294922", "Volume": "1852900"},
{"Date": "2019-09-04", "Open": "215.27999877929688", "High": "222.22000122070312", "Low": "215.22999572753906", "Close": "221.60000610351562", "Adj Close": "217.37510681152344", "Volume": "2403200"},
{"Date": "2019-09-05", "Open": "227.1699981689453", "High": "232.25999450683594", "Low": "225.5399932861328", "Close": "226.74000549316406", "Adj Close": "222.41708374023438", "Volume": "2837300"},
{"Date": "2019-09-06", "Open": "227.11000061035156", "High": "229.94000244140625", "Low": "225.10000610351562", "Close": "227.9199981689453", "Adj Close": "223.5745849609375", "Volume": "1680700"},
{"Date": "2019-09-09", "Open": "229.72000122070312", "High": "232.63999938964844", "Low": "228.1699981689453", "Close": "230.33999633789062", "Adj Close": "225.9484405517578", "Volume": "2194800"},
{"Date": "2019-09-10", "Open": "229.64999389648438", "High": "232.0", "Low": "226.49000549316406", "Close": "231.94000244140625", "Adj Close": "227.5179443359375", "Volume": "1727400"},
{"Date": "2019-09-11", "Open": "232.17999267578125", "High": "234.75", "Low": "230.55999755859375", "Close": "234.00999450683594", "Adj Close": "229.54847717285156", "Volume": "1828800"},
{"Date": "2019-09-12", "Open": "235.0", "High": "236.33999633789062", "Low": "231.69000244140625", "Close": "234.8699951171875", "Adj Close": "230.39207458496094", "Volume": "1230800"},
{"Date": "2019-09-13", "Open": "236.6300048828125", "High": "237.89999389648438", "Low": "233.94000244140625", "Close": "235.55999755859375", "Adj Close": "231.06893920898438", "Volume": "1598200"},
{"Date": "2019-09-16", "Open": "232.7899932861328", "High": "237.0800018310547", "Low": "230.6199951171875", "Close": "234.94000244140625", "Adj Close": "230.46075439453125", "Volume": "1159600"},
{"Date": "2019-09-17", "Open": "234.19000244140625", "High": "236.8000030517578", "Low": "232.39999389648438", "Close": "236.77999877929688", "Adj Close": "232.2656707763672", "Volume": "1429100"},
{"Date": "2019-09-18", "Open": "235.00999450683594", "High": "238.69000244140625", "Low": "234.32000732421875", "Close": "237.63999938964844", "Adj Close": "233.1092529296875", "Volume": "1491600"},
{"Date": "2019-09-19", "Open": "238.8000030517578", "High": "238.89999389648438", "Low": "235.36000061035156", "Close": "236.86000061035156", "Adj Close": "232.34413146972656", "Volume": "1252600"},
{"Date": "2019-09-20", "Open": "237.2100067138672", "High": "239.39999389648438", "Low": "233.30999755859375", "Close": "235.30999755859375", "Adj Close": "230.82369995117188", "Volume": "3320600"},
{"Date": "2019-09-23", "Open": "235.0", "High": "240.08999633789062", "Low": "234.3800048828125", "Close": "238.24000549316406", "Adj Close": "233.69784545898438", "Volume": "1202500"},
{"Date": "2019-09-24", "Open": "239.1999969482422", "High": "240.0", "Low": "234.32000732421875", "Close": "235.86000061035156", "Adj Close": "231.3632049560547", "Volume": "1818000"},
{"Date": "2019-09-25", "Open": "232.99000549316406", "High": "241.9600067138672", "Low": "232.77000427246094", "Close": "241.60000610351562", "Adj Close": "236.9937744140625", "Volume": "1706300"},
{"Date": "2019-09-26", "Open": "241.85000610351562", "High": "244.97999572753906", "Low": "241.10000610351562", "Close": "242.8300018310547", "Adj Close": "238.20033264160156", "Volume": "1668400"},
{"Date": "2019-09-27", "Open": "238.80999755859375", "High": "238.80999755859375", "Low": "227.4600067138672", "Close": "230.0800018310547", "Adj Close": "225.6934051513672", "Volume": "2940900"},
{"Date": "2019-09-30", "Open": "229.72999572753906", "High": "233.30999755859375", "Low": "227.2899932861328", "Close": "231.11000061035156", "Adj Close": "227.8425750732422", "Volume": "1543500"},
{"Date": "2019-10-01", "Open": "233.0", "High": "235.52999877929688", "Low": "228.2100067138672", "Close": "230.38999938964844", "Adj Close": "227.13278198242188", "Volume": "1493400"},
{"Date": "2019-10-02", "Open": "227.17999267578125", "High": "229.5800018310547", "Low": "225.9499969482422", "Close": "228.0", "Adj Close": "224.7765655517578", "Volume": "1475700"},
{"Date": "2019-10-03", "Open": "229.32000732421875", "High": "230.1199951171875", "Low": "225.1699981689453", "Close": "229.0500030517578", "Adj Close": "225.81170654296875", "Volume": "1361600"},
{"Date": "2019-10-04", "Open": "230.1699981689453", "High": "233.41000366210938", "Low": "229.42999267578125", "Close": "233.27000427246094", "Adj Close": "229.97206115722656", "Volume": "1061300"},
{"Date": "2019-10-07", "Open": "233.1699981689453", "High": "234.5", "Low": "231.9199981689453", "Close": "232.13999938964844", "Adj Close": "228.8580322265625", "Volume": "1128500"},
{"Date": "2019-10-08", "Open": "229.8699951171875", "High": "231.25", "Low": "225.0", "Close": "227.6999969482422", "Adj Close": "224.48080444335938", "Volume": "1502800"},
{"Date": "2019-10-09", "Open": "232.0", "High": "234.74000549316406", "Low": "231.07000732421875", "Close": "233.1300048828125", "Adj Close": "229.83404541015625", "Volume": "1573900"},
{"Date": "2019-10-10", "Open": "232.58999633789062", "High": "237.41000366210938", "Low": "232.1699981689453", "Close": "234.6199951171875", "Adj Close": "231.30294799804688", "Volume": "1288700"},
{"Date": "2019-10-11", "Open": "239.80999755859375", "High": "240.27999877929688", "Low": "236.61000061035156", "Close": "237.08999633789062", "Adj Close": "233.738037109375", "Volume": "1199500"},
{"Date": "2019-10-14", "Open": "236.4199981689453", "High": "238.3000030517578", "Low": "235.63999938964844", "Close": "236.27999877929688", "Adj Close": "232.93948364257812", "Volume": "770300"},
{"Date": "2019-10-15", "Open": "237.75999450683594", "High": "243.5800018310547", "Low": "236.8000030517578", "Close": "242.0500030517578", "Adj Close": "238.6279296875", "Volume": "1793200"},
{"Date": "2019-10-16", "Open": "238.0", "High": "239.88999938964844", "Low": "233.75999450683594", "Close": "234.75999450683594", "Adj Close": "231.44097900390625", "Volume": "1941300"},
{"Date": "2019-10-17", "Open": "238.88999938964844", "High": "240.2899932861328", "Low": "235.27999877929688", "Close": "236.10000610351562", "Adj Close": "232.76205444335938", "Volume": "1280800"},
{"Date": "2019-10-18", "Open": "235.6999969482422", "High": "235.6999969482422", "Low": "230.22999572753906", "Close": "233.6999969482422", "Adj Close": "230.39598083496094", "Volume": "1523800"},
{"Date": "2019-10-21", "Open": "236.97999572753906", "High": "239.8699951171875", "Low": "235.25", "Close": "238.4600067138672", "Adj Close": "235.08868408203125", "Volume": "1215200"},
{"Date": "2019-10-22", "Open": "239.58999633789062", "High": "240.0500030517578", "Low": "234.83999633789062", "Close": "234.91000366210938", "Adj Close": "231.58885192871094", "Volume": "990100"},
{"Date": "2019-10-23", "Open": "232.57000732421875", "High": "235.47999572753906", "Low": "231.14999389648438", "Close": "233.17999267578125", "Adj Close": "229.88331604003906", "Volume": "1978600"},
{"Date": "2019-10-24", "Open": "252.4499969482422", "High": "265.8500061035156", "Low": "251.9499969482422", "Close": "265.6000061035156", "Adj Close": "261.844970703125", "Volume": "5683100"},
{"Date": "2019-10-25", "Open": "265.0", "High": "270.6300048828125", "Low": "263.010009765625", "Close": "270.04998779296875", "Adj Close": "266.2320556640625", "Volume": "2507200"},
{"Date": "2019-10-28", "Open": "272.5400085449219", "High": "282.0", "Low": "272.1000061035156", "Close": "281.25", "Adj Close": "277.2737121582031", "Volume": "2528100"},
{"Date": "2019-10-29", "Open": "280.4700012207031", "High": "282.8800048828125", "Low": "275.57000732421875", "Close": "276.489990234375", "Adj Close": "272.58099365234375", "Volume": "2079600"},
{"Date": "2019-10-30", "Open": "276.4100036621094", "High": "278.3599853515625", "Low": "274.0", "Close": "277.55999755859375", "Adj Close": "273.6358642578125", "Volume": "1172500"},
{"Date": "2019-10-31", "Open": "276.7900085449219", "High": "277.5400085449219", "Low": "267.2300109863281", "Close": "271.0400085449219", "Adj Close": "267.20806884765625", "Volume": "2699300"},
{"Date": "2019-11-01", "Open": "273.82000732421875", "High": "278.510009765625", "Low": "272.29998779296875", "Close": "278.260009765625", "Adj Close": "274.32598876953125", "Volume": "1545300"},
{"Date": "2019-11-04", "Open": "280.0", "High": "281.7200012207031", "Low": "274.4100036621094", "Close": "278.1000061035156", "Adj Close": "274.16827392578125", "Volume": "1290400"},
{"Date": "2019-11-05", "Open": "279.54998779296875", "High": "280.82000732421875", "Low": "274.3900146484375", "Close": "277.95001220703125", "Adj Close": "274.0203857421875", "Volume": "1483900"},
{"Date": "2019-11-06", "Open": "276.4599914550781", "High": "276.7200012207031", "Low": "270.25", "Close": "275.510009765625", "Adj Close": "271.6148681640625", "Volume": "1690700"},
{"Date": "2019-11-07", "Open": "278.25", "High": "278.29998779296875", "Low": "272.29998779296875", "Close": "274.1099853515625", "Adj Close": "270.2346496582031", "Volume": "1106700"},
{"Date": "2019-11-08", "Open": "271.29998779296875", "High": "273.25", "Low": "269.1000061035156", "Close": "272.67999267578125", "Adj Close": "268.8248596191406", "Volume": "1373000"},
{"Date": "2019-11-11", "Open": "269.6600036621094", "High": "273.1099853515625", "Low": "268.6300048828125", "Close": "271.260009765625", "Adj Close": "267.4249572753906", "Volume": "1179400"},
{"Date": "2019-11-12", "Open": "275.6000061035156", "High": "276.57000732421875", "Low": "269.0", "Close": "270.010009765625", "Adj Close": "266.192626953125", "Volume": "1106100"},
{"Date": "2019-11-13", "Open": "268.8699951171875", "High": "272.8699951171875", "Low": "267.6700134277344", "Close": "272.4599914550781", "Adj Close": "268.60797119140625", "Volume": "861100"},
{"Date": "2019-11-14", "Open": "271.79998779296875", "High": "275.80999755859375", "Low": "270.80999755859375", "Close": "275.0899963378906", "Adj Close": "271.2008056640625", "Volume": "1202900"},
{"Date": "2019-11-15", "Open": "280.1400146484375", "High": "285.8699951171875", "Low": "280.0", "Close": "283.67999267578125", "Adj Close": "279.6693420410156", "Volume": "2126400"},
{"Date": "2019-11-18", "Open": "282.760009765625", "High": "285.7699890136719", "Low": "280.79998779296875", "Close": "282.70001220703125", "Adj Close": "278.7032165527344", "Volume": "1366200"},
{"Date": "2019-11-19", "Open": "284.57000732421875", "High": "284.57000732421875", "Low": "276.5799865722656", "Close": "276.760009765625", "Adj Close": "272.84716796875", "Volume": "1365400"},
{"Date": "2019-11-20", "Open": "275.9800109863281", "High": "277.260009765625", "Low": "270.3999938964844", "Close": "274.1300048828125", "Adj Close": "270.2543640136719", "Volume": "1266100"},
{"Date": "2019-11-21", "Open": "265.7200012207031", "High": "269.67999267578125", "Low": "262.8999938964844", "Close": "263.8999938964844", "Adj Close": "260.16900634765625", "Volume": "2407000"},
{"Date": "2019-11-22", "Open": "265.4800109863281", "High": "266.6700134277344", "Low": "260.1199951171875", "Close": "261.9800109863281", "Adj Close": "258.2761535644531", "Volume": "1273600"},
{"Date": "2019-11-25", "Open": "264.07000732421875", "High": "270.05999755859375", "Low": "263.6700134277344", "Close": "269.010009765625", "Adj Close": "265.2067565917969", "Volume": "1988500"},
{"Date": "2019-11-26", "Open": "270.0", "High": "271.4100036621094", "Low": "267.2200012207031", "Close": "269.55999755859375", "Adj Close": "265.7489929199219", "Volume": "1789800"},
{"Date": "2019-11-27", "Open": "270.79998779296875", "High": "272.05999755859375", "Low": "269.3800048828125", "Close": "270.94000244140625", "Adj Close": "267.1094970703125", "Volume": "874400"},
{"Date": "2019-11-29", "Open": "270.79998779296875", "High": "270.79998779296875", "Low": "265.7900085449219", "Close": "266.8299865722656", "Adj Close": "263.05755615234375", "Volume": "759000"},
{"Date": "2019-12-02", "Open": "266.4800109863281", "High": "266.4800109863281", "Low": "261.3299865722656", "Close": "262.94000244140625", "Adj Close": "259.22259521484375", "Volume": "1316600"},
{"Date": "2019-12-03", "Open": "256.7900085449219", "High": "261.6000061035156", "Low": "255.5", "Close": "257.8399963378906", "Adj Close": "254.1946563720703", "Volume": "1594700"},
{"Date": "2019-12-04", "Open": "262.75", "High": "264.44000244140625", "Low": "261.3699951171875", "Close": "262.8699951171875", "Adj Close": "259.153564453125", "Volume": "1207300"},
{"Date": "2019-12-05", "Open": "264.6499938964844", "High": "265.25", "Low": "262.42999267578125", "Close": "264.82000732421875", "Adj Close": "261.0760192871094", "Volume": "1103800"},
{"Date": "2019-12-06", "Open": "268.0", "High": "272.5799865722656", "Low": "266.8500061035156", "Close": "269.8599853515625", "Adj Close": "266.04473876953125", "Volume": "1358900"},
{"Date": "2019-12-09", "Open": "271.30999755859375", "High": "272.2099914550781", "Low": "267.05999755859375", "Close": "268.0199890136719", "Adj Close": "264.2307434082031", "Volume": "1027200"},
{"Date": "2019-12-10", "Open": "268.5", "High": "271.6300048828125", "Low": "267.17999267578125", "Close": "268.989990234375", "Adj Close": "266.32977294921875", "Volume": "1183000"},
{"Date": "2019-12-11", "Open": "268.75", "High": "276.04998779296875", "Low": "268.5199890136719", "Close": "275.3999938964844", "Adj Close": "272.6763916015625", "Volume": "1557900"},
{"Date": "2019-12-12", "Open": "274.45001220703125", "High": "285.5299987792969", "Low": "274.0899963378906", "Close": "284.70001220703125", "Adj Close": "281.8844299316406", "Volume": "1827600"},
{"Date": "2019-12-13", "Open": "283.8900146484375", "High": "288.8699951171875", "Low": "280.510009765625", "Close": "281.95001220703125", "Adj Close": "279.16162109375", "Volume": "2278600"},
{"Date": "2019-12-16", "Open": "286.1499938964844", "High": "288.44000244140625", "Low": "284.25", "Close": "284.25", "Adj Close": "281.4388732910156", "Volume": "1526300"},
{"Date": "2019-12-17", "Open": "286.5", "High": "291.25", "Low": "285.3299865722656", "Close": "290.57000732421875", "Adj Close": "287.6963806152344", "Volume": "2101800"},
{"Date": "2019-12-18", "Open": "290.4100036621094", "High": "292.25", "Low": "286.8900146484375", "Close": "288.0199890136719", "Adj Close": "285.17156982421875", "Volume": "1411600"},
{"Date": "2019-12-19", "Open": "290.6099853515625", "High": "293.4100036621094", "Low": "288.2799987792969", "Close": "293.2900085449219", "Adj Close": "290.38946533203125", "Volume": "1332400"},
{"Date": "2019-12-20", "Open": "297.7900085449219", "High": "299.3900146484375", "Low": "293.7200012207031", "Close": "297.4100036621094", "Adj Close": "294.4687194824219", "Volume": "3350900"},
{"Date": "2019-12-23", "Open": "298.3800048828125", "High": "299.0", "Low": "294.2699890136719", "Close": "294.45001220703125", "Adj Close": "291.53802490234375", "Volume": "1160900"},
{"Date": "2019-12-24", "Open": "295.69000244140625", "High": "296.0799865722656", "Low": "292.1199951171875", "Close": "294.4800109863281", "Adj Close": "291.5677185058594", "Volume": "386600"},
{"Date": "2019-12-26", "Open": "294.9700012207031", "High": "295.32000732421875", "Low": "293.1400146484375", "Close": "294.9200134277344", "Adj Close": "292.00335693359375", "Volume": "622000"},
{"Date": "2019-12-27", "Open": "295.9200134277344", "High": "296.3699951171875", "Low": "292.7699890136719", "Close": "293.70001220703125", "Adj Close": "290.79541015625", "Volume": "608200"},
{"Date": "2019-12-30", "Open": "292.510009765625", "High": "293.2099914550781", "Low": "287.6400146484375", "Close": "292.5400085449219", "Adj Close": "289.6468811035156", "Volume": "850600"},
{"Date": "2019-12-31", "Open": "291.5", "High": "292.5899963378906", "Low": "288.5199890136719", "Close": "292.3999938964844", "Adj Close": "289.50823974609375", "Volume": "915400"},
{"Date": "2020-01-02", "Open": "295.7799987792969", "High": "299.79998779296875", "Low": "294.489990234375", "Close": "297.8900146484375", "Adj Close": "294.9440002441406", "Volume": "1506400"},
{"Date": "2020-01-03", "Open": "292.04998779296875", "High": "296.80999755859375", "Low": "291.7200012207031", "Close": "294.69000244140625", "Adj Close": "291.775634765625", "Volume": "962200"},
{"Date": "2020-01-06", "Open": "289.7900085449219", "High": "292.0299987792969", "Low": "287.5400085449219", "Close": "289.19000244140625", "Adj Close": "286.33001708984375", "Volume": "1340500"},
{"Date": "2020-01-07", "Open": "291.739990234375", "High": "298.5400085449219", "Low": "291.3800048828125", "Close": "296.239990234375", "Adj Close": "293.3102722167969", "Volume": "1559500"},
{"Date": "2020-01-08", "Open": "297.4800109863281", "High": "301.6700134277344", "Low": "295.20001220703125", "Close": "299.9700012207031", "Adj Close": "297.0033874511719", "Volume": "1553700"},
{"Date": "2020-01-09", "Open": "302.1199951171875", "High": "303.8800048828125", "Low": "293.5", "Close": "297.92999267578125", "Adj Close": "294.98358154296875", "Volume": "1374800"},
{"Date": "2020-01-10", "Open": "299.1099853515625", "High": "301.2799987792969", "Low": "292.95001220703125", "Close": "294.3399963378906", "Adj Close": "291.4290771484375", "Volume": "1405200"},
{"Date": "2020-01-13", "Open": "294.3800048828125", "High": "297.3299865722656", "Low": "292.510009765625", "Close": "297.2900085449219", "Adj Close": "294.34991455078125", "Volume": "1399400"},
{"Date": "2020-01-14", "Open": "300.1400146484375", "High": "304.3699951171875", "Low": "296.739990234375", "Close": "300.760009765625", "Adj Close": "297.7856140136719", "Volume": "1731900"},
{"Date": "2020-01-15", "Open": "299.2799987792969", "High": "300.54998779296875", "Low": "296.7200012207031", "Close": "298.3399963378906", "Adj Close": "295.3895263671875", "Volume": "1082900"},
{"Date": "2020-01-16", "Open": "301.82000732421875", "High": "307.260009765625", "Low": "300.95001220703125", "Close": "305.95001220703125", "Adj Close": "302.9242858886719", "Volume": "1606800"},
{"Date": "2020-01-17", "Open": "307.04998779296875", "High": "308.489990234375", "Low": "302.1600036621094", "Close": "308.0", "Adj Close": "304.9539794921875", "Volume": "1929900"},
{"Date": "2020-01-21", "Open": "308.19000244140625", "High": "311.9100036621094", "Low": "307.30999755859375", "Close": "308.67999267578125", "Adj Close": "305.62725830078125", "Volume": "1500000"},
{"Date": "2020-01-22", "Open": "311.0", "High": "315.3599853515625", "Low": "310.75", "Close": "311.3399963378906", "Adj Close": "308.26092529296875", "Volume": "1504000"},
{"Date": "2020-01-23", "Open": "312.0", "High": "312.67999267578125", "Low": "307.54998779296875", "Close": "312.4200134277344", "Adj Close": "309.33026123046875", "Volume": "1556600"},
{"Date": "2020-01-24", "Open": "315.8900146484375", "High": "316.7300109863281", "Low": "303.7099914550781", "Close": "306.5400085449219", "Adj Close": "303.5084228515625", "Volume": "1632200"},
{"Date": "2020-01-27", "Open": "297.0299987792969", "High": "298.67999267578125", "Low": "292.69000244140625", "Close": "293.7900085449219", "Adj Close": "290.884521484375", "Volume": "1910900"},
{"Date": "2020-01-28", "Open": "298.7799987792969", "High": "303.25", "Low": "293.3599853515625", "Close": "301.69000244140625", "Adj Close": "298.7063903808594", "Volume": "1815000"},
{"Date": "2020-01-29", "Open": "302.2300109863281", "High": "303.989990234375", "Low": "295.9100036621094", "Close": "298.2200012207031", "Adj Close": "295.27069091796875", "Volume": "1808000"},
{"Date": "2020-01-30", "Open": "318.3999938964844", "High": "319.0", "Low": "305.760009765625", "Close": "310.95001220703125", "Adj Close": "307.8748474121094", "Volume": "3943100"},
{"Date": "2020-01-31", "Open": "308.0", "High": "308.9700012207031", "Low": "297.2699890136719", "Close": "298.2099914550781", "Adj Close": "295.26080322265625", "Volume": "2436500"},
{"Date": "2020-02-03", "Open": "300.0", "High": "309.5799865722656", "Low": "300.0", "Close": "308.44000244140625", "Adj Close": "305.3896484375", "Volume": "1947800"},
{"Date": "2020-02-04", "Open": "316.55999755859375", "High": "326.82000732421875", "Low": "316.1199951171875", "Close": "325.3999938964844", "Adj Close": "322.181884765625", "Volume": "2531000"},
{"Date": "2020-02-05", "Open": "331.2300109863281", "High": "332.5299987792969", "Low": "323.70001220703125", "Close": "325.6199951171875", "Adj Close": "322.39971923828125", "Volume": "2157200"},
{"Date": "2020-02-06", "Open": "326.0", "High": "326.8500061035156", "Low": "323.0", "Close": "323.5199890136719", "Adj Close": "320.3204650878906", "Volume": "1262500"},
{"Date": "2020-02-07", "Open": "320.6300048828125", "High": "321.2799987792969", "Low": "314.7200012207031", "Close": "315.3999938964844", "Adj Close": "312.2807922363281", "Volume": "1602600"},
{"Date": "2020-02-10", "Open": "313.9800109863281", "High": "319.8900146484375", "Low": "313.0", "Close": "319.8299865722656", "Adj Close": "316.6669616699219", "Volume": "1088400"},
{"Date": "2020-02-11", "Open": "322.8699951171875", "High": "326.8299865722656", "Low": "322.8699951171875", "Close": "325.6700134277344", "Adj Close": "322.4492492675781", "Volume": "1520700"},
{"Date": "2020-02-12", "Open": "328.0", "High": "335.17999267578125", "Low": "328.0", "Close": "334.6199951171875", "Adj Close": "331.3106994628906", "Volume": "1687200"},
{"Date": "2020-02-13", "Open": "335.04998779296875", "High": "344.32000732421875", "Low": "333.6199951171875", "Close": "341.5799865722656", "Adj Close": "338.2018737792969", "Volume": "2110200"},
{"Date": "2020-02-14", "Open": "341.489990234375", "High": "344.2099914550781", "Low": "336.760009765625", "Close": "339.29998779296875", "Adj Close": "335.9444274902344", "Volume": "1109900"},
{"Date": "2020-02-18", "Open": "323.239990234375", "High": "332.0", "Low": "323.0", "Close": "325.3399963378906", "Adj Close": "322.12249755859375", "Volume": "2749400"},
{"Date": "2020-02-19", "Open": "331.17999267578125", "High": "335.4100036621094", "Low": "330.29998779296875", "Close": "333.8500061035156", "Adj Close": "330.54833984375", "Volume": "1539600"},
{"Date": "2020-02-20", "Open": "331.95001220703125", "High": "334.0400085449219", "Low": "324.0199890136719", "Close": "328.489990234375", "Adj Close": "325.2413330078125", "Volume": "1887800"},
{"Date": "2020-02-21", "Open": "326.2200012207031", "High": "327.0400085449219", "Low": "315.239990234375", "Close": "316.79998779296875", "Adj Close": "313.6669616699219", "Volume": "2160600"},
{"Date": "2020-02-24", "Open": "299.20001220703125", "High": "305.30999755859375", "Low": "295.1199951171875", "Close": "300.4599914550781", "Adj Close": "297.488525390625", "Volume": "3102200"},
{"Date": "2020-02-25", "Open": "305.82000732421875", "High": "306.8999938964844", "Low": "289.3900146484375", "Close": "292.2200012207031", "Adj Close": "289.3300476074219", "Volume": "2549800"},
{"Date": "2020-02-26", "Open": "296.239990234375", "High": "304.6300048828125", "Low": "294.6199951171875", "Close": "296.6000061035156", "Adj Close": "293.666748046875", "Volume": "2379600"},
{"Date": "2020-02-27", "Open": "285.6400146484375", "High": "293.760009765625", "Low": "282.010009765625", "Close": "285.70001220703125", "Adj Close": "282.8745422363281", "Volume": "2872200"},
{"Date": "2020-02-28", "Open": "275.82000732421875", "High": "294.45001220703125", "Low": "273.6600036621094", "Close": "293.42999267578125", "Adj Close": "290.528076171875", "Volume": "3199200"},
{"Date": "2020-03-02", "Open": "296.6400146484375", "High": "300.54998779296875", "Low": "284.0199890136719", "Close": "300.3299865722656", "Adj Close": "297.3598327636719", "Volume": "2347300"},
{"Date": "2020-03-03", "Open": "300.29998779296875", "High": "308.29998779296875", "Low": "288.5899963378906", "Close": "291.4599914550781", "Adj Close": "288.5775451660156", "Volume": "2510300"},
{"Date": "2020-03-04", "Open": "298.8699951171875", "High": "306.29998779296875", "Low": "293.79998779296875", "Close": "306.239990234375", "Adj Close": "303.2113952636719", "Volume": "1917000"},
{"Date": "2020-03-05", "Open": "297.8500061035156", "High": "309.6499938964844", "Low": "296.0", "Close": "299.1300048828125", "Adj Close": "296.17169189453125", "Volume": "2037000"},
{"Date": "2020-03-06", "Open": "290.7699890136719", "High": "298.6700134277344", "Low": "285.25", "Close": "294.4100036621094", "Adj Close": "291.4984130859375", "Volume": "2048600"},
{"Date": "2020-03-09", "Open": "273.0", "High": "283.260009765625", "Low": "267.2300109863281", "Close": "267.6000061035156", "Adj Close": "264.9535217285156", "Volume": "2649500"},
{"Date": "2020-03-10", "Open": "275.67999267578125", "High": "287.8599853515625", "Low": "267.44000244140625", "Close": "287.57000732421875", "Adj Close": "284.7260437011719", "Volume": "2372500"},
{"Date": "2020-03-11", "Open": "278.5400085449219", "High": "284.489990234375", "Low": "272.5799865722656", "Close": "276.6300048828125", "Adj Close": "273.89422607421875", "Volume": "3144100"},
{"Date": "2020-03-12", "Open": "257.07000732421875", "High": "265.5899963378906", "Low": "237.4499969482422", "Close": "237.85000610351562", "Adj Close": "235.4977569580078", "Volume": "3684400"},
{"Date": "2020-03-13", "Open": "254.0", "High": "262.94000244140625", "Low": "242.6300048828125", "Close": "261.7799987792969", "Adj Close": "259.19110107421875", "Volume": "2692000"},
{"Date": "2020-03-16", "Open": "223.82000732421875", "High": "245.77000427246094", "Low": "213.0800018310547", "Close": "213.5399932861328", "Adj Close": "211.42816162109375", "Volume": "3096000"},
{"Date": "2020-03-17", "Open": "217.07000732421875", "High": "237.8300018310547", "Low": "203.72999572753906", "Close": "229.3000030517578", "Adj Close": "227.0323028564453", "Volume": "3669400"},
{"Date": "2020-03-18", "Open": "203.44000244140625", "High": "215.33999633789062", "Low": "181.3800048828125", "Close": "194.13999938964844", "Adj Close": "192.2200164794922", "Volume": "3607200"},
{"Date": "2020-03-19", "Open": "190.52000427246094", "High": "201.39999389648438", "Low": "187.02000427246094", "Close": "195.00999450683594", "Adj Close": "193.08140563964844", "Volume": "3343900"},
{"Date": "2020-03-20", "Open": "200.00999450683594", "High": "224.13999938964844", "Low": "187.11000061035156", "Close": "187.88999938964844", "Adj Close": "186.03182983398438", "Volume": "3904500"},
{"Date": "2020-03-23", "Open": "190.67999267578125", "High": "199.9499969482422", "Low": "185.83999633789062", "Close": "192.85000610351562", "Adj Close": "190.94277954101562", "Volume": "3027200"},
{"Date": "2020-03-24", "Open": "209.49000549316406", "High": "232.6300048828125", "Low": "207.3699951171875", "Close": "230.63999938964844", "Adj Close": "229.72897338867188", "Volume": "2921200"},
{"Date": "2020-03-25", "Open": "231.82000732421875", "High": "250.11000061035156", "Low": "228.30999755859375", "Close": "233.5500030517578", "Adj Close": "232.6274871826172", "Volume": "2837400"},
{"Date": "2020-03-26", "Open": "240.17999267578125", "High": "260.9800109863281", "Low": "235.0", "Close": "260.3399963378906", "Adj Close": "259.3116455078125", "Volume": "3166300"},
{"Date": "2020-03-27", "Open": "253.35000610351562", "High": "262.8800048828125", "Low": "240.39999389648438", "Close": "241.22000122070312", "Adj Close": "240.26718139648438", "Volume": "3203300"},
{"Date": "2020-03-30", "Open": "246.4600067138672", "High": "257.92999267578125", "Low": "241.24000549316406", "Close": "255.3000030517578", "Adj Close": "254.29156494140625", "Volume": "2129800"},
{"Date": "2020-03-31", "Open": "252.25", "High": "254.99000549316406", "Low": "238.08999633789062", "Close": "240.0", "Adj Close": "239.052001953125", "Volume": "2783600"},
{"Date": "2020-04-01", "Open": "228.9499969482422", "High": "237.1999969482422", "Low": "220.2100067138672", "Close": "223.3300018310547", "Adj Close": "222.44784545898438", "Volume": "2465500"},
{"Date": "2020-04-02", "Open": "219.5800018310547", "High": "226.36000061035156", "Low": "215.9199981689453", "Close": "220.57000732421875", "Adj Close": "219.69876098632812", "Volume": "1891400"},
{"Date": "2020-04-03", "Open": "223.05999755859375", "High": "224.44000244140625", "Low": "213.2899932861328", "Close": "218.14999389648438", "Adj Close": "217.28829956054688", "Volume": "1490600"},
{"Date": "2020-04-06", "Open": "231.6199951171875", "High": "252.39999389648438", "Low": "229.0800018310547", "Close": "250.75", "Adj Close": "249.75953674316406", "Volume": "3327200"},
{"Date": "2020-04-07", "Open": "264.17999267578125", "High": "265.0", "Low": "251.44000244140625", "Close": "256.2200012207031", "Adj Close": "255.2079315185547", "Volume": "2577800"},
{"Date": "2020-04-08", "Open": "259.8900146484375", "High": "272.2699890136719", "Low": "257.3299865722656", "Close": "266.75", "Adj Close": "265.69635009765625", "Volume": "1892300"},
{"Date": "2020-04-09", "Open": "271.70001220703125", "High": "277.4200134277344", "Low": "255.75999450683594", "Close": "258.2799987792969", "Adj Close": "257.2597961425781", "Volume": "2620600"},
{"Date": "2020-04-13", "Open": "256.2099914550781", "High": "259.29998779296875", "Low": "250.24000549316406", "Close": "258.7799987792969", "Adj Close": "257.7578125", "Volume": "1410700"},
{"Date": "2020-04-14", "Open": "266.20001220703125", "High": "274.489990234375", "Low": "263.5899963378906", "Close": "272.510009765625", "Adj Close": "271.43359375", "Volume": "1626800"},
{"Date": "2020-04-15", "Open": "266.0", "High": "266.3999938964844", "Low": "258.54998779296875", "Close": "262.80999755859375", "Adj Close": "261.77191162109375", "Volume": "1542800"},
{"Date": "2020-04-16", "Open": "270.010009765625", "High": "274.94000244140625", "Low": "263.2900085449219", "Close": "270.7099914550781", "Adj Close": "269.64068603515625", "Volume": "2077800"},
{"Date": "2020-04-17", "Open": "278.1600036621094", "High": "280.2200012207031", "Low": "271.4700012207031", "Close": "279.0199890136719", "Adj Close": "277.9178466796875", "Volume": "1831600"},
{"Date": "2020-04-20", "Open": "273.0299987792969", "High": "274.9200134277344", "Low": "266.3399963378906", "Close": "266.7300109863281", "Adj Close": "265.6764221191406", "Volume": "1782300"},
{"Date": "2020-04-21", "Open": "262.4200134277344", "High": "263.4100036621094", "Low": "242.57000732421875", "Close": "243.6300048828125", "Adj Close": "242.66766357421875", "Volume": "2999000"},
{"Date": "2020-04-22", "Open": "255.4600067138672", "High": "273.3699951171875", "Low": "255.4600067138672", "Close": "271.7799987792969", "Adj Close": "270.70648193359375", "Volume": "3581000"},
{"Date": "2020-04-23", "Open": "268.8500061035156", "High": "276.4700012207031", "Low": "262.7900085449219", "Close": "263.9599914550781", "Adj Close": "262.9173583984375", "Volume": "2624900"},
{"Date": "2020-04-24", "Open": "268.5299987792969", "High": "268.67999267578125", "Low": "258.1099853515625", "Close": "266.6700134277344", "Adj Close": "265.6166687011719", "Volume": "1528900"},
{"Date": "2020-04-27", "Open": "270.20001220703125", "High": "274.42999267578125", "Low": "262.8800048828125", "Close": "264.4100036621094", "Adj Close": "263.3655700683594", "Volume": "2136100"},
{"Date": "2020-04-28", "Open": "270.2300109863281", "High": "271.489990234375", "Low": "259.4700012207031", "Close": "261.8500061035156", "Adj Close": "260.8157043457031", "Volume": "1731600"},
{"Date": "2020-04-29", "Open": "268.0", "High": "281.95001220703125", "Low": "265.1700134277344", "Close": "279.989990234375", "Adj Close": "278.884033203125", "Volume": "2155800"},
{"Date": "2020-04-30", "Open": "275.0", "High": "275.69000244140625", "Low": "254.7100067138672", "Close": "255.27999877929688", "Adj Close": "254.27163696289062", "Volume": "3887100"},
{"Date": "2020-05-01", "Open": "246.72999572753906", "High": "247.0", "Low": "229.69000244140625", "Close": "235.02000427246094", "Adj Close": "234.0916748046875", "Volume": "5715100"},
{"Date": "2020-05-04", "Open": "233.97999572753906", "High": "234.97999572753906", "Low": "231.3800048828125", "Close": "234.52000427246094", "Adj Close": "233.59364318847656", "Volume": "2631300"},
{"Date": "2020-05-05", "Open": "240.61000061035156", "High": "252.0399932861328", "Low": "239.89999389648438", "Close": "242.80999755859375", "Adj Close": "241.85089111328125", "Volume": "2268600"},
{"Date": "2020-05-06", "Open": "249.35000610351562", "High": "254.49000549316406", "Low": "244.00999450683594", "Close": "244.55999755859375", "Adj Close": "243.59397888183594", "Volume": "2350800"},
{"Date": "2020-05-07", "Open": "250.0", "High": "253.75999450683594", "Low": "247.10000610351562", "Close": "247.6300048828125", "Adj Close": "246.65187072753906", "Volume": "1541700"},
{"Date": "2020-05-08", "Open": "252.89999389648438", "High": "266.3699951171875", "Low": "252.05999755859375", "Close": "265.3999938964844", "Adj Close": "264.3516540527344", "Volume": "2839800"},
{"Date": "2020-05-11", "Open": "262.4700012207031", "High": "265.19000244140625", "Low": "259.1000061035156", "Close": "262.2300109863281", "Adj Close": "261.1942138671875", "Volume": "1762600"},
{"Date": "2020-05-12", "Open": "265.2699890136719", "High": "266.9100036621094", "Low": "255.7100067138672", "Close": "255.97999572753906", "Adj Close": "254.9688720703125", "Volume": "1764500"},
{"Date": "2020-05-13", "Open": "255.9600067138672", "High": "257.239990234375", "Low": "241.77999877929688", "Close": "248.19000244140625", "Adj Close": "247.20965576171875", "Volume": "2545900"},
{"Date": "2020-05-14", "Open": "243.55999755859375", "High": "269.989990234375", "Low": "240.33999633789062", "Close": "269.0", "Adj Close": "267.93743896484375", "Volume": "3576000"},
{"Date": "2020-05-15", "Open": "252.75", "High": "258.0899963378906", "Low": "248.80999755859375", "Close": "251.83999633789062", "Adj Close": "250.84523010253906", "Volume": "3681900"},
{"Date": "2020-05-18", "Open": "259.489990234375", "High": "262.989990234375", "Low": "253.4600067138672", "Close": "257.4700012207031", "Adj Close": "256.4530029296875", "Volume": "2660400"},
{"Date": "2020-05-19", "Open": "257.8500061035156", "High": "268.20001220703125", "Low": "256.4100036621094", "Close": "261.6600036621094", "Adj Close": "260.6264343261719", "Volume": "1901500"},
{"Date": "2020-05-20", "Open": "268.0", "High": "273.4200134277344", "Low": "267.1199951171875", "Close": "271.1700134277344", "Adj Close": "270.098876953125", "Volume": "2059700"},
{"Date": "2020-05-21", "Open": "270.25", "High": "271.2900085449219", "Low": "260.0", "Close": "260.70001220703125", "Adj Close": "259.6702575683594", "Volume": "1772700"},
{"Date": "2020-05-22", "Open": "262.3599853515625", "High": "263.8299865722656", "Low": "257.6300048828125", "Close": "261.1400146484375", "Adj Close": "260.1085205078125", "Volume": "1755900"},
{"Date": "2020-05-26", "Open": "269.5", "High": "272.04998779296875", "Low": "265.8399963378906", "Close": "266.3599853515625", "Adj Close": "265.307861328125", "Volume": "1909900"},
{"Date": "2020-05-27", "Open": "268.32000732421875", "High": "276.4599914550781", "Low": "258.2099914550781", "Close": "276.1099853515625", "Adj Close": "275.01934814453125", "Volume": "2458700"},
{"Date": "2020-05-28", "Open": "273.0", "High": "279.80999755859375", "Low": "265.3699951171875", "Close": "266.82000732421875", "Adj Close": "265.7660827636719", "Volume": "2286800"},
{"Date": "2020-05-29", "Open": "270.510009765625", "High": "275.79998779296875", "Low": "266.0899963378906", "Close": "273.6700134277344", "Adj Close": "272.5890197753906", "Volume": "2795200"},
{"Date": "2020-06-01", "Open": "270.6000061035156", "High": "276.2699890136719", "Low": "269.8599853515625", "Close": "270.9700012207031", "Adj Close": "269.899658203125", "Volume": "1378500"},
{"Date": "2020-06-02", "Open": "272.4100036621094", "High": "273.489990234375", "Low": "267.1000061035156", "Close": "271.4599914550781", "Adj Close": "270.3877258300781", "Volume": "1697400"},
{"Date": "2020-06-03", "Open": "278.510009765625", "High": "290.0", "Low": "275.54998779296875", "Close": "286.8900146484375", "Adj Close": "285.7568054199219", "Volume": "2427800"},
{"Date": "2020-06-04", "Open": "285.5299987792969", "High": "293.6000061035156", "Low": "283.1600036621094", "Close": "291.8399963378906", "Adj Close": "290.6872253417969", "Volume": "2059200"},
{"Date": "2020-06-05", "Open": "299.8900146484375", "High": "310.0", "Low": "299.3800048828125", "Close": "304.9200134277344", "Adj Close": "303.715576171875", "Volume": "2499600"},
{"Date": "2020-06-08", "Open": "306.8500061035156", "High": "308.0299987792969", "Low": "296.2099914550781", "Close": "297.5899963378906", "Adj Close": "296.4145202636719", "Volume": "1689400"},
{"Date": "2020-06-09", "Open": "295.6499938964844", "High": "305.7699890136719", "Low": "293.1099853515625", "Close": "302.3299865722656", "Adj Close": "301.1357727050781", "Volume": "1632100"},
{"Date": "2020-06-10", "Open": "301.4100036621094", "High": "304.6700134277344", "Low": "299.45001220703125", "Close": "301.29998779296875", "Adj Close": "300.10986328125", "Volume": "1607300"},
{"Date": "2020-06-11", "Open": "292.2900085449219", "High": "298.6300048828125", "Low": "281.8800048828125", "Close": "282.42999267578125", "Adj Close": "281.31439208984375", "Volume": "2062500"},
{"Date": "2020-06-12", "Open": "292.79998779296875", "High": "294.3999938964844", "Low": "276.6600036621094", "Close": "284.5199890136719", "Adj Close": "283.3961486816406", "Volume": "2163800"},
{"Date": "2020-06-15", "Open": "275.8500061035156", "High": "291.739990234375", "Low": "274.510009765625", "Close": "291.1400146484375", "Adj Close": "289.9900207519531", "Volume": "2109500"},
{"Date": "2020-06-16", "Open": "303.4800109863281", "High": "308.75", "Low": "299.6700134277344", "Close": "305.4800109863281", "Adj Close": "305.4800109863281", "Volume": "2548300"},
{"Date": "2020-06-17", "Open": "310.5899963378906", "High": "314.44000244140625", "Low": "307.6199951171875", "Close": "313.7799987792969", "Adj Close": "313.7799987792969", "Volume": "1844200"},
{"Date": "2020-06-18", "Open": "314.010009765625", "High": "317.7300109863281", "Low": "312.5299987792969", "Close": "314.79998779296875", "Adj Close": "314.79998779296875", "Volume": "1274000"},
{"Date": "2020-06-19", "Open": "320.29998779296875", "High": "325.1199951171875", "Low": "313.5400085449219", "Close": "315.25", "Adj Close": "315.25", "Volume": "2610200"},
{"Date": "2020-06-22", "Open": "312.0", "High": "314.8399963378906", "Low": "307.05999755859375", "Close": "312.29998779296875", "Adj Close": "312.29998779296875", "Volume": "1541000"},
{"Date": "2020-06-23", "Open": "315.0199890136719", "High": "319.05999755859375", "Low": "312.5", "Close": "315.9800109863281", "Adj Close": "315.9800109863281", "Volume": "1764700"},
{"Date": "2020-06-24", "Open": "311.0400085449219", "High": "316.6300048828125", "Low": "303.9700012207031", "Close": "305.7799987792969", "Adj Close": "305.7799987792969", "Volume": "1790900"},
{"Date": "2020-06-25", "Open": "308.1700134277344", "High": "313.3800048828125", "Low": "300.6099853515625", "Close": "312.6000061035156", "Adj Close": "312.6000061035156", "Volume": "1593500"},
{"Date": "2020-06-26", "Open": "312.3999938964844", "High": "312.69000244140625", "Low": "300.3599853515625", "Close": "302.5199890136719", "Adj Close": "302.5199890136719", "Volume": "4233700"},
{"Date": "2020-06-29", "Open": "303.75", "High": "309.0", "Low": "300.6099853515625", "Close": "308.4599914550781", "Adj Close": "308.4599914550781", "Volume": "1476200"},
{"Date": "2020-06-30", "Open": "311.19000244140625", "High": "325.79998779296875", "Low": "308.92999267578125", "Close": "323.4599914550781", "Adj Close": "323.4599914550781", "Volume": "2789600"},
{"Date": "2020-07-01", "Open": "322.1499938964844", "High": "322.7699890136719", "Low": "316.1199951171875", "Close": "317.4800109863281", "Adj Close": "317.4800109863281", "Volume": "1527100"},
{"Date": "2020-07-02", "Open": "322.8599853515625", "High": "327.45001220703125", "Low": "318.6400146484375", "Close": "323.70001220703125", "Adj Close": "323.70001220703125", "Volume": "1711200"},
{"Date": "2020-07-06", "Open": "330.010009765625", "High": "336.989990234375", "Low": "328.9800109863281", "Close": "334.9599914550781", "Adj Close": "334.9599914550781", "Volume": "1414800"},
{"Date": "2020-07-07", "Open": "332.1300048828125", "High": "337.2699890136719", "Low": "327.5", "Close": "327.8900146484375", "Adj Close": "327.8900146484375", "Volume": "1276500"},
{"Date": "2020-07-08", "Open": "332.7900085449219", "High": "335.3999938964844", "Low": "329.3900146484375", "Close": "333.79998779296875", "Adj Close": "333.79998779296875", "Volume": "989600"},
{"Date": "2020-07-09", "Open": "337.3599853515625", "High": "338.92999267578125", "Low": "331.04998779296875", "Close": "335.760009765625", "Adj Close": "335.760009765625", "Volume": "1659900"},
{"Date": "2020-07-10", "Open": "335.0899963378906", "High": "340.2900085449219", "Low": "330.6499938964844", "Close": "339.9800109863281", "Adj Close": "339.9800109863281", "Volume": "1432400"},
{"Date": "2020-07-13", "Open": "343.0", "High": "350.239990234375", "Low": "336.8500061035156", "Close": "337.1400146484375", "Adj Close": "337.1400146484375", "Volume": "2160400"},
{"Date": "2020-07-14", "Open": "336.07000732421875", "High": "347.510009765625", "Low": "331.3999938964844", "Close": "346.05999755859375", "Adj Close": "346.05999755859375", "Volume": "2018800"},
{"Date": "2020-07-15", "Open": "347.07000732421875", "High": "348.79998779296875", "Low": "335.6099853515625", "Close": "343.2200012207031", "Adj Close": "343.2200012207031", "Volume": "1637000"},
{"Date": "2020-07-16", "Open": "340.2699890136719", "High": "346.7099914550781", "Low": "338.8900146484375", "Close": "344.8800048828125", "Adj Close": "344.8800048828125", "Volume": "1182800"},
{"Date": "2020-07-17", "Open": "347.8599853515625", "High": "348.3299865722656", "Low": "341.1499938964844", "Close": "346.2699890136719", "Adj Close": "346.2699890136719", "Volume": "1129000"},
{"Date": "2020-07-20", "Open": "346.2699890136719", "High": "355.94000244140625", "Low": "342.010009765625", "Close": "353.75", "Adj Close": "353.75", "Volume": "1248300"},
{"Date": "2020-07-21", "Open": "357.3699951171875", "High": "362.20001220703125", "Low": "352.3399963378906", "Close": "357.0199890136719", "Adj Close": "357.0199890136719", "Volume": "1743600"},
{"Date": "2020-07-22", "Open": "359.9700012207031", "High": "363.0", "Low": "356.5", "Close": "361.9599914550781", "Adj Close": "361.9599914550781", "Volume": "1036500"},
{"Date": "2020-07-23", "Open": "358.8500061035156", "High": "367.55999755859375", "Low": "350.9100036621094", "Close": "354.82000732421875", "Adj Close": "354.82000732421875", "Volume": "1724900"},
{"Date": "2020-07-24", "Open": "344.2099914550781", "High": "348.0", "Low": "336.2799987792969", "Close": "345.7200012207031", "Adj Close": "345.7200012207031", "Volume": "2002800"},
{"Date": "2020-07-27", "Open": "347.44000244140625", "High": "360.0799865722656", "Low": "346.67999267578125", "Close": "358.0799865722656", "Adj Close": "358.0799865722656", "Volume": "1752100"},
{"Date": "2020-07-28", "Open": "354.6099853515625", "High": "358.92999267578125", "Low": "348.6000061035156", "Close": "348.92999267578125", "Adj Close": "348.92999267578125", "Volume": "1332400"},
{"Date": "2020-07-29", "Open": "352.1000061035156", "High": "361.8399963378906", "Low": "349.0", "Close": "360.8299865722656", "Adj Close": "360.8299865722656", "Volume": "2167300"},
{"Date": "2020-07-30", "Open": "367.7799987792969", "High": "381.4800109863281", "Low": "367.0799865722656", "Close": "378.5400085449219", "Adj Close": "378.5400085449219", "Volume": "2567800"},
{"Date": "2020-07-31", "Open": "379.55999755859375", "High": "380.1600036621094", "Low": "369.2900085449219", "Close": "377.1600036621094", "Adj Close": "377.1600036621094", "Volume": "2040300"},
{"Date": "2020-08-03", "Open": "380.79998779296875", "High": "387.70001220703125", "Low": "379.17999267578125", "Close": "381.4100036621094", "Adj Close": "381.4100036621094", "Volume": "1517800"},
{"Date": "2020-08-04", "Open": "382.17999267578125", "High": "385.75", "Low": "380.2200012207031", "Close": "384.9599914550781", "Adj Close": "384.9599914550781", "Volume": "1148200"},
{"Date": "2020-08-05", "Open": "384.5799865722656", "High": "387.0899963378906", "Low": "382.2799987792969", "Close": "383.4700012207031", "Adj Close": "383.4700012207031", "Volume": "846500"},
{"Date": "2020-08-06", "Open": "377.0", "High": "379.6000061035156", "Low": "370.7900085449219", "Close": "377.80999755859375", "Adj Close": "377.80999755859375", "Volume": "1699600"},
{"Date": "2020-08-07", "Open": "378.3800048828125", "High": "381.69000244140625", "Low": "366.45001220703125", "Close": "372.44000244140625", "Adj Close": "372.44000244140625", "Volume": "1385400"},
{"Date": "2020-08-10", "Open": "372.44000244140625", "High": "376.82000732421875", "Low": "369.1499938964844", "Close": "375.760009765625", "Adj Close": "375.760009765625", "Volume": "929200"},
{"Date": "2020-08-11", "Open": "378.8599853515625", "High": "380.8699951171875", "Low": "367.3900146484375", "Close": "369.010009765625", "Adj Close": "369.010009765625", "Volume": "1110100"},
{"Date": "2020-08-12", "Open": "372.17999267578125", "High": "383.2799987792969", "Low": "369.92999267578125", "Close": "381.5199890136719", "Adj Close": "381.5199890136719", "Volume": "1223600"},
{"Date": "2020-08-13", "Open": "380.010009765625", "High": "382.45001220703125", "Low": "374.3800048828125", "Close": "377.0199890136719", "Adj Close": "377.0199890136719", "Volume": "1076400"},
{"Date": "2020-08-14", "Open": "379.0", "High": "384.989990234375", "Low": "373.0", "Close": "373.6400146484375", "Adj Close": "373.6400146484375", "Volume": "1344600"},
{"Date": "2020-08-17", "Open": "376.54998779296875", "High": "384.1700134277344", "Low": "372.80999755859375", "Close": "379.0799865722656", "Adj Close": "379.0799865722656", "Volume": "1418400"},
{"Date": "2020-08-18", "Open": "381.95001220703125", "High": "382.70001220703125", "Low": "372.92999267578125", "Close": "374.57000732421875", "Adj Close": "374.57000732421875", "Volume": "1047300"},
{"Date": "2020-08-19", "Open": "374.0299987792969", "High": "376.19000244140625", "Low": "368.260009765625", "Close": "372.19000244140625", "Adj Close": "372.19000244140625", "Volume": "1074600"},
{"Date": "2020-08-20", "Open": "360.1000061035156", "High": "363.3999938964844", "Low": "355.2699890136719", "Close": "358.5", "Adj Close": "358.5", "Volume": "2214000"},
{"Date": "2020-08-21", "Open": "355.9200134277344", "High": "356.7099914550781", "Low": "350.3299865722656", "Close": "353.44000244140625", "Adj Close": "353.44000244140625", "Volume": "2554700"},
{}]