[{"Date": "2019-08-23", "Open": "127.26000213623047", "High": "127.91999816894531", "Low": "124.66999816894531", "Close": "125.0999984741211", "Adj Close": "124.15890502929688", "Volume": "1736100"},
{"Date": "2019-08-26", "Open": "126.43000030517578", "High": "126.86000061035156", "Low": "125.37000274658203", "Close": "126.2300033569336", "Adj Close": "125.28041076660156", "Volume": "1263400"},
{"Date": "2019-08-27", "Open": "127.0199966430664", "High": "127.19999694824219", "Low": "125.26000213623047", "Close": "125.3499984741211", "Adj Close": "124.40702056884766", "Volume": "1214800"},
{"Date": "2019-08-28", "Open": "125.16999816894531", "High": "125.94000244140625", "Low": "124.66000366210938", "Close": "125.33999633789062", "Adj Close": "124.3970947265625", "Volume": "1892200"},
{"Date": "2019-08-29", "Open": "127.19999694824219", "High": "127.45999908447266", "Low": "125.37999725341797", "Close": "125.7300033569336", "Adj Close": "124.78416442871094", "Volume": "1701900"},
{"Date": "2019-08-30", "Open": "126.30000305175781", "High": "127.61000061035156", "Low": "125.79000091552734", "Close": "126.05999755859375", "Adj Close": "125.11168670654297", "Volume": "1871600"},
{"Date": "2019-09-03", "Open": "124.94000244140625", "High": "124.94000244140625", "Low": "123.62999725341797", "Close": "124.2699966430664", "Adj Close": "123.33515167236328", "Volume": "1895000"},
{"Date": "2019-09-04", "Open": "125.61000061035156", "High": "126.02999877929688", "Low": "124.91999816894531", "Close": "125.69000244140625", "Adj Close": "124.74446868896484", "Volume": "2471500"},
{"Date": "2019-09-05", "Open": "126.88999938964844", "High": "128.8699951171875", "Low": "125.91999816894531", "Close": "128.4600067138672", "Adj Close": "127.49363708496094", "Volume": "2941800"},
{"Date": "2019-09-06", "Open": "128.5", "High": "129.77999877929688", "Low": "128.0500030517578", "Close": "129.42999267578125", "Adj Close": "128.45631408691406", "Volume": "1120200"},
{"Date": "2019-09-09", "Open": "129.7899932861328", "High": "129.9499969482422", "Low": "128.36000061035156", "Close": "129.91000366210938", "Adj Close": "128.93272399902344", "Volume": "1291100"},
{"Date": "2019-09-10", "Open": "130.0", "High": "131.7100067138672", "Low": "128.6699981689453", "Close": "131.69000244140625", "Adj Close": "130.6993408203125", "Volume": "1259000"},
{"Date": "2019-09-11", "Open": "131.38999938964844", "High": "133.58999633789062", "Low": "130.8300018310547", "Close": "133.08999633789062", "Adj Close": "132.0887908935547", "Volume": "1613900"},
{"Date": "2019-09-12", "Open": "133.5", "High": "134.3699951171875", "Low": "132.38999938964844", "Close": "132.50999450683594", "Adj Close": "131.51315307617188", "Volume": "1080100"},
{"Date": "2019-09-13", "Open": "132.97999572753906", "High": "135.4600067138672", "Low": "132.55999755859375", "Close": "133.99000549316406", "Adj Close": "132.98204040527344", "Volume": "1168300"},
{"Date": "2019-09-16", "Open": "132.8000030517578", "High": "132.8000030517578", "Low": "130.17999267578125", "Close": "130.47999572753906", "Adj Close": "129.49842834472656", "Volume": "1310600"},
{"Date": "2019-09-17", "Open": "130.67999267578125", "High": "131.42999267578125", "Low": "129.77999877929688", "Close": "130.55999755859375", "Adj Close": "129.57781982421875", "Volume": "877400"},
{"Date": "2019-09-18", "Open": "130.1300048828125", "High": "130.47999572753906", "Low": "128.7100067138672", "Close": "130.19000244140625", "Adj Close": "129.2106170654297", "Volume": "1087200"},
{"Date": "2019-09-19", "Open": "130.49000549316406", "High": "131.35000610351562", "Low": "129.41000366210938", "Close": "129.5500030517578", "Adj Close": "128.575439453125", "Volume": "1088500"},
{"Date": "2019-09-20", "Open": "129.07000732421875", "High": "129.4600067138672", "Low": "126.86000061035156", "Close": "126.97000122070312", "Adj Close": "126.01483917236328", "Volume": "3007100"},
{"Date": "2019-09-23", "Open": "126.25", "High": "126.80000305175781", "Low": "125.4000015258789", "Close": "125.8499984741211", "Adj Close": "124.90325927734375", "Volume": "2961700"},
{"Date": "2019-09-24", "Open": "126.11000061035156", "High": "126.11000061035156", "Low": "122.19000244140625", "Close": "122.2699966430664", "Adj Close": "121.35018920898438", "Volume": "2735000"},
{"Date": "2019-09-25", "Open": "122.5", "High": "123.37000274658203", "Low": "121.27999877929688", "Close": "123.02999877929688", "Adj Close": "122.10447692871094", "Volume": "2925900"},
{"Date": "2019-09-26", "Open": "122.36000061035156", "High": "122.88999938964844", "Low": "121.3499984741211", "Close": "121.66999816894531", "Adj Close": "120.75470733642578", "Volume": "2709000"},
{"Date": "2019-09-27", "Open": "122.4800033569336", "High": "123.0", "Low": "120.0199966430664", "Close": "120.7699966430664", "Adj Close": "119.86148071289062", "Volume": "3215500"},
{"Date": "2019-09-30", "Open": "121.87999725341797", "High": "124.61000061035156", "Low": "120.66000366210938", "Close": "124.37000274658203", "Adj Close": "123.43439483642578", "Volume": "2770700"},
{"Date": "2019-10-01", "Open": "125.05000305175781", "High": "126.41000366210938", "Low": "123.30999755859375", "Close": "123.4000015258789", "Adj Close": "122.47169494628906", "Volume": "1840300"},
{"Date": "2019-10-02", "Open": "122.30000305175781", "High": "122.30000305175781", "Low": "119.5999984741211", "Close": "120.33000183105469", "Adj Close": "119.42478942871094", "Volume": "1859100"},
{"Date": "2019-10-03", "Open": "120.29000091552734", "High": "120.68000030517578", "Low": "118.52999877929688", "Close": "119.0199966430664", "Adj Close": "118.12464141845703", "Volume": "2329100"},
{"Date": "2019-10-04", "Open": "119.95999908447266", "High": "121.0199966430664", "Low": "119.5999984741211", "Close": "120.86000061035156", "Adj Close": "119.9508056640625", "Volume": "1909000"},
{"Date": "2019-10-07", "Open": "120.08000183105469", "High": "120.70999908447266", "Low": "118.87999725341797", "Close": "119.19999694824219", "Adj Close": "118.30328369140625", "Volume": "1707000"},
{"Date": "2019-10-08", "Open": "118.19999694824219", "High": "118.93000030517578", "Low": "116.8499984741211", "Close": "117.66999816894531", "Adj Close": "116.78479766845703", "Volume": "1717700"},
{"Date": "2019-10-09", "Open": "118.58999633789062", "High": "119.05999755859375", "Low": "117.25", "Close": "118.48999786376953", "Adj Close": "117.59862518310547", "Volume": "1454300"},
{"Date": "2019-10-10", "Open": "118.56999969482422", "High": "119.83999633789062", "Low": "117.66999816894531", "Close": "118.19000244140625", "Adj Close": "117.30088806152344", "Volume": "1683300"},
{"Date": "2019-10-11", "Open": "119.7300033569336", "High": "122.30999755859375", "Low": "119.02999877929688", "Close": "121.18000030517578", "Adj Close": "120.26839447021484", "Volume": "1828800"},
{"Date": "2019-10-14", "Open": "120.79000091552734", "High": "121.20999908447266", "Low": "119.37000274658203", "Close": "120.0999984741211", "Adj Close": "119.19651794433594", "Volume": "1065200"},
{"Date": "2019-10-15", "Open": "120.33000183105469", "High": "121.70999908447266", "Low": "120.29000091552734", "Close": "121.11000061035156", "Adj Close": "120.19892120361328", "Volume": "905700"},
{"Date": "2019-10-16", "Open": "121.18000030517578", "High": "121.69999694824219", "Low": "120.33999633789062", "Close": "121.08999633789062", "Adj Close": "120.17906951904297", "Volume": "1097300"},
{"Date": "2019-10-17", "Open": "120.80999755859375", "High": "121.7300033569336", "Low": "120.3499984741211", "Close": "120.56999969482422", "Adj Close": "119.66297912597656", "Volume": "967300"},
{"Date": "2019-10-18", "Open": "120.4000015258789", "High": "121.4000015258789", "Low": "118.95999908447266", "Close": "121.05000305175781", "Adj Close": "120.13937377929688", "Volume": "1437500"},
{"Date": "2019-10-21", "Open": "122.26000213623047", "High": "123.4000015258789", "Low": "121.91000366210938", "Close": "123.0", "Adj Close": "122.07469940185547", "Volume": "1820900"},
{"Date": "2019-10-22", "Open": "122.62000274658203", "High": "123.01000213623047", "Low": "121.8499984741211", "Close": "122.05000305175781", "Adj Close": "121.1318588256836", "Volume": "1722600"},
{"Date": "2019-10-23", "Open": "121.45999908447266", "High": "123.66999816894531", "Low": "121.0199966430664", "Close": "123.48999786376953", "Adj Close": "122.56101989746094", "Volume": "1446400"},
{"Date": "2019-10-24", "Open": "123.93000030517578", "High": "124.6500015258789", "Low": "122.86000061035156", "Close": "124.30000305175781", "Adj Close": "123.36492919921875", "Volume": "1335500"},
{"Date": "2019-10-25", "Open": "123.7699966430664", "High": "126.72000122070312", "Low": "123.7699966430664", "Close": "126.18000030517578", "Adj Close": "125.23078155517578", "Volume": "1364600"},
{"Date": "2019-10-28", "Open": "126.02999877929688", "High": "126.76000213623047", "Low": "125.13999938964844", "Close": "126.5999984741211", "Adj Close": "125.64762115478516", "Volume": "1017100"},
{"Date": "2019-10-29", "Open": "126.7699966430664", "High": "127.16999816894531", "Low": "125.54000091552734", "Close": "126.52999877929688", "Adj Close": "125.57814025878906", "Volume": "1229000"},
{"Date": "2019-10-30", "Open": "126.37000274658203", "High": "126.95999908447266", "Low": "124.70999908447266", "Close": "126.44000244140625", "Adj Close": "125.48883056640625", "Volume": "931700"},
{"Date": "2019-10-31", "Open": "125.95999908447266", "High": "126.83999633789062", "Low": "124.7300033569336", "Close": "126.55000305175781", "Adj Close": "125.5979995727539", "Volume": "1500000"},
{"Date": "2019-11-01", "Open": "128.24000549316406", "High": "129.1199951171875", "Low": "126.94000244140625", "Close": "128.0800018310547", "Adj Close": "127.11648559570312", "Volume": "1633400"},
{"Date": "2019-11-04", "Open": "128.86000061035156", "High": "130.55999755859375", "Low": "127.47000122070312", "Close": "130.16000366210938", "Adj Close": "129.18084716796875", "Volume": "2225900"},
{"Date": "2019-11-05", "Open": "128.00999450683594", "High": "134.32000732421875", "Low": "127.75", "Close": "133.69000244140625", "Adj Close": "132.6842803955078", "Volume": "3577800"},
{"Date": "2019-11-06", "Open": "133.4199981689453", "High": "133.77000427246094", "Low": "131.74000549316406", "Close": "132.5800018310547", "Adj Close": "131.5826416015625", "Volume": "1678200"},
{"Date": "2019-11-07", "Open": "132.5500030517578", "High": "134.13999938964844", "Low": "132.0399932861328", "Close": "133.05999755859375", "Adj Close": "132.05902099609375", "Volume": "1651900"},
{"Date": "2019-11-08", "Open": "132.83999633789062", "High": "133.39999389648438", "Low": "131.97999572753906", "Close": "133.1999969482422", "Adj Close": "132.19798278808594", "Volume": "1020300"},
{"Date": "2019-11-11", "Open": "132.25", "High": "132.42999267578125", "Low": "130.8300018310547", "Close": "131.75", "Adj Close": "130.75888061523438", "Volume": "1282700"},
{"Date": "2019-11-12", "Open": "132.16000366210938", "High": "134.24000549316406", "Low": "132.00999450683594", "Close": "132.52999877929688", "Adj Close": "131.53302001953125", "Volume": "1365100"},
{"Date": "2019-11-13", "Open": "132.22999572753906", "High": "133.85000610351562", "Low": "131.52000427246094", "Close": "133.64999389648438", "Adj Close": "132.6445770263672", "Volume": "1274800"},
{"Date": "2019-11-14", "Open": "133.4199981689453", "High": "134.77000427246094", "Low": "132.94000244140625", "Close": "134.5500030517578", "Adj Close": "133.53781127929688", "Volume": "1238200"},
{"Date": "2019-11-15", "Open": "134.91000366210938", "High": "135.9600067138672", "Low": "134.1699981689453", "Close": "135.52000427246094", "Adj Close": "134.50051879882812", "Volume": "1371200"},
{"Date": "2019-11-18", "Open": "135.1699981689453", "High": "136.30999755859375", "Low": "135.02999877929688", "Close": "135.67999267578125", "Adj Close": "134.6593017578125", "Volume": "1568700"},
{"Date": "2019-11-19", "Open": "136.1199951171875", "High": "136.3300018310547", "Low": "135.22999572753906", "Close": "135.47000122070312", "Adj Close": "134.45089721679688", "Volume": "992700"},
{"Date": "2019-11-20", "Open": "133.86000061035156", "High": "134.5800018310547", "Low": "131.25999450683594", "Close": "132.7100067138672", "Adj Close": "132.1800079345703", "Volume": "1408600"},
{"Date": "2019-11-21", "Open": "133.16000366210938", "High": "133.52000427246094", "Low": "131.35000610351562", "Close": "132.97999572753906", "Adj Close": "132.44891357421875", "Volume": "997300"},
{"Date": "2019-11-22", "Open": "133.61000061035156", "High": "136.52000427246094", "Low": "132.83999633789062", "Close": "136.25", "Adj Close": "135.7058563232422", "Volume": "1304500"},
{"Date": "2019-11-25", "Open": "137.0", "High": "138.50999450683594", "Low": "136.60000610351562", "Close": "137.97999572753906", "Adj Close": "137.42893981933594", "Volume": "1422500"},
{"Date": "2019-11-26", "Open": "138.14999389648438", "High": "140.3000030517578", "Low": "137.33999633789062", "Close": "140.0800018310547", "Adj Close": "139.52056884765625", "Volume": "1757600"},
{"Date": "2019-11-27", "Open": "140.17999267578125", "High": "141.75", "Low": "140.10000610351562", "Close": "141.33999633789062", "Adj Close": "140.77552795410156", "Volume": "1361700"},
{"Date": "2019-11-29", "Open": "140.77000427246094", "High": "141.75", "Low": "140.05999755859375", "Close": "140.36000061035156", "Adj Close": "139.79945373535156", "Volume": "751600"},
{"Date": "2019-12-02", "Open": "140.67999267578125", "High": "140.80999755859375", "Low": "139.8800048828125", "Close": "140.42999267578125", "Adj Close": "139.86915588378906", "Volume": "1402100"},
{"Date": "2019-12-03", "Open": "138.89999389648438", "High": "139.13999938964844", "Low": "137.75999450683594", "Close": "138.55999755859375", "Adj Close": "138.0066375732422", "Volume": "1121000"},
{"Date": "2019-12-04", "Open": "138.4600067138672", "High": "139.8300018310547", "Low": "138.3800048828125", "Close": "139.25999450683594", "Adj Close": "138.70382690429688", "Volume": "1149800"},
{"Date": "2019-12-05", "Open": "139.97000122070312", "High": "140.5", "Low": "139.50999450683594", "Close": "140.3000030517578", "Adj Close": "139.73968505859375", "Volume": "991600"},
{"Date": "2019-12-06", "Open": "141.30999755859375", "High": "142.72000122070312", "Low": "141.0", "Close": "142.2899932861328", "Adj Close": "141.7217254638672", "Volume": "1349100"},
{"Date": "2019-12-09", "Open": "142.22000122070312", "High": "142.55999755859375", "Low": "141.32000732421875", "Close": "141.35000610351562", "Adj Close": "140.78549194335938", "Volume": "825100"},
{"Date": "2019-12-10", "Open": "141.08999633789062", "High": "141.89999389648438", "Low": "140.1999969482422", "Close": "140.57000732421875", "Adj Close": "140.0086212158203", "Volume": "1166100"},
{"Date": "2019-12-11", "Open": "141.27999877929688", "High": "143.25", "Low": "140.8000030517578", "Close": "142.75", "Adj Close": "142.17990112304688", "Volume": "1428800"},
{"Date": "2019-12-12", "Open": "142.63999938964844", "High": "145.58999633789062", "Low": "142.3300018310547", "Close": "145.10000610351562", "Adj Close": "144.52052307128906", "Volume": "1472600"},
{"Date": "2019-12-13", "Open": "145.0500030517578", "High": "146.4499969482422", "Low": "144.30999755859375", "Close": "146.16000366210938", "Adj Close": "145.57627868652344", "Volume": "1615400"},
{"Date": "2019-12-16", "Open": "147.60000610351562", "High": "148.9499969482422", "Low": "147.05999755859375", "Close": "147.89999389648438", "Adj Close": "147.309326171875", "Volume": "1303600"},
{"Date": "2019-12-17", "Open": "147.86000061035156", "High": "149.30999755859375", "Low": "147.69000244140625", "Close": "148.91000366210938", "Adj Close": "148.3153076171875", "Volume": "1251700"},
{"Date": "2019-12-18", "Open": "148.9199981689453", "High": "149.72000122070312", "Low": "148.3800048828125", "Close": "149.5500030517578", "Adj Close": "148.95274353027344", "Volume": "1201600"},
{"Date": "2019-12-19", "Open": "149.16000366210938", "High": "150.42999267578125", "Low": "149.16000366210938", "Close": "150.0399932861328", "Adj Close": "149.44078063964844", "Volume": "1889800"},
{"Date": "2019-12-20", "Open": "151.27999877929688", "High": "151.5500030517578", "Low": "148.52000427246094", "Close": "150.8000030517578", "Adj Close": "150.19775390625", "Volume": "2853600"},
{"Date": "2019-12-23", "Open": "151.0", "High": "151.88999938964844", "Low": "150.6199951171875", "Close": "151.24000549316406", "Adj Close": "150.63600158691406", "Volume": "863600"},
{"Date": "2019-12-24", "Open": "151.1699981689453", "High": "152.36000061035156", "Low": "150.66000366210938", "Close": "151.5", "Adj Close": "150.89495849609375", "Volume": "668300"},
{"Date": "2019-12-26", "Open": "151.75999450683594", "High": "153.16000366210938", "Low": "151.5500030517578", "Close": "153.1300048828125", "Adj Close": "152.51844787597656", "Volume": "691100"},
{"Date": "2019-12-27", "Open": "153.3800048828125", "High": "153.38999938964844", "Low": "152.52999877929688", "Close": "152.72999572753906", "Adj Close": "152.1200408935547", "Volume": "629800"},
{"Date": "2019-12-30", "Open": "153.0", "High": "153.24000549316406", "Low": "151.24000549316406", "Close": "151.8699951171875", "Adj Close": "151.2634735107422", "Volume": "820300"},
{"Date": "2019-12-31", "Open": "151.69000244140625", "High": "152.4499969482422", "Low": "150.80999755859375", "Close": "151.42999267578125", "Adj Close": "150.82522583007812", "Volume": "1186100"},
{"Date": "2020-01-02", "Open": "151.5", "High": "152.60000610351562", "Low": "151.02999877929688", "Close": "151.49000549316406", "Adj Close": "150.88499450683594", "Volume": "1905600"},
{"Date": "2020-01-03", "Open": "149.19000244140625", "High": "150.02000427246094", "Low": "148.74000549316406", "Close": "149.27000427246094", "Adj Close": "148.67385864257812", "Volume": "2116900"},
{"Date": "2020-01-06", "Open": "147.89999389648438", "High": "147.99000549316406", "Low": "146.2100067138672", "Close": "147.33999633789062", "Adj Close": "146.75157165527344", "Volume": "2178200"},
{"Date": "2020-01-07", "Open": "146.74000549316406", "High": "147.22000122070312", "Low": "144.67999267578125", "Close": "144.94000244140625", "Adj Close": "144.3611602783203", "Volume": "2073200"},
{"Date": "2020-01-08", "Open": "145.1300048828125", "High": "147.6199951171875", "Low": "144.72000122070312", "Close": "146.72999572753906", "Adj Close": "146.1439971923828", "Volume": "1412800"},
{"Date": "2020-01-09", "Open": "147.4600067138672", "High": "147.58999633789062", "Low": "146.1999969482422", "Close": "146.4499969482422", "Adj Close": "145.86512756347656", "Volume": "1197900"},
{"Date": "2020-01-10", "Open": "146.1999969482422", "High": "146.57000732421875", "Low": "145.0500030517578", "Close": "145.38999938964844", "Adj Close": "144.80935668945312", "Volume": "848200"},
{"Date": "2020-01-13", "Open": "145.75999450683594", "High": "146.97999572753906", "Low": "145.5399932861328", "Close": "146.8000030517578", "Adj Close": "146.21372985839844", "Volume": "987500"},
{"Date": "2020-01-14", "Open": "146.41000366210938", "High": "147.6300048828125", "Low": "146.11000061035156", "Close": "147.14999389648438", "Adj Close": "146.56231689453125", "Volume": "944700"},
{"Date": "2020-01-15", "Open": "146.77000427246094", "High": "148.14999389648438", "Low": "146.64999389648438", "Close": "147.3000030517578", "Adj Close": "146.71173095703125", "Volume": "799900"},
{"Date": "2020-01-16", "Open": "147.97999572753906", "High": "149.0399932861328", "Low": "147.5", "Close": "149.02000427246094", "Adj Close": "148.42486572265625", "Volume": "804500"},
{"Date": "2020-01-17", "Open": "149.19000244140625", "High": "150.6300048828125", "Low": "148.07000732421875", "Close": "150.25999450683594", "Adj Close": "149.65989685058594", "Volume": "1058900"},
{"Date": "2020-01-21", "Open": "148.0800018310547", "High": "148.44000244140625", "Low": "143.4199981689453", "Close": "144.3699951171875", "Adj Close": "143.79342651367188", "Volume": "2757200"},
{"Date": "2020-01-22", "Open": "145.0", "High": "147.19000244140625", "Low": "143.75", "Close": "144.1199951171875", "Adj Close": "143.54441833496094", "Volume": "1297100"},
{"Date": "2020-01-23", "Open": "142.42999267578125", "High": "145.05999755859375", "Low": "141.25", "Close": "144.9600067138672", "Adj Close": "144.38108825683594", "Volume": "1863100"},
{"Date": "2020-01-24", "Open": "144.97000122070312", "High": "145.02000427246094", "Low": "139.83999633789062", "Close": "141.02000427246094", "Adj Close": "140.45681762695312", "Volume": "2073400"},
{"Date": "2020-01-27", "Open": "137.72999572753906", "High": "139.6300048828125", "Low": "133.36000061035156", "Close": "138.0", "Adj Close": "137.44886779785156", "Volume": "2641200"},
{"Date": "2020-01-28", "Open": "138.7100067138672", "High": "141.7899932861328", "Low": "138.32000732421875", "Close": "141.25", "Adj Close": "140.68589782714844", "Volume": "1958500"},
{"Date": "2020-01-29", "Open": "141.5", "High": "143.24000549316406", "Low": "140.3800048828125", "Close": "142.61000061035156", "Adj Close": "142.04046630859375", "Volume": "1290700"},
{"Date": "2020-01-30", "Open": "140.5399932861328", "High": "143.5399932861328", "Low": "138.8300018310547", "Close": "143.30999755859375", "Adj Close": "142.73765563964844", "Volume": "1848600"},
{"Date": "2020-01-31", "Open": "142.14999389648438", "High": "142.25", "Low": "138.9499969482422", "Close": "140.05999755859375", "Adj Close": "139.50064086914062", "Volume": "2070200"},
{"Date": "2020-02-03", "Open": "141.6999969482422", "High": "144.4600067138672", "Low": "140.8699951171875", "Close": "141.47999572753906", "Adj Close": "140.9149627685547", "Volume": "1527600"},
{"Date": "2020-02-04", "Open": "144.47000122070312", "High": "148.24000549316406", "Low": "143.67999267578125", "Close": "147.39999389648438", "Adj Close": "146.8113250732422", "Volume": "1812900"},
{"Date": "2020-02-05", "Open": "149.72000122070312", "High": "150.1699981689453", "Low": "147.30999755859375", "Close": "147.7100067138672", "Adj Close": "147.12010192871094", "Volume": "1872300"},
{"Date": "2020-02-06", "Open": "148.2899932861328", "High": "148.8699951171875", "Low": "145.77999877929688", "Close": "146.22000122070312", "Adj Close": "145.63604736328125", "Volume": "1065900"},
{"Date": "2020-02-07", "Open": "144.91000366210938", "High": "145.39999389648438", "Low": "142.77999877929688", "Close": "144.07000732421875", "Adj Close": "143.49462890625", "Volume": "1717600"},
{"Date": "2020-02-10", "Open": "143.00999450683594", "High": "145.85000610351562", "Low": "142.4499969482422", "Close": "145.72999572753906", "Adj Close": "145.1479949951172", "Volume": "1169800"},
{"Date": "2020-02-11", "Open": "145.8699951171875", "High": "148.9499969482422", "Low": "145.22000122070312", "Close": "147.19000244140625", "Adj Close": "146.6021728515625", "Volume": "1461300"},
{"Date": "2020-02-12", "Open": "148.0399932861328", "High": "150.97000122070312", "Low": "148.0399932861328", "Close": "150.77999877929688", "Adj Close": "150.17782592773438", "Volume": "1583400"},
{"Date": "2020-02-13", "Open": "149.4499969482422", "High": "149.52999877929688", "Low": "146.66000366210938", "Close": "146.72000122070312", "Adj Close": "146.13404846191406", "Volume": "1933900"},
{"Date": "2020-02-14", "Open": "146.97999572753906", "High": "147.36000061035156", "Low": "143.89999389648438", "Close": "144.89999389648438", "Adj Close": "144.32130432128906", "Volume": "2441200"},
{"Date": "2020-02-18", "Open": "144.22999572753906", "High": "145.86000061035156", "Low": "144.22999572753906", "Close": "144.94000244140625", "Adj Close": "144.3611602783203", "Volume": "2352800"},
{"Date": "2020-02-19", "Open": "144.55999755859375", "High": "147.91000366210938", "Low": "144.55999755859375", "Close": "147.6300048828125", "Adj Close": "147.04042053222656", "Volume": "2018000"},
{"Date": "2020-02-20", "Open": "147.52999877929688", "High": "148.91000366210938", "Low": "146.27000427246094", "Close": "146.83999633789062", "Adj Close": "146.25355529785156", "Volume": "1279600"},
{"Date": "2020-02-21", "Open": "145.3800048828125", "High": "145.52000427246094", "Low": "142.5399932861328", "Close": "143.24000549316406", "Adj Close": "142.66795349121094", "Volume": "1858100"},
{"Date": "2020-02-24", "Open": "136.82000732421875", "High": "137.3800048828125", "Low": "134.22000122070312", "Close": "134.8300018310547", "Adj Close": "134.29153442382812", "Volume": "3197500"},
{"Date": "2020-02-25", "Open": "135.99000549316406", "High": "136.0500030517578", "Low": "123.4800033569336", "Close": "124.08000183105469", "Adj Close": "123.58446502685547", "Volume": "5128400"},
{"Date": "2020-02-26", "Open": "126.29000091552734", "High": "127.66999816894531", "Low": "119.8499984741211", "Close": "120.19000244140625", "Adj Close": "119.70999908447266", "Volume": "4961200"},
{"Date": "2020-02-27", "Open": "117.0", "High": "127.27999877929688", "Low": "114.45999908447266", "Close": "119.63999938964844", "Adj Close": "119.63999938964844", "Volume": "6958600"},
{"Date": "2020-02-28", "Open": "116.25", "High": "124.33000183105469", "Low": "116.0", "Close": "124.0", "Adj Close": "124.0", "Volume": "6660800"},
{"Date": "2020-03-02", "Open": "123.06999969482422", "High": "123.68000030517578", "Low": "116.63999938964844", "Close": "122.95999908447266", "Adj Close": "122.95999908447266", "Volume": "6375500"},
{"Date": "2020-03-03", "Open": "122.76000213623047", "High": "123.73999786376953", "Low": "113.87999725341797", "Close": "114.27999877929688", "Adj Close": "114.27999877929688", "Volume": "6796500"},
{"Date": "2020-03-04", "Open": "115.48999786376953", "High": "118.54000091552734", "Low": "111.27999877929688", "Close": "118.33000183105469", "Adj Close": "118.33000183105469", "Volume": "7343700"},
{"Date": "2020-03-05", "Open": "113.79000091552734", "High": "115.0", "Low": "108.80000305175781", "Close": "110.22000122070312", "Adj Close": "110.22000122070312", "Volume": "6977200"},
{"Date": "2020-03-06", "Open": "104.63999938964844", "High": "113.62000274658203", "Low": "103.88999938964844", "Close": "110.66000366210938", "Adj Close": "110.66000366210938", "Volume": "6790100"},
{"Date": "2020-03-09", "Open": "102.0", "High": "108.91999816894531", "Low": "101.76000213623047", "Close": "104.19000244140625", "Adj Close": "104.19000244140625", "Volume": "6687400"},
{"Date": "2020-03-10", "Open": "108.83000183105469", "High": "110.02999877929688", "Low": "102.80000305175781", "Close": "109.9800033569336", "Adj Close": "109.9800033569336", "Volume": "5395500"},
{"Date": "2020-03-11", "Open": "106.19999694824219", "High": "106.5", "Low": "99.55999755859375", "Close": "100.11000061035156", "Adj Close": "100.11000061035156", "Volume": "8901300"},
{"Date": "2020-03-12", "Open": "90.0", "High": "97.80999755859375", "Low": "88.76000213623047", "Close": "93.70999908447266", "Adj Close": "93.70999908447266", "Volume": "9065700"},
{"Date": "2020-03-13", "Open": "98.2300033569336", "High": "100.77999877929688", "Low": "91.5999984741211", "Close": "95.61000061035156", "Adj Close": "95.61000061035156", "Volume": "8552800"},
{"Date": "2020-03-16", "Open": "84.68000030517578", "High": "91.06999969482422", "Low": "78.12000274658203", "Close": "86.41999816894531", "Adj Close": "86.41999816894531", "Volume": "9327200"},
{"Date": "2020-03-17", "Open": "87.5199966430664", "High": "89.61000061035156", "Low": "67.73999786376953", "Close": "75.23999786376953", "Adj Close": "75.23999786376953", "Volume": "12101600"},
{"Date": "2020-03-18", "Open": "67.1500015258789", "High": "67.16000366210938", "Low": "46.560001373291016", "Close": "63.810001373291016", "Adj Close": "63.810001373291016", "Volume": "25881800"},
{"Date": "2020-03-19", "Open": "61.18000030517578", "High": "72.69999694824219", "Low": "52.650001525878906", "Close": "66.80000305175781", "Adj Close": "66.80000305175781", "Volume": "17497700"},
{"Date": "2020-03-20", "Open": "73.70999908447266", "High": "84.0", "Low": "69.5199966430664", "Close": "74.58000183105469", "Adj Close": "74.58000183105469", "Volume": "18154700"},
{"Date": "2020-03-23", "Open": "75.0199966430664", "High": "80.69999694824219", "Low": "67.27999877929688", "Close": "70.12999725341797", "Adj Close": "70.12999725341797", "Volume": "12931800"},
{"Date": "2020-03-24", "Open": "76.05000305175781", "High": "81.36000061035156", "Low": "75.0", "Close": "79.13999938964844", "Adj Close": "79.13999938964844", "Volume": "9113100"},
{"Date": "2020-03-25", "Open": "83.51000213623047", "High": "92.68000030517578", "Low": "79.2300033569336", "Close": "85.25", "Adj Close": "85.25", "Volume": "8717900"},
{"Date": "2020-03-26", "Open": "87.5999984741211", "High": "96.0", "Low": "80.58999633789062", "Close": "82.80999755859375", "Adj Close": "82.80999755859375", "Volume": "10444300"},
{"Date": "2020-03-27", "Open": "78.69999694824219", "High": "82.79000091552734", "Low": "76.25", "Close": "78.8499984741211", "Adj Close": "78.8499984741211", "Volume": "5749800"},
{"Date": "2020-03-30", "Open": "76.70999908447266", "High": "78.43000030517578", "Low": "72.83999633789062", "Close": "76.16000366210938", "Adj Close": "76.16000366210938", "Volume": "6097800"},
{"Date": "2020-03-31", "Open": "74.9800033569336", "High": "79.23999786376953", "Low": "74.5199966430664", "Close": "74.80999755859375", "Adj Close": "74.80999755859375", "Volume": "5173600"},
{"Date": "2020-04-01", "Open": "70.0", "High": "71.41000366210938", "Low": "67.6500015258789", "Close": "69.1500015258789", "Adj Close": "69.1500015258789", "Volume": "7651300"},
{"Date": "2020-04-02", "Open": "69.29000091552734", "High": "70.58999633789062", "Low": "61.54999923706055", "Close": "63.0", "Adj Close": "63.0", "Volume": "8062700"},
{"Date": "2020-04-03", "Open": "64.36000061035156", "High": "64.70999908447266", "Low": "57.0", "Close": "59.08000183105469", "Adj Close": "59.08000183105469", "Volume": "10622200"},
{"Date": "2020-04-06", "Open": "64.55000305175781", "High": "70.9000015258789", "Low": "63.779998779296875", "Close": "70.58999633789062", "Adj Close": "70.58999633789062", "Volume": "12186100"},
{"Date": "2020-04-07", "Open": "78.30999755859375", "High": "81.9800033569336", "Low": "72.68000030517578", "Close": "73.81999969482422", "Adj Close": "73.81999969482422", "Volume": "11850400"},
{"Date": "2020-04-08", "Open": "75.23999786376953", "High": "83.94000244140625", "Low": "74.95999908447266", "Close": "82.52999877929688", "Adj Close": "82.52999877929688", "Volume": "9143600"},
{"Date": "2020-04-09", "Open": "86.04000091552734", "High": "89.02999877929688", "Low": "79.66999816894531", "Close": "81.30999755859375", "Adj Close": "81.30999755859375", "Volume": "10343000"},
{"Date": "2020-04-13", "Open": "81.55999755859375", "High": "81.56999969482422", "Low": "75.70999908447266", "Close": "78.08999633789062", "Adj Close": "78.08999633789062", "Volume": "4157800"},
{"Date": "2020-04-14", "Open": "81.0", "High": "83.30000305175781", "Low": "78.86000061035156", "Close": "82.68000030517578", "Adj Close": "82.68000030517578", "Volume": "6093100"},
{"Date": "2020-04-15", "Open": "78.0199966430664", "High": "81.98999786376953", "Low": "77.52999877929688", "Close": "80.7300033569336", "Adj Close": "80.7300033569336", "Volume": "4822700"},
{"Date": "2020-04-16", "Open": "80.08999633789062", "High": "80.98999786376953", "Low": "76.25", "Close": "80.38999938964844", "Adj Close": "80.38999938964844", "Volume": "5398800"},
{"Date": "2020-04-17", "Open": "85.30000305175781", "High": "85.62999725341797", "Low": "82.29000091552734", "Close": "84.26000213623047", "Adj Close": "84.26000213623047", "Volume": "5299500"},
{"Date": "2020-04-20", "Open": "81.61000061035156", "High": "83.25", "Low": "79.29000091552734", "Close": "79.7699966430664", "Adj Close": "79.7699966430664", "Volume": "4155000"},
{"Date": "2020-04-21", "Open": "77.62999725341797", "High": "80.05000305175781", "Low": "77.11000061035156", "Close": "79.9000015258789", "Adj Close": "79.9000015258789", "Volume": "4747000"},
{"Date": "2020-04-22", "Open": "81.43000030517578", "High": "82.47000122070312", "Low": "78.75", "Close": "80.0199966430664", "Adj Close": "80.0199966430664", "Volume": "3709700"},
{"Date": "2020-04-23", "Open": "80.44999694824219", "High": "83.5", "Low": "79.95999908447266", "Close": "81.0999984741211", "Adj Close": "81.0999984741211", "Volume": "4540300"},
{"Date": "2020-04-24", "Open": "81.25", "High": "82.18000030517578", "Low": "78.4000015258789", "Close": "80.70999908447266", "Adj Close": "80.70999908447266", "Volume": "3545000"},
{"Date": "2020-04-27", "Open": "82.37999725341797", "High": "86.26000213623047", "Low": "81.52999877929688", "Close": "85.2699966430664", "Adj Close": "85.2699966430664", "Volume": "5419500"},
{"Date": "2020-04-28", "Open": "87.41000366210938", "High": "88.73999786376953", "Low": "84.5199966430664", "Close": "87.41999816894531", "Adj Close": "87.41999816894531", "Volume": "4210900"},
{"Date": "2020-04-29", "Open": "90.97000122070312", "High": "97.44999694824219", "Low": "90.37000274658203", "Close": "95.98999786376953", "Adj Close": "95.98999786376953", "Volume": "7369500"},
{"Date": "2020-04-30", "Open": "93.5999984741211", "High": "93.9000015258789", "Low": "89.2699966430664", "Close": "90.94000244140625", "Adj Close": "90.94000244140625", "Volume": "5366100"},
{"Date": "2020-05-01", "Open": "87.08999633789062", "High": "88.4800033569336", "Low": "84.2300033569336", "Close": "84.75", "Adj Close": "84.75", "Volume": "4234300"},
{"Date": "2020-05-04", "Open": "81.79000091552734", "High": "85.5999984741211", "Low": "80.41000366210938", "Close": "82.58000183105469", "Adj Close": "82.58000183105469", "Volume": "4087100"},
{"Date": "2020-05-05", "Open": "85.12000274658203", "High": "87.06999969482422", "Low": "83.06999969482422", "Close": "83.66000366210938", "Adj Close": "83.66000366210938", "Volume": "3457800"},
{"Date": "2020-05-06", "Open": "84.31999969482422", "High": "84.93000030517578", "Low": "80.87000274658203", "Close": "81.11000061035156", "Adj Close": "81.11000061035156", "Volume": "3013100"},
{"Date": "2020-05-07", "Open": "83.3499984741211", "High": "86.94999694824219", "Low": "83.05000305175781", "Close": "85.9800033569336", "Adj Close": "85.9800033569336", "Volume": "4032800"},
{"Date": "2020-05-08", "Open": "88.08000183105469", "High": "88.5", "Low": "85.6500015258789", "Close": "87.16999816894531", "Adj Close": "87.16999816894531", "Volume": "4269600"},
{"Date": "2020-05-11", "Open": "84.30000305175781", "High": "84.75", "Low": "81.51000213623047", "Close": "82.30999755859375", "Adj Close": "82.30999755859375", "Volume": "6832700"},
{"Date": "2020-05-12", "Open": "82.95999908447266", "High": "83.87999725341797", "Low": "79.2699966430664", "Close": "79.33000183105469", "Adj Close": "79.33000183105469", "Volume": "3605500"},
{"Date": "2020-05-13", "Open": "79.05999755859375", "High": "79.31999969482422", "Low": "74.56999969482422", "Close": "75.26000213623047", "Adj Close": "75.26000213623047", "Volume": "4880600"},
{"Date": "2020-05-14", "Open": "73.0", "High": "79.27999877929688", "Low": "71.5199966430664", "Close": "79.25", "Adj Close": "79.25", "Volume": "5425400"},
{"Date": "2020-05-15", "Open": "78.47000122070312", "High": "79.91000366210938", "Low": "77.36000061035156", "Close": "79.76000213623047", "Adj Close": "79.76000213623047", "Volume": "6526900"},
{"Date": "2020-05-18", "Open": "85.05999755859375", "High": "93.9000015258789", "Low": "84.87000274658203", "Close": "93.62000274658203", "Adj Close": "93.62000274658203", "Volume": "11012200"},
{"Date": "2020-05-19", "Open": "92.2699966430664", "High": "94.83999633789062", "Low": "89.16000366210938", "Close": "90.66999816894531", "Adj Close": "90.66999816894531", "Volume": "7090300"},
{"Date": "2020-05-20", "Open": "92.36000061035156", "High": "92.9800033569336", "Low": "90.2699966430664", "Close": "92.68000030517578", "Adj Close": "92.68000030517578", "Volume": "4265700"},
{"Date": "2020-05-21", "Open": "91.97000122070312", "High": "93.11000061035156", "Low": "90.2699966430664", "Close": "91.3499984741211", "Adj Close": "91.3499984741211", "Volume": "3009000"},
{"Date": "2020-05-22", "Open": "92.18000030517578", "High": "92.25", "Low": "89.5199966430664", "Close": "91.05000305175781", "Adj Close": "91.05000305175781", "Volume": "2259400"},
{"Date": "2020-05-26", "Open": "97.88999938964844", "High": "97.93000030517578", "Low": "94.55000305175781", "Close": "94.91999816894531", "Adj Close": "94.91999816894531", "Volume": "6258400"},
{"Date": "2020-05-27", "Open": "98.63999938964844", "High": "98.9800033569336", "Low": "94.7699966430664", "Close": "97.95999908447266", "Adj Close": "97.95999908447266", "Volume": "5392000"},
{"Date": "2020-05-28", "Open": "97.61000061035156", "High": "97.91999816894531", "Low": "91.52999877929688", "Close": "91.63999938964844", "Adj Close": "91.63999938964844", "Volume": "5197500"},
{"Date": "2020-05-29", "Open": "91.20999908447266", "High": "91.75", "Low": "88.0999984741211", "Close": "88.5", "Adj Close": "88.5", "Volume": "5874400"},
{"Date": "2020-06-01", "Open": "89.7300033569336", "High": "95.63999938964844", "Low": "89.30000305175781", "Close": "95.02999877929688", "Adj Close": "95.02999877929688", "Volume": "5074500"},
{"Date": "2020-06-02", "Open": "97.2300033569336", "High": "97.3499984741211", "Low": "94.01000213623047", "Close": "95.61000061035156", "Adj Close": "95.61000061035156", "Volume": "5470700"},
{"Date": "2020-06-03", "Open": "97.30000305175781", "High": "100.55999755859375", "Low": "96.20999908447266", "Close": "99.9000015258789", "Adj Close": "99.9000015258789", "Volume": "6136300"},
{"Date": "2020-06-04", "Open": "100.13999938964844", "High": "105.05000305175781", "Low": "98.08000183105469", "Close": "104.81999969482422", "Adj Close": "104.81999969482422", "Volume": "6777800"},
{"Date": "2020-06-05", "Open": "114.37999725341797", "High": "118.41000366210938", "Low": "106.7699966430664", "Close": "107.95999908447266", "Adj Close": "107.95999908447266", "Volume": "10069800"},
{"Date": "2020-06-08", "Open": "113.45999908447266", "High": "114.45999908447266", "Low": "110.51000213623047", "Close": "113.13999938964844", "Adj Close": "113.13999938964844", "Volume": "6056200"},
{"Date": "2020-06-09", "Open": "109.80000305175781", "High": "110.5", "Low": "106.30999755859375", "Close": "107.31999969482422", "Adj Close": "107.31999969482422", "Volume": "4008700"},
{"Date": "2020-06-10", "Open": "106.02999877929688", "High": "106.6500015258789", "Low": "100.05000305175781", "Close": "102.62000274658203", "Adj Close": "102.62000274658203", "Volume": "5642000"},
{"Date": "2020-06-11", "Open": "95.05000305175781", "High": "96.5", "Low": "90.61000061035156", "Close": "91.44000244140625", "Adj Close": "91.44000244140625", "Volume": "7614100"},
{"Date": "2020-06-12", "Open": "97.61000061035156", "High": "97.76000213623047", "Low": "90.06999969482422", "Close": "92.26000213623047", "Adj Close": "92.26000213623047", "Volume": "7108300"},
{"Date": "2020-06-15", "Open": "88.0", "High": "92.33000183105469", "Low": "86.79000091552734", "Close": "90.79000091552734", "Adj Close": "90.79000091552734", "Volume": "9049500"},
{"Date": "2020-06-16", "Open": "96.33999633789062", "High": "96.4000015258789", "Low": "90.69999694824219", "Close": "93.98999786376953", "Adj Close": "93.98999786376953", "Volume": "6191300"},
{"Date": "2020-06-17", "Open": "93.5199966430664", "High": "94.0", "Low": "90.80000305175781", "Close": "91.12999725341797", "Adj Close": "91.12999725341797", "Volume": "4423100"},
{"Date": "2020-06-18", "Open": "90.5", "High": "94.18000030517578", "Low": "90.16999816894531", "Close": "92.75", "Adj Close": "92.75", "Volume": "3746900"},
{"Date": "2020-06-19", "Open": "93.91000366210938", "High": "94.12999725341797", "Low": "88.66000366210938", "Close": "89.68000030517578", "Adj Close": "89.68000030517578", "Volume": "4880600"},
{"Date": "2020-06-22", "Open": "89.5", "High": "91.0", "Low": "88.27999877929688", "Close": "90.18000030517578", "Adj Close": "90.18000030517578", "Volume": "4588800"},
{"Date": "2020-06-23", "Open": "91.0", "High": "91.48999786376953", "Low": "88.83000183105469", "Close": "90.62000274658203", "Adj Close": "90.62000274658203", "Volume": "5829200"},
{"Date": "2020-06-24", "Open": "89.33000183105469", "High": "89.5199966430664", "Low": "83.87999725341797", "Close": "85.0", "Adj Close": "85.0", "Volume": "6403900"},
{"Date": "2020-06-25", "Open": "83.58999633789062", "High": "84.55999755859375", "Low": "82.12000274658203", "Close": "84.04000091552734", "Adj Close": "84.04000091552734", "Volume": "5210900"},
{"Date": "2020-06-26", "Open": "83.55000305175781", "High": "83.94999694824219", "Low": "80.4000015258789", "Close": "80.94000244140625", "Adj Close": "80.94000244140625", "Volume": "10150200"},
{"Date": "2020-06-29", "Open": "81.52999877929688", "High": "86.61000061035156", "Low": "80.26000213623047", "Close": "86.5999984741211", "Adj Close": "86.5999984741211", "Volume": "5133000"},
{"Date": "2020-06-30", "Open": "85.41000366210938", "High": "86.91999816894531", "Low": "84.0", "Close": "85.7300033569336", "Adj Close": "85.7300033569336", "Volume": "4343100"},
{"Date": "2020-07-01", "Open": "86.66999816894531", "High": "90.5", "Low": "86.33000183105469", "Close": "86.62000274658203", "Adj Close": "86.62000274658203", "Volume": "5708200"},
{"Date": "2020-07-02", "Open": "89.69999694824219", "High": "90.2300033569336", "Low": "86.26000213623047", "Close": "87.80000305175781", "Adj Close": "87.80000305175781", "Volume": "3877400"},
{"Date": "2020-07-06", "Open": "89.66000366210938", "High": "90.33999633789062", "Low": "87.12000274658203", "Close": "89.83000183105469", "Adj Close": "89.83000183105469", "Volume": "3138200"},
{"Date": "2020-07-07", "Open": "88.62999725341797", "High": "88.9800033569336", "Low": "87.08000183105469", "Close": "87.43000030517578", "Adj Close": "87.43000030517578", "Volume": "2993900"},
{"Date": "2020-07-08", "Open": "87.29000091552734", "High": "90.02999877929688", "Low": "86.48999786376953", "Close": "89.98999786376953", "Adj Close": "89.98999786376953", "Volume": "3407600"},
{"Date": "2020-07-09", "Open": "90.22000122070312", "High": "90.27999877929688", "Low": "86.0", "Close": "86.25", "Adj Close": "86.25", "Volume": "5263500"},
{"Date": "2020-07-10", "Open": "85.86000061035156", "High": "88.61000061035156", "Low": "85.5", "Close": "88.51000213623047", "Adj Close": "88.51000213623047", "Volume": "3246400"},
{"Date": "2020-07-13", "Open": "89.06999969482422", "High": "90.54000091552734", "Low": "87.30999755859375", "Close": "87.5", "Adj Close": "87.5", "Volume": "3955100"},
{"Date": "2020-07-14", "Open": "87.0", "High": "87.7300033569336", "Low": "86.0", "Close": "87.12000274658203", "Adj Close": "87.12000274658203", "Volume": "3063500"},
{"Date": "2020-07-15", "Open": "90.2300033569336", "High": "94.75", "Low": "90.16000366210938", "Close": "94.02999877929688", "Adj Close": "94.02999877929688", "Volume": "6761400"},
{"Date": "2020-07-16", "Open": "92.12999725341797", "High": "93.43000030517578", "Low": "90.76000213623047", "Close": "93.11000061035156", "Adj Close": "93.11000061035156", "Volume": "2483900"},
{"Date": "2020-07-17", "Open": "93.02999877929688", "High": "93.0999984741211", "Low": "90.0999984741211", "Close": "91.4800033569336", "Adj Close": "91.4800033569336", "Volume": "2329700"},
{"Date": "2020-07-20", "Open": "90.63999938964844", "High": "91.62999725341797", "Low": "87.56999969482422", "Close": "88.4800033569336", "Adj Close": "88.4800033569336", "Volume": "3052400"},
{"Date": "2020-07-21", "Open": "89.66999816894531", "High": "91.5", "Low": "88.5", "Close": "89.95999908447266", "Adj Close": "89.95999908447266", "Volume": "2443300"},
{"Date": "2020-07-22", "Open": "89.06999969482422", "High": "90.95999908447266", "Low": "88.80999755859375", "Close": "90.80999755859375", "Adj Close": "90.80999755859375", "Volume": "1741100"},
{"Date": "2020-07-23", "Open": "89.91000366210938", "High": "90.19999694824219", "Low": "87.91999816894531", "Close": "88.97000122070312", "Adj Close": "88.97000122070312", "Volume": "2564100"},
{"Date": "2020-07-24", "Open": "88.88999938964844", "High": "88.88999938964844", "Low": "86.56999969482422", "Close": "87.5", "Adj Close": "87.5", "Volume": "2369500"},
{"Date": "2020-07-27", "Open": "86.11000061035156", "High": "87.13999938964844", "Low": "85.19999694824219", "Close": "86.2699966430664", "Adj Close": "86.2699966430664", "Volume": "2675800"},
{"Date": "2020-07-28", "Open": "86.30999755859375", "High": "87.87999725341797", "Low": "85.95999908447266", "Close": "86.55000305175781", "Adj Close": "86.55000305175781", "Volume": "2105000"},
{"Date": "2020-07-29", "Open": "87.08000183105469", "High": "88.18000030517578", "Low": "86.0", "Close": "87.13999938964844", "Adj Close": "87.13999938964844", "Volume": "1653700"},
{"Date": "2020-07-30", "Open": "85.45999908447266", "High": "86.11000061035156", "Low": "84.54000091552734", "Close": "85.51000213623047", "Adj Close": "85.51000213623047", "Volume": "2794700"},
{"Date": "2020-07-31", "Open": "84.52999877929688", "High": "84.61000061035156", "Low": "82.05999755859375", "Close": "83.83000183105469", "Adj Close": "83.83000183105469", "Volume": "3922500"},
{"Date": "2020-08-03", "Open": "83.26000213623047", "High": "84.19000244140625", "Low": "81.30000305175781", "Close": "83.5199966430664", "Adj Close": "83.5199966430664", "Volume": "3360500"},
{"Date": "2020-08-04", "Open": "83.41999816894531", "High": "86.2699966430664", "Low": "82.62000274658203", "Close": "86.0999984741211", "Adj Close": "86.0999984741211", "Volume": "2981200"},
{"Date": "2020-08-05", "Open": "87.72000122070312", "High": "87.93000030517578", "Low": "85.87999725341797", "Close": "87.2699966430664", "Adj Close": "87.2699966430664", "Volume": "2200800"},
{"Date": "2020-08-06", "Open": "86.45999908447266", "High": "91.22000122070312", "Low": "85.94999694824219", "Close": "90.38999938964844", "Adj Close": "90.38999938964844", "Volume": "3763800"},
{"Date": "2020-08-07", "Open": "90.2300033569336", "High": "94.05000305175781", "Low": "88.62000274658203", "Close": "93.77999877929688", "Adj Close": "93.77999877929688", "Volume": "4945300"},
{"Date": "2020-08-10", "Open": "94.25", "High": "98.12999725341797", "Low": "93.30000305175781", "Close": "97.12999725341797", "Adj Close": "97.12999725341797", "Volume": "5863800"},
{"Date": "2020-08-11", "Open": "101.18000030517578", "High": "101.62000274658203", "Low": "96.87000274658203", "Close": "97.01000213623047", "Adj Close": "97.01000213623047", "Volume": "5372200"},
{"Date": "2020-08-12", "Open": "99.20999908447266", "High": "99.6500015258789", "Low": "95.38999938964844", "Close": "96.02999877929688", "Adj Close": "96.02999877929688", "Volume": "3831000"},
{"Date": "2020-08-13", "Open": "95.93000030517578", "High": "98.5", "Low": "95.54000091552734", "Close": "96.5", "Adj Close": "96.5", "Volume": "2158500"},
{"Date": "2020-08-14", "Open": "97.25", "High": "97.66999816894531", "Low": "95.95999908447266", "Close": "96.01000213623047", "Adj Close": "96.01000213623047", "Volume": "3407000"},
{"Date": "2020-08-17", "Open": "97.22000122070312", "High": "97.5", "Low": "95.16000366210938", "Close": "95.72000122070312", "Adj Close": "95.72000122070312", "Volume": "2096000"},
{"Date": "2020-08-18", "Open": "95.5199966430664", "High": "95.83999633789062", "Low": "93.43000030517578", "Close": "94.44000244140625", "Adj Close": "94.44000244140625", "Volume": "1718100"},
{"Date": "2020-08-19", "Open": "94.91000366210938", "High": "95.83999633789062", "Low": "93.66999816894531", "Close": "94.0", "Adj Close": "94.0", "Volume": "1536900"},
{"Date": "2020-08-20", "Open": "92.45999908447266", "High": "95.62999725341797", "Low": "92.06999969482422", "Close": "94.0199966430664", "Adj Close": "94.0199966430664", "Volume": "2240200"},
{"Date": "2020-08-21", "Open": "93.80999755859375", "High": "97.02999877929688", "Low": "93.5", "Close": "95.2699966430664", "Adj Close": "95.2699966430664", "Volume": "2067600"},
{}]