[{"Date": "2019-08-23", "Open": "137.19000244140625", "High": "138.35000610351562", "Low": "132.8000030517578", "Close": "133.38999938964844", "Adj Close": "131.8885040283203", "Volume": "38508600"},
{"Date": "2019-08-26", "Open": "134.99000549316406", "High": "135.55999755859375", "Low": "133.89999389648438", "Close": "135.4499969482422", "Adj Close": "133.92532348632812", "Volume": "20312600"},
{"Date": "2019-08-27", "Open": "136.38999938964844", "High": "136.72000122070312", "Low": "134.66000366210938", "Close": "135.74000549316406", "Adj Close": "134.21205139160156", "Volume": "23102100"},
{"Date": "2019-08-28", "Open": "134.8800048828125", "High": "135.75999450683594", "Low": "133.5500030517578", "Close": "135.55999755859375", "Adj Close": "134.03407287597656", "Volume": "17393300"},
{"Date": "2019-08-29", "Open": "137.25", "High": "138.44000244140625", "Low": "136.91000366210938", "Close": "138.1199951171875", "Adj Close": "136.5652618408203", "Volume": "20168700"},
{"Date": "2019-08-30", "Open": "139.14999389648438", "High": "139.17999267578125", "Low": "136.27000427246094", "Close": "137.86000061035156", "Adj Close": "136.30821228027344", "Volume": "23940100"},
{"Date": "2019-09-03", "Open": "136.61000061035156", "High": "137.1999969482422", "Low": "135.6999969482422", "Close": "136.0399932861328", "Adj Close": "134.50868225097656", "Volume": "18869300"},
{"Date": "2019-09-04", "Open": "137.3000030517578", "High": "137.69000244140625", "Low": "136.47999572753906", "Close": "137.6300048828125", "Adj Close": "136.08079528808594", "Volume": "17995900"},
{"Date": "2019-09-05", "Open": "139.11000061035156", "High": "140.3800048828125", "Low": "138.75999450683594", "Close": "140.0500030517578", "Adj Close": "138.47354125976562", "Volume": "26101800"},
{"Date": "2019-09-06", "Open": "140.02999877929688", "High": "140.17999267578125", "Low": "138.1999969482422", "Close": "139.10000610351562", "Adj Close": "137.53424072265625", "Volume": "20824500"},
{"Date": "2019-09-09", "Open": "139.58999633789062", "High": "139.75", "Low": "136.4600067138672", "Close": "137.52000427246094", "Adj Close": "135.97203063964844", "Volume": "25773900"},
{"Date": "2019-09-10", "Open": "136.8000030517578", "High": "136.88999938964844", "Low": "134.50999450683594", "Close": "136.0800018310547", "Adj Close": "134.54824829101562", "Volume": "28903400"},
{"Date": "2019-09-11", "Open": "135.91000366210938", "High": "136.27000427246094", "Low": "135.08999633789062", "Close": "136.1199951171875", "Adj Close": "134.58775329589844", "Volume": "24726100"},
{"Date": "2019-09-12", "Open": "137.85000610351562", "High": "138.4199981689453", "Low": "136.8699951171875", "Close": "137.52000427246094", "Adj Close": "135.97203063964844", "Volume": "27010000"},
{"Date": "2019-09-13", "Open": "137.77999877929688", "High": "138.05999755859375", "Low": "136.57000732421875", "Close": "137.32000732421875", "Adj Close": "135.77426147460938", "Volume": "23363100"},
{"Date": "2019-09-16", "Open": "135.8300018310547", "High": "136.6999969482422", "Low": "135.66000366210938", "Close": "136.3300018310547", "Adj Close": "134.79542541503906", "Volume": "16731400"},
{"Date": "2019-09-17", "Open": "136.9600067138672", "High": "137.52000427246094", "Low": "136.42999267578125", "Close": "137.38999938964844", "Adj Close": "135.843505859375", "Volume": "17814200"},
{"Date": "2019-09-18", "Open": "137.36000061035156", "High": "138.6699981689453", "Low": "136.52999877929688", "Close": "138.52000427246094", "Adj Close": "136.9607696533203", "Volume": "23982100"},
{"Date": "2019-09-19", "Open": "140.3000030517578", "High": "142.3699951171875", "Low": "140.07000732421875", "Close": "141.07000732421875", "Adj Close": "139.48207092285156", "Volume": "35772100"},
{"Date": "2019-09-20", "Open": "141.00999450683594", "High": "141.64999389648438", "Low": "138.25", "Close": "139.44000244140625", "Adj Close": "137.8704071044922", "Volume": "39167300"},
{"Date": "2019-09-23", "Open": "139.22999572753906", "High": "139.6300048828125", "Low": "138.44000244140625", "Close": "139.13999938964844", "Adj Close": "137.5737762451172", "Volume": "17139300"},
{"Date": "2019-09-24", "Open": "140.36000061035156", "High": "140.69000244140625", "Low": "136.8800048828125", "Close": "137.3800048828125", "Adj Close": "135.83360290527344", "Volume": "29773200"},
{"Date": "2019-09-25", "Open": "137.5", "High": "139.9600067138672", "Low": "136.02999877929688", "Close": "139.36000061035156", "Adj Close": "137.7913055419922", "Volume": "21382000"},
{"Date": "2019-09-26", "Open": "139.44000244140625", "High": "140.17999267578125", "Low": "138.44000244140625", "Close": "139.5399932861328", "Adj Close": "137.9692840576172", "Volume": "17456600"},
{"Date": "2019-09-27", "Open": "140.14999389648438", "High": "140.36000061035156", "Low": "136.64999389648438", "Close": "137.72999572753906", "Adj Close": "136.1796417236328", "Volume": "22477700"},
{"Date": "2019-09-30", "Open": "138.0500030517578", "High": "139.22000122070312", "Low": "137.77999877929688", "Close": "139.02999877929688", "Adj Close": "137.46502685546875", "Volume": "17280900"},
{"Date": "2019-10-01", "Open": "139.66000366210938", "High": "140.25", "Low": "137.0", "Close": "137.07000732421875", "Adj Close": "135.527099609375", "Volume": "21466600"},
{"Date": "2019-10-02", "Open": "136.25", "High": "136.3699951171875", "Low": "133.5800018310547", "Close": "134.64999389648438", "Adj Close": "133.1343231201172", "Volume": "30521700"},
{"Date": "2019-10-03", "Open": "134.9499969482422", "High": "136.75", "Low": "133.22000122070312", "Close": "136.27999877929688", "Adj Close": "134.7459716796875", "Volume": "24132900"},
{"Date": "2019-10-04", "Open": "136.75", "High": "138.25", "Low": "136.4199981689453", "Close": "138.1199951171875", "Adj Close": "136.5652618408203", "Volume": "22897700"},
{"Date": "2019-10-07", "Open": "137.13999938964844", "High": "138.17999267578125", "Low": "137.02000427246094", "Close": "137.1199951171875", "Adj Close": "135.57652282714844", "Volume": "15303700"},
{"Date": "2019-10-08", "Open": "137.0800018310547", "High": "137.75999450683594", "Low": "135.6199951171875", "Close": "135.6699981689453", "Adj Close": "134.14285278320312", "Volume": "25550500"},
{"Date": "2019-10-09", "Open": "137.4600067138672", "High": "138.6999969482422", "Low": "136.97000122070312", "Close": "138.24000549316406", "Adj Close": "136.6839141845703", "Volume": "19749900"},
{"Date": "2019-10-10", "Open": "138.49000549316406", "High": "139.6699981689453", "Low": "138.25", "Close": "139.10000610351562", "Adj Close": "137.53424072265625", "Volume": "17654600"},
{"Date": "2019-10-11", "Open": "140.1199951171875", "High": "141.02999877929688", "Low": "139.5", "Close": "139.67999267578125", "Adj Close": "138.10769653320312", "Volume": "25446000"},
{"Date": "2019-10-14", "Open": "139.69000244140625", "High": "140.2899932861328", "Low": "139.52000427246094", "Close": "139.5500030517578", "Adj Close": "137.9791717529297", "Volume": "13304300"},
{"Date": "2019-10-15", "Open": "140.05999755859375", "High": "141.7899932861328", "Low": "139.80999755859375", "Close": "141.57000732421875", "Adj Close": "139.9764404296875", "Volume": "19695700"},
{"Date": "2019-10-16", "Open": "140.7899932861328", "High": "140.99000549316406", "Low": "139.52999877929688", "Close": "140.41000366210938", "Adj Close": "138.82948303222656", "Volume": "20751600"},
{"Date": "2019-10-17", "Open": "140.9499969482422", "High": "141.4199981689453", "Low": "139.02000427246094", "Close": "139.69000244140625", "Adj Close": "138.11758422851562", "Volume": "21460600"},
{"Date": "2019-10-18", "Open": "139.75999450683594", "High": "140.0", "Low": "136.55999755859375", "Close": "137.41000366210938", "Adj Close": "135.86325073242188", "Volume": "32273500"},
{"Date": "2019-10-21", "Open": "138.4499969482422", "High": "138.5", "Low": "137.00999450683594", "Close": "138.42999267578125", "Adj Close": "136.87176513671875", "Volume": "20078200"},
{"Date": "2019-10-22", "Open": "138.97000122070312", "High": "140.00999450683594", "Low": "136.25999450683594", "Close": "136.3699951171875", "Adj Close": "134.8349609375", "Volume": "27431000"},
{"Date": "2019-10-23", "Open": "136.8800048828125", "High": "137.4499969482422", "Low": "135.61000061035156", "Close": "137.24000549316406", "Adj Close": "135.6951904296875", "Volume": "29844600"},
{"Date": "2019-10-24", "Open": "139.38999938964844", "High": "140.4199981689453", "Low": "138.6699981689453", "Close": "139.94000244140625", "Adj Close": "138.3647918701172", "Volume": "37029300"},
{"Date": "2019-10-25", "Open": "139.33999633789062", "High": "141.13999938964844", "Low": "139.1999969482422", "Close": "140.72999572753906", "Adj Close": "139.1458740234375", "Volume": "25959700"},
{"Date": "2019-10-28", "Open": "144.39999389648438", "High": "145.6699981689453", "Low": "143.50999450683594", "Close": "144.19000244140625", "Adj Close": "142.5669403076172", "Volume": "35280100"},
{"Date": "2019-10-29", "Open": "144.0800018310547", "High": "144.5", "Low": "142.64999389648438", "Close": "142.8300018310547", "Adj Close": "141.2222442626953", "Volume": "20589500"},
{"Date": "2019-10-30", "Open": "143.52000427246094", "High": "145.0", "Low": "142.7899932861328", "Close": "144.61000061035156", "Adj Close": "142.9822235107422", "Volume": "18496600"},
{"Date": "2019-10-31", "Open": "144.89999389648438", "High": "144.92999267578125", "Low": "142.99000549316406", "Close": "143.3699951171875", "Adj Close": "141.75616455078125", "Volume": "24605100"},
{"Date": "2019-11-01", "Open": "144.25999450683594", "High": "144.4199981689453", "Low": "142.97000122070312", "Close": "143.72000122070312", "Adj Close": "142.10223388671875", "Volume": "33128400"},
{"Date": "2019-11-04", "Open": "144.8300018310547", "High": "145.0", "Low": "144.16000366210938", "Close": "144.5500030517578", "Adj Close": "142.9228973388672", "Volume": "16912000"},
{"Date": "2019-11-05", "Open": "144.97000122070312", "High": "145.02000427246094", "Low": "143.91000366210938", "Close": "144.4600067138672", "Adj Close": "142.83392333984375", "Volume": "18250200"},
{"Date": "2019-11-06", "Open": "144.3699951171875", "High": "144.52000427246094", "Low": "143.1999969482422", "Close": "144.05999755859375", "Adj Close": "142.4384002685547", "Volume": "16575800"},
{"Date": "2019-11-07", "Open": "143.83999633789062", "High": "144.8800048828125", "Low": "143.77000427246094", "Close": "144.25999450683594", "Adj Close": "142.63613891601562", "Volume": "17786700"},
{"Date": "2019-11-08", "Open": "143.97999572753906", "High": "145.99000549316406", "Low": "143.75999450683594", "Close": "145.9600067138672", "Adj Close": "144.3170166015625", "Volume": "16732700"},
{"Date": "2019-11-11", "Open": "145.33999633789062", "High": "146.4199981689453", "Low": "144.72999572753906", "Close": "146.11000061035156", "Adj Close": "144.46533203125", "Volume": "14362600"},
{"Date": "2019-11-12", "Open": "146.27999877929688", "High": "147.57000732421875", "Low": "146.05999755859375", "Close": "147.07000732421875", "Adj Close": "145.41452026367188", "Volume": "18641600"},
{"Date": "2019-11-13", "Open": "146.74000549316406", "High": "147.4600067138672", "Low": "146.27999877929688", "Close": "147.30999755859375", "Adj Close": "145.65182495117188", "Volume": "16919200"},
{"Date": "2019-11-14", "Open": "147.02000427246094", "High": "148.41000366210938", "Low": "147.0", "Close": "148.05999755859375", "Adj Close": "146.39337158203125", "Volume": "19729800"},
{"Date": "2019-11-15", "Open": "148.92999267578125", "High": "149.99000549316406", "Low": "148.27000427246094", "Close": "149.97000122070312", "Adj Close": "148.28189086914062", "Volume": "23485700"},
{"Date": "2019-11-18", "Open": "150.07000732421875", "High": "150.5500030517578", "Low": "148.97999572753906", "Close": "150.33999633789062", "Adj Close": "148.64772033691406", "Volume": "21534000"},
{"Date": "2019-11-19", "Open": "150.8800048828125", "High": "151.3300018310547", "Low": "150.1999969482422", "Close": "150.38999938964844", "Adj Close": "148.6971435546875", "Volume": "23935700"},
{"Date": "2019-11-20", "Open": "150.30999755859375", "High": "150.83999633789062", "Low": "148.4600067138672", "Close": "149.6199951171875", "Adj Close": "148.43919372558594", "Volume": "25696800"},
{"Date": "2019-11-21", "Open": "149.39999389648438", "High": "149.8000030517578", "Low": "148.5", "Close": "149.47999572753906", "Adj Close": "148.30029296875", "Volume": "18576100"},
{"Date": "2019-11-22", "Open": "150.07000732421875", "High": "150.3000030517578", "Low": "148.82000732421875", "Close": "149.58999633789062", "Adj Close": "148.40943908691406", "Volume": "15901800"},
{"Date": "2019-11-25", "Open": "150.0", "High": "151.35000610351562", "Low": "149.9199981689453", "Close": "151.22999572753906", "Adj Close": "150.0364990234375", "Volume": "22420900"},
{"Date": "2019-11-26", "Open": "151.36000061035156", "High": "152.4199981689453", "Low": "151.32000732421875", "Close": "152.02999877929688", "Adj Close": "150.83018493652344", "Volume": "24620100"},
{"Date": "2019-11-27", "Open": "152.3300018310547", "High": "152.5", "Low": "151.52000427246094", "Close": "152.32000732421875", "Adj Close": "151.11790466308594", "Volume": "15184400"},
{"Date": "2019-11-29", "Open": "152.10000610351562", "High": "152.3000030517578", "Low": "151.27999877929688", "Close": "151.3800048828125", "Adj Close": "150.18531799316406", "Volume": "11977300"},
{"Date": "2019-12-02", "Open": "151.80999755859375", "High": "151.8300018310547", "Low": "148.32000732421875", "Close": "149.5500030517578", "Adj Close": "148.36976623535156", "Volume": "27418400"},
{"Date": "2019-12-03", "Open": "147.49000549316406", "High": "149.42999267578125", "Low": "146.64999389648438", "Close": "149.30999755859375", "Adj Close": "148.13165283203125", "Volume": "24066000"},
{"Date": "2019-12-04", "Open": "150.13999938964844", "High": "150.17999267578125", "Low": "149.1999969482422", "Close": "149.85000610351562", "Adj Close": "148.66738891601562", "Volume": "17574700"},
{"Date": "2019-12-05", "Open": "150.0500030517578", "High": "150.32000732421875", "Low": "149.47999572753906", "Close": "149.92999267578125", "Adj Close": "148.7467498779297", "Volume": "17869100"},
{"Date": "2019-12-06", "Open": "150.99000549316406", "High": "151.8699951171875", "Low": "150.27000427246094", "Close": "151.75", "Adj Close": "150.55238342285156", "Volume": "16403500"},
{"Date": "2019-12-09", "Open": "151.07000732421875", "High": "152.2100067138672", "Low": "150.91000366210938", "Close": "151.36000061035156", "Adj Close": "150.1654815673828", "Volume": "16687400"},
{"Date": "2019-12-10", "Open": "151.2899932861328", "High": "151.88999938964844", "Low": "150.75999450683594", "Close": "151.1300048828125", "Adj Close": "149.9373016357422", "Volume": "16476100"},
{"Date": "2019-12-11", "Open": "151.5399932861328", "High": "151.8699951171875", "Low": "150.3300018310547", "Close": "151.6999969482422", "Adj Close": "150.50277709960938", "Volume": "18856600"},
{"Date": "2019-12-12", "Open": "151.64999389648438", "High": "153.44000244140625", "Low": "151.02000427246094", "Close": "153.24000549316406", "Adj Close": "152.0306396484375", "Volume": "24612100"},
{"Date": "2019-12-13", "Open": "153.0", "High": "154.88999938964844", "Low": "152.8300018310547", "Close": "154.52999877929688", "Adj Close": "153.31045532226562", "Volume": "23845400"},
{"Date": "2019-12-16", "Open": "155.11000061035156", "High": "155.89999389648438", "Low": "154.82000732421875", "Close": "155.52999877929688", "Adj Close": "154.30255126953125", "Volume": "24144200"},
{"Date": "2019-12-17", "Open": "155.4499969482422", "High": "155.7100067138672", "Low": "154.4499969482422", "Close": "154.69000244140625", "Adj Close": "153.4691925048828", "Volume": "25425600"},
{"Date": "2019-12-18", "Open": "154.3000030517578", "High": "155.47999572753906", "Low": "154.17999267578125", "Close": "154.3699951171875", "Adj Close": "153.1517333984375", "Volume": "24129200"},
{"Date": "2019-12-19", "Open": "154.0", "High": "155.77000427246094", "Low": "153.75", "Close": "155.7100067138672", "Adj Close": "154.4811553955078", "Volume": "24958900"},
{"Date": "2019-12-20", "Open": "157.35000610351562", "High": "158.49000549316406", "Low": "156.2899932861328", "Close": "157.41000366210938", "Adj Close": "156.16773986816406", "Volume": "53477500"},
{"Date": "2019-12-23", "Open": "158.1199951171875", "High": "158.1199951171875", "Low": "157.27000427246094", "Close": "157.41000366210938", "Adj Close": "156.16773986816406", "Volume": "17718200"},
{"Date": "2019-12-24", "Open": "157.47999572753906", "High": "157.7100067138672", "Low": "157.1199951171875", "Close": "157.3800048828125", "Adj Close": "156.13795471191406", "Volume": "8989200"},
{"Date": "2019-12-26", "Open": "157.55999755859375", "High": "158.72999572753906", "Low": "157.39999389648438", "Close": "158.6699981689453", "Adj Close": "157.41778564453125", "Volume": "14520600"},
{"Date": "2019-12-27", "Open": "159.4499969482422", "High": "159.5500030517578", "Low": "158.22000122070312", "Close": "158.9600067138672", "Adj Close": "157.70550537109375", "Volume": "18412800"},
{"Date": "2019-12-30", "Open": "158.99000549316406", "High": "159.02000427246094", "Low": "156.72999572753906", "Close": "157.58999633789062", "Adj Close": "156.34629821777344", "Volume": "16348400"},
{"Date": "2019-12-31", "Open": "156.77000427246094", "High": "157.77000427246094", "Low": "156.4499969482422", "Close": "157.6999969482422", "Adj Close": "156.45542907714844", "Volume": "18369400"},
{"Date": "2020-01-02", "Open": "158.77999877929688", "High": "160.72999572753906", "Low": "158.3300018310547", "Close": "160.6199951171875", "Adj Close": "159.35238647460938", "Volume": "22622100"},
{"Date": "2020-01-03", "Open": "158.32000732421875", "High": "159.9499969482422", "Low": "158.05999755859375", "Close": "158.6199951171875", "Adj Close": "157.36817932128906", "Volume": "21116200"},
{"Date": "2020-01-06", "Open": "157.0800018310547", "High": "159.10000610351562", "Low": "156.50999450683594", "Close": "159.02999877929688", "Adj Close": "157.7749481201172", "Volume": "20813700"},
{"Date": "2020-01-07", "Open": "159.32000732421875", "High": "159.6699981689453", "Low": "157.32000732421875", "Close": "157.5800018310547", "Adj Close": "156.33639526367188", "Volume": "21634100"},
{"Date": "2020-01-08", "Open": "158.92999267578125", "High": "160.8000030517578", "Low": "157.9499969482422", "Close": "160.08999633789062", "Adj Close": "158.82656860351562", "Volume": "27746500"},
{"Date": "2020-01-09", "Open": "161.83999633789062", "High": "162.22000122070312", "Low": "161.02999877929688", "Close": "162.08999633789062", "Adj Close": "160.81077575683594", "Volume": "21385000"},
{"Date": "2020-01-10", "Open": "162.82000732421875", "High": "163.22000122070312", "Low": "161.17999267578125", "Close": "161.33999633789062", "Adj Close": "160.06671142578125", "Volume": "20725900"},
{"Date": "2020-01-13", "Open": "161.75999450683594", "High": "163.30999755859375", "Low": "161.25999450683594", "Close": "163.27999877929688", "Adj Close": "161.99139404296875", "Volume": "21626500"},
{"Date": "2020-01-14", "Open": "163.38999938964844", "High": "163.60000610351562", "Low": "161.72000122070312", "Close": "162.1300048828125", "Adj Close": "160.85047912597656", "Volume": "23477400"},
{"Date": "2020-01-15", "Open": "162.6199951171875", "High": "163.94000244140625", "Low": "162.57000732421875", "Close": "163.17999267578125", "Adj Close": "161.89219665527344", "Volume": "21417900"},
{"Date": "2020-01-16", "Open": "164.35000610351562", "High": "166.24000549316406", "Low": "164.02999877929688", "Close": "166.1699981689453", "Adj Close": "164.8585968017578", "Volume": "23865400"},
{"Date": "2020-01-17", "Open": "167.4199981689453", "High": "167.47000122070312", "Low": "165.42999267578125", "Close": "167.10000610351562", "Adj Close": "165.78126525878906", "Volume": "34371700"},
{"Date": "2020-01-21", "Open": "166.67999267578125", "High": "168.19000244140625", "Low": "166.42999267578125", "Close": "166.5", "Adj Close": "165.1859893798828", "Volume": "29517200"},
{"Date": "2020-01-22", "Open": "167.39999389648438", "High": "167.49000549316406", "Low": "165.67999267578125", "Close": "165.6999969482422", "Adj Close": "164.39230346679688", "Volume": "24138800"},
{"Date": "2020-01-23", "Open": "166.19000244140625", "High": "166.8000030517578", "Low": "165.27000427246094", "Close": "166.72000122070312", "Adj Close": "165.4042510986328", "Volume": "19680800"},
{"Date": "2020-01-24", "Open": "167.50999450683594", "High": "167.52999877929688", "Low": "164.4499969482422", "Close": "165.0399932861328", "Adj Close": "163.73751831054688", "Volume": "24918100"},
{"Date": "2020-01-27", "Open": "161.14999389648438", "High": "163.3800048828125", "Low": "160.1999969482422", "Close": "162.27999877929688", "Adj Close": "160.99928283691406", "Volume": "32078100"},
{"Date": "2020-01-28", "Open": "163.77999877929688", "High": "165.75999450683594", "Low": "163.07000732421875", "Close": "165.4600067138672", "Adj Close": "164.1542205810547", "Volume": "24899900"},
{"Date": "2020-01-29", "Open": "167.83999633789062", "High": "168.75", "Low": "165.69000244140625", "Close": "168.0399932861328", "Adj Close": "166.7138214111328", "Volume": "34754500"},
{"Date": "2020-01-30", "Open": "174.0500030517578", "High": "174.0500030517578", "Low": "170.7899932861328", "Close": "172.77999877929688", "Adj Close": "171.4164276123047", "Volume": "51597500"},
{"Date": "2020-01-31", "Open": "172.2100067138672", "High": "172.39999389648438", "Low": "169.5800018310547", "Close": "170.22999572753906", "Adj Close": "168.8865509033203", "Volume": "36142700"},
{"Date": "2020-02-03", "Open": "170.42999267578125", "High": "174.5", "Low": "170.39999389648438", "Close": "174.3800048828125", "Adj Close": "173.00381469726562", "Volume": "30149100"},
{"Date": "2020-02-04", "Open": "177.13999938964844", "High": "180.63999938964844", "Low": "176.30999755859375", "Close": "180.1199951171875", "Adj Close": "178.69850158691406", "Volume": "36433300"},
{"Date": "2020-02-05", "Open": "184.02999877929688", "High": "184.1999969482422", "Low": "178.41000366210938", "Close": "179.89999389648438", "Adj Close": "178.48023986816406", "Volume": "39186300"},
{"Date": "2020-02-06", "Open": "180.97000122070312", "High": "183.82000732421875", "Low": "180.05999755859375", "Close": "183.6300048828125", "Adj Close": "182.18081665039062", "Volume": "27751400"},
{"Date": "2020-02-07", "Open": "182.85000610351562", "High": "185.6300048828125", "Low": "182.47999572753906", "Close": "183.88999938964844", "Adj Close": "182.43875122070312", "Volume": "33529100"},
{"Date": "2020-02-10", "Open": "183.5800018310547", "High": "188.83999633789062", "Low": "183.25", "Close": "188.6999969482422", "Adj Close": "187.21078491210938", "Volume": "35844300"},
{"Date": "2020-02-11", "Open": "190.64999389648438", "High": "190.6999969482422", "Low": "183.5", "Close": "184.44000244140625", "Adj Close": "182.98440551757812", "Volume": "53159900"},
{"Date": "2020-02-12", "Open": "185.5800018310547", "High": "185.85000610351562", "Low": "181.85000610351562", "Close": "184.7100067138672", "Adj Close": "183.2522735595703", "Volume": "47062900"},
{"Date": "2020-02-13", "Open": "183.0800018310547", "High": "186.22999572753906", "Low": "182.8699951171875", "Close": "183.7100067138672", "Adj Close": "182.2601776123047", "Volume": "35295800"},
{"Date": "2020-02-14", "Open": "183.25", "High": "185.41000366210938", "Low": "182.64999389648438", "Close": "185.35000610351562", "Adj Close": "183.88722229003906", "Volume": "23149500"},
{"Date": "2020-02-18", "Open": "185.61000061035156", "High": "187.6999969482422", "Low": "185.5", "Close": "187.22999572753906", "Adj Close": "185.7523956298828", "Volume": "27792200"},
{"Date": "2020-02-19", "Open": "188.05999755859375", "High": "188.17999267578125", "Low": "186.47000122070312", "Close": "187.27999877929688", "Adj Close": "186.3094940185547", "Volume": "29997500"},
{"Date": "2020-02-20", "Open": "186.9499969482422", "High": "187.25", "Low": "181.10000610351562", "Close": "184.4199981689453", "Adj Close": "183.4643096923828", "Volume": "36862400"},
{"Date": "2020-02-21", "Open": "183.1699981689453", "High": "183.5", "Low": "177.25", "Close": "178.58999633789062", "Adj Close": "177.66452026367188", "Volume": "48572600"},
{"Date": "2020-02-24", "Open": "167.77000427246094", "High": "174.5500030517578", "Low": "163.22999572753906", "Close": "170.88999938964844", "Adj Close": "170.00442504882812", "Volume": "68311100"},
{"Date": "2020-02-25", "Open": "174.1999969482422", "High": "174.83999633789062", "Low": "167.64999389648438", "Close": "168.07000732421875", "Adj Close": "167.1990509033203", "Volume": "68073300"},
{"Date": "2020-02-26", "Open": "169.7100067138672", "High": "173.25999450683594", "Low": "168.2100067138672", "Close": "170.1699981689453", "Adj Close": "169.28814697265625", "Volume": "56206100"},
{"Date": "2020-02-27", "Open": "163.32000732421875", "High": "167.02999877929688", "Low": "157.97999572753906", "Close": "158.17999267578125", "Adj Close": "157.36029052734375", "Volume": "93033600"},
{"Date": "2020-02-28", "Open": "152.41000366210938", "High": "163.7100067138672", "Low": "152.0", "Close": "162.00999450683594", "Adj Close": "161.17044067382812", "Volume": "97073600"},
{"Date": "2020-03-02", "Open": "165.30999755859375", "High": "172.9199981689453", "Low": "162.30999755859375", "Close": "172.7899932861328", "Adj Close": "171.8945770263672", "Volume": "71030800"},
{"Date": "2020-03-03", "Open": "173.8000030517578", "High": "175.0", "Low": "162.25999450683594", "Close": "164.50999450683594", "Adj Close": "163.65748596191406", "Volume": "71677000"},
{"Date": "2020-03-04", "Open": "168.49000549316406", "High": "170.6999969482422", "Low": "165.6199951171875", "Close": "170.5500030517578", "Adj Close": "169.6661834716797", "Volume": "49814400"},
{"Date": "2020-03-05", "Open": "166.0500030517578", "High": "170.8699951171875", "Low": "165.69000244140625", "Close": "166.27000427246094", "Adj Close": "165.4083709716797", "Volume": "47817300"},
{"Date": "2020-03-06", "Open": "162.61000061035156", "High": "163.11000061035156", "Low": "156.0", "Close": "161.57000732421875", "Adj Close": "160.7327423095703", "Volume": "72821100"},
{"Date": "2020-03-09", "Open": "151.0", "High": "157.75", "Low": "150.0", "Close": "150.6199951171875", "Adj Close": "149.83946228027344", "Volume": "70419300"},
{"Date": "2020-03-10", "Open": "158.16000366210938", "High": "161.02999877929688", "Low": "152.5800018310547", "Close": "160.9199981689453", "Adj Close": "160.08609008789062", "Volume": "65354400"},
{"Date": "2020-03-11", "Open": "157.1300048828125", "High": "157.6999969482422", "Low": "151.14999389648438", "Close": "153.6300048828125", "Adj Close": "152.83387756347656", "Volume": "56371600"},
{"Date": "2020-03-12", "Open": "145.3000030517578", "High": "153.47000122070312", "Low": "138.5800018310547", "Close": "139.05999755859375", "Adj Close": "138.33937072753906", "Volume": "93226400"},
{"Date": "2020-03-13", "Open": "147.5", "High": "161.91000366210938", "Low": "140.72999572753906", "Close": "158.8300018310547", "Adj Close": "158.0069122314453", "Volume": "92727400"},
{"Date": "2020-03-16", "Open": "140.0", "High": "149.35000610351562", "Low": "135.0", "Close": "135.4199981689453", "Adj Close": "134.71823120117188", "Volume": "87905900"},
{"Date": "2020-03-17", "Open": "140.0", "High": "147.5", "Low": "135.0", "Close": "146.57000732421875", "Adj Close": "145.8104705810547", "Volume": "81059800"},
{"Date": "2020-03-18", "Open": "138.0", "High": "146.0", "Low": "135.02000427246094", "Close": "140.39999389648438", "Adj Close": "139.67242431640625", "Volume": "81593200"},
{"Date": "2020-03-19", "Open": "142.77000427246094", "High": "150.14999389648438", "Low": "139.0", "Close": "142.7100067138672", "Adj Close": "141.97047424316406", "Volume": "85922700"},
{"Date": "2020-03-20", "Open": "146.0", "High": "147.10000610351562", "Low": "135.86000061035156", "Close": "137.35000610351562", "Adj Close": "136.63824462890625", "Volume": "84866200"},
{"Date": "2020-03-23", "Open": "137.00999450683594", "High": "140.57000732421875", "Low": "132.52000427246094", "Close": "135.97999572753906", "Adj Close": "135.2753448486328", "Volume": "78975200"},
{"Date": "2020-03-24", "Open": "143.75", "High": "149.60000610351562", "Low": "141.27000427246094", "Close": "148.33999633789062", "Adj Close": "147.5712890625", "Volume": "82516700"},
{"Date": "2020-03-25", "Open": "148.91000366210938", "High": "154.3300018310547", "Low": "144.44000244140625", "Close": "146.9199981689453", "Adj Close": "146.15863037109375", "Volume": "75638200"},
{"Date": "2020-03-26", "Open": "148.39999389648438", "High": "156.66000366210938", "Low": "148.3699951171875", "Close": "156.11000061035156", "Adj Close": "155.301025390625", "Volume": "64568100"},
{"Date": "2020-03-27", "Open": "151.75", "High": "154.88999938964844", "Low": "149.1999969482422", "Close": "149.6999969482422", "Adj Close": "148.92422485351562", "Volume": "57042300"},
{"Date": "2020-03-30", "Open": "152.44000244140625", "High": "160.60000610351562", "Low": "150.00999450683594", "Close": "160.22999572753906", "Adj Close": "159.39967346191406", "Volume": "63420300"},
{"Date": "2020-03-31", "Open": "159.39999389648438", "High": "164.77999877929688", "Low": "156.55999755859375", "Close": "157.7100067138672", "Adj Close": "156.89273071289062", "Volume": "77927200"},
{"Date": "2020-04-01", "Open": "153.0", "High": "157.75", "Low": "150.82000732421875", "Close": "152.11000061035156", "Adj Close": "151.32174682617188", "Volume": "57969900"},
{"Date": "2020-04-02", "Open": "151.86000061035156", "High": "155.47999572753906", "Low": "150.36000061035156", "Close": "155.25999450683594", "Adj Close": "154.45541381835938", "Volume": "49630700"},
{"Date": "2020-04-03", "Open": "155.10000610351562", "High": "157.3800048828125", "Low": "152.19000244140625", "Close": "153.8300018310547", "Adj Close": "153.0328369140625", "Volume": "41243300"},
{"Date": "2020-04-06", "Open": "160.32000732421875", "High": "166.5", "Low": "157.5800018310547", "Close": "165.27000427246094", "Adj Close": "164.41354370117188", "Volume": "67111700"},
{"Date": "2020-04-07", "Open": "169.58999633789062", "High": "170.0", "Low": "163.25999450683594", "Close": "163.49000549316406", "Adj Close": "162.6427764892578", "Volume": "62769000"},
{"Date": "2020-04-08", "Open": "165.6699981689453", "High": "166.6699981689453", "Low": "163.5", "Close": "165.1300048828125", "Adj Close": "164.27427673339844", "Volume": "48318200"},
{"Date": "2020-04-09", "Open": "166.36000061035156", "High": "167.3699951171875", "Low": "163.3300018310547", "Close": "165.13999938964844", "Adj Close": "164.2842254638672", "Volume": "51431800"},
{"Date": "2020-04-13", "Open": "164.35000610351562", "High": "165.57000732421875", "Low": "162.3000030517578", "Close": "165.50999450683594", "Adj Close": "164.65231323242188", "Volume": "41905300"},
{"Date": "2020-04-14", "Open": "169.0", "High": "173.75", "Low": "168.0", "Close": "173.6999969482422", "Adj Close": "172.79986572265625", "Volume": "52874300"},
{"Date": "2020-04-15", "Open": "171.1999969482422", "High": "173.57000732421875", "Low": "169.24000549316406", "Close": "171.8800048828125", "Adj Close": "170.9893035888672", "Volume": "40940800"},
{"Date": "2020-04-16", "Open": "174.3000030517578", "High": "177.27999877929688", "Low": "172.89999389648438", "Close": "177.0399932861328", "Adj Close": "176.12254333496094", "Volume": "50479600"},
{"Date": "2020-04-17", "Open": "179.5", "High": "180.0", "Low": "175.8699951171875", "Close": "178.60000610351562", "Adj Close": "177.6744842529297", "Volume": "52765600"},
{"Date": "2020-04-20", "Open": "176.6300048828125", "High": "178.75", "Low": "174.99000549316406", "Close": "175.05999755859375", "Adj Close": "174.15281677246094", "Volume": "36669600"},
{"Date": "2020-04-21", "Open": "173.5", "High": "173.6699981689453", "Low": "166.11000061035156", "Close": "167.82000732421875", "Adj Close": "166.95034790039062", "Volume": "56203700"},
{"Date": "2020-04-22", "Open": "171.38999938964844", "High": "174.0", "Low": "170.82000732421875", "Close": "173.52000427246094", "Adj Close": "172.6208038330078", "Volume": "34651600"},
{"Date": "2020-04-23", "Open": "174.11000061035156", "High": "175.05999755859375", "Low": "170.91000366210938", "Close": "171.4199981689453", "Adj Close": "170.53167724609375", "Volume": "32790800"},
{"Date": "2020-04-24", "Open": "172.05999755859375", "High": "174.55999755859375", "Low": "170.7100067138672", "Close": "174.5500030517578", "Adj Close": "173.6454620361328", "Volume": "34305300"},
{"Date": "2020-04-27", "Open": "176.58999633789062", "High": "176.89999389648438", "Low": "173.3000030517578", "Close": "174.0500030517578", "Adj Close": "173.14805603027344", "Volume": "33194400"},
{"Date": "2020-04-28", "Open": "175.58999633789062", "High": "175.6699981689453", "Low": "169.38999938964844", "Close": "169.80999755859375", "Adj Close": "168.93002319335938", "Volume": "34392700"},
{"Date": "2020-04-29", "Open": "173.22000122070312", "High": "177.67999267578125", "Low": "171.8800048828125", "Close": "177.42999267578125", "Adj Close": "176.51052856445312", "Volume": "51286600"},
{"Date": "2020-04-30", "Open": "180.0", "High": "180.39999389648438", "Low": "176.22999572753906", "Close": "179.2100067138672", "Adj Close": "178.28131103515625", "Volume": "53661300"},
{"Date": "2020-05-01", "Open": "175.8000030517578", "High": "178.63999938964844", "Low": "174.00999450683594", "Close": "174.57000732421875", "Adj Close": "173.66537475585938", "Volume": "39370500"},
{"Date": "2020-05-04", "Open": "174.49000549316406", "High": "179.0", "Low": "173.8000030517578", "Close": "178.83999633789062", "Adj Close": "177.91322326660156", "Volume": "30372900"},
{"Date": "2020-05-05", "Open": "180.6199951171875", "High": "183.64999389648438", "Low": "179.89999389648438", "Close": "180.75999450683594", "Adj Close": "179.82327270507812", "Volume": "36839200"},
{"Date": "2020-05-06", "Open": "182.0800018310547", "High": "184.1999969482422", "Low": "181.6300048828125", "Close": "182.5399932861328", "Adj Close": "181.59405517578125", "Volume": "32139300"},
{"Date": "2020-05-07", "Open": "184.1699981689453", "High": "184.5500030517578", "Low": "182.5800018310547", "Close": "183.60000610351562", "Adj Close": "182.64857482910156", "Volume": "28316000"},
{"Date": "2020-05-08", "Open": "184.97999572753906", "High": "185.0", "Low": "183.36000061035156", "Close": "184.67999267578125", "Adj Close": "183.7229461669922", "Volume": "30912600"},
{"Date": "2020-05-11", "Open": "183.14999389648438", "High": "187.50999450683594", "Low": "182.85000610351562", "Close": "186.74000549316406", "Adj Close": "185.7722930908203", "Volume": "30809400"},
{"Date": "2020-05-12", "Open": "186.8000030517578", "High": "187.0399932861328", "Low": "182.3000030517578", "Close": "182.50999450683594", "Adj Close": "181.56419372558594", "Volume": "32038200"},
{"Date": "2020-05-13", "Open": "182.5500030517578", "High": "184.0500030517578", "Low": "176.5399932861328", "Close": "179.75", "Adj Close": "178.81851196289062", "Volume": "44711500"},
{"Date": "2020-05-14", "Open": "177.5399932861328", "High": "180.69000244140625", "Low": "175.67999267578125", "Close": "180.52999877929688", "Adj Close": "179.59446716308594", "Volume": "41873900"},
{"Date": "2020-05-15", "Open": "179.05999755859375", "High": "187.05999755859375", "Low": "177.0", "Close": "183.16000366210938", "Adj Close": "182.21084594726562", "Volume": "46610400"},
{"Date": "2020-05-18", "Open": "185.75", "High": "186.1999969482422", "Low": "183.9600067138672", "Close": "184.91000366210938", "Adj Close": "183.95176696777344", "Volume": "35306600"},
{"Date": "2020-05-19", "Open": "185.02999877929688", "High": "186.60000610351562", "Low": "183.49000549316406", "Close": "183.6300048828125", "Adj Close": "182.67840576171875", "Volume": "26799100"},
{"Date": "2020-05-20", "Open": "184.80999755859375", "High": "185.85000610351562", "Low": "183.94000244140625", "Close": "185.66000366210938", "Adj Close": "185.2122802734375", "Volume": "31261300"},
{"Date": "2020-05-21", "Open": "185.39999389648438", "High": "186.6699981689453", "Low": "183.2899932861328", "Close": "183.42999267578125", "Adj Close": "182.98765563964844", "Volume": "29119500"},
{"Date": "2020-05-22", "Open": "183.19000244140625", "High": "184.4600067138672", "Low": "182.5399932861328", "Close": "183.50999450683594", "Adj Close": "183.0674591064453", "Volume": "20826900"},
{"Date": "2020-05-26", "Open": "186.33999633789062", "High": "186.5", "Low": "181.10000610351562", "Close": "181.57000732421875", "Adj Close": "181.1321563720703", "Volume": "36073600"},
{"Date": "2020-05-27", "Open": "180.1999969482422", "High": "181.99000549316406", "Low": "176.60000610351562", "Close": "181.80999755859375", "Adj Close": "181.37156677246094", "Volume": "39517100"},
{"Date": "2020-05-28", "Open": "180.74000549316406", "High": "184.14999389648438", "Low": "180.3800048828125", "Close": "181.39999389648438", "Adj Close": "180.96255493164062", "Volume": "33810200"},
{"Date": "2020-05-29", "Open": "182.72999572753906", "High": "184.27000427246094", "Low": "180.41000366210938", "Close": "183.25", "Adj Close": "182.80809020996094", "Volume": "42146700"},
{"Date": "2020-06-01", "Open": "182.5399932861328", "High": "183.0", "Low": "181.4600067138672", "Close": "182.8300018310547", "Adj Close": "182.3891143798828", "Volume": "22622400"},
{"Date": "2020-06-02", "Open": "184.25", "High": "185.0", "Low": "181.35000610351562", "Close": "184.91000366210938", "Adj Close": "184.46409606933594", "Volume": "30794600"},
{"Date": "2020-06-03", "Open": "184.82000732421875", "High": "185.94000244140625", "Low": "183.5800018310547", "Close": "185.36000061035156", "Adj Close": "184.9130096435547", "Volume": "27311000"},
{"Date": "2020-06-04", "Open": "184.3000030517578", "High": "185.83999633789062", "Low": "182.3000030517578", "Close": "182.9199981689453", "Adj Close": "182.4788818359375", "Volume": "28761800"},
{"Date": "2020-06-05", "Open": "182.6199951171875", "High": "187.72999572753906", "Low": "182.00999450683594", "Close": "187.1999969482422", "Adj Close": "186.74856567382812", "Volume": "39893600"},
{"Date": "2020-06-08", "Open": "185.94000244140625", "High": "188.5500030517578", "Low": "184.44000244140625", "Close": "188.36000061035156", "Adj Close": "187.90577697753906", "Volume": "33211600"},
{"Date": "2020-06-09", "Open": "188.0", "High": "190.6999969482422", "Low": "187.25999450683594", "Close": "189.8000030517578", "Adj Close": "189.34230041503906", "Volume": "29783900"},
{"Date": "2020-06-10", "Open": "191.1300048828125", "High": "198.52000427246094", "Low": "191.00999450683594", "Close": "196.83999633789062", "Adj Close": "196.36532592773438", "Volume": "43872300"},
{"Date": "2020-06-11", "Open": "193.1300048828125", "High": "195.75999450683594", "Low": "186.07000732421875", "Close": "186.27000427246094", "Adj Close": "185.82081604003906", "Volume": "52854700"},
{"Date": "2020-06-12", "Open": "190.5399932861328", "High": "191.72000122070312", "Low": "185.17999267578125", "Close": "187.74000549316406", "Adj Close": "187.2872772216797", "Volume": "43345700"},
{"Date": "2020-06-15", "Open": "184.5800018310547", "High": "190.82000732421875", "Low": "184.00999450683594", "Close": "188.94000244140625", "Adj Close": "188.484375", "Volume": "32770200"},
{"Date": "2020-06-16", "Open": "192.88999938964844", "High": "195.5800018310547", "Low": "191.4600067138672", "Close": "193.57000732421875", "Adj Close": "193.10321044921875", "Volume": "42556700"},
{"Date": "2020-06-17", "Open": "195.02999877929688", "High": "196.32000732421875", "Low": "193.69000244140625", "Close": "194.24000549316406", "Adj Close": "193.77159118652344", "Volume": "25655900"},
{"Date": "2020-06-18", "Open": "194.0", "High": "196.49000549316406", "Low": "194.0", "Close": "196.32000732421875", "Adj Close": "195.84658813476562", "Volume": "23061600"},
{"Date": "2020-06-19", "Open": "198.58999633789062", "High": "199.2899932861328", "Low": "194.3699951171875", "Close": "195.14999389648438", "Adj Close": "194.6793975830078", "Volume": "44441100"},
{"Date": "2020-06-22", "Open": "195.7899932861328", "High": "200.75999450683594", "Low": "195.22999572753906", "Close": "200.57000732421875", "Adj Close": "200.08633422851562", "Volume": "32818900"},
{"Date": "2020-06-23", "Open": "202.08999633789062", "High": "203.9499969482422", "Low": "201.42999267578125", "Close": "201.91000366210938", "Adj Close": "201.423095703125", "Volume": "30917400"},
{"Date": "2020-06-24", "Open": "201.60000610351562", "High": "203.25", "Low": "196.55999755859375", "Close": "197.83999633789062", "Adj Close": "197.3629150390625", "Volume": "36740600"},
{"Date": "2020-06-25", "Open": "197.8000030517578", "High": "200.61000061035156", "Low": "195.47000122070312", "Close": "200.33999633789062", "Adj Close": "199.85687255859375", "Volume": "27803900"},
{"Date": "2020-06-26", "Open": "199.72999572753906", "High": "199.88999938964844", "Low": "194.8800048828125", "Close": "196.3300018310547", "Adj Close": "195.85655212402344", "Volume": "54675800"},
{"Date": "2020-06-29", "Open": "195.77999877929688", "High": "198.52999877929688", "Low": "193.5500030517578", "Close": "198.44000244140625", "Adj Close": "197.9614715576172", "Volume": "26701600"},
{"Date": "2020-06-30", "Open": "197.8800048828125", "High": "204.39999389648438", "Low": "197.74000549316406", "Close": "203.50999450683594", "Adj Close": "203.01922607421875", "Volume": "34310300"},
{"Date": "2020-07-01", "Open": "203.13999938964844", "High": "206.35000610351562", "Low": "201.77000427246094", "Close": "204.6999969482422", "Adj Close": "204.20635986328125", "Volume": "32061200"},
{"Date": "2020-07-02", "Open": "205.67999267578125", "High": "208.02000427246094", "Low": "205.0", "Close": "206.25999450683594", "Adj Close": "205.76260375976562", "Volume": "29315800"},
{"Date": "2020-07-06", "Open": "208.8300018310547", "High": "211.1300048828125", "Low": "208.08999633789062", "Close": "210.6999969482422", "Adj Close": "210.19189453125", "Volume": "31897600"},
{"Date": "2020-07-07", "Open": "210.4499969482422", "High": "214.6699981689453", "Low": "207.99000549316406", "Close": "208.25", "Adj Close": "207.747802734375", "Volume": "33600700"},
{"Date": "2020-07-08", "Open": "210.07000732421875", "High": "213.25999450683594", "Low": "208.69000244140625", "Close": "212.8300018310547", "Adj Close": "212.3167724609375", "Volume": "33600000"},
{"Date": "2020-07-09", "Open": "216.3300018310547", "High": "216.3800048828125", "Low": "211.47000122070312", "Close": "214.32000732421875", "Adj Close": "213.8031768798828", "Volume": "33121700"},
{"Date": "2020-07-10", "Open": "213.6199951171875", "High": "214.0800018310547", "Low": "211.0800018310547", "Close": "213.6699981689453", "Adj Close": "213.1547393798828", "Volume": "26177600"},
{"Date": "2020-07-13", "Open": "214.47999572753906", "High": "215.8000030517578", "Low": "206.5", "Close": "207.07000732421875", "Adj Close": "206.57066345214844", "Volume": "38135600"},
{"Date": "2020-07-14", "Open": "206.1300048828125", "High": "208.85000610351562", "Low": "202.02999877929688", "Close": "208.35000610351562", "Adj Close": "207.8475799560547", "Volume": "37591800"},
{"Date": "2020-07-15", "Open": "209.55999755859375", "High": "211.3300018310547", "Low": "205.02999877929688", "Close": "208.0399932861328", "Adj Close": "207.53831481933594", "Volume": "32179400"},
{"Date": "2020-07-16", "Open": "205.39999389648438", "High": "205.6999969482422", "Low": "202.30999755859375", "Close": "203.9199981689453", "Adj Close": "203.42825317382812", "Volume": "29940700"},
{"Date": "2020-07-17", "Open": "204.47000122070312", "High": "205.0399932861328", "Low": "201.38999938964844", "Close": "202.8800048828125", "Adj Close": "202.39076232910156", "Volume": "31635300"},
{"Date": "2020-07-20", "Open": "205.0", "High": "212.3000030517578", "Low": "203.00999450683594", "Close": "211.60000610351562", "Adj Close": "211.08973693847656", "Volume": "36884800"},
{"Date": "2020-07-21", "Open": "213.66000366210938", "High": "213.94000244140625", "Low": "208.02999877929688", "Close": "208.75", "Adj Close": "208.24659729003906", "Volume": "38105800"},
{"Date": "2020-07-22", "Open": "209.1999969482422", "High": "212.3000030517578", "Low": "208.38999938964844", "Close": "211.75", "Adj Close": "211.23936462402344", "Volume": "49605700"},
{"Date": "2020-07-23", "Open": "207.19000244140625", "High": "210.9199981689453", "Low": "202.14999389648438", "Close": "202.5399932861328", "Adj Close": "202.05157470703125", "Volume": "67457000"},
{"Date": "2020-07-24", "Open": "200.4199981689453", "High": "202.86000061035156", "Low": "197.50999450683594", "Close": "201.3000030517578", "Adj Close": "200.8145751953125", "Volume": "39827000"},
{"Date": "2020-07-27", "Open": "201.47000122070312", "High": "203.97000122070312", "Low": "200.86000061035156", "Close": "203.85000610351562", "Adj Close": "203.35842895507812", "Volume": "30160900"},
{"Date": "2020-07-28", "Open": "203.61000061035156", "High": "204.6999969482422", "Low": "201.74000549316406", "Close": "202.02000427246094", "Adj Close": "201.5328369140625", "Volume": "23251400"},
{"Date": "2020-07-29", "Open": "202.5", "High": "204.64999389648438", "Low": "202.00999450683594", "Close": "204.05999755859375", "Adj Close": "203.5679168701172", "Volume": "19632600"},
{"Date": "2020-07-30", "Open": "201.0", "High": "204.4600067138672", "Low": "199.57000732421875", "Close": "203.89999389648438", "Adj Close": "203.40829467773438", "Volume": "25079600"},
{"Date": "2020-07-31", "Open": "204.39999389648438", "High": "205.10000610351562", "Low": "199.00999450683594", "Close": "205.00999450683594", "Adj Close": "204.51560974121094", "Volume": "51248000"},
{"Date": "2020-08-03", "Open": "211.52000427246094", "High": "217.63999938964844", "Low": "210.44000244140625", "Close": "216.5399932861328", "Adj Close": "216.01780700683594", "Volume": "78983000"},
{"Date": "2020-08-04", "Open": "214.1699981689453", "High": "214.77000427246094", "Low": "210.30999755859375", "Close": "213.2899932861328", "Adj Close": "212.77565002441406", "Volume": "49280100"},
{"Date": "2020-08-05", "Open": "214.89999389648438", "High": "215.0", "Low": "211.57000732421875", "Close": "212.94000244140625", "Adj Close": "212.42649841308594", "Volume": "28858600"},
{"Date": "2020-08-06", "Open": "212.33999633789062", "High": "216.3699951171875", "Low": "211.5500030517578", "Close": "216.35000610351562", "Adj Close": "215.82827758789062", "Volume": "32656800"},
{"Date": "2020-08-07", "Open": "214.85000610351562", "High": "215.6999969482422", "Low": "210.92999267578125", "Close": "212.47999572753906", "Adj Close": "211.9676055908203", "Volume": "27789600"},
{"Date": "2020-08-10", "Open": "211.6699981689453", "High": "211.8800048828125", "Low": "206.35000610351562", "Close": "208.25", "Adj Close": "207.747802734375", "Volume": "36716500"},
{"Date": "2020-08-11", "Open": "207.16000366210938", "High": "207.64999389648438", "Low": "203.13999938964844", "Close": "203.3800048828125", "Adj Close": "202.88955688476562", "Volume": "36446500"},
{"Date": "2020-08-12", "Open": "205.2899932861328", "High": "210.27999877929688", "Low": "204.75", "Close": "209.19000244140625", "Adj Close": "208.685546875", "Volume": "28041400"},
{"Date": "2020-08-13", "Open": "209.44000244140625", "High": "211.35000610351562", "Low": "208.14999389648438", "Close": "208.6999969482422", "Adj Close": "208.19671630859375", "Volume": "22588900"},
{"Date": "2020-08-14", "Open": "208.75999450683594", "High": "209.58999633789062", "Low": "207.50999450683594", "Close": "208.89999389648438", "Adj Close": "208.396240234375", "Volume": "17958900"},
{"Date": "2020-08-17", "Open": "209.60000610351562", "High": "211.19000244140625", "Low": "208.9199981689453", "Close": "210.27999877929688", "Adj Close": "209.77291870117188", "Volume": "20184800"},
{"Date": "2020-08-18", "Open": "210.52999877929688", "High": "212.36000061035156", "Low": "209.2100067138672", "Close": "211.49000549316406", "Adj Close": "210.97999572753906", "Volume": "21336200"},
{"Date": "2020-08-19", "Open": "211.49000549316406", "High": "212.10000610351562", "Low": "209.25", "Close": "209.6999969482422", "Adj Close": "209.6999969482422", "Volume": "27627600"},
{"Date": "2020-08-20", "Open": "209.5399932861328", "High": "215.0", "Low": "208.91000366210938", "Close": "214.5800018310547", "Adj Close": "214.5800018310547", "Volume": "26981500"},
{"Date": "2020-08-21", "Open": "213.86000061035156", "High": "216.25", "Low": "212.85000610351562", "Close": "213.02000427246094", "Adj Close": "213.02000427246094", "Volume": "36152200"},
{}]