[{"Date": "2019-08-23", "Open": "168.39999389648438", "High": "170.58999633789062", "Low": "161.63999938964844", "Close": "162.44000244140625", "Adj Close": "161.98886108398438", "Volume": "14201400"},
{"Date": "2019-08-26", "Open": "165.61000061035156", "High": "166.5800018310547", "Low": "163.91000366210938", "Close": "165.4499969482422", "Adj Close": "164.990478515625", "Volume": "7955200"},
{"Date": "2019-08-27", "Open": "166.99000549316406", "High": "167.10000610351562", "Low": "160.6199951171875", "Close": "161.8000030517578", "Adj Close": "161.3506317138672", "Volume": "7274200"},
{"Date": "2019-08-28", "Open": "160.5800018310547", "High": "163.33999633789062", "Low": "159.0", "Close": "161.22000122070312", "Adj Close": "160.931396484375", "Volume": "6390300"},
{"Date": "2019-08-29", "Open": "164.89999389648438", "High": "168.3000030517578", "Low": "164.75999450683594", "Close": "167.0", "Adj Close": "166.70103454589844", "Volume": "8949400"},
{"Date": "2019-08-30", "Open": "168.86000061035156", "High": "170.86000061035156", "Low": "166.77999877929688", "Close": "167.50999450683594", "Adj Close": "167.2101287841797", "Volume": "7265400"},
{"Date": "2019-09-03", "Open": "164.5800018310547", "High": "165.91000366210938", "Low": "163.25", "Close": "164.1699981689453", "Adj Close": "163.8760986328125", "Volume": "7403500"},
{"Date": "2019-09-04", "Open": "166.61000061035156", "High": "169.05999755859375", "Low": "166.61000061035156", "Close": "168.75999450683594", "Adj Close": "168.4578857421875", "Volume": "5693200"},
{"Date": "2019-09-05", "Open": "172.8699951171875", "High": "179.99000549316406", "Low": "172.8000030517578", "Close": "179.74000549316406", "Adj Close": "179.41824340820312", "Volume": "17391900"},
{"Date": "2019-09-06", "Open": "178.8000030517578", "High": "181.08999633789062", "Low": "177.1199951171875", "Close": "178.64999389648438", "Adj Close": "178.33016967773438", "Volume": "9424400"},
{"Date": "2019-09-09", "Open": "179.89999389648438", "High": "183.97999572753906", "Low": "179.83999633789062", "Close": "180.5", "Adj Close": "180.17686462402344", "Volume": "10438100"},
{"Date": "2019-09-10", "Open": "179.17999267578125", "High": "184.25", "Low": "178.7899932861328", "Close": "183.17999267578125", "Adj Close": "182.85206604003906", "Volume": "8820300"},
{"Date": "2019-09-11", "Open": "183.77000427246094", "High": "186.27000427246094", "Low": "182.60000610351562", "Close": "184.3300018310547", "Adj Close": "184.00001525878906", "Volume": "9037800"},
{"Date": "2019-09-12", "Open": "186.1999969482422", "High": "188.39999389648438", "Low": "183.9499969482422", "Close": "184.27000427246094", "Adj Close": "183.94012451171875", "Volume": "8196000"},
{"Date": "2019-09-13", "Open": "181.58999633789062", "High": "183.0800018310547", "Low": "180.17999267578125", "Close": "181.94000244140625", "Adj Close": "181.6143035888672", "Volume": "8114800"},
{"Date": "2019-09-16", "Open": "178.9199981689453", "High": "181.60000610351562", "Low": "178.5", "Close": "180.2100067138672", "Adj Close": "179.88739013671875", "Volume": "5795800"},
{"Date": "2019-09-17", "Open": "180.47999572753906", "High": "181.24000549316406", "Low": "178.61000061035156", "Close": "181.07000732421875", "Adj Close": "180.74586486816406", "Volume": "5576200"},
{"Date": "2019-09-18", "Open": "180.7899932861328", "High": "181.4199981689453", "Low": "176.5", "Close": "179.97999572753906", "Adj Close": "179.6577911376953", "Volume": "6453800"},
{"Date": "2019-09-19", "Open": "180.22000122070312", "High": "180.9600067138672", "Low": "176.50999450683594", "Close": "176.94000244140625", "Adj Close": "176.6232452392578", "Volume": "6136900"},
{"Date": "2019-09-20", "Open": "176.89999389648438", "High": "177.85000610351562", "Low": "172.27999877929688", "Close": "172.69000244140625", "Adj Close": "172.380859375", "Volume": "8756100"},
{"Date": "2019-09-23", "Open": "172.6999969482422", "High": "176.6699981689453", "Low": "172.5500030517578", "Close": "174.83999633789062", "Adj Close": "174.52700805664062", "Volume": "6242800"},
{"Date": "2019-09-24", "Open": "176.10000610351562", "High": "177.2899932861328", "Low": "171.10000610351562", "Close": "172.52999877929688", "Adj Close": "172.22113037109375", "Volume": "7931700"},
{"Date": "2019-09-25", "Open": "172.50999450683594", "High": "179.02000427246094", "Low": "170.7100067138672", "Close": "178.22999572753906", "Adj Close": "177.9109344482422", "Volume": "7710800"},
{"Date": "2019-09-26", "Open": "177.83999633789062", "High": "178.19000244140625", "Low": "175.2899932861328", "Close": "177.33999633789062", "Adj Close": "177.0225372314453", "Volume": "5864100"},
{"Date": "2019-09-27", "Open": "175.66000366210938", "High": "177.6999969482422", "Low": "169.32000732421875", "Close": "171.75999450683594", "Adj Close": "171.4525146484375", "Volume": "9051400"},
{"Date": "2019-09-30", "Open": "172.8000030517578", "High": "174.47999572753906", "Low": "171.5399932861328", "Close": "174.07000732421875", "Adj Close": "173.75839233398438", "Volume": "4654600"},
{"Date": "2019-10-01", "Open": "175.0", "High": "181.0", "Low": "173.80999755859375", "Close": "174.0", "Adj Close": "173.68849182128906", "Volume": "9150200"},
{"Date": "2019-10-02", "Open": "173.1199951171875", "High": "173.60000610351562", "Low": "170.1300048828125", "Close": "173.0399932861328", "Adj Close": "172.730224609375", "Volume": "7334300"},
{"Date": "2019-10-03", "Open": "173.22000122070312", "High": "181.55999755859375", "Low": "172.0", "Close": "181.30999755859375", "Adj Close": "180.98541259765625", "Volume": "11264700"},
{"Date": "2019-10-04", "Open": "181.39999389648438", "High": "183.14999389648438", "Low": "178.77999877929688", "Close": "181.97000122070312", "Adj Close": "181.64422607421875", "Volume": "6638100"},
{"Date": "2019-10-07", "Open": "184.5800018310547", "High": "188.33999633789062", "Low": "184.22999572753906", "Close": "184.3300018310547", "Adj Close": "184.00001525878906", "Volume": "12024600"},
{"Date": "2019-10-08", "Open": "180.63999938964844", "High": "180.63999938964844", "Low": "176.5", "Close": "177.22999572753906", "Adj Close": "176.9127197265625", "Volume": "11110900"},
{"Date": "2019-10-09", "Open": "180.32000732421875", "High": "182.6999969482422", "Low": "179.16000366210938", "Close": "180.7100067138672", "Adj Close": "180.38650512695312", "Volume": "7310300"},
{"Date": "2019-10-10", "Open": "180.6199951171875", "High": "185.0800018310547", "Low": "180.41000366210938", "Close": "183.02999877929688", "Adj Close": "182.7023468017578", "Volume": "7728100"},
{"Date": "2019-10-11", "Open": "186.41000366210938", "High": "189.33999633789062", "Low": "185.64999389648438", "Close": "185.99000549316406", "Adj Close": "185.65704345703125", "Volume": "11160100"},
{"Date": "2019-10-14", "Open": "185.63999938964844", "High": "187.3699951171875", "Low": "184.38999938964844", "Close": "186.52999877929688", "Adj Close": "186.19607543945312", "Volume": "5001000"},
{"Date": "2019-10-15", "Open": "190.16000366210938", "High": "199.2899932861328", "Low": "189.60000610351562", "Close": "196.3699951171875", "Adj Close": "196.01844787597656", "Volume": "16603100"},
{"Date": "2019-10-16", "Open": "195.0", "High": "199.22000122070312", "Low": "193.75", "Close": "194.2100067138672", "Adj Close": "193.86233520507812", "Volume": "10723600"},
{"Date": "2019-10-17", "Open": "196.0", "High": "197.80999755859375", "Low": "192.10000610351562", "Close": "194.2899932861328", "Adj Close": "193.9421844482422", "Volume": "6585900"},
{"Date": "2019-10-18", "Open": "194.30999755859375", "High": "195.6199951171875", "Low": "187.5", "Close": "190.49000549316406", "Adj Close": "190.14898681640625", "Volume": "7686000"},
{"Date": "2019-10-21", "Open": "192.9600067138672", "High": "196.5500030517578", "Low": "192.1999969482422", "Close": "196.00999450683594", "Adj Close": "195.6591033935547", "Volume": "6546700"},
{"Date": "2019-10-22", "Open": "198.3000030517578", "High": "202.52999877929688", "Low": "195.3000030517578", "Close": "195.61000061035156", "Adj Close": "195.2598114013672", "Volume": "8218000"},
{"Date": "2019-10-23", "Open": "192.30999755859375", "High": "195.66000366210938", "Low": "191.02999877929688", "Close": "195.08999633789062", "Adj Close": "194.74075317382812", "Volume": "6997900"},
{"Date": "2019-10-24", "Open": "196.75", "High": "198.2100067138672", "Low": "195.3800048828125", "Close": "196.86000061035156", "Adj Close": "196.50759887695312", "Volume": "5800500"},
{"Date": "2019-10-25", "Open": "200.10000610351562", "High": "205.3800048828125", "Low": "199.7899932861328", "Close": "204.5399932861328", "Adj Close": "204.17384338378906", "Volume": "10577300"},
{"Date": "2019-10-28", "Open": "206.3000030517578", "High": "208.89999389648438", "Low": "205.1199951171875", "Close": "206.7899932861328", "Adj Close": "206.4197998046875", "Volume": "8269800"},
{"Date": "2019-10-29", "Open": "206.22999572753906", "High": "206.49000549316406", "Low": "202.13999938964844", "Close": "202.9199981689453", "Adj Close": "202.55673217773438", "Volume": "5280900"},
{"Date": "2019-10-30", "Open": "204.0", "High": "204.22999572753906", "Low": "200.25999450683594", "Close": "203.0", "Adj Close": "202.6365966796875", "Volume": "5149000"},
{"Date": "2019-10-31", "Open": "202.16000366210938", "High": "203.0", "Low": "197.80999755859375", "Close": "201.02000427246094", "Adj Close": "200.66015625", "Volume": "5243300"},
{"Date": "2019-11-01", "Open": "199.60000610351562", "High": "203.88999938964844", "Low": "198.58999633789062", "Close": "202.58999633789062", "Adj Close": "202.22732543945312", "Volume": "7091000"},
{"Date": "2019-11-04", "Open": "205.85000610351562", "High": "211.0", "Low": "204.9199981689453", "Close": "210.5", "Adj Close": "210.12318420410156", "Volume": "9417900"},
{"Date": "2019-11-05", "Open": "210.49000549316406", "High": "211.5399932861328", "Low": "207.67999267578125", "Close": "209.61000061035156", "Adj Close": "209.23475646972656", "Volume": "7521700"},
{"Date": "2019-11-06", "Open": "208.63999938964844", "High": "209.6699981689453", "Low": "204.11000061035156", "Close": "207.6300048828125", "Adj Close": "207.25830078125", "Volume": "6725300"},
{"Date": "2019-11-07", "Open": "211.11000061035156", "High": "211.6999969482422", "Low": "206.5399932861328", "Close": "208.33999633789062", "Adj Close": "207.96702575683594", "Volume": "7008500"},
{"Date": "2019-11-08", "Open": "207.66000366210938", "High": "209.0500030517578", "Low": "206.14999389648438", "Close": "207.77999877929688", "Adj Close": "207.4080352783203", "Volume": "4727500"},
{"Date": "2019-11-11", "Open": "207.75", "High": "209.11000061035156", "Low": "204.27999877929688", "Close": "208.17999267578125", "Adj Close": "207.80731201171875", "Volume": "6085900"},
{"Date": "2019-11-12", "Open": "209.72000122070312", "High": "211.86000061035156", "Low": "208.30999755859375", "Close": "209.61000061035156", "Adj Close": "209.23475646972656", "Volume": "7087600"},
{"Date": "2019-11-13", "Open": "208.35000610351562", "High": "209.4600067138672", "Low": "205.89999389648438", "Close": "208.57000732421875", "Adj Close": "208.19662475585938", "Volume": "7504700"},
{"Date": "2019-11-14", "Open": "208.92999267578125", "High": "209.8800048828125", "Low": "206.52000427246094", "Close": "209.7899932861328", "Adj Close": "209.4144287109375", "Volume": "12952000"},
{"Date": "2019-11-15", "Open": "209.6999969482422", "High": "211.77999877929688", "Low": "200.63999938964844", "Close": "204.19000244140625", "Adj Close": "203.824462890625", "Volume": "26340700"},
{"Date": "2019-11-18", "Open": "203.88999938964844", "High": "213.35000610351562", "Low": "203.77000427246094", "Close": "212.27999877929688", "Adj Close": "211.8999786376953", "Volume": "14364700"},
{"Date": "2019-11-19", "Open": "211.02999877929688", "High": "211.97999572753906", "Low": "205.64999389648438", "Close": "207.99000549316406", "Adj Close": "207.61767578125", "Volume": "10364100"},
{"Date": "2019-11-20", "Open": "207.07000732421875", "High": "214.5500030517578", "Low": "206.55999755859375", "Close": "211.17999267578125", "Adj Close": "210.80194091796875", "Volume": "11814700"},
{"Date": "2019-11-21", "Open": "211.0", "High": "213.24000549316406", "Low": "209.30999755859375", "Close": "210.17999267578125", "Adj Close": "209.80372619628906", "Volume": "7209700"},
{"Date": "2019-11-22", "Open": "211.08999633789062", "High": "212.9600067138672", "Low": "209.94000244140625", "Close": "210.88999938964844", "Adj Close": "210.51246643066406", "Volume": "5602500"},
{"Date": "2019-11-25", "Open": "216.0399932861328", "High": "221.41000366210938", "Low": "215.52000427246094", "Close": "221.2100067138672", "Adj Close": "220.81399536132812", "Volume": "12661900"},
{"Date": "2019-11-26", "Open": "220.5", "High": "220.69000244140625", "Low": "216.74000549316406", "Close": "217.0", "Adj Close": "216.6115264892578", "Volume": "9631100"},
{"Date": "2019-11-27", "Open": "218.6699981689453", "High": "220.0500030517578", "Low": "217.17999267578125", "Close": "218.24000549316406", "Adj Close": "218.0100555419922", "Volume": "5394600"},
{"Date": "2019-11-29", "Open": "217.0", "High": "218.13999938964844", "Low": "215.77999877929688", "Close": "216.74000549316406", "Adj Close": "216.5116424560547", "Volume": "3538900"},
{"Date": "2019-12-02", "Open": "216.4600067138672", "High": "217.0", "Low": "208.63999938964844", "Close": "209.25", "Adj Close": "209.02951049804688", "Volume": "9300900"},
{"Date": "2019-12-03", "Open": "201.8699951171875", "High": "207.82000732421875", "Low": "200.3699951171875", "Close": "207.66000366210938", "Adj Close": "207.4412078857422", "Volume": "11630800"},
{"Date": "2019-12-04", "Open": "211.02000427246094", "High": "211.9199981689453", "Low": "208.27000427246094", "Close": "209.4199981689453", "Adj Close": "209.1993408203125", "Volume": "6835600"},
{"Date": "2019-12-05", "Open": "210.3000030517578", "High": "210.92999267578125", "Low": "207.50999450683594", "Close": "208.74000549316406", "Adj Close": "208.5200653076172", "Volume": "4622100"},
{"Date": "2019-12-06", "Open": "211.52000427246094", "High": "213.49000549316406", "Low": "211.1199951171875", "Close": "212.1699981689453", "Adj Close": "211.94644165039062", "Volume": "5805900"},
{"Date": "2019-12-09", "Open": "211.25", "High": "214.3699951171875", "Low": "210.89999389648438", "Close": "212.1699981689453", "Adj Close": "211.94644165039062", "Volume": "5297000"},
{"Date": "2019-12-10", "Open": "213.3800048828125", "High": "216.05999755859375", "Low": "211.25999450683594", "Close": "213.97999572753906", "Adj Close": "213.75453186035156", "Volume": "6409700"},
{"Date": "2019-12-11", "Open": "214.39999389648438", "High": "217.55999755859375", "Low": "214.3000030517578", "Close": "217.33999633789062", "Adj Close": "217.1110076904297", "Volume": "5844900"},
{"Date": "2019-12-12", "Open": "216.17999267578125", "High": "224.8000030517578", "Low": "215.82000732421875", "Close": "224.07000732421875", "Adj Close": "223.83392333984375", "Volume": "10108700"},
{"Date": "2019-12-13", "Open": "224.19000244140625", "High": "228.97999572753906", "Low": "221.82000732421875", "Close": "223.99000549316406", "Adj Close": "223.75399780273438", "Volume": "11367600"},
{"Date": "2019-12-16", "Open": "225.89999389648438", "High": "228.05999755859375", "Low": "224.77000427246094", "Close": "225.14999389648438", "Adj Close": "224.9127655029297", "Volume": "8024400"},
{"Date": "2019-12-17", "Open": "225.89999389648438", "High": "229.1999969482422", "Low": "225.52000427246094", "Close": "228.2899932861328", "Adj Close": "228.04945373535156", "Volume": "8029900"},
{"Date": "2019-12-18", "Open": "229.69000244140625", "High": "231.94000244140625", "Low": "229.35000610351562", "Close": "229.50999450683594", "Adj Close": "229.26817321777344", "Volume": "8588700"},
{"Date": "2019-12-19", "Open": "230.89999389648438", "High": "236.0", "Low": "230.6999969482422", "Close": "235.4600067138672", "Adj Close": "235.2119140625", "Volume": "11134000"},
{"Date": "2019-12-20", "Open": "238.1300048828125", "High": "240.38999938964844", "Low": "237.36000061035156", "Close": "239.3699951171875", "Adj Close": "239.11776733398438", "Volume": "15076100"},
{"Date": "2019-12-23", "Open": "240.52000427246094", "High": "241.80999755859375", "Low": "238.38999938964844", "Close": "238.82000732421875", "Adj Close": "238.56837463378906", "Volume": "8876500"},
{"Date": "2019-12-24", "Open": "238.1999969482422", "High": "239.30999755859375", "Low": "236.82000732421875", "Close": "238.6199951171875", "Adj Close": "238.3685760498047", "Volume": "3471600"},
{"Date": "2019-12-26", "Open": "238.75999450683594", "High": "240.32000732421875", "Low": "238.0", "Close": "239.19000244140625", "Adj Close": "238.93798828125", "Volume": "4571300"},
{"Date": "2019-12-27", "Open": "239.8000030517578", "High": "240.33999633789062", "Low": "235.80999755859375", "Close": "236.8699951171875", "Adj Close": "236.6204071044922", "Volume": "6366100"},
{"Date": "2019-12-30", "Open": "235.99000549316406", "High": "236.1999969482422", "Low": "231.05999755859375", "Close": "232.32000732421875", "Adj Close": "232.07522583007812", "Volume": "6451400"},
{"Date": "2019-12-31", "Open": "230.89999389648438", "High": "235.67999267578125", "Low": "230.1300048828125", "Close": "235.3000030517578", "Adj Close": "235.0520782470703", "Volume": "5775100"},
{"Date": "2020-01-02", "Open": "238.75", "High": "239.91000366210938", "Low": "236.72000122070312", "Close": "239.91000366210938", "Adj Close": "239.65721130371094", "Volume": "5938400"},
{"Date": "2020-01-03", "Open": "235.10000610351562", "High": "237.8300018310547", "Low": "234.10000610351562", "Close": "236.07000732421875", "Adj Close": "235.82127380371094", "Volume": "5134600"},
{"Date": "2020-01-06", "Open": "232.32000732421875", "High": "237.27000427246094", "Low": "231.27000427246094", "Close": "237.05999755859375", "Adj Close": "236.81021118164062", "Volume": "6565900"},
{"Date": "2020-01-07", "Open": "238.1999969482422", "High": "241.77000427246094", "Low": "236.38999938964844", "Close": "239.92999267578125", "Adj Close": "239.6772003173828", "Volume": "7871400"},
{"Date": "2020-01-08", "Open": "239.75999450683594", "High": "242.0399932861328", "Low": "238.14999389648438", "Close": "240.3800048828125", "Adj Close": "240.12672424316406", "Volume": "6927700"},
{"Date": "2020-01-09", "Open": "243.85000610351562", "High": "245.92999267578125", "Low": "240.86000061035156", "Close": "243.02000427246094", "Adj Close": "242.76394653320312", "Volume": "6377800"},
{"Date": "2020-01-10", "Open": "247.3300018310547", "High": "248.5500030517578", "Low": "243.75", "Close": "244.32000732421875", "Adj Close": "244.06259155273438", "Volume": "7907400"},
{"Date": "2020-01-13", "Open": "247.66000366210938", "High": "252.99000549316406", "Low": "246.75", "Close": "251.97999572753906", "Adj Close": "251.71449279785156", "Volume": "7996000"},
{"Date": "2020-01-14", "Open": "250.25999450683594", "High": "251.27999877929688", "Low": "246.75", "Close": "247.27999877929688", "Adj Close": "247.0194549560547", "Volume": "8977200"},
{"Date": "2020-01-15", "Open": "247.7899932861328", "High": "248.69000244140625", "Low": "244.52999877929688", "Close": "245.57000732421875", "Adj Close": "245.31126403808594", "Volume": "6577600"},
{"Date": "2020-01-16", "Open": "247.72000122070312", "High": "249.1699981689453", "Low": "246.77999877929688", "Close": "248.92999267578125", "Adj Close": "248.66770935058594", "Volume": "7104800"},
{"Date": "2020-01-17", "Open": "249.6999969482422", "High": "250.0", "Low": "247.3699951171875", "Close": "249.27999877929688", "Adj Close": "249.017333984375", "Volume": "6344800"},
{"Date": "2020-01-21", "Open": "247.80999755859375", "High": "249.2899932861328", "Low": "246.57000732421875", "Close": "247.94000244140625", "Adj Close": "247.6787567138672", "Volume": "5447900"},
{"Date": "2020-01-22", "Open": "249.75999450683594", "High": "253.58999633789062", "Low": "249.0", "Close": "250.11000061035156", "Adj Close": "249.8464813232422", "Volume": "5981000"},
{"Date": "2020-01-23", "Open": "251.72000122070312", "High": "253.1999969482422", "Low": "248.14999389648438", "Close": "252.86000061035156", "Adj Close": "252.59356689453125", "Volume": "6112900"},
{"Date": "2020-01-24", "Open": "257.5", "High": "259.5", "Low": "248.3000030517578", "Close": "250.47999572753906", "Adj Close": "250.216064453125", "Volume": "9337800"},
{"Date": "2020-01-27", "Open": "238.24000549316406", "High": "242.25", "Low": "232.22999572753906", "Close": "240.1999969482422", "Adj Close": "239.94691467285156", "Volume": "11763400"},
{"Date": "2020-01-28", "Open": "242.85000610351562", "High": "249.27000427246094", "Low": "240.7100067138672", "Close": "247.97000122070312", "Adj Close": "247.70872497558594", "Volume": "7774400"},
{"Date": "2020-01-29", "Open": "247.38999938964844", "High": "248.83999633789062", "Low": "243.94000244140625", "Close": "245.5399932861328", "Adj Close": "245.28128051757812", "Volume": "6471200"},
{"Date": "2020-01-30", "Open": "241.61000061035156", "High": "246.35000610351562", "Low": "239.39999389648438", "Close": "245.80999755859375", "Adj Close": "245.55099487304688", "Volume": "7262600"},
{"Date": "2020-01-31", "Open": "243.97000122070312", "High": "244.4499969482422", "Low": "234.75", "Close": "236.42999267578125", "Adj Close": "236.18087768554688", "Volume": "9260500"},
{"Date": "2020-02-03", "Open": "235.6999969482422", "High": "241.11000061035156", "Low": "235.4499969482422", "Close": "240.3300018310547", "Adj Close": "240.0767822265625", "Volume": "6398200"},
{"Date": "2020-02-04", "Open": "246.02999877929688", "High": "247.89999389648438", "Low": "244.02000427246094", "Close": "247.1300048828125", "Adj Close": "246.86961364746094", "Volume": "6788600"},
{"Date": "2020-02-05", "Open": "251.99000549316406", "High": "252.39999389648438", "Low": "247.41000366210938", "Close": "250.75999450683594", "Adj Close": "250.4957733154297", "Volume": "5205500"},
{"Date": "2020-02-06", "Open": "252.13999938964844", "High": "254.25", "Low": "248.8800048828125", "Close": "254.25", "Adj Close": "253.98211669921875", "Volume": "5457100"},
{"Date": "2020-02-07", "Open": "252.63999938964844", "High": "253.52999877929688", "Low": "250.57000732421875", "Close": "251.58999633789062", "Adj Close": "251.3249053955078", "Volume": "4743800"},
{"Date": "2020-02-10", "Open": "252.5", "High": "263.0", "Low": "252.3000030517578", "Close": "262.9700012207031", "Adj Close": "262.69293212890625", "Volume": "13240200"},
{"Date": "2020-02-11", "Open": "267.32000732421875", "High": "272.5", "Low": "264.8299865722656", "Close": "267.8900146484375", "Adj Close": "267.6077575683594", "Volume": "15963900"},
{"Date": "2020-02-12", "Open": "270.010009765625", "High": "272.79998779296875", "Low": "268.45001220703125", "Close": "272.5400085449219", "Adj Close": "272.25286865234375", "Volume": "9366100"},
{"Date": "2020-02-13", "Open": "270.2099914550781", "High": "273.4800109863281", "Low": "269.1099853515625", "Close": "270.7799987792969", "Adj Close": "270.49468994140625", "Volume": "13200400"},
{"Date": "2020-02-14", "Open": "287.260009765625", "High": "294.9700012207031", "Low": "286.0", "Close": "289.7900085449219", "Adj Close": "289.48468017578125", "Volume": "26048100"},
{"Date": "2020-02-18", "Open": "285.6400146484375", "High": "297.30999755859375", "Low": "284.8599853515625", "Close": "296.57000732421875", "Adj Close": "296.2575378417969", "Volume": "15504100"},
{"Date": "2020-02-19", "Open": "301.489990234375", "High": "315.4100036621094", "Low": "301.489990234375", "Close": "314.70001220703125", "Adj Close": "314.3684387207031", "Volume": "17358300"},
{"Date": "2020-02-20", "Open": "312.7699890136719", "High": "316.32000732421875", "Low": "296.3500061035156", "Close": "308.70001220703125", "Adj Close": "308.374755859375", "Volume": "20251300"},
{"Date": "2020-02-21", "Open": "304.19000244140625", "High": "305.20001220703125", "Low": "290.6600036621094", "Close": "294.07000732421875", "Adj Close": "293.7601623535156", "Volume": "19204500"},
{"Date": "2020-02-24", "Open": "270.19000244140625", "High": "281.8699951171875", "Low": "268.0", "Close": "273.2799987792969", "Adj Close": "272.9920654296875", "Volume": "21422900"},
{"Date": "2020-02-25", "Open": "276.29998779296875", "High": "278.7900085449219", "Low": "257.9599914550781", "Close": "262.04998779296875", "Adj Close": "261.77386474609375", "Volume": "26387400"},
{"Date": "2020-02-26", "Open": "262.05999755859375", "High": "275.45001220703125", "Low": "262.0", "Close": "267.6499938964844", "Adj Close": "267.36798095703125", "Volume": "18693300"},
{"Date": "2020-02-27", "Open": "254.89999389648438", "High": "267.0", "Low": "248.88999938964844", "Close": "252.60000610351562", "Adj Close": "252.4847869873047", "Volume": "22589300"},
{"Date": "2020-02-28", "Open": "242.4600067138672", "High": "272.4599914550781", "Low": "241.7899932861328", "Close": "270.07000732421875", "Adj Close": "269.9468078613281", "Volume": "28366900"},
{"Date": "2020-03-02", "Open": "276.8999938964844", "High": "277.5899963378906", "Low": "261.0", "Close": "276.42999267578125", "Adj Close": "276.30389404296875", "Volume": "22268600"},
{"Date": "2020-03-03", "Open": "278.6700134277344", "High": "281.07000732421875", "Low": "262.4599914550781", "Close": "265.8900146484375", "Adj Close": "265.76873779296875", "Volume": "16319800"},
{"Date": "2020-03-04", "Open": "270.20001220703125", "High": "284.8900146484375", "Low": "267.20001220703125", "Close": "284.510009765625", "Adj Close": "284.3802185058594", "Volume": "14935200"},
{"Date": "2020-03-05", "Open": "276.5", "High": "283.20001220703125", "Low": "271.5", "Close": "273.2900085449219", "Adj Close": "273.16534423828125", "Volume": "13508200"},
{"Date": "2020-03-06", "Open": "266.0799865722656", "High": "268.3900146484375", "Low": "258.0", "Close": "266.0400085449219", "Adj Close": "265.91864013671875", "Volume": "12885300"},
{"Date": "2020-03-09", "Open": "239.89999389648438", "High": "259.3999938964844", "Low": "238.17999267578125", "Close": "245.44000244140625", "Adj Close": "245.3280487060547", "Volume": "15354000"},
{"Date": "2020-03-10", "Open": "256.5400085449219", "High": "261.0799865722656", "Low": "245.99000549316406", "Close": "261.0799865722656", "Adj Close": "260.9609069824219", "Volume": "14516200"},
{"Date": "2020-03-11", "Open": "255.4600067138672", "High": "256.6000061035156", "Low": "242.57000732421875", "Close": "246.47000122070312", "Adj Close": "246.35757446289062", "Volume": "12499100"},
{"Date": "2020-03-12", "Open": "225.4600067138672", "High": "236.1199951171875", "Low": "215.8000030517578", "Close": "216.30999755859375", "Adj Close": "216.21133422851562", "Volume": "20413500"},
{"Date": "2020-03-13", "Open": "230.5", "High": "241.02000427246094", "Low": "219.61000061035156", "Close": "240.83999633789062", "Adj Close": "240.73013305664062", "Volume": "15870900"},
{"Date": "2020-03-16", "Open": "212.41000366210938", "High": "226.10000610351562", "Low": "194.0", "Close": "196.39999389648438", "Adj Close": "196.31040954589844", "Volume": "18174300"},
{"Date": "2020-03-17", "Open": "200.91000366210938", "High": "220.86000061035156", "Low": "191.0", "Close": "217.27000427246094", "Adj Close": "217.1708984375", "Volume": "20840800"},
{"Date": "2020-03-18", "Open": "200.10000610351562", "High": "209.94000244140625", "Low": "180.67999267578125", "Close": "202.82000732421875", "Adj Close": "202.7274932861328", "Volume": "21856700"},
{"Date": "2020-03-19", "Open": "201.9600067138672", "High": "216.72999572753906", "Low": "193.38999938964844", "Close": "212.97000122070312", "Adj Close": "212.8728485107422", "Volume": "19137800"},
{"Date": "2020-03-20", "Open": "219.0", "High": "230.32000732421875", "Low": "205.1300048828125", "Close": "205.75", "Adj Close": "205.65614318847656", "Volume": "20115900"},
{"Date": "2020-03-23", "Open": "205.7100067138672", "High": "216.47999572753906", "Low": "198.52000427246094", "Close": "212.69000244140625", "Adj Close": "212.59298706054688", "Volume": "16096900"},
{"Date": "2020-03-24", "Open": "229.0", "High": "252.66000366210938", "Low": "228.0500030517578", "Close": "249.17999267578125", "Adj Close": "249.0663299560547", "Volume": "27541100"},
{"Date": "2020-03-25", "Open": "253.8000030517578", "High": "261.82000732421875", "Low": "243.66000366210938", "Close": "245.6199951171875", "Adj Close": "245.50794982910156", "Volume": "19835800"},
{"Date": "2020-03-26", "Open": "253.94000244140625", "High": "262.2200012207031", "Low": "250.0", "Close": "257.239990234375", "Adj Close": "257.1226501464844", "Volume": "17402700"},
{"Date": "2020-03-27", "Open": "250.0", "High": "263.1199951171875", "Low": "248.67999267578125", "Close": "252.72999572753906", "Adj Close": "252.61471557617188", "Volume": "15970700"},
{"Date": "2020-03-30", "Open": "255.36000061035156", "High": "265.9599914550781", "Low": "253.58999633789062", "Close": "265.5899963378906", "Adj Close": "265.4688415527344", "Volume": "15056300"},
{"Date": "2020-03-31", "Open": "267.20001220703125", "High": "275.3999938964844", "Low": "257.75", "Close": "263.6000061035156", "Adj Close": "263.4797668457031", "Volume": "23749000"},
{"Date": "2020-04-01", "Open": "255.64999389648438", "High": "261.5299987792969", "Low": "241.27999877929688", "Close": "243.07000732421875", "Adj Close": "242.95913696289062", "Volume": "16422800"},
{"Date": "2020-04-02", "Open": "244.24000549316406", "High": "256.0", "Low": "242.30999755859375", "Close": "255.47000122070312", "Adj Close": "255.3534698486328", "Volume": "16894100"},
{"Date": "2020-04-03", "Open": "253.9600067138672", "High": "255.6300048828125", "Low": "238.38999938964844", "Close": "243.91000366210938", "Adj Close": "243.79873657226562", "Volume": "16580300"},
{"Date": "2020-04-06", "Open": "255.24000549316406", "High": "269.8800048828125", "Low": "252.92999267578125", "Close": "268.3999938964844", "Adj Close": "268.2775573730469", "Volume": "18197100"},
{"Date": "2020-04-07", "Open": "277.29998779296875", "High": "278.25", "Low": "257.29998779296875", "Close": "259.0299987792969", "Adj Close": "258.9118347167969", "Volume": "19613000"},
{"Date": "2020-04-08", "Open": "263.4100036621094", "High": "267.95001220703125", "Low": "260.6000061035156", "Close": "266.95001220703125", "Adj Close": "266.8282470703125", "Volume": "13561100"},
{"Date": "2020-04-09", "Open": "272.0", "High": "272.9200134277344", "Low": "260.4200134277344", "Close": "262.95001220703125", "Adj Close": "262.830078125", "Volume": "13156200"},
{"Date": "2020-04-13", "Open": "260.54998779296875", "High": "270.20001220703125", "Low": "257.0", "Close": "269.8500061035156", "Adj Close": "269.7268981933594", "Volume": "9960200"},
{"Date": "2020-04-14", "Open": "275.0", "High": "285.32000732421875", "Low": "273.8900146484375", "Close": "283.95001220703125", "Adj Close": "283.82049560546875", "Volume": "13273700"},
{"Date": "2020-04-15", "Open": "277.20001220703125", "High": "284.1700134277344", "Low": "275.3800048828125", "Close": "280.8399963378906", "Adj Close": "280.7118835449219", "Volume": "9153700"},
{"Date": "2020-04-16", "Open": "287.0799865722656", "High": "299.0", "Low": "286.54998779296875", "Close": "294.70001220703125", "Adj Close": "294.5655822753906", "Volume": "18640500"},
{"Date": "2020-04-17", "Open": "298.0", "High": "298.8599853515625", "Low": "286.94000244140625", "Close": "292.32000732421875", "Adj Close": "292.1866760253906", "Volume": "13478000"},
{"Date": "2020-04-20", "Open": "287.239990234375", "High": "293.5", "Low": "285.2699890136719", "Close": "287.04998779296875", "Adj Close": "286.9190368652344", "Volume": "11234700"},
{"Date": "2020-04-21", "Open": "282.30999755859375", "High": "284.7699890136719", "Low": "267.1099853515625", "Close": "269.510009765625", "Adj Close": "269.3870849609375", "Volume": "18379000"},
{"Date": "2020-04-22", "Open": "277.2300109863281", "High": "287.8699951171875", "Low": "275.3999938964844", "Close": "286.1499938964844", "Adj Close": "286.01947021484375", "Volume": "12118200"},
{"Date": "2020-04-23", "Open": "287.8399963378906", "High": "293.1400146484375", "Low": "283.0", "Close": "284.010009765625", "Adj Close": "283.8804626464844", "Volume": "10604000"},
{"Date": "2020-04-24", "Open": "283.6000061035156", "High": "289.6700134277344", "Low": "280.6000061035156", "Close": "289.5899963378906", "Adj Close": "289.4578857421875", "Volume": "8816100"},
{"Date": "2020-04-27", "Open": "294.989990234375", "High": "303.5", "Low": "294.0", "Close": "297.0799865722656", "Adj Close": "296.9444580078125", "Volume": "11984700"},
{"Date": "2020-04-28", "Open": "303.0", "High": "304.20001220703125", "Low": "291.1400146484375", "Close": "291.3599853515625", "Adj Close": "291.2270812988281", "Volume": "11072600"},
{"Date": "2020-04-29", "Open": "296.7699890136719", "High": "300.5799865722656", "Low": "293.75", "Close": "298.4599914550781", "Adj Close": "298.3238525390625", "Volume": "9479000"},
{"Date": "2020-04-30", "Open": "296.2900085449219", "High": "298.4599914550781", "Low": "291.7200012207031", "Close": "292.2799987792969", "Adj Close": "292.14666748046875", "Volume": "9372900"},
{"Date": "2020-05-01", "Open": "284.3500061035156", "High": "288.8999938964844", "Low": "280.8399963378906", "Close": "282.7799987792969", "Adj Close": "282.6510009765625", "Volume": "8552400"},
{"Date": "2020-05-04", "Open": "280.8800048828125", "High": "291.8399963378906", "Low": "280.8800048828125", "Close": "291.2900085449219", "Adj Close": "291.1571350097656", "Volume": "7938900"},
{"Date": "2020-05-05", "Open": "295.4700012207031", "High": "300.2699890136719", "Low": "291.2900085449219", "Close": "293.739990234375", "Adj Close": "293.6059875488281", "Volume": "9222400"},
{"Date": "2020-05-06", "Open": "296.92999267578125", "High": "302.0", "Low": "295.4100036621094", "Close": "297.7900085449219", "Adj Close": "297.6541748046875", "Volume": "8086600"},
{"Date": "2020-05-07", "Open": "303.3800048828125", "High": "307.4100036621094", "Low": "301.32000732421875", "Close": "304.8699951171875", "Adj Close": "304.7309265136719", "Volume": "9343300"},
{"Date": "2020-05-08", "Open": "307.75", "High": "312.75", "Low": "306.3900146484375", "Close": "312.5", "Adj Close": "312.3574523925781", "Volume": "8497700"},
{"Date": "2020-05-11", "Open": "312.29998779296875", "High": "324.5", "Low": "311.1499938964844", "Close": "322.6199951171875", "Adj Close": "322.47283935546875", "Volume": "11705900"},
{"Date": "2020-05-12", "Open": "324.94000244140625", "High": "326.8999938964844", "Low": "311.7099914550781", "Close": "312.1000061035156", "Adj Close": "311.9576416015625", "Volume": "12326500"},
{"Date": "2020-05-13", "Open": "316.70001220703125", "High": "323.1400146484375", "Low": "303.7900085449219", "Close": "311.20001220703125", "Adj Close": "311.05804443359375", "Volume": "15646300"},
{"Date": "2020-05-14", "Open": "313.6700134277344", "High": "321.44000244140625", "Low": "307.5", "Close": "321.2200012207031", "Adj Close": "321.073486328125", "Volume": "15057800"},
{"Date": "2020-05-15", "Open": "315.5899963378906", "High": "340.0199890136719", "Low": "314.9599914550781", "Close": "339.6300048828125", "Adj Close": "339.4750671386719", "Volume": "24691500"},
{"Date": "2020-05-18", "Open": "350.4200134277344", "High": "356.6600036621094", "Low": "347.2200012207031", "Close": "350.010009765625", "Adj Close": "349.850341796875", "Volume": "19410100"},
{"Date": "2020-05-19", "Open": "351.6099853515625", "High": "363.5", "Low": "350.510009765625", "Close": "352.2200012207031", "Adj Close": "352.059326171875", "Volume": "17933000"},
{"Date": "2020-05-20", "Open": "359.6400146484375", "High": "361.7200012207031", "Low": "355.54998779296875", "Close": "358.79998779296875", "Adj Close": "358.6363220214844", "Volume": "14688400"},
{"Date": "2020-05-21", "Open": "362.05999755859375", "High": "362.1000061035156", "Low": "349.5", "Close": "351.010009765625", "Adj Close": "350.8498840332031", "Volume": "19026700"},
{"Date": "2020-05-22", "Open": "353.010009765625", "High": "363.7200012207031", "Low": "348.5299987792969", "Close": "361.04998779296875", "Adj Close": "360.8852844238281", "Volume": "25969100"},
{"Date": "2020-05-26", "Open": "366.2699890136719", "High": "367.2699890136719", "Low": "346.8800048828125", "Close": "348.7099914550781", "Adj Close": "348.5509338378906", "Volume": "19269500"},
{"Date": "2020-05-27", "Open": "345.0", "High": "345.30999755859375", "Low": "319.8699951171875", "Close": "341.010009765625", "Adj Close": "340.8544616699219", "Volume": "29397300"},
{"Date": "2020-05-28", "Open": "336.489990234375", "High": "350.4200134277344", "Low": "335.1700134277344", "Close": "339.4800109863281", "Adj Close": "339.3251647949219", "Volume": "18372400"},
{"Date": "2020-05-29", "Open": "342.17999267578125", "High": "355.0199890136719", "Low": "339.3999938964844", "Close": "355.0199890136719", "Adj Close": "354.8580322265625", "Volume": "18648000"},
{"Date": "2020-06-01", "Open": "353.3299865722656", "High": "353.6300048828125", "Low": "347.5799865722656", "Close": "352.25", "Adj Close": "352.0893249511719", "Volume": "9746900"},
{"Date": "2020-06-02", "Open": "351.8500061035156", "High": "353.489990234375", "Low": "346.32000732421875", "Close": "353.010009765625", "Adj Close": "352.8489685058594", "Volume": "9783000"},
{"Date": "2020-06-03", "Open": "352.8900146484375", "High": "354.6499938964844", "Low": "348.0", "Close": "350.7799987792969", "Adj Close": "350.6199951171875", "Volume": "9136000"},
{"Date": "2020-06-04", "Open": "349.1199951171875", "High": "357.7300109863281", "Low": "347.1000061035156", "Close": "350.6600036621094", "Adj Close": "350.6600036621094", "Volume": "10607000"},
{"Date": "2020-06-05", "Open": "351.7799987792969", "High": "359.8800048828125", "Low": "348.32000732421875", "Close": "356.79998779296875", "Adj Close": "356.79998779296875", "Volume": "12043700"},
{"Date": "2020-06-08", "Open": "355.0899963378906", "High": "355.5899963378906", "Low": "347.42999267578125", "Close": "352.20001220703125", "Adj Close": "352.20001220703125", "Volume": "9693400"},
{"Date": "2020-06-09", "Open": "352.0", "High": "364.3900146484375", "Low": "350.04998779296875", "Close": "361.8399963378906", "Adj Close": "361.8399963378906", "Volume": "11712200"},
{"Date": "2020-06-10", "Open": "366.7099914550781", "High": "380.0", "Low": "366.1400146484375", "Close": "374.6700134277344", "Adj Close": "374.6700134277344", "Volume": "15804500"},
{"Date": "2020-06-11", "Open": "366.0", "High": "370.45001220703125", "Low": "351.44000244140625", "Close": "351.8500061035156", "Adj Close": "351.8500061035156", "Volume": "14591300"},
{"Date": "2020-06-12", "Open": "366.5", "High": "367.489990234375", "Low": "348.1300048828125", "Close": "357.29998779296875", "Adj Close": "357.29998779296875", "Volume": "14252900"},
{"Date": "2020-06-15", "Open": "352.6099853515625", "High": "367.2900085449219", "Low": "349.75", "Close": "366.95001220703125", "Adj Close": "366.95001220703125", "Volume": "10000100"},
{"Date": "2020-06-16", "Open": "369.0", "High": "370.6700134277344", "Low": "353.54998779296875", "Close": "362.739990234375", "Adj Close": "362.739990234375", "Volume": "13392900"},
{"Date": "2020-06-17", "Open": "364.54998779296875", "High": "371.9599914550781", "Low": "362.80999755859375", "Close": "369.44000244140625", "Adj Close": "369.44000244140625", "Volume": "10188300"},
{"Date": "2020-06-18", "Open": "369.0799865722656", "High": "371.29998779296875", "Low": "364.5799865722656", "Close": "368.7200012207031", "Adj Close": "368.7200012207031", "Volume": "6360200"},
{"Date": "2020-06-19", "Open": "369.70001220703125", "High": "377.79998779296875", "Low": "369.0899963378906", "Close": "370.45001220703125", "Adj Close": "370.45001220703125", "Volume": "13104000"},
{"Date": "2020-06-22", "Open": "372.0", "High": "381.25", "Low": "370.92999267578125", "Close": "381.07000732421875", "Adj Close": "381.07000732421875", "Volume": "9961700"},
{"Date": "2020-06-23", "Open": "382.0400085449219", "High": "385.70001220703125", "Low": "376.29998779296875", "Close": "378.0", "Adj Close": "378.0", "Volume": "9377700"},
{"Date": "2020-06-24", "Open": "379.04998779296875", "High": "382.260009765625", "Low": "365.7799987792969", "Close": "369.4200134277344", "Adj Close": "369.4200134277344", "Volume": "11234300"},
{"Date": "2020-06-25", "Open": "374.2300109863281", "High": "380.20001220703125", "Low": "367.2900085449219", "Close": "379.6000061035156", "Adj Close": "379.6000061035156", "Volume": "9401800"},
{"Date": "2020-06-26", "Open": "380.0", "High": "380.0", "Low": "365.0", "Close": "366.20001220703125", "Adj Close": "366.20001220703125", "Volume": "14802100"},
{"Date": "2020-06-29", "Open": "366.7900085449219", "High": "368.17999267578125", "Low": "356.0", "Close": "368.0", "Adj Close": "368.0", "Volume": "8556200"},
{"Date": "2020-06-30", "Open": "372.55999755859375", "High": "381.04998779296875", "Low": "370.6600036621094", "Close": "379.9100036621094", "Adj Close": "379.9100036621094", "Volume": "9197300"},
{"Date": "2020-07-01", "Open": "380.8299865722656", "High": "383.0299987792969", "Low": "376.5199890136719", "Close": "381.20001220703125", "Adj Close": "381.20001220703125", "Volume": "8166200"},
{"Date": "2020-07-02", "Open": "385.55999755859375", "High": "389.5", "Low": "383.1300048828125", "Close": "384.489990234375", "Adj Close": "384.489990234375", "Volume": "9101400"},
{"Date": "2020-07-06", "Open": "389.6700134277344", "High": "396.3500061035156", "Low": "388.5", "Close": "393.57000732421875", "Adj Close": "393.57000732421875", "Volume": "7897300"},
{"Date": "2020-07-07", "Open": "397.8500061035156", "High": "402.79998779296875", "Low": "394.0299987792969", "Close": "394.8699951171875", "Adj Close": "394.8699951171875", "Volume": "8945000"},
{"Date": "2020-07-08", "Open": "399.75", "High": "409.0", "Low": "398.6199951171875", "Close": "408.6400146484375", "Adj Close": "408.6400146484375", "Volume": "9137000"},
{"Date": "2020-07-09", "Open": "415.2099914550781", "High": "422.79998779296875", "Low": "409.3399963378906", "Close": "420.3599853515625", "Adj Close": "420.3599853515625", "Volume": "12363700"},
{"Date": "2020-07-10", "Open": "423.54998779296875", "High": "426.2099914550781", "Low": "415.1499938964844", "Close": "419.1700134277344", "Adj Close": "419.1700134277344", "Volume": "12441900"},
{"Date": "2020-07-13", "Open": "423.79998779296875", "High": "431.69000244140625", "Low": "401.0", "Close": "402.0899963378906", "Adj Close": "402.0899963378906", "Volume": "11426900"},
{"Date": "2020-07-14", "Open": "403.0", "High": "416.1099853515625", "Low": "391.4200134277344", "Close": "415.0799865722656", "Adj Close": "415.0799865722656", "Volume": "13566900"},
{"Date": "2020-07-15", "Open": "416.57000732421875", "High": "417.32000732421875", "Low": "402.2300109863281", "Close": "409.0899963378906", "Adj Close": "409.0899963378906", "Volume": "10099600"},
{"Date": "2020-07-16", "Open": "400.6000061035156", "High": "408.2699890136719", "Low": "395.82000732421875", "Close": "405.3900146484375", "Adj Close": "405.3900146484375", "Volume": "8624100"},
{"Date": "2020-07-17", "Open": "409.0199890136719", "High": "409.94000244140625", "Low": "403.510009765625", "Close": "408.05999755859375", "Adj Close": "408.05999755859375", "Volume": "6657100"},
{"Date": "2020-07-20", "Open": "410.9700012207031", "High": "421.25", "Low": "406.2699890136719", "Close": "420.42999267578125", "Adj Close": "420.42999267578125", "Volume": "7121300"},
{"Date": "2020-07-21", "Open": "420.5199890136719", "High": "422.3999938964844", "Low": "411.4700012207031", "Close": "413.1400146484375", "Adj Close": "413.1400146484375", "Volume": "6941700"},
{"Date": "2020-07-22", "Open": "414.70001220703125", "High": "424.1000061035156", "Low": "411.6600036621094", "Close": "417.54998779296875", "Adj Close": "417.54998779296875", "Volume": "9182300"},
{"Date": "2020-07-23", "Open": "418.0", "High": "421.8800048828125", "Low": "401.25", "Close": "405.19000244140625", "Adj Close": "405.19000244140625", "Volume": "10291500"},
{"Date": "2020-07-24", "Open": "395.0", "High": "414.5899963378906", "Low": "391.0799865722656", "Close": "407.7799987792969", "Adj Close": "407.7799987792969", "Volume": "11832300"},
{"Date": "2020-07-27", "Open": "409.2900085449219", "High": "417.6700134277344", "Low": "408.7099914550781", "Close": "416.8599853515625", "Adj Close": "416.8599853515625", "Volume": "7303300"},
{"Date": "2020-07-28", "Open": "414.9700012207031", "High": "415.2799987792969", "Low": "408.3699951171875", "Close": "408.6199951171875", "Adj Close": "408.6199951171875", "Volume": "6790900"},
{"Date": "2020-07-29", "Open": "415.6300048828125", "High": "420.6499938964844", "Low": "413.8800048828125", "Close": "418.6199951171875", "Adj Close": "418.6199951171875", "Volume": "7112700"},
{"Date": "2020-07-30", "Open": "415.0", "High": "424.9200134277344", "Low": "411.80999755859375", "Close": "424.55999755859375", "Adj Close": "424.55999755859375", "Volume": "7722000"},
{"Date": "2020-07-31", "Open": "422.5299987792969", "High": "430.6600036621094", "Low": "417.32000732421875", "Close": "424.5899963378906", "Adj Close": "424.5899963378906", "Volume": "9657200"},
{"Date": "2020-08-03", "Open": "429.29998779296875", "High": "443.95001220703125", "Low": "428.6099853515625", "Close": "440.4100036621094", "Adj Close": "440.4100036621094", "Volume": "10318000"},
{"Date": "2020-08-04", "Open": "442.0", "High": "449.1099853515625", "Low": "436.239990234375", "Close": "449.1099853515625", "Adj Close": "449.1099853515625", "Volume": "7758400"},
{"Date": "2020-08-05", "Open": "449.760009765625", "High": "454.8699951171875", "Low": "446.6499938964844", "Close": "451.4700012207031", "Adj Close": "451.4700012207031", "Volume": "6262500"},
{"Date": "2020-08-06", "Open": "453.989990234375", "High": "454.32000732421875", "Low": "447.1499938964844", "Close": "453.4200134277344", "Adj Close": "453.4200134277344", "Volume": "6107900"},
{"Date": "2020-08-07", "Open": "452.5", "High": "460.19000244140625", "Low": "441.5", "Close": "447.9800109863281", "Adj Close": "447.9800109863281", "Volume": "8555400"},
{"Date": "2020-08-10", "Open": "453.3699951171875", "High": "456.3299865722656", "Low": "434.260009765625", "Close": "446.6000061035156", "Adj Close": "446.6000061035156", "Volume": "10694900"},
{"Date": "2020-08-11", "Open": "442.95001220703125", "High": "445.4700012207031", "Low": "431.8299865722656", "Close": "434.0", "Adj Close": "434.0", "Volume": "8862800"},
{"Date": "2020-08-12", "Open": "439.6300048828125", "High": "458.67999267578125", "Low": "438.3299865722656", "Close": "457.6099853515625", "Adj Close": "457.6099853515625", "Volume": "11623600"},
{"Date": "2020-08-13", "Open": "461.8399963378906", "High": "468.8699951171875", "Low": "454.2300109863281", "Close": "457.7200012207031", "Adj Close": "457.7200012207031", "Volume": "9361500"},
{"Date": "2020-08-14", "Open": "461.20001220703125", "High": "468.19000244140625", "Low": "457.6199951171875", "Close": "462.55999755859375", "Adj Close": "462.55999755859375", "Volume": "9160900"},
{"Date": "2020-08-17", "Open": "474.04998779296875", "High": "496.3900146484375", "Low": "472.69000244140625", "Close": "493.4800109863281", "Adj Close": "493.4800109863281", "Volume": "15532500"},
{"Date": "2020-08-18", "Open": "498.0", "High": "499.8399963378906", "Low": "483.45001220703125", "Close": "490.42999267578125", "Adj Close": "490.42999267578125", "Volume": "12586200"},
{"Date": "2020-08-19", "Open": "491.8599853515625", "High": "492.6000061035156", "Low": "483.9200134277344", "Close": "485.5400085449219", "Adj Close": "485.5400085449219", "Volume": "15565600"},
{"Date": "2020-08-20", "Open": "479.0", "High": "495.0", "Low": "475.1499938964844", "Close": "485.6400146484375", "Adj Close": "485.6400146484375", "Volume": "23034700"},
{"Date": "2020-08-21", "Open": "488.07000732421875", "High": "512.3499755859375", "Low": "487.80999755859375", "Close": "507.3399963378906", "Adj Close": "507.3399963378906", "Volume": "24961200"},
{}]