[{"Date": "2019-08-23", "Open": "6.139999866485596", "High": "6.179999828338623", "Low": "5.960000038146973", "Close": "5.989999771118164", "Adj Close": "5.940916538238525", "Volume": "20287900"},
{"Date": "2019-08-26", "Open": "6.050000190734863", "High": "6.079999923706055", "Low": "6.019999980926514", "Close": "6.079999923706055", "Adj Close": "6.030179023742676", "Volume": "13399100"},
{"Date": "2019-08-27", "Open": "6.099999904632568", "High": "6.130000114440918", "Low": "6.019999980926514", "Close": "6.059999942779541", "Adj Close": "6.010342597961426", "Volume": "19881200"},
{"Date": "2019-08-28", "Open": "6.03000020980835", "High": "6.170000076293945", "Low": "6.03000020980835", "Close": "6.130000114440918", "Adj Close": "6.079769611358643", "Volume": "17559600"},
{"Date": "2019-08-29", "Open": "6.170000076293945", "High": "6.239999771118164", "Low": "6.159999847412109", "Close": "6.210000038146973", "Adj Close": "6.159114360809326", "Volume": "19605300"},
{"Date": "2019-08-30", "Open": "6.230000019073486", "High": "6.239999771118164", "Low": "6.159999847412109", "Close": "6.170000076293945", "Adj Close": "6.119441986083984", "Volume": "12194600"},
{"Date": "2019-09-03", "Open": "6.130000114440918", "High": "6.179999828338623", "Low": "6.099999904632568", "Close": "6.159999847412109", "Adj Close": "6.109523296356201", "Volume": "14389300"},
{"Date": "2019-09-04", "Open": "6.21999979019165", "High": "6.239999771118164", "Low": "6.190000057220459", "Close": "6.210000038146973", "Adj Close": "6.159114360809326", "Volume": "19534400"},
{"Date": "2019-09-05", "Open": "6.25", "High": "6.309999942779541", "Low": "6.21999979019165", "Close": "6.28000020980835", "Adj Close": "6.228540420532227", "Volume": "18319200"},
{"Date": "2019-09-06", "Open": "6.28000020980835", "High": "6.309999942779541", "Low": "6.239999771118164", "Close": "6.25", "Adj Close": "6.19878625869751", "Volume": "23689900"},
{"Date": "2019-09-09", "Open": "6.260000228881836", "High": "6.309999942779541", "Low": "6.210000038146973", "Close": "6.289999961853027", "Adj Close": "6.238458156585693", "Volume": "20174900"},
{"Date": "2019-09-10", "Open": "6.269999980926514", "High": "6.360000133514404", "Low": "6.260000228881836", "Close": "6.360000133514404", "Adj Close": "6.30788516998291", "Volume": "15736300"},
{"Date": "2019-09-11", "Open": "6.389999866485596", "High": "6.5", "Low": "6.369999885559082", "Close": "6.489999771118164", "Adj Close": "6.436819553375244", "Volume": "24888100"},
{"Date": "2019-09-12", "Open": "6.5", "High": "6.5", "Low": "6.369999885559082", "Close": "6.449999809265137", "Adj Close": "6.3971476554870605", "Volume": "18704600"},
{"Date": "2019-09-13", "Open": "6.46999979019165", "High": "6.480000019073486", "Low": "6.349999904632568", "Close": "6.389999866485596", "Adj Close": "6.337638854980469", "Volume": "15609200"},
{"Date": "2019-09-16", "Open": "6.349999904632568", "High": "6.380000114440918", "Low": "6.309999942779541", "Close": "6.369999885559082", "Adj Close": "6.317802906036377", "Volume": "16141500"},
{"Date": "2019-09-17", "Open": "6.349999904632568", "High": "6.489999771118164", "Low": "6.320000171661377", "Close": "6.46999979019165", "Adj Close": "6.416983127593994", "Volume": "21130300"},
{"Date": "2019-09-18", "Open": "6.46999979019165", "High": "6.46999979019165", "Low": "6.320000171661377", "Close": "6.389999866485596", "Adj Close": "6.337638854980469", "Volume": "21635100"},
{"Date": "2019-09-19", "Open": "6.380000114440918", "High": "6.389999866485596", "Low": "6.329999923706055", "Close": "6.340000152587891", "Adj Close": "6.28804874420166", "Volume": "15642300"},
{"Date": "2019-09-20", "Open": "6.360000133514404", "High": "6.369999885559082", "Low": "6.230000019073486", "Close": "6.260000228881836", "Adj Close": "6.208704471588135", "Volume": "43642900"},
{"Date": "2019-09-23", "Open": "6.289999961853027", "High": "6.329999923706055", "Low": "6.28000020980835", "Close": "6.289999961853027", "Adj Close": "6.238458156585693", "Volume": "13508300"},
{"Date": "2019-09-24", "Open": "6.360000133514404", "High": "6.369999885559082", "Low": "6.21999979019165", "Close": "6.230000019073486", "Adj Close": "6.178950309753418", "Volume": "18696400"},
{"Date": "2019-09-25", "Open": "6.230000019073486", "High": "6.340000152587891", "Low": "6.230000019073486", "Close": "6.320000171661377", "Adj Close": "6.268212795257568", "Volume": "12752600"},
{"Date": "2019-09-26", "Open": "6.300000190734863", "High": "6.329999923706055", "Low": "6.21999979019165", "Close": "6.260000228881836", "Adj Close": "6.208704471588135", "Volume": "10440700"},
{"Date": "2019-09-27", "Open": "6.289999961853027", "High": "6.309999942779541", "Low": "6.170000076293945", "Close": "6.210000038146973", "Adj Close": "6.159114360809326", "Volume": "14444400"},
{"Date": "2019-09-30", "Open": "6.25", "High": "6.269999980926514", "Low": "6.21999979019165", "Close": "6.260000228881836", "Adj Close": "6.208704471588135", "Volume": "12526000"},
{"Date": "2019-10-01", "Open": "6.28000020980835", "High": "6.340000152587891", "Low": "6.170000076293945", "Close": "6.179999828338623", "Adj Close": "6.129359722137451", "Volume": "15147600"},
{"Date": "2019-10-02", "Open": "6.179999828338623", "High": "6.260000228881836", "Low": "6.170000076293945", "Close": "6.230000019073486", "Adj Close": "6.178950309753418", "Volume": "17831500"},
{"Date": "2019-10-03", "Open": "6.230000019073486", "High": "6.369999885559082", "Low": "6.179999828338623", "Close": "6.349999904632568", "Adj Close": "6.297966480255127", "Volume": "21844800"},
{"Date": "2019-10-04", "Open": "6.349999904632568", "High": "6.449999809265137", "Low": "6.349999904632568", "Close": "6.380000114440918", "Adj Close": "6.327721118927002", "Volume": "14658000"},
{"Date": "2019-10-07", "Open": "6.360000133514404", "High": "6.409999847412109", "Low": "6.309999942779541", "Close": "6.329999923706055", "Adj Close": "6.278130531311035", "Volume": "14847400"},
{"Date": "2019-10-08", "Open": "6.309999942779541", "High": "6.320000171661377", "Low": "6.230000019073486", "Close": "6.239999771118164", "Adj Close": "6.188868045806885", "Volume": "17461200"},
{"Date": "2019-10-09", "Open": "6.260000228881836", "High": "6.28000020980835", "Low": "6.190000057220459", "Close": "6.25", "Adj Close": "6.19878625869751", "Volume": "11358900"},
{"Date": "2019-10-10", "Open": "6.230000019073486", "High": "6.309999942779541", "Low": "6.21999979019165", "Close": "6.25", "Adj Close": "6.19878625869751", "Volume": "13810400"},
{"Date": "2019-10-11", "Open": "6.309999942779541", "High": "6.380000114440918", "Low": "6.300000190734863", "Close": "6.309999942779541", "Adj Close": "6.258294582366943", "Volume": "14011200"},
{"Date": "2019-10-14", "Open": "6.309999942779541", "High": "6.360000133514404", "Low": "6.25", "Close": "6.329999923706055", "Adj Close": "6.278130531311035", "Volume": "10814000"},
{"Date": "2019-10-15", "Open": "6.340000152587891", "High": "6.46999979019165", "Low": "6.340000152587891", "Close": "6.440000057220459", "Adj Close": "6.3872294425964355", "Volume": "17779400"},
{"Date": "2019-10-16", "Open": "6.409999847412109", "High": "6.480000019073486", "Low": "6.369999885559082", "Close": "6.429999828338623", "Adj Close": "6.377310752868652", "Volume": "16375200"},
{"Date": "2019-10-17", "Open": "6.46999979019165", "High": "6.5", "Low": "6.400000095367432", "Close": "6.480000019073486", "Adj Close": "6.426901340484619", "Volume": "15003600"},
{"Date": "2019-10-18", "Open": "6.5", "High": "6.5", "Low": "6.409999847412109", "Close": "6.429999828338623", "Adj Close": "6.377310752868652", "Volume": "13505400"},
{"Date": "2019-10-21", "Open": "6.440000057220459", "High": "6.489999771118164", "Low": "6.369999885559082", "Close": "6.420000076293945", "Adj Close": "6.367393493652344", "Volume": "14247700"},
{"Date": "2019-10-22", "Open": "6.420000076293945", "High": "6.429999828338623", "Low": "6.380000114440918", "Close": "6.400000095367432", "Adj Close": "6.347557544708252", "Volume": "16217500"},
{"Date": "2019-10-23", "Open": "6.409999847412109", "High": "6.46999979019165", "Low": "6.400000095367432", "Close": "6.449999809265137", "Adj Close": "6.3971476554870605", "Volume": "12609800"},
{"Date": "2019-10-24", "Open": "6.409999847412109", "High": "6.46999979019165", "Low": "6.320000171661377", "Close": "6.460000038146973", "Adj Close": "6.407065391540527", "Volume": "23836600"},
{"Date": "2019-10-25", "Open": "6.440000057220459", "High": "6.5", "Low": "6.400000095367432", "Close": "6.440000057220459", "Adj Close": "6.3872294425964355", "Volume": "17305700"},
{"Date": "2019-10-28", "Open": "6.449999809265137", "High": "6.489999771118164", "Low": "6.440000057220459", "Close": "6.460000038146973", "Adj Close": "6.407065391540527", "Volume": "11817300"},
{"Date": "2019-10-29", "Open": "6.440000057220459", "High": "6.46999979019165", "Low": "6.349999904632568", "Close": "6.369999885559082", "Adj Close": "6.317802906036377", "Volume": "19939200"},
{"Date": "2019-10-30", "Open": "6.400000095367432", "High": "6.46999979019165", "Low": "6.289999961853027", "Close": "6.46999979019165", "Adj Close": "6.416983127593994", "Volume": "19987100"},
{"Date": "2019-10-31", "Open": "6.480000019073486", "High": "6.75", "Low": "6.480000019073486", "Close": "6.71999979019165", "Adj Close": "6.664935111999512", "Volume": "38352500"},
{"Date": "2019-11-01", "Open": "6.739999771118164", "High": "6.840000152587891", "Low": "6.71999979019165", "Close": "6.820000171661377", "Adj Close": "6.764115810394287", "Volume": "29940400"},
{"Date": "2019-11-04", "Open": "6.849999904632568", "High": "6.860000133514404", "Low": "6.75", "Close": "6.769999980926514", "Adj Close": "6.71452522277832", "Volume": "16884900"},
{"Date": "2019-11-05", "Open": "6.78000020980835", "High": "6.880000114440918", "Low": "6.75", "Close": "6.829999923706055", "Adj Close": "6.774033546447754", "Volume": "16268600"},
{"Date": "2019-11-06", "Open": "6.829999923706055", "High": "6.849999904632568", "Low": "6.760000228881836", "Close": "6.78000020980835", "Adj Close": "6.724443435668945", "Volume": "16716500"},
{"Date": "2019-11-07", "Open": "6.789999961853027", "High": "6.860000133514404", "Low": "6.78000020980835", "Close": "6.800000190734863", "Adj Close": "6.757236003875732", "Volume": "17093400"},
{"Date": "2019-11-08", "Open": "6.800000190734863", "High": "6.880000114440918", "Low": "6.769999980926514", "Close": "6.849999904632568", "Adj Close": "6.806921482086182", "Volume": "15187700"},
{"Date": "2019-11-11", "Open": "6.820000171661377", "High": "6.989999771118164", "Low": "6.809999942779541", "Close": "6.960000038146973", "Adj Close": "6.916230201721191", "Volume": "14044400"},
{"Date": "2019-11-12", "Open": "6.949999809265137", "High": "6.980000019073486", "Low": "6.900000095367432", "Close": "6.929999828338623", "Adj Close": "6.886417865753174", "Volume": "17860200"},
{"Date": "2019-11-13", "Open": "6.920000076293945", "High": "6.980000019073486", "Low": "6.880000114440918", "Close": "6.880000114440918", "Adj Close": "6.836732864379883", "Volume": "22869100"},
{"Date": "2019-11-14", "Open": "6.889999866485596", "High": "6.989999771118164", "Low": "6.880000114440918", "Close": "6.980000019073486", "Adj Close": "6.936103820800781", "Volume": "18931900"},
{"Date": "2019-11-15", "Open": "6.989999771118164", "High": "7.0", "Low": "6.909999847412109", "Close": "6.920000076293945", "Adj Close": "6.876481056213379", "Volume": "16341900"},
{"Date": "2019-11-18", "Open": "6.920000076293945", "High": "6.96999979019165", "Low": "6.909999847412109", "Close": "6.949999809265137", "Adj Close": "6.906292915344238", "Volume": "14965600"},
{"Date": "2019-11-19", "Open": "6.960000038146973", "High": "6.989999771118164", "Low": "6.909999847412109", "Close": "6.96999979019165", "Adj Close": "6.926166534423828", "Volume": "14483400"},
{"Date": "2019-11-20", "Open": "6.929999828338623", "High": "6.96999979019165", "Low": "6.840000152587891", "Close": "6.900000095367432", "Adj Close": "6.856606960296631", "Volume": "13479400"},
{"Date": "2019-11-21", "Open": "6.940000057220459", "High": "6.96999979019165", "Low": "6.840000152587891", "Close": "6.960000038146973", "Adj Close": "6.916230201721191", "Volume": "24243000"},
{"Date": "2019-11-22", "Open": "7.0", "High": "7.0", "Low": "6.800000190734863", "Close": "6.809999942779541", "Adj Close": "6.767172813415527", "Volume": "60455900"},
{"Date": "2019-11-25", "Open": "6.829999923706055", "High": "6.880000114440918", "Low": "6.769999980926514", "Close": "6.849999904632568", "Adj Close": "6.806921482086182", "Volume": "22622300"},
{"Date": "2019-11-26", "Open": "6.860000133514404", "High": "6.900000095367432", "Low": "6.820000171661377", "Close": "6.900000095367432", "Adj Close": "6.856606960296631", "Volume": "24795400"},
{"Date": "2019-11-27", "Open": "6.880000114440918", "High": "6.949999809265137", "Low": "6.880000114440918", "Close": "6.929999828338623", "Adj Close": "6.886417865753174", "Volume": "20603400"},
{"Date": "2019-11-29", "Open": "6.960000038146973", "High": "7.0", "Low": "6.880000114440918", "Close": "6.980000019073486", "Adj Close": "6.936103820800781", "Volume": "11191700"},
{"Date": "2019-12-02", "Open": "6.96999979019165", "High": "6.980000019073486", "Low": "6.880000114440918", "Close": "6.889999866485596", "Adj Close": "6.8466691970825195", "Volume": "28645900"},
{"Date": "2019-12-03", "Open": "6.909999847412109", "High": "6.920000076293945", "Low": "6.699999809265137", "Close": "6.78000020980835", "Adj Close": "6.737361907958984", "Volume": "31395100"},
{"Date": "2019-12-04", "Open": "6.800000190734863", "High": "6.869999885559082", "Low": "6.769999980926514", "Close": "6.869999885559082", "Adj Close": "6.82679557800293", "Volume": "19197000"},
{"Date": "2019-12-05", "Open": "6.889999866485596", "High": "6.889999866485596", "Low": "6.829999923706055", "Close": "6.860000133514404", "Adj Close": "6.816858768463135", "Volume": "19524100"},
{"Date": "2019-12-06", "Open": "6.909999847412109", "High": "6.920000076293945", "Low": "6.829999923706055", "Close": "6.829999923706055", "Adj Close": "6.787046909332275", "Volume": "17528400"},
{"Date": "2019-12-09", "Open": "6.829999923706055", "High": "6.880000114440918", "Low": "6.820000171661377", "Close": "6.869999885559082", "Adj Close": "6.82679557800293", "Volume": "9895600"},
{"Date": "2019-12-10", "Open": "6.869999885559082", "High": "6.940000057220459", "Low": "6.849999904632568", "Close": "6.889999866485596", "Adj Close": "6.8466691970825195", "Volume": "14622600"},
{"Date": "2019-12-11", "Open": "6.900000095367432", "High": "6.909999847412109", "Low": "6.840000152587891", "Close": "6.869999885559082", "Adj Close": "6.82679557800293", "Volume": "14475600"},
{"Date": "2019-12-12", "Open": "6.869999885559082", "High": "6.929999828338623", "Low": "6.840000152587891", "Close": "6.889999866485596", "Adj Close": "6.8466691970825195", "Volume": "18781200"},
{"Date": "2019-12-13", "Open": "6.889999866485596", "High": "6.960000038146973", "Low": "6.849999904632568", "Close": "6.920000076293945", "Adj Close": "6.876481056213379", "Volume": "22634300"},
{"Date": "2019-12-16", "Open": "6.929999828338623", "High": "6.96999979019165", "Low": "6.889999866485596", "Close": "6.949999809265137", "Adj Close": "6.906292915344238", "Volume": "14477000"},
{"Date": "2019-12-17", "Open": "6.960000038146973", "High": "6.989999771118164", "Low": "6.900000095367432", "Close": "6.989999771118164", "Adj Close": "6.946041107177734", "Volume": "15695500"},
{"Date": "2019-12-18", "Open": "6.980000019073486", "High": "7.050000190734863", "Low": "6.96999979019165", "Close": "7.039999961853027", "Adj Close": "6.995726585388184", "Volume": "22037300"},
{"Date": "2019-12-19", "Open": "7.039999961853027", "High": "7.090000152587891", "Low": "7.039999961853027", "Close": "7.079999923706055", "Adj Close": "7.035475254058838", "Volume": "17671700"},
{"Date": "2019-12-20", "Open": "7.090000152587891", "High": "7.179999828338623", "Low": "7.079999923706055", "Close": "7.179999828338623", "Adj Close": "7.134846210479736", "Volume": "35855700"},
{"Date": "2019-12-23", "Open": "7.159999847412109", "High": "7.179999828338623", "Low": "7.070000171661377", "Close": "7.090000152587891", "Adj Close": "7.045412540435791", "Volume": "14027600"},
{"Date": "2019-12-24", "Open": "7.119999885559082", "High": "7.150000095367432", "Low": "7.110000133514404", "Close": "7.139999866485596", "Adj Close": "7.095097541809082", "Volume": "5279200"},
{"Date": "2019-12-26", "Open": "7.159999847412109", "High": "7.170000076293945", "Low": "7.139999866485596", "Close": "7.159999847412109", "Adj Close": "7.11497163772583", "Volume": "9272400"},
{"Date": "2019-12-27", "Open": "7.170000076293945", "High": "7.199999809265137", "Low": "7.119999885559082", "Close": "7.139999866485596", "Adj Close": "7.095097541809082", "Volume": "9165600"},
{"Date": "2019-12-30", "Open": "7.139999866485596", "High": "7.159999847412109", "Low": "7.070000171661377", "Close": "7.090000152587891", "Adj Close": "7.045412540435791", "Volume": "12093100"},
{"Date": "2019-12-31", "Open": "7.090000152587891", "High": "7.159999847412109", "Low": "7.090000152587891", "Close": "7.150000095367432", "Adj Close": "7.105034828186035", "Volume": "12060900"},
{"Date": "2020-01-02", "Open": "7.130000114440918", "High": "7.190000057220459", "Low": "7.099999904632568", "Close": "7.130000114440918", "Adj Close": "7.085160732269287", "Volume": "15984400"},
{"Date": "2020-01-03", "Open": "7.050000190734863", "High": "7.139999866485596", "Low": "7.010000228881836", "Close": "7.090000152587891", "Adj Close": "7.045412540435791", "Volume": "24579200"},
{"Date": "2020-01-06", "Open": "7.050000190734863", "High": "7.139999866485596", "Low": "7.039999961853027", "Close": "7.119999885559082", "Adj Close": "7.075222969055176", "Volume": "18958600"},
{"Date": "2020-01-07", "Open": "7.079999923706055", "High": "7.159999847412109", "Low": "7.050000190734863", "Close": "7.070000171661377", "Adj Close": "7.025537967681885", "Volume": "20560600"},
{"Date": "2020-01-08", "Open": "7.059999942779541", "High": "7.119999885559082", "Low": "7.019999980926514", "Close": "7.059999942779541", "Adj Close": "7.015600681304932", "Volume": "20770200"},
{"Date": "2020-01-09", "Open": "7.059999942779541", "High": "7.139999866485596", "Low": "7.03000020980835", "Close": "7.050000190734863", "Adj Close": "7.005663871765137", "Volume": "17167800"},
{"Date": "2020-01-10", "Open": "7.059999942779541", "High": "7.059999942779541", "Low": "6.980000019073486", "Close": "7.0", "Adj Close": "6.9559783935546875", "Volume": "17392500"},
{"Date": "2020-01-13", "Open": "7.0", "High": "7.050000190734863", "Low": "6.960000038146973", "Close": "7.050000190734863", "Adj Close": "7.005663871765137", "Volume": "15844200"},
{"Date": "2020-01-14", "Open": "7.019999980926514", "High": "7.139999866485596", "Low": "6.980000019073486", "Close": "7.110000133514404", "Adj Close": "7.065286636352539", "Volume": "20748800"},
{"Date": "2020-01-15", "Open": "7.119999885559082", "High": "7.199999809265137", "Low": "7.099999904632568", "Close": "7.170000076293945", "Adj Close": "7.124909400939941", "Volume": "20946500"},
{"Date": "2020-01-16", "Open": "7.190000057220459", "High": "7.210000038146973", "Low": "7.139999866485596", "Close": "7.199999809265137", "Adj Close": "7.154719829559326", "Volume": "13557400"},
{"Date": "2020-01-17", "Open": "7.210000038146973", "High": "7.230000019073486", "Low": "7.159999847412109", "Close": "7.170000076293945", "Adj Close": "7.124909400939941", "Volume": "14090500"},
{"Date": "2020-01-21", "Open": "7.150000095367432", "High": "7.179999828338623", "Low": "7.119999885559082", "Close": "7.150000095367432", "Adj Close": "7.105034828186035", "Volume": "12909100"},
{"Date": "2020-01-22", "Open": "7.159999847412109", "High": "7.210000038146973", "Low": "7.119999885559082", "Close": "7.199999809265137", "Adj Close": "7.154719829559326", "Volume": "28995600"},
{"Date": "2020-01-23", "Open": "7.170000076293945", "High": "7.179999828338623", "Low": "7.079999923706055", "Close": "7.159999847412109", "Adj Close": "7.11497163772583", "Volume": "18264300"},
{"Date": "2020-01-24", "Open": "7.150000095367432", "High": "7.179999828338623", "Low": "7.050000190734863", "Close": "7.110000133514404", "Adj Close": "7.065286636352539", "Volume": "18141400"},
{"Date": "2020-01-27", "Open": "7.059999942779541", "High": "7.139999866485596", "Low": "7.019999980926514", "Close": "7.119999885559082", "Adj Close": "7.075222969055176", "Volume": "18845000"},
{"Date": "2020-01-28", "Open": "7.130000114440918", "High": "7.159999847412109", "Low": "7.099999904632568", "Close": "7.130000114440918", "Adj Close": "7.085160732269287", "Volume": "19484400"},
{"Date": "2020-01-29", "Open": "7.119999885559082", "High": "7.130000114440918", "Low": "7.050000190734863", "Close": "7.079999923706055", "Adj Close": "7.035475254058838", "Volume": "15905500"},
{"Date": "2020-01-30", "Open": "7.050000190734863", "High": "7.190000057220459", "Low": "7.019999980926514", "Close": "7.190000057220459", "Adj Close": "7.1447834968566895", "Volume": "21907800"},
{"Date": "2020-01-31", "Open": "7.159999847412109", "High": "7.21999979019165", "Low": "7.050000190734863", "Close": "7.070000171661377", "Adj Close": "7.025537967681885", "Volume": "18435100"},
{"Date": "2020-02-03", "Open": "7.099999904632568", "High": "7.199999809265137", "Low": "7.079999923706055", "Close": "7.170000076293945", "Adj Close": "7.124909400939941", "Volume": "23250400"},
{"Date": "2020-02-04", "Open": "7.21999979019165", "High": "7.300000190734863", "Low": "7.139999866485596", "Close": "7.210000038146973", "Adj Close": "7.164657115936279", "Volume": "20751000"},
{"Date": "2020-02-05", "Open": "7.25", "High": "7.289999961853027", "Low": "7.170000076293945", "Close": "7.170000076293945", "Adj Close": "7.124909400939941", "Volume": "19045100"},
{"Date": "2020-02-06", "Open": "7.179999828338623", "High": "7.25", "Low": "7.170000076293945", "Close": "7.190000057220459", "Adj Close": "7.1447834968566895", "Volume": "13389800"},
{"Date": "2020-02-07", "Open": "7.139999866485596", "High": "7.159999847412109", "Low": "7.090000152587891", "Close": "7.110000133514404", "Adj Close": "7.065286636352539", "Volume": "15385000"},
{"Date": "2020-02-10", "Open": "7.130000114440918", "High": "7.199999809265137", "Low": "7.119999885559082", "Close": "7.199999809265137", "Adj Close": "7.154719829559326", "Volume": "14253100"},
{"Date": "2020-02-11", "Open": "7.199999809265137", "High": "7.21999979019165", "Low": "7.159999847412109", "Close": "7.159999847412109", "Adj Close": "7.127841472625732", "Volume": "16604500"},
{"Date": "2020-02-12", "Open": "7.170000076293945", "High": "7.230000019073486", "Low": "7.170000076293945", "Close": "7.210000038146973", "Adj Close": "7.177617073059082", "Volume": "14613300"},
{"Date": "2020-02-13", "Open": "7.210000038146973", "High": "7.25", "Low": "7.199999809265137", "Close": "7.230000019073486", "Adj Close": "7.1975274085998535", "Volume": "10570200"},
{"Date": "2020-02-14", "Open": "7.230000019073486", "High": "7.25", "Low": "7.199999809265137", "Close": "7.210000038146973", "Adj Close": "7.177617073059082", "Volume": "12271400"},
{"Date": "2020-02-18", "Open": "7.190000057220459", "High": "7.239999771118164", "Low": "7.179999828338623", "Close": "7.239999771118164", "Adj Close": "7.207481861114502", "Volume": "13622500"},
{"Date": "2020-02-19", "Open": "7.21999979019165", "High": "7.309999942779541", "Low": "7.210000038146973", "Close": "7.25", "Adj Close": "7.217437267303467", "Volume": "20385600"},
{"Date": "2020-02-20", "Open": "7.28000020980835", "High": "7.400000095367432", "Low": "7.25", "Close": "7.340000152587891", "Adj Close": "7.307033538818359", "Volume": "17588500"},
{"Date": "2020-02-21", "Open": "7.329999923706055", "High": "7.340000152587891", "Low": "7.230000019073486", "Close": "7.239999771118164", "Adj Close": "7.207481861114502", "Volume": "16891300"},
{"Date": "2020-02-24", "Open": "7.159999847412109", "High": "7.21999979019165", "Low": "7.039999961853027", "Close": "7.039999961853027", "Adj Close": "7.00838041305542", "Volume": "31409100"},
{"Date": "2020-02-25", "Open": "7.079999923706055", "High": "7.110000133514404", "Low": "6.949999809265137", "Close": "6.980000019073486", "Adj Close": "6.948649883270264", "Volume": "36293100"},
{"Date": "2020-02-26", "Open": "7.0", "High": "7.039999961853027", "Low": "6.78000020980835", "Close": "6.789999961853027", "Adj Close": "6.759503364562988", "Volume": "40379900"},
{"Date": "2020-02-27", "Open": "6.699999809265137", "High": "6.75", "Low": "6.449999809265137", "Close": "6.460000038146973", "Adj Close": "6.430985450744629", "Volume": "54678300"},
{"Date": "2020-02-28", "Open": "6.300000190734863", "High": "6.429999828338623", "Low": "6.199999809265137", "Close": "6.340000152587891", "Adj Close": "6.311524868011475", "Volume": "55314000"},
{"Date": "2020-03-02", "Open": "6.28000020980835", "High": "6.550000190734863", "Low": "6.260000228881836", "Close": "6.550000190734863", "Adj Close": "6.5205817222595215", "Volume": "37938700"},
{"Date": "2020-03-03", "Open": "6.480000019073486", "High": "6.699999809265137", "Low": "6.420000076293945", "Close": "6.480000019073486", "Adj Close": "6.4508957862854", "Volume": "37680000"},
{"Date": "2020-03-04", "Open": "6.570000171661377", "High": "6.659999847412109", "Low": "6.559999942779541", "Close": "6.650000095367432", "Adj Close": "6.6201324462890625", "Volume": "22911300"},
{"Date": "2020-03-05", "Open": "6.480000019073486", "High": "6.679999828338623", "Low": "6.460000038146973", "Close": "6.639999866485596", "Adj Close": "6.610177040100098", "Volume": "38219700"},
{"Date": "2020-03-06", "Open": "6.360000133514404", "High": "6.550000190734863", "Low": "6.329999923706055", "Close": "6.440000057220459", "Adj Close": "6.411075115203857", "Volume": "33961700"},
{"Date": "2020-03-09", "Open": "6.159999847412109", "High": "6.269999980926514", "Low": "5.96999979019165", "Close": "6.039999961853027", "Adj Close": "6.012871742248535", "Volume": "41161800"},
{"Date": "2020-03-10", "Open": "6.159999847412109", "High": "6.340000152587891", "Low": "5.960000038146973", "Close": "6.329999923706055", "Adj Close": "6.30156946182251", "Volume": "41116900"},
{"Date": "2020-03-11", "Open": "6.119999885559082", "High": "6.260000228881836", "Low": "5.960000038146973", "Close": "6.050000190734863", "Adj Close": "6.0228271484375", "Volume": "36447900"},
{"Date": "2020-03-12", "Open": "5.659999847412109", "High": "5.949999809265137", "Low": "5.28000020980835", "Close": "5.559999942779541", "Adj Close": "5.535027980804443", "Volume": "40210000"},
{"Date": "2020-03-13", "Open": "5.78000020980835", "High": "5.900000095367432", "Low": "5.440000057220459", "Close": "5.900000095367432", "Adj Close": "5.873500823974609", "Volume": "41060800"},
{"Date": "2020-03-16", "Open": "5.239999771118164", "High": "5.730000019073486", "Low": "4.980000019073486", "Close": "5.079999923706055", "Adj Close": "5.057183742523193", "Volume": "47077000"},
{"Date": "2020-03-17", "Open": "5.150000095367432", "High": "5.480000019073486", "Low": "4.889999866485596", "Close": "5.429999828338623", "Adj Close": "5.405611515045166", "Volume": "44691600"},
{"Date": "2020-03-18", "Open": "5.150000095367432", "High": "5.230000019073486", "Low": "4.53000020980835", "Close": "4.75", "Adj Close": "4.728665828704834", "Volume": "58495300"},
{"Date": "2020-03-19", "Open": "4.670000076293945", "High": "4.920000076293945", "Low": "4.510000228881836", "Close": "4.789999961853027", "Adj Close": "4.768486499786377", "Volume": "40726600"},
{"Date": "2020-03-20", "Open": "4.800000190734863", "High": "4.929999828338623", "Low": "4.409999847412109", "Close": "4.440000057220459", "Adj Close": "4.420058250427246", "Volume": "58310800"},
{"Date": "2020-03-23", "Open": "4.380000114440918", "High": "4.599999904632568", "Low": "4.110000133514404", "Close": "4.519999980926514", "Adj Close": "4.499698638916016", "Volume": "58213800"},
{"Date": "2020-03-24", "Open": "4.800000190734863", "High": "4.980000019073486", "Low": "4.699999809265137", "Close": "4.980000019073486", "Adj Close": "4.957632541656494", "Volume": "50657800"},
{"Date": "2020-03-25", "Open": "4.980000019073486", "High": "5.320000171661377", "Low": "4.920000076293945", "Close": "5.050000190734863", "Adj Close": "5.027318477630615", "Volume": "27040100"},
{"Date": "2020-03-26", "Open": "5.070000171661377", "High": "5.349999904632568", "Low": "5.070000171661377", "Close": "5.199999809265137", "Adj Close": "5.176644325256348", "Volume": "27208100"},
{"Date": "2020-03-27", "Open": "5.039999961853027", "High": "5.059999942779541", "Low": "4.900000095367432", "Close": "4.929999828338623", "Adj Close": "4.907857418060303", "Volume": "24632800"},
{"Date": "2020-03-30", "Open": "4.960000038146973", "High": "5.079999923706055", "Low": "4.760000228881836", "Close": "4.809999942779541", "Adj Close": "4.788395881652832", "Volume": "34793000"},
{"Date": "2020-03-31", "Open": "4.840000152587891", "High": "5.119999885559082", "Low": "4.800000190734863", "Close": "4.940000057220459", "Adj Close": "4.917812824249268", "Volume": "29402000"},
{"Date": "2020-04-01", "Open": "4.760000228881836", "High": "4.909999847412109", "Low": "4.599999904632568", "Close": "4.639999866485596", "Adj Close": "4.619159698486328", "Volume": "26473100"},
{"Date": "2020-04-02", "Open": "4.590000152587891", "High": "4.849999904632568", "Low": "4.510000228881836", "Close": "4.75", "Adj Close": "4.728665828704834", "Volume": "23163200"},
{"Date": "2020-04-03", "Open": "4.730000019073486", "High": "4.760000228881836", "Low": "4.409999847412109", "Close": "4.480000019073486", "Adj Close": "4.459878444671631", "Volume": "20780700"},
{"Date": "2020-04-06", "Open": "4.71999979019165", "High": "4.849999904632568", "Low": "4.679999828338623", "Close": "4.789999961853027", "Adj Close": "4.768486499786377", "Volume": "24069200"},
{"Date": "2020-04-07", "Open": "4.920000076293945", "High": "5.099999904632568", "Low": "4.820000171661377", "Close": "4.909999847412109", "Adj Close": "4.887947082519531", "Volume": "28279100"},
{"Date": "2020-04-08", "Open": "4.989999771118164", "High": "5.210000038146973", "Low": "4.920000076293945", "Close": "5.170000076293945", "Adj Close": "5.146779537200928", "Volume": "17521300"},
{"Date": "2020-04-09", "Open": "5.239999771118164", "High": "5.380000114440918", "Low": "5.150000095367432", "Close": "5.25", "Adj Close": "5.2264204025268555", "Volume": "21788400"},
{"Date": "2020-04-13", "Open": "5.21999979019165", "High": "5.230000019073486", "Low": "4.949999809265137", "Close": "5.119999885559082", "Adj Close": "5.09700345993042", "Volume": "18438300"},
{"Date": "2020-04-14", "Open": "5.170000076293945", "High": "5.440000057220459", "Low": "5.139999866485596", "Close": "5.420000076293945", "Adj Close": "5.395657062530518", "Volume": "24209300"},
{"Date": "2020-04-15", "Open": "5.320000171661377", "High": "5.340000152587891", "Low": "5.199999809265137", "Close": "5.300000190734863", "Adj Close": "5.276195526123047", "Volume": "21001600"},
{"Date": "2020-04-16", "Open": "5.320000171661377", "High": "5.380000114440918", "Low": "5.21999979019165", "Close": "5.300000190734863", "Adj Close": "5.276195526123047", "Volume": "22855400"},
{"Date": "2020-04-17", "Open": "5.409999847412109", "High": "5.429999828338623", "Low": "5.199999809265137", "Close": "5.289999961853027", "Adj Close": "5.266240119934082", "Volume": "18197000"},
{"Date": "2020-04-20", "Open": "5.199999809265137", "High": "5.329999923706055", "Low": "5.170000076293945", "Close": "5.21999979019165", "Adj Close": "5.196554660797119", "Volume": "17474300"},
{"Date": "2020-04-21", "Open": "5.130000114440918", "High": "5.170000076293945", "Low": "4.96999979019165", "Close": "5.0", "Adj Close": "4.977542877197266", "Volume": "20590900"},
{"Date": "2020-04-22", "Open": "5.130000114440918", "High": "5.130000114440918", "Low": "5.03000020980835", "Close": "5.050000190734863", "Adj Close": "5.027318477630615", "Volume": "18532500"},
{"Date": "2020-04-23", "Open": "5.110000133514404", "High": "5.570000171661377", "Low": "5.110000133514404", "Close": "5.369999885559082", "Adj Close": "5.34588098526001", "Volume": "51892100"},
{"Date": "2020-04-24", "Open": "5.460000038146973", "High": "5.539999961853027", "Low": "5.289999961853027", "Close": "5.510000228881836", "Adj Close": "5.485252380371094", "Volume": "31043200"},
{"Date": "2020-04-27", "Open": "5.510000228881836", "High": "5.690000057220459", "Low": "5.5", "Close": "5.610000133514404", "Adj Close": "5.584803104400635", "Volume": "21963800"},
{"Date": "2020-04-28", "Open": "5.889999866485596", "High": "6.019999980926514", "Low": "5.579999923706055", "Close": "5.760000228881836", "Adj Close": "5.734129905700684", "Volume": "34013900"},
{"Date": "2020-04-29", "Open": "5.920000076293945", "High": "6.03000020980835", "Low": "5.869999885559082", "Close": "5.920000076293945", "Adj Close": "5.893411159515381", "Volume": "32119300"},
{"Date": "2020-04-30", "Open": "5.920000076293945", "High": "6.0", "Low": "5.800000190734863", "Close": "5.909999847412109", "Adj Close": "5.883455753326416", "Volume": "24064300"},
{"Date": "2020-05-01", "Open": "5.800000190734863", "High": "5.829999923706055", "Low": "5.679999828338623", "Close": "5.800000190734863", "Adj Close": "5.773950099945068", "Volume": "24117400"},
{"Date": "2020-05-04", "Open": "5.75", "High": "5.829999923706055", "Low": "5.610000133514404", "Close": "5.75", "Adj Close": "5.724174499511719", "Volume": "24190800"},
{"Date": "2020-05-05", "Open": "5.789999961853027", "High": "5.800000190734863", "Low": "5.670000076293945", "Close": "5.739999771118164", "Adj Close": "5.714219093322754", "Volume": "24739600"},
{"Date": "2020-05-06", "Open": "5.760000228881836", "High": "5.769999980926514", "Low": "5.619999885559082", "Close": "5.659999847412109", "Adj Close": "5.634578227996826", "Volume": "26369600"},
{"Date": "2020-05-07", "Open": "5.639999866485596", "High": "5.710000038146973", "Low": "5.5", "Close": "5.519999980926514", "Adj Close": "5.507857799530029", "Volume": "36647100"},
{"Date": "2020-05-08", "Open": "5.619999885559082", "High": "5.75", "Low": "5.570000171661377", "Close": "5.75", "Adj Close": "5.737351894378662", "Volume": "29630900"},
{"Date": "2020-05-11", "Open": "5.699999809265137", "High": "5.710000038146973", "Low": "5.590000152587891", "Close": "5.659999847412109", "Adj Close": "5.647549629211426", "Volume": "25272900"},
{"Date": "2020-05-12", "Open": "5.659999847412109", "High": "5.679999828338623", "Low": "5.409999847412109", "Close": "5.429999828338623", "Adj Close": "5.418055534362793", "Volume": "32093600"},
{"Date": "2020-05-13", "Open": "5.420000076293945", "High": "5.480000019073486", "Low": "5.110000133514404", "Close": "5.21999979019165", "Adj Close": "5.208517551422119", "Volume": "42759500"},
{"Date": "2020-05-14", "Open": "5.159999847412109", "High": "5.309999942779541", "Low": "5.010000228881836", "Close": "5.289999961853027", "Adj Close": "5.2783637046813965", "Volume": "56935200"},
{"Date": "2020-05-15", "Open": "5.25", "High": "5.340000152587891", "Low": "5.179999828338623", "Close": "5.340000152587891", "Adj Close": "5.328254222869873", "Volume": "26040700"},
{"Date": "2020-05-18", "Open": "5.489999771118164", "High": "5.639999866485596", "Low": "5.440000057220459", "Close": "5.510000228881836", "Adj Close": "5.497879981994629", "Volume": "44313900"},
{"Date": "2020-05-19", "Open": "5.539999961853027", "High": "5.570000171661377", "Low": "5.420000076293945", "Close": "5.449999809265137", "Adj Close": "5.438011646270752", "Volume": "36371600"},
{"Date": "2020-05-20", "Open": "5.480000019073486", "High": "5.510000228881836", "Low": "5.190000057220459", "Close": "5.230000019073486", "Adj Close": "5.218495845794678", "Volume": "49101700"},
{"Date": "2020-05-21", "Open": "5.230000019073486", "High": "5.230000019073486", "Low": "5.059999942779541", "Close": "5.199999809265137", "Adj Close": "5.18856143951416", "Volume": "51877700"},
{"Date": "2020-05-22", "Open": "5.210000038146973", "High": "5.349999904632568", "Low": "5.170000076293945", "Close": "5.309999942779541", "Adj Close": "5.2983198165893555", "Volume": "39030000"},
{"Date": "2020-05-26", "Open": "5.440000057220459", "High": "5.519999980926514", "Low": "5.320000171661377", "Close": "5.480000019073486", "Adj Close": "5.4679460525512695", "Volume": "38737900"},
{"Date": "2020-05-27", "Open": "5.650000095367432", "High": "5.840000152587891", "Low": "5.639999866485596", "Close": "5.78000020980835", "Adj Close": "5.76728630065918", "Volume": "48189100"},
{"Date": "2020-05-28", "Open": "5.789999961853027", "High": "5.789999961853027", "Low": "5.639999866485596", "Close": "5.679999828338623", "Adj Close": "5.667505741119385", "Volume": "38508700"},
{"Date": "2020-05-29", "Open": "5.659999847412109", "High": "5.860000133514404", "Low": "5.570000171661377", "Close": "5.820000171661377", "Adj Close": "5.8071980476379395", "Volume": "62455300"},
{"Date": "2020-06-01", "Open": "5.820000171661377", "High": "6.0", "Low": "5.809999942779541", "Close": "5.96999979019165", "Adj Close": "5.956867694854736", "Volume": "33708200"},
{"Date": "2020-06-02", "Open": "6.039999961853027", "High": "6.050000190734863", "Low": "5.929999828338623", "Close": "5.980000019073486", "Adj Close": "5.966845989227295", "Volume": "34274200"},
{"Date": "2020-06-03", "Open": "6.039999961853027", "High": "6.289999961853027", "Low": "6.019999980926514", "Close": "6.25", "Adj Close": "6.236252307891846", "Volume": "41905600"},
{"Date": "2020-06-04", "Open": "6.239999771118164", "High": "6.5", "Low": "6.210000038146973", "Close": "6.449999809265137", "Adj Close": "6.435811996459961", "Volume": "57404900"},
{"Date": "2020-06-05", "Open": "6.679999828338623", "High": "6.730000019073486", "Low": "6.460000038146973", "Close": "6.510000228881836", "Adj Close": "6.495680332183838", "Volume": "37423100"},
{"Date": "2020-06-08", "Open": "6.570000171661377", "High": "6.579999923706055", "Low": "6.460000038146973", "Close": "6.519999980926514", "Adj Close": "6.505658149719238", "Volume": "32546900"},
{"Date": "2020-06-09", "Open": "6.440000057220459", "High": "6.460000038146973", "Low": "6.300000190734863", "Close": "6.329999923706055", "Adj Close": "6.316076278686523", "Volume": "23545400"},
{"Date": "2020-06-10", "Open": "6.340000152587891", "High": "6.349999904632568", "Low": "6.090000152587891", "Close": "6.21999979019165", "Adj Close": "6.206317901611328", "Volume": "28889700"},
{"Date": "2020-06-11", "Open": "6.059999942779541", "High": "6.090000152587891", "Low": "5.809999942779541", "Close": "5.849999904632568", "Adj Close": "5.837131977081299", "Volume": "30558300"},
{"Date": "2020-06-12", "Open": "6.019999980926514", "High": "6.059999942779541", "Low": "5.800000190734863", "Close": "5.940000057220459", "Adj Close": "5.926934242248535", "Volume": "33632700"},
{"Date": "2020-06-15", "Open": "5.809999942779541", "High": "6.019999980926514", "Low": "5.789999961853027", "Close": "5.989999771118164", "Adj Close": "5.976823806762695", "Volume": "27087800"},
{"Date": "2020-06-16", "Open": "6.179999828338623", "High": "6.190000057220459", "Low": "5.920000076293945", "Close": "6.039999961853027", "Adj Close": "6.026713848114014", "Volume": "26132800"},
{"Date": "2020-06-17", "Open": "6.039999961853027", "High": "6.099999904632568", "Low": "6.0", "Close": "6.019999980926514", "Adj Close": "6.006758213043213", "Volume": "18052900"},
{"Date": "2020-06-18", "Open": "6.010000228881836", "High": "6.090000152587891", "Low": "5.96999979019165", "Close": "6.059999942779541", "Adj Close": "6.046669960021973", "Volume": "21462900"},
{"Date": "2020-06-19", "Open": "6.119999885559082", "High": "6.170000076293945", "Low": "5.940000057220459", "Close": "5.960000038146973", "Adj Close": "5.946890354156494", "Volume": "43943600"},
{"Date": "2020-06-22", "Open": "5.949999809265137", "High": "6.0", "Low": "5.869999885559082", "Close": "5.960000038146973", "Adj Close": "5.946890354156494", "Volume": "23603300"},
{"Date": "2020-06-23", "Open": "6.010000228881836", "High": "6.070000171661377", "Low": "5.880000114440918", "Close": "5.900000095367432", "Adj Close": "5.887022018432617", "Volume": "29922800"},
{"Date": "2020-06-24", "Open": "5.889999866485596", "High": "5.889999866485596", "Low": "5.710000038146973", "Close": "5.78000020980835", "Adj Close": "5.76728630065918", "Volume": "32398800"},
{"Date": "2020-06-25", "Open": "5.739999771118164", "High": "5.840000152587891", "Low": "5.659999847412109", "Close": "5.820000171661377", "Adj Close": "5.8071980476379395", "Volume": "27065700"},
{"Date": "2020-06-26", "Open": "5.800000190734863", "High": "5.809999942779541", "Low": "5.519999980926514", "Close": "5.539999961853027", "Adj Close": "5.527813911437988", "Volume": "49865900"},
{"Date": "2020-06-29", "Open": "5.570000171661377", "High": "5.730000019073486", "Low": "5.550000190734863", "Close": "5.699999809265137", "Adj Close": "5.687461853027344", "Volume": "23508900"},
{"Date": "2020-06-30", "Open": "5.690000057220459", "High": "5.889999866485596", "Low": "5.650000095367432", "Close": "5.869999885559082", "Adj Close": "5.857088088989258", "Volume": "36890900"},
{"Date": "2020-07-01", "Open": "5.880000114440918", "High": "5.960000038146973", "Low": "5.789999961853027", "Close": "5.889999866485596", "Adj Close": "5.877043724060059", "Volume": "26157600"},
{"Date": "2020-07-02", "Open": "5.980000019073486", "High": "5.980000019073486", "Low": "5.829999923706055", "Close": "5.840000152587891", "Adj Close": "5.827154159545898", "Volume": "24056200"},
{"Date": "2020-07-06", "Open": "5.900000095367432", "High": "5.960000038146973", "Low": "5.849999904632568", "Close": "5.869999885559082", "Adj Close": "5.857088088989258", "Volume": "21656200"},
{"Date": "2020-07-07", "Open": "5.900000095367432", "High": "5.909999847412109", "Low": "5.78000020980835", "Close": "5.789999961853027", "Adj Close": "5.77726411819458", "Volume": "22287700"},
{"Date": "2020-07-08", "Open": "5.78000020980835", "High": "5.820000171661377", "Low": "5.699999809265137", "Close": "5.78000020980835", "Adj Close": "5.76728630065918", "Volume": "20448400"},
{"Date": "2020-07-09", "Open": "5.78000020980835", "High": "5.820000171661377", "Low": "5.590000152587891", "Close": "5.630000114440918", "Adj Close": "5.617616176605225", "Volume": "19778600"},
{"Date": "2020-07-10", "Open": "5.650000095367432", "High": "5.71999979019165", "Low": "5.610000133514404", "Close": "5.699999809265137", "Adj Close": "5.687461853027344", "Volume": "18971600"},
{"Date": "2020-07-13", "Open": "5.690000057220459", "High": "5.78000020980835", "Low": "5.590000152587891", "Close": "5.590000152587891", "Adj Close": "5.577703952789307", "Volume": "22869100"},
{"Date": "2020-07-14", "Open": "5.519999980926514", "High": "5.690000057220459", "Low": "5.510000228881836", "Close": "5.659999847412109", "Adj Close": "5.647549629211426", "Volume": "29249800"},
{"Date": "2020-07-15", "Open": "5.760000228881836", "High": "6.019999980926514", "Low": "5.760000228881836", "Close": "6.010000228881836", "Adj Close": "5.9967803955078125", "Volume": "39096100"},
{"Date": "2020-07-16", "Open": "5.949999809265137", "High": "5.980000019073486", "Low": "5.869999885559082", "Close": "5.949999809265137", "Adj Close": "5.9369120597839355", "Volume": "19878500"},
{"Date": "2020-07-17", "Open": "5.940000057220459", "High": "5.980000019073486", "Low": "5.889999866485596", "Close": "5.889999866485596", "Adj Close": "5.877043724060059", "Volume": "23128600"},
{"Date": "2020-07-20", "Open": "5.889999866485596", "High": "5.920000076293945", "Low": "5.760000228881836", "Close": "5.820000171661377", "Adj Close": "5.8071980476379395", "Volume": "20047700"},
{"Date": "2020-07-21", "Open": "5.860000133514404", "High": "6.03000020980835", "Low": "5.849999904632568", "Close": "5.869999885559082", "Adj Close": "5.857088088989258", "Volume": "23950200"},
{"Date": "2020-07-22", "Open": "5.909999847412109", "High": "5.980000019073486", "Low": "5.860000133514404", "Close": "5.940000057220459", "Adj Close": "5.926934242248535", "Volume": "20668900"},
{"Date": "2020-07-23", "Open": "5.929999828338623", "High": "5.96999979019165", "Low": "5.849999904632568", "Close": "5.889999866485596", "Adj Close": "5.877043724060059", "Volume": "19364500"},
{"Date": "2020-07-24", "Open": "5.900000095367432", "High": "5.949999809265137", "Low": "5.849999904632568", "Close": "5.909999847412109", "Adj Close": "5.896999835968018", "Volume": "19196600"},
{"Date": "2020-07-27", "Open": "5.900000095367432", "High": "5.989999771118164", "Low": "5.840000152587891", "Close": "5.989999771118164", "Adj Close": "5.976823806762695", "Volume": "20470100"},
{"Date": "2020-07-28", "Open": "6.050000190734863", "High": "6.059999942779541", "Low": "5.920000076293945", "Close": "5.949999809265137", "Adj Close": "5.9369120597839355", "Volume": "18707100"},
{"Date": "2020-07-29", "Open": "5.96999979019165", "High": "6.019999980926514", "Low": "5.869999885559082", "Close": "5.909999847412109", "Adj Close": "5.896999835968018", "Volume": "27449800"},
{"Date": "2020-07-30", "Open": "6.070000171661377", "High": "6.199999809265137", "Low": "5.820000171661377", "Close": "5.869999885559082", "Adj Close": "5.857088088989258", "Volume": "52706100"},
{"Date": "2020-07-31", "Open": "5.849999904632568", "High": "5.929999828338623", "Low": "5.75", "Close": "5.880000114440918", "Adj Close": "5.867066383361816", "Volume": "35190000"},
{"Date": "2020-08-03", "Open": "5.869999885559082", "High": "5.929999828338623", "Low": "5.809999942779541", "Close": "5.869999885559082", "Adj Close": "5.857088088989258", "Volume": "21193300"},
{"Date": "2020-08-04", "Open": "5.849999904632568", "High": "5.989999771118164", "Low": "5.840000152587891", "Close": "5.920000076293945", "Adj Close": "5.906978130340576", "Volume": "21432500"},
{"Date": "2020-08-05", "Open": "5.940000057220459", "High": "5.96999979019165", "Low": "5.889999866485596", "Close": "5.909999847412109", "Adj Close": "5.896999835968018", "Volume": "17994300"},
{"Date": "2020-08-06", "Open": "5.900000095367432", "High": "5.949999809265137", "Low": "5.860000133514404", "Close": "5.920000076293945", "Adj Close": "5.920000076293945", "Volume": "17973300"},
{"Date": "2020-08-07", "Open": "5.880000114440918", "High": "5.989999771118164", "Low": "5.880000114440918", "Close": "5.980000019073486", "Adj Close": "5.980000019073486", "Volume": "18089700"},
{"Date": "2020-08-10", "Open": "5.940000057220459", "High": "6.019999980926514", "Low": "5.900000095367432", "Close": "6.010000228881836", "Adj Close": "6.010000228881836", "Volume": "17325200"},
{"Date": "2020-08-11", "Open": "6.019999980926514", "High": "6.150000095367432", "Low": "6.019999980926514", "Close": "6.050000190734863", "Adj Close": "6.050000190734863", "Volume": "27783400"},
{"Date": "2020-08-12", "Open": "6.059999942779541", "High": "6.199999809265137", "Low": "6.050000190734863", "Close": "6.090000152587891", "Adj Close": "6.090000152587891", "Volume": "21154200"},
{"Date": "2020-08-13", "Open": "6.079999923706055", "High": "6.119999885559082", "Low": "6.0", "Close": "6.010000228881836", "Adj Close": "6.010000228881836", "Volume": "16563000"},
{"Date": "2020-08-14", "Open": "6.010000228881836", "High": "6.050000190734863", "Low": "5.96999979019165", "Close": "5.980000019073486", "Adj Close": "5.980000019073486", "Volume": "15346000"},
{"Date": "2020-08-17", "Open": "6.0", "High": "6.019999980926514", "Low": "5.920000076293945", "Close": "6.0", "Adj Close": "6.0", "Volume": "21609500"},
{"Date": "2020-08-18", "Open": "5.96999979019165", "High": "6.010000228881836", "Low": "5.929999828338623", "Close": "5.949999809265137", "Adj Close": "5.949999809265137", "Volume": "14578400"},
{"Date": "2020-08-19", "Open": "5.96999979019165", "High": "5.980000019073486", "Low": "5.849999904632568", "Close": "5.869999885559082", "Adj Close": "5.869999885559082", "Volume": "15605700"},
{"Date": "2020-08-20", "Open": "5.820000171661377", "High": "5.840000152587891", "Low": "5.769999980926514", "Close": "5.829999923706055", "Adj Close": "5.829999923706055", "Volume": "18622000"},
{"Date": "2020-08-21", "Open": "5.789999961853027", "High": "5.820000171661377", "Low": "5.75", "Close": "5.820000171661377", "Adj Close": "5.820000171661377", "Volume": "21212300"},
{}]