[{"Date": "2019-08-23", "Open": "116.6500015258789", "High": "121.5999984741211", "Low": "116.30000305175781", "Close": "118.55999755859375", "Adj Close": "118.55999755859375", "Volume": "6003100"},
{"Date": "2019-08-26", "Open": "119.5", "High": "119.77999877929688", "Low": "111.31999969482422", "Close": "112.54000091552734", "Adj Close": "112.54000091552734", "Volume": "4630700"},
{"Date": "2019-08-27", "Open": "113.1500015258789", "High": "115.36000061035156", "Low": "110.87999725341797", "Close": "112.97000122070312", "Adj Close": "112.97000122070312", "Volume": "4036200"},
{"Date": "2019-08-28", "Open": "112.87000274658203", "High": "113.56999969482422", "Low": "110.52999877929688", "Close": "110.56999969482422", "Adj Close": "110.56999969482422", "Volume": "2304100"},
{"Date": "2019-08-29", "Open": "112.0", "High": "112.62999725341797", "Low": "109.66000366210938", "Close": "112.41000366210938", "Adj Close": "112.41000366210938", "Volume": "2563900"},
{"Date": "2019-08-30", "Open": "113.26000213623047", "High": "113.69999694824219", "Low": "110.18000030517578", "Close": "111.81999969482422", "Adj Close": "111.81999969482422", "Volume": "1882500"},
{"Date": "2019-09-03", "Open": "110.54000091552734", "High": "111.62000274658203", "Low": "107.16000366210938", "Close": "108.22000122070312", "Adj Close": "108.22000122070312", "Volume": "2161700"},
{"Date": "2019-09-04", "Open": "109.16999816894531", "High": "109.97000122070312", "Low": "107.38999938964844", "Close": "109.69999694824219", "Adj Close": "109.69999694824219", "Volume": "1890300"},
{"Date": "2019-09-05", "Open": "111.0", "High": "111.9000015258789", "Low": "109.19999694824219", "Close": "110.68000030517578", "Adj Close": "110.68000030517578", "Volume": "1885300"},
{"Date": "2019-09-06", "Open": "111.04000091552734", "High": "112.27999877929688", "Low": "110.0999984741211", "Close": "110.36000061035156", "Adj Close": "110.36000061035156", "Volume": "1039800"},
{"Date": "2019-09-09", "Open": "111.7300033569336", "High": "111.88999938964844", "Low": "107.44999694824219", "Close": "109.4800033569336", "Adj Close": "109.4800033569336", "Volume": "1995900"},
{"Date": "2019-09-10", "Open": "109.43000030517578", "High": "113.08999633789062", "Low": "108.70999908447266", "Close": "112.70999908447266", "Adj Close": "112.70999908447266", "Volume": "2386000"},
{"Date": "2019-09-11", "Open": "112.70999908447266", "High": "116.08999633789062", "Low": "110.70999908447266", "Close": "113.88999938964844", "Adj Close": "113.88999938964844", "Volume": "2627200"},
{"Date": "2019-09-12", "Open": "116.12999725341797", "High": "116.58999633789062", "Low": "113.66999816894531", "Close": "113.91000366210938", "Adj Close": "113.91000366210938", "Volume": "1804900"},
{"Date": "2019-09-13", "Open": "114.11000061035156", "High": "114.52999877929688", "Low": "112.23999786376953", "Close": "113.6500015258789", "Adj Close": "113.6500015258789", "Volume": "1176600"},
{"Date": "2019-09-16", "Open": "112.80000305175781", "High": "115.44999694824219", "Low": "112.16999816894531", "Close": "114.81999969482422", "Adj Close": "114.81999969482422", "Volume": "1348200"},
{"Date": "2019-09-17", "Open": "117.5", "High": "119.18000030517578", "Low": "116.08000183105469", "Close": "118.73999786376953", "Adj Close": "118.73999786376953", "Volume": "2499400"},
{"Date": "2019-09-18", "Open": "118.0", "High": "118.0", "Low": "114.08000183105469", "Close": "116.93000030517578", "Adj Close": "116.93000030517578", "Volume": "1379100"},
{"Date": "2019-09-19", "Open": "119.30999755859375", "High": "123.75", "Low": "119.08999633789062", "Close": "121.87999725341797", "Adj Close": "121.87999725341797", "Volume": "3441900"},
{"Date": "2019-09-20", "Open": "121.97000122070312", "High": "121.9800033569336", "Low": "118.66999816894531", "Close": "121.5999984741211", "Adj Close": "121.5999984741211", "Volume": "2418100"},
{"Date": "2019-09-23", "Open": "121.3499984741211", "High": "123.41000366210938", "Low": "120.26000213623047", "Close": "122.73999786376953", "Adj Close": "122.73999786376953", "Volume": "1451500"},
{"Date": "2019-09-24", "Open": "123.0", "High": "123.76000213623047", "Low": "117.80000305175781", "Close": "118.93000030517578", "Adj Close": "118.93000030517578", "Volume": "1969700"},
{"Date": "2019-09-25", "Open": "118.58999633789062", "High": "118.80000305175781", "Low": "115.0999984741211", "Close": "117.54000091552734", "Adj Close": "117.54000091552734", "Volume": "1767800"},
{"Date": "2019-09-26", "Open": "117.75", "High": "120.16999816894531", "Low": "117.3499984741211", "Close": "119.56999969482422", "Adj Close": "119.56999969482422", "Volume": "1047000"},
{"Date": "2019-09-27", "Open": "120.2699966430664", "High": "120.27999877929688", "Low": "116.16000366210938", "Close": "118.05999755859375", "Adj Close": "118.05999755859375", "Volume": "1475600"},
{"Date": "2019-09-30", "Open": "118.0", "High": "118.58999633789062", "Low": "116.05000305175781", "Close": "117.86000061035156", "Adj Close": "117.86000061035156", "Volume": "1280000"},
{"Date": "2019-10-01", "Open": "118.69000244140625", "High": "119.58000183105469", "Low": "116.62999725341797", "Close": "117.06999969482422", "Adj Close": "117.06999969482422", "Volume": "1136900"},
{"Date": "2019-10-02", "Open": "116.4800033569336", "High": "116.55000305175781", "Low": "113.37999725341797", "Close": "115.58999633789062", "Adj Close": "115.58999633789062", "Volume": "1332500"},
{"Date": "2019-10-03", "Open": "116.77999877929688", "High": "119.55000305175781", "Low": "113.80999755859375", "Close": "118.93000030517578", "Adj Close": "118.93000030517578", "Volume": "1179700"},
{"Date": "2019-10-04", "Open": "119.38999938964844", "High": "123.0", "Low": "118.72000122070312", "Close": "122.8499984741211", "Adj Close": "122.8499984741211", "Volume": "1548200"},
{"Date": "2019-10-07", "Open": "122.02999877929688", "High": "122.70999908447266", "Low": "121.0", "Close": "121.36000061035156", "Adj Close": "121.36000061035156", "Volume": "1031500"},
{"Date": "2019-10-08", "Open": "120.97000122070312", "High": "121.43000030517578", "Low": "116.73999786376953", "Close": "117.61000061035156", "Adj Close": "117.61000061035156", "Volume": "1918700"},
{"Date": "2019-10-09", "Open": "118.0999984741211", "High": "119.87000274658203", "Low": "117.76000213623047", "Close": "119.08000183105469", "Adj Close": "119.08000183105469", "Volume": "707200"},
{"Date": "2019-10-10", "Open": "118.94999694824219", "High": "119.77999877929688", "Low": "117.69000244140625", "Close": "118.1500015258789", "Adj Close": "118.1500015258789", "Volume": "871900"},
{"Date": "2019-10-11", "Open": "120.18000030517578", "High": "121.62999725341797", "Low": "119.51000213623047", "Close": "120.80999755859375", "Adj Close": "120.80999755859375", "Volume": "1634000"},
{"Date": "2019-10-14", "Open": "120.66999816894531", "High": "121.76000213623047", "Low": "119.41999816894531", "Close": "119.68000030517578", "Adj Close": "119.68000030517578", "Volume": "686400"},
{"Date": "2019-10-15", "Open": "119.94000244140625", "High": "121.0999984741211", "Low": "119.66000366210938", "Close": "119.8499984741211", "Adj Close": "119.8499984741211", "Volume": "858300"},
{"Date": "2019-10-16", "Open": "116.12000274658203", "High": "117.0", "Low": "111.66999816894531", "Close": "113.58999633789062", "Adj Close": "113.58999633789062", "Volume": "2958100"},
{"Date": "2019-10-17", "Open": "114.23999786376953", "High": "114.79000091552734", "Low": "112.69999694824219", "Close": "113.19999694824219", "Adj Close": "113.19999694824219", "Volume": "1194100"},
{"Date": "2019-10-18", "Open": "113.1500015258789", "High": "113.44000244140625", "Low": "108.43000030517578", "Close": "110.94999694824219", "Adj Close": "110.94999694824219", "Volume": "1607000"},
{"Date": "2019-10-21", "Open": "111.62999725341797", "High": "112.1500015258789", "Low": "110.44999694824219", "Close": "111.12999725341797", "Adj Close": "111.12999725341797", "Volume": "1816700"},
{"Date": "2019-10-22", "Open": "112.25", "High": "113.1500015258789", "Low": "110.37999725341797", "Close": "110.45999908447266", "Adj Close": "110.45999908447266", "Volume": "1413700"},
{"Date": "2019-10-23", "Open": "111.87000274658203", "High": "118.37999725341797", "Low": "111.37000274658203", "Close": "115.0", "Adj Close": "115.0", "Volume": "3063200"},
{"Date": "2019-10-24", "Open": "116.44000244140625", "High": "119.75", "Low": "115.56999969482422", "Close": "119.69000244140625", "Adj Close": "119.69000244140625", "Volume": "1752500"},
{"Date": "2019-10-25", "Open": "118.18000030517578", "High": "119.72000122070312", "Low": "116.87000274658203", "Close": "119.58000183105469", "Adj Close": "119.58000183105469", "Volume": "1021600"},
{"Date": "2019-10-28", "Open": "120.22000122070312", "High": "120.75", "Low": "118.94999694824219", "Close": "120.0", "Adj Close": "120.0", "Volume": "966400"},
{"Date": "2019-10-29", "Open": "119.86000061035156", "High": "120.63999938964844", "Low": "119.0", "Close": "119.23999786376953", "Adj Close": "119.23999786376953", "Volume": "929100"},
{"Date": "2019-10-30", "Open": "120.29000091552734", "High": "120.73999786376953", "Low": "118.55999755859375", "Close": "120.47000122070312", "Adj Close": "120.47000122070312", "Volume": "958800"},
{"Date": "2019-10-31", "Open": "120.77999877929688", "High": "120.77999877929688", "Low": "117.63999938964844", "Close": "119.95999908447266", "Adj Close": "119.95999908447266", "Volume": "909000"},
{"Date": "2019-11-01", "Open": "120.62000274658203", "High": "123.16000366210938", "Low": "119.44999694824219", "Close": "123.11000061035156", "Adj Close": "123.11000061035156", "Volume": "1310900"},
{"Date": "2019-11-04", "Open": "124.01000213623047", "High": "124.43000030517578", "Low": "120.33999633789062", "Close": "121.02999877929688", "Adj Close": "121.02999877929688", "Volume": "966400"},
{"Date": "2019-11-05", "Open": "122.38999938964844", "High": "123.91000366210938", "Low": "121.20999908447266", "Close": "123.37000274658203", "Adj Close": "123.37000274658203", "Volume": "1543800"},
{"Date": "2019-11-06", "Open": "123.12000274658203", "High": "123.45999908447266", "Low": "121.29000091552734", "Close": "123.4000015258789", "Adj Close": "123.4000015258789", "Volume": "1177300"},
{"Date": "2019-11-07", "Open": "123.44999694824219", "High": "124.0", "Low": "121.87000274658203", "Close": "122.80000305175781", "Adj Close": "122.80000305175781", "Volume": "826100"},
{"Date": "2019-11-08", "Open": "123.20999908447266", "High": "125.47000122070312", "Low": "122.02999877929688", "Close": "125.02999877929688", "Adj Close": "125.02999877929688", "Volume": "1115900"},
{"Date": "2019-11-11", "Open": "124.8499984741211", "High": "125.9000015258789", "Low": "124.0999984741211", "Close": "124.75", "Adj Close": "124.75", "Volume": "985900"},
{"Date": "2019-11-12", "Open": "124.94000244140625", "High": "125.69999694824219", "Low": "123.70999908447266", "Close": "124.87999725341797", "Adj Close": "124.87999725341797", "Volume": "912200"},
{"Date": "2019-11-13", "Open": "124.87000274658203", "High": "125.18000030517578", "Low": "123.66000366210938", "Close": "124.72000122070312", "Adj Close": "124.72000122070312", "Volume": "785400"},
{"Date": "2019-11-14", "Open": "120.98999786376953", "High": "120.98999786376953", "Low": "116.56999969482422", "Close": "116.98999786376953", "Adj Close": "116.98999786376953", "Volume": "3262700"},
{"Date": "2019-11-15", "Open": "118.38999938964844", "High": "119.9000015258789", "Low": "115.33000183105469", "Close": "119.19999694824219", "Adj Close": "119.19999694824219", "Volume": "2321900"},
{"Date": "2019-11-18", "Open": "122.80999755859375", "High": "123.43000030517578", "Low": "120.58000183105469", "Close": "122.79000091552734", "Adj Close": "122.79000091552734", "Volume": "2154100"},
{"Date": "2019-11-19", "Open": "124.0", "High": "125.12000274658203", "Low": "121.88999938964844", "Close": "124.66000366210938", "Adj Close": "124.66000366210938", "Volume": "1493400"},
{"Date": "2019-11-20", "Open": "124.0", "High": "127.73999786376953", "Low": "123.61000061035156", "Close": "126.80999755859375", "Adj Close": "126.80999755859375", "Volume": "2063600"},
{"Date": "2019-11-21", "Open": "127.12000274658203", "High": "127.2300033569336", "Low": "125.11000061035156", "Close": "126.83999633789062", "Adj Close": "126.83999633789062", "Volume": "3140400"},
{"Date": "2019-11-22", "Open": "135.00999450683594", "High": "140.8000030517578", "Low": "133.61000061035156", "Close": "140.5", "Adj Close": "140.5", "Volume": "12226200"},
{"Date": "2019-11-25", "Open": "139.63999938964844", "High": "148.17999267578125", "Low": "139.52999877929688", "Close": "147.63999938964844", "Adj Close": "147.63999938964844", "Volume": "6186500"},
{"Date": "2019-11-26", "Open": "145.8000030517578", "High": "149.6999969482422", "Low": "145.60000610351562", "Close": "147.52000427246094", "Adj Close": "147.52000427246094", "Volume": "3165800"},
{"Date": "2019-11-27", "Open": "147.0", "High": "151.25999450683594", "Low": "146.35000610351562", "Close": "151.0", "Adj Close": "151.0", "Volume": "2134300"},
{"Date": "2019-11-29", "Open": "150.0", "High": "150.88999938964844", "Low": "148.97000122070312", "Close": "149.22000122070312", "Adj Close": "149.22000122070312", "Volume": "1139600"},
{"Date": "2019-12-02", "Open": "152.38999938964844", "High": "152.67999267578125", "Low": "146.2100067138672", "Close": "148.0399932861328", "Adj Close": "148.0399932861328", "Volume": "2271100"},
{"Date": "2019-12-03", "Open": "144.0", "High": "148.63999938964844", "Low": "142.5", "Close": "148.08999633789062", "Adj Close": "148.08999633789062", "Volume": "1820500"},
{"Date": "2019-12-04", "Open": "148.19000244140625", "High": "149.27999877929688", "Low": "145.91000366210938", "Close": "146.6199951171875", "Adj Close": "146.6199951171875", "Volume": "1544500"},
{"Date": "2019-12-05", "Open": "146.80999755859375", "High": "147.80999755859375", "Low": "144.75999450683594", "Close": "146.13999938964844", "Adj Close": "146.13999938964844", "Volume": "850200"},
{"Date": "2019-12-06", "Open": "147.16000366210938", "High": "148.67999267578125", "Low": "145.77000427246094", "Close": "147.88999938964844", "Adj Close": "147.88999938964844", "Volume": "985900"},
{"Date": "2019-12-09", "Open": "147.17999267578125", "High": "150.7100067138672", "Low": "147.0", "Close": "149.75", "Adj Close": "149.75", "Volume": "1962000"},
{"Date": "2019-12-10", "Open": "149.85000610351562", "High": "150.3000030517578", "Low": "148.3800048828125", "Close": "149.0800018310547", "Adj Close": "149.0800018310547", "Volume": "1312300"},
{"Date": "2019-12-11", "Open": "148.2899932861328", "High": "148.61000061035156", "Low": "145.4600067138672", "Close": "145.89999389648438", "Adj Close": "145.89999389648438", "Volume": "2844100"},
{"Date": "2019-12-12", "Open": "145.35000610351562", "High": "146.1999969482422", "Low": "143.41000366210938", "Close": "143.64999389648438", "Adj Close": "143.64999389648438", "Volume": "2141400"},
{"Date": "2019-12-13", "Open": "144.0800018310547", "High": "144.75", "Low": "141.92999267578125", "Close": "143.50999450683594", "Adj Close": "143.50999450683594", "Volume": "2354400"},
{"Date": "2019-12-16", "Open": "143.52999877929688", "High": "147.75999450683594", "Low": "143.2100067138672", "Close": "146.30999755859375", "Adj Close": "146.30999755859375", "Volume": "2187100"},
{"Date": "2019-12-17", "Open": "146.35000610351562", "High": "147.10000610351562", "Low": "144.7100067138672", "Close": "145.10000610351562", "Adj Close": "145.10000610351562", "Volume": "1448300"},
{"Date": "2019-12-18", "Open": "144.72999572753906", "High": "149.24000549316406", "Low": "144.61000061035156", "Close": "148.10000610351562", "Adj Close": "148.10000610351562", "Volume": "1891200"},
{"Date": "2019-12-19", "Open": "149.36000061035156", "High": "151.10000610351562", "Low": "148.63999938964844", "Close": "150.13999938964844", "Adj Close": "150.13999938964844", "Volume": "1946900"},
{"Date": "2019-12-20", "Open": "150.14999389648438", "High": "151.61000061035156", "Low": "148.88999938964844", "Close": "150.9600067138672", "Adj Close": "150.9600067138672", "Volume": "7348000"},
{"Date": "2019-12-23", "Open": "151.5", "High": "151.5", "Low": "149.5800018310547", "Close": "150.0500030517578", "Adj Close": "150.0500030517578", "Volume": "1123100"},
{"Date": "2019-12-24", "Open": "150.22999572753906", "High": "150.77000427246094", "Low": "149.7899932861328", "Close": "150.35000610351562", "Adj Close": "150.35000610351562", "Volume": "443800"},
{"Date": "2019-12-26", "Open": "150.6300048828125", "High": "153.66000366210938", "Low": "150.00999450683594", "Close": "151.9199981689453", "Adj Close": "151.9199981689453", "Volume": "855100"},
{"Date": "2019-12-27", "Open": "152.66000366210938", "High": "152.66000366210938", "Low": "149.25999450683594", "Close": "151.50999450683594", "Adj Close": "151.50999450683594", "Volume": "885000"},
{"Date": "2019-12-30", "Open": "151.3000030517578", "High": "151.3000030517578", "Low": "147.0", "Close": "148.9499969482422", "Adj Close": "148.9499969482422", "Volume": "1008200"},
{"Date": "2019-12-31", "Open": "148.41000366210938", "High": "150.02999877929688", "Low": "148.1699981689453", "Close": "149.77000427246094", "Adj Close": "149.77000427246094", "Volume": "849300"},
{"Date": "2020-01-02", "Open": "150.97000122070312", "High": "153.44000244140625", "Low": "150.47000122070312", "Close": "151.97999572753906", "Adj Close": "151.97999572753906", "Volume": "1112200"},
{"Date": "2020-01-03", "Open": "148.61000061035156", "High": "152.5", "Low": "148.39999389648438", "Close": "152.05999755859375", "Adj Close": "152.05999755859375", "Volume": "895100"},
{"Date": "2020-01-06", "Open": "149.8000030517578", "High": "154.6199951171875", "Low": "148.1300048828125", "Close": "154.4600067138672", "Adj Close": "154.4600067138672", "Volume": "1568700"},
{"Date": "2020-01-07", "Open": "154.75999450683594", "High": "155.72000122070312", "Low": "153.13999938964844", "Close": "153.41000366210938", "Adj Close": "153.41000366210938", "Volume": "1930900"},
{"Date": "2020-01-08", "Open": "153.63999938964844", "High": "156.75", "Low": "152.75", "Close": "155.75999450683594", "Adj Close": "155.75999450683594", "Volume": "1870500"},
{"Date": "2020-01-09", "Open": "157.1999969482422", "High": "157.66000366210938", "Low": "153.58999633789062", "Close": "154.52000427246094", "Adj Close": "154.52000427246094", "Volume": "1384800"},
{"Date": "2020-01-10", "Open": "156.83999633789062", "High": "156.83999633789062", "Low": "153.97000122070312", "Close": "155.77999877929688", "Adj Close": "155.77999877929688", "Volume": "978600"},
{"Date": "2020-01-13", "Open": "157.0", "High": "157.72000122070312", "Low": "155.9199981689453", "Close": "156.4600067138672", "Adj Close": "156.4600067138672", "Volume": "1227800"},
{"Date": "2020-01-14", "Open": "155.7100067138672", "High": "158.6999969482422", "Low": "155.3699951171875", "Close": "157.0399932861328", "Adj Close": "157.0399932861328", "Volume": "1461600"},
{"Date": "2020-01-15", "Open": "157.57000732421875", "High": "158.3699951171875", "Low": "155.52999877929688", "Close": "156.02000427246094", "Adj Close": "156.02000427246094", "Volume": "1471000"},
{"Date": "2020-01-16", "Open": "157.7100067138672", "High": "160.42999267578125", "Low": "156.74000549316406", "Close": "160.32000732421875", "Adj Close": "160.32000732421875", "Volume": "1527700"},
{"Date": "2020-01-17", "Open": "161.49000549316406", "High": "161.49000549316406", "Low": "156.0", "Close": "157.9600067138672", "Adj Close": "157.9600067138672", "Volume": "1641000"},
{"Date": "2020-01-21", "Open": "157.8300018310547", "High": "159.25", "Low": "156.74000549316406", "Close": "157.10000610351562", "Adj Close": "157.10000610351562", "Volume": "1053000"},
{"Date": "2020-01-22", "Open": "158.24000549316406", "High": "159.24000549316406", "Low": "156.17999267578125", "Close": "156.44000244140625", "Adj Close": "156.44000244140625", "Volume": "1084200"},
{"Date": "2020-01-23", "Open": "156.5500030517578", "High": "158.4199981689453", "Low": "155.0", "Close": "157.83999633789062", "Adj Close": "157.83999633789062", "Volume": "1491800"},
{"Date": "2020-01-24", "Open": "159.41000366210938", "High": "160.97999572753906", "Low": "156.41000366210938", "Close": "157.0", "Adj Close": "157.0", "Volume": "910200"},
{"Date": "2020-01-27", "Open": "153.52999877929688", "High": "154.99000549316406", "Low": "151.0399932861328", "Close": "153.58999633789062", "Adj Close": "153.58999633789062", "Volume": "1370500"},
{"Date": "2020-01-28", "Open": "153.85000610351562", "High": "156.4600067138672", "Low": "153.08999633789062", "Close": "155.57000732421875", "Adj Close": "155.57000732421875", "Volume": "1350800"},
{"Date": "2020-01-29", "Open": "156.7899932861328", "High": "156.7899932861328", "Low": "154.64999389648438", "Close": "155.6199951171875", "Adj Close": "155.6199951171875", "Volume": "967900"},
{"Date": "2020-01-30", "Open": "155.11000061035156", "High": "158.97999572753906", "Low": "155.0", "Close": "158.69000244140625", "Adj Close": "158.69000244140625", "Volume": "1382600"},
{"Date": "2020-01-31", "Open": "158.6699981689453", "High": "159.5500030517578", "Low": "154.39999389648438", "Close": "155.25999450683594", "Adj Close": "155.25999450683594", "Volume": "1169100"},
{"Date": "2020-02-03", "Open": "156.11000061035156", "High": "160.3300018310547", "Low": "155.1999969482422", "Close": "159.8800048828125", "Adj Close": "159.8800048828125", "Volume": "1302600"},
{"Date": "2020-02-04", "Open": "162.00999450683594", "High": "168.4199981689453", "Low": "161.3300018310547", "Close": "167.80999755859375", "Adj Close": "167.80999755859375", "Volume": "1892600"},
{"Date": "2020-02-05", "Open": "170.50999450683594", "High": "170.74000549316406", "Low": "163.07000732421875", "Close": "163.8800048828125", "Adj Close": "163.8800048828125", "Volume": "2459400"},
{"Date": "2020-02-06", "Open": "164.60000610351562", "High": "164.9499969482422", "Low": "161.1999969482422", "Close": "162.6699981689453", "Adj Close": "162.6699981689453", "Volume": "1125400"},
{"Date": "2020-02-07", "Open": "162.3300018310547", "High": "165.44000244140625", "Low": "160.69000244140625", "Close": "162.5500030517578", "Adj Close": "162.5500030517578", "Volume": "971600"},
{"Date": "2020-02-10", "Open": "162.74000549316406", "High": "167.75999450683594", "Low": "162.1699981689453", "Close": "167.16000366210938", "Adj Close": "167.16000366210938", "Volume": "1140200"},
{"Date": "2020-02-11", "Open": "169.47999572753906", "High": "171.1699981689453", "Low": "166.39999389648438", "Close": "168.10000610351562", "Adj Close": "168.10000610351562", "Volume": "1610400"},
{"Date": "2020-02-12", "Open": "169.8000030517578", "High": "170.4199981689453", "Low": "165.41000366210938", "Close": "169.83999633789062", "Adj Close": "169.83999633789062", "Volume": "1237400"},
{"Date": "2020-02-13", "Open": "168.72999572753906", "High": "172.25", "Low": "168.5399932861328", "Close": "170.92999267578125", "Adj Close": "170.92999267578125", "Volume": "1048700"},
{"Date": "2020-02-14", "Open": "171.39999389648438", "High": "173.83999633789062", "Low": "170.9600067138672", "Close": "172.52000427246094", "Adj Close": "172.52000427246094", "Volume": "961600"},
{"Date": "2020-02-18", "Open": "172.41000366210938", "High": "174.0800018310547", "Low": "170.52000427246094", "Close": "172.8800048828125", "Adj Close": "172.8800048828125", "Volume": "866300"},
{"Date": "2020-02-19", "Open": "174.19000244140625", "High": "176.30999755859375", "Low": "173.66000366210938", "Close": "174.1699981689453", "Adj Close": "174.1699981689453", "Volume": "1052800"},
{"Date": "2020-02-20", "Open": "173.9600067138672", "High": "175.25999450683594", "Low": "168.1199951171875", "Close": "173.41000366210938", "Adj Close": "173.41000366210938", "Volume": "1468000"},
{"Date": "2020-02-21", "Open": "171.9199981689453", "High": "172.0", "Low": "164.1199951171875", "Close": "167.07000732421875", "Adj Close": "167.07000732421875", "Volume": "1756300"},
{"Date": "2020-02-24", "Open": "158.61000061035156", "High": "162.22999572753906", "Low": "154.25", "Close": "160.0500030517578", "Adj Close": "160.0500030517578", "Volume": "2030200"},
{"Date": "2020-02-25", "Open": "164.2100067138672", "High": "164.24000549316406", "Low": "154.61000061035156", "Close": "155.6199951171875", "Adj Close": "155.6199951171875", "Volume": "3394200"},
{"Date": "2020-02-26", "Open": "155.66000366210938", "High": "161.32000732421875", "Low": "155.1199951171875", "Close": "156.50999450683594", "Adj Close": "156.50999450683594", "Volume": "1570500"},
{"Date": "2020-02-27", "Open": "151.7899932861328", "High": "153.97000122070312", "Low": "146.7899932861328", "Close": "146.8699951171875", "Adj Close": "146.8699951171875", "Volume": "2794000"},
{"Date": "2020-02-28", "Open": "143.11000061035156", "High": "148.55999755859375", "Low": "141.75", "Close": "147.3300018310547", "Adj Close": "147.3300018310547", "Volume": "2953300"},
{"Date": "2020-03-02", "Open": "151.0500030517578", "High": "152.1999969482422", "Low": "145.9499969482422", "Close": "152.02000427246094", "Adj Close": "152.02000427246094", "Volume": "2175600"},
{"Date": "2020-03-03", "Open": "152.1199951171875", "High": "156.50999450683594", "Low": "144.83999633789062", "Close": "148.5", "Adj Close": "148.5", "Volume": "3010200"},
{"Date": "2020-03-04", "Open": "151.52999877929688", "High": "155.5", "Low": "148.6300048828125", "Close": "155.39999389648438", "Adj Close": "155.39999389648438", "Volume": "3819900"},
{"Date": "2020-03-05", "Open": "149.00999450683594", "High": "151.41000366210938", "Low": "138.86000061035156", "Close": "141.25", "Adj Close": "141.25", "Volume": "8816000"},
{"Date": "2020-03-06", "Open": "136.0", "High": "140.47999572753906", "Low": "134.05999755859375", "Close": "138.94000244140625", "Adj Close": "138.94000244140625", "Volume": "4319800"},
{"Date": "2020-03-09", "Open": "129.25999450683594", "High": "132.8000030517578", "Low": "125.30999755859375", "Close": "128.24000549316406", "Adj Close": "128.24000549316406", "Volume": "3296900"},
{"Date": "2020-03-10", "Open": "132.27000427246094", "High": "134.39999389648438", "Low": "127.0999984741211", "Close": "132.27999877929688", "Adj Close": "132.27999877929688", "Volume": "2945400"},
{"Date": "2020-03-11", "Open": "128.0", "High": "128.44000244140625", "Low": "118.19999694824219", "Close": "120.73999786376953", "Adj Close": "120.73999786376953", "Volume": "3369300"},
{"Date": "2020-03-12", "Open": "109.70999908447266", "High": "113.4800033569336", "Low": "105.0", "Close": "105.01000213623047", "Adj Close": "105.01000213623047", "Volume": "3920700"},
{"Date": "2020-03-13", "Open": "113.69000244140625", "High": "118.66000366210938", "Low": "108.0", "Close": "115.19000244140625", "Adj Close": "115.19000244140625", "Volume": "3129700"},
{"Date": "2020-03-16", "Open": "98.02999877929688", "High": "107.48999786376953", "Low": "93.91999816894531", "Close": "95.70999908447266", "Adj Close": "95.70999908447266", "Volume": "3051000"},
{"Date": "2020-03-17", "Open": "98.0", "High": "112.04000091552734", "Low": "95.0", "Close": "109.38999938964844", "Adj Close": "109.38999938964844", "Volume": "3506300"},
{"Date": "2020-03-18", "Open": "101.62999725341797", "High": "107.55000305175781", "Low": "96.22000122070312", "Close": "105.37000274658203", "Adj Close": "105.37000274658203", "Volume": "2308000"},
{"Date": "2020-03-19", "Open": "105.0", "High": "113.41999816894531", "Low": "98.22000122070312", "Close": "107.5199966430664", "Adj Close": "107.5199966430664", "Volume": "2398800"},
{"Date": "2020-03-20", "Open": "108.77999877929688", "High": "120.93000030517578", "Low": "108.0", "Close": "110.30000305175781", "Adj Close": "110.30000305175781", "Volume": "3451300"},
{"Date": "2020-03-23", "Open": "112.0", "High": "116.76000213623047", "Low": "105.38999938964844", "Close": "113.44000244140625", "Adj Close": "113.44000244140625", "Volume": "1967900"},
{"Date": "2020-03-24", "Open": "121.52999877929688", "High": "125.37000274658203", "Low": "118.5", "Close": "121.0999984741211", "Adj Close": "121.0999984741211", "Volume": "2298600"},
{"Date": "2020-03-25", "Open": "122.33000183105469", "High": "128.8699951171875", "Low": "119.66999816894531", "Close": "122.04000091552734", "Adj Close": "122.04000091552734", "Volume": "1871900"},
{"Date": "2020-03-26", "Open": "122.91000366210938", "High": "132.0", "Low": "122.51000213623047", "Close": "129.13999938964844", "Adj Close": "129.13999938964844", "Volume": "2060300"},
{"Date": "2020-03-27", "Open": "122.91000366210938", "High": "126.94999694824219", "Low": "122.16000366210938", "Close": "124.76000213623047", "Adj Close": "124.76000213623047", "Volume": "1583700"},
{"Date": "2020-03-30", "Open": "125.68000030517578", "High": "128.89999389648438", "Low": "124.5199966430664", "Close": "127.22000122070312", "Adj Close": "127.22000122070312", "Volume": "1945000"},
{"Date": "2020-03-31", "Open": "126.12999725341797", "High": "129.6300048828125", "Low": "123.5199966430664", "Close": "126.2300033569336", "Adj Close": "126.2300033569336", "Volume": "2469900"},
{"Date": "2020-04-01", "Open": "120.44000244140625", "High": "120.76000213623047", "Low": "108.87999725341797", "Close": "109.69000244140625", "Adj Close": "109.69000244140625", "Volume": "2913700"},
{"Date": "2020-04-02", "Open": "109.01000213623047", "High": "110.98999786376953", "Low": "103.01000213623047", "Close": "105.27999877929688", "Adj Close": "105.27999877929688", "Volume": "2555600"},
{"Date": "2020-04-03", "Open": "104.08999633789062", "High": "106.8499984741211", "Low": "101.0999984741211", "Close": "102.13999938964844", "Adj Close": "102.13999938964844", "Volume": "1724200"},
{"Date": "2020-04-06", "Open": "107.55000305175781", "High": "119.77999877929688", "Low": "105.11000061035156", "Close": "118.4000015258789", "Adj Close": "118.4000015258789", "Volume": "3459200"},
{"Date": "2020-04-07", "Open": "123.01000213623047", "High": "124.0", "Low": "118.62000274658203", "Close": "120.22000122070312", "Adj Close": "120.22000122070312", "Volume": "2810800"},
{"Date": "2020-04-08", "Open": "121.27999877929688", "High": "125.44999694824219", "Low": "120.83999633789062", "Close": "125.05000305175781", "Adj Close": "125.05000305175781", "Volume": "1277400"},
{"Date": "2020-04-09", "Open": "125.98999786376953", "High": "128.39999389648438", "Low": "120.58000183105469", "Close": "123.12999725341797", "Adj Close": "123.12999725341797", "Volume": "2298500"},
{"Date": "2020-04-13", "Open": "123.62000274658203", "High": "126.66999816894531", "Low": "122.81999969482422", "Close": "125.87999725341797", "Adj Close": "125.87999725341797", "Volume": "937600"},
{"Date": "2020-04-14", "Open": "129.75", "High": "134.33999633789062", "Low": "129.00999450683594", "Close": "132.9199981689453", "Adj Close": "132.9199981689453", "Volume": "1907000"},
{"Date": "2020-04-15", "Open": "132.02000427246094", "High": "132.9499969482422", "Low": "129.30999755859375", "Close": "130.5399932861328", "Adj Close": "130.5399932861328", "Volume": "1671600"},
{"Date": "2020-04-16", "Open": "132.97000122070312", "High": "136.11000061035156", "Low": "131.1199951171875", "Close": "131.57000732421875", "Adj Close": "131.57000732421875", "Volume": "1587600"},
{"Date": "2020-04-17", "Open": "137.24000549316406", "High": "137.39999389648438", "Low": "133.6699981689453", "Close": "135.14999389648438", "Adj Close": "135.14999389648438", "Volume": "1291700"},
{"Date": "2020-04-20", "Open": "134.1199951171875", "High": "136.91000366210938", "Low": "133.00999450683594", "Close": "133.3800048828125", "Adj Close": "133.3800048828125", "Volume": "1760600"},
{"Date": "2020-04-21", "Open": "132.19000244140625", "High": "132.32000732421875", "Low": "123.51000213623047", "Close": "127.18000030517578", "Adj Close": "127.18000030517578", "Volume": "1640000"},
{"Date": "2020-04-22", "Open": "131.61000061035156", "High": "132.14999389648438", "Low": "128.17999267578125", "Close": "131.27999877929688", "Adj Close": "131.27999877929688", "Volume": "1014400"},
{"Date": "2020-04-23", "Open": "130.9600067138672", "High": "134.27999877929688", "Low": "130.30999755859375", "Close": "131.69000244140625", "Adj Close": "131.69000244140625", "Volume": "862200"},
{"Date": "2020-04-24", "Open": "128.38999938964844", "High": "130.2899932861328", "Low": "125.0", "Close": "128.6300048828125", "Adj Close": "128.6300048828125", "Volume": "1815200"},
{"Date": "2020-04-27", "Open": "131.64999389648438", "High": "132.75", "Low": "129.4199981689453", "Close": "132.61000061035156", "Adj Close": "132.61000061035156", "Volume": "898600"},
{"Date": "2020-04-28", "Open": "134.86000061035156", "High": "135.5500030517578", "Low": "128.30999755859375", "Close": "130.08999633789062", "Adj Close": "130.08999633789062", "Volume": "904400"},
{"Date": "2020-04-29", "Open": "133.27000427246094", "High": "142.16000366210938", "Low": "131.91000366210938", "Close": "140.83999633789062", "Adj Close": "140.83999633789062", "Volume": "2210200"},
{"Date": "2020-04-30", "Open": "140.92999267578125", "High": "144.49000549316406", "Low": "139.66000366210938", "Close": "140.36000061035156", "Adj Close": "140.36000061035156", "Volume": "1793600"},
{"Date": "2020-05-01", "Open": "136.99000549316406", "High": "138.0", "Low": "131.3800048828125", "Close": "134.0500030517578", "Adj Close": "134.0500030517578", "Volume": "1298100"},
{"Date": "2020-05-04", "Open": "132.4499969482422", "High": "134.9600067138672", "Low": "131.33999633789062", "Close": "134.9199981689453", "Adj Close": "134.9199981689453", "Volume": "910200"},
{"Date": "2020-05-05", "Open": "140.86000061035156", "High": "146.4600067138672", "Low": "140.6999969482422", "Close": "143.6199951171875", "Adj Close": "143.6199951171875", "Volume": "1860100"},
{"Date": "2020-05-06", "Open": "144.16000366210938", "High": "148.13999938964844", "Low": "143.25999450683594", "Close": "145.1699981689453", "Adj Close": "145.1699981689453", "Volume": "1222000"},
{"Date": "2020-05-07", "Open": "147.55999755859375", "High": "152.0800018310547", "Low": "146.6999969482422", "Close": "150.6300048828125", "Adj Close": "150.6300048828125", "Volume": "1735600"},
{"Date": "2020-05-08", "Open": "153.3800048828125", "High": "153.9499969482422", "Low": "149.50999450683594", "Close": "153.24000549316406", "Adj Close": "153.24000549316406", "Volume": "1786100"},
{"Date": "2020-05-11", "Open": "154.0", "High": "161.22999572753906", "Low": "153.4199981689453", "Close": "158.7100067138672", "Adj Close": "158.7100067138672", "Volume": "1985600"},
{"Date": "2020-05-12", "Open": "160.0", "High": "161.8000030517578", "Low": "155.88999938964844", "Close": "156.36000061035156", "Adj Close": "156.36000061035156", "Volume": "1577100"},
{"Date": "2020-05-13", "Open": "155.32000732421875", "High": "156.92999267578125", "Low": "145.92999267578125", "Close": "149.08999633789062", "Adj Close": "149.08999633789062", "Volume": "2308000"},
{"Date": "2020-05-14", "Open": "147.36000061035156", "High": "151.5399932861328", "Low": "143.3000030517578", "Close": "151.5399932861328", "Adj Close": "151.5399932861328", "Volume": "1601800"},
{"Date": "2020-05-15", "Open": "151.0", "High": "157.75", "Low": "150.25999450683594", "Close": "156.19000244140625", "Adj Close": "156.19000244140625", "Volume": "1266100"},
{"Date": "2020-05-18", "Open": "159.67999267578125", "High": "161.5399932861328", "Low": "154.5800018310547", "Close": "155.00999450683594", "Adj Close": "155.00999450683594", "Volume": "1367500"},
{"Date": "2020-05-19", "Open": "157.60000610351562", "High": "162.1300048828125", "Low": "157.0399932861328", "Close": "159.05999755859375", "Adj Close": "159.05999755859375", "Volume": "1328300"},
{"Date": "2020-05-20", "Open": "161.77000427246094", "High": "163.94000244140625", "Low": "160.5", "Close": "163.27999877929688", "Adj Close": "163.27999877929688", "Volume": "1332500"},
{"Date": "2020-05-21", "Open": "163.27999877929688", "High": "167.3000030517578", "Low": "163.02000427246094", "Close": "163.4499969482422", "Adj Close": "163.4499969482422", "Volume": "3259600"},
{"Date": "2020-05-22", "Open": "171.8300018310547", "High": "185.25999450683594", "Low": "170.0", "Close": "184.25999450683594", "Adj Close": "184.25999450683594", "Volume": "8835900"},
{"Date": "2020-05-26", "Open": "184.88999938964844", "High": "186.47000122070312", "Low": "177.17999267578125", "Close": "181.14999389648438", "Adj Close": "181.14999389648438", "Volume": "3828700"},
{"Date": "2020-05-27", "Open": "180.2899932861328", "High": "182.0", "Low": "171.16000366210938", "Close": "181.6199951171875", "Adj Close": "181.6199951171875", "Volume": "3311800"},
{"Date": "2020-05-28", "Open": "178.41000366210938", "High": "186.14999389648438", "Low": "178.0", "Close": "180.0", "Adj Close": "180.0", "Volume": "1810600"},
{"Date": "2020-05-29", "Open": "180.30999755859375", "High": "187.11000061035156", "Low": "180.05999755859375", "Close": "185.83999633789062", "Adj Close": "185.83999633789062", "Volume": "2379300"},
{"Date": "2020-06-01", "Open": "184.52999877929688", "High": "188.75999450683594", "Low": "182.4499969482422", "Close": "186.55999755859375", "Adj Close": "186.55999755859375", "Volume": "1518300"},
{"Date": "2020-06-02", "Open": "189.1999969482422", "High": "192.22000122070312", "Low": "185.1699981689453", "Close": "188.5399932861328", "Adj Close": "188.5399932861328", "Volume": "3437900"},
{"Date": "2020-06-03", "Open": "190.44000244140625", "High": "192.75", "Low": "187.0800018310547", "Close": "188.97999572753906", "Adj Close": "188.97999572753906", "Volume": "3989200"},
{"Date": "2020-06-04", "Open": "184.25", "High": "188.1699981689453", "Low": "180.52000427246094", "Close": "181.5800018310547", "Adj Close": "181.5800018310547", "Volume": "2051300"},
{"Date": "2020-06-05", "Open": "179.08999633789062", "High": "184.92999267578125", "Low": "175.24000549316406", "Close": "183.1199951171875", "Adj Close": "183.1199951171875", "Volume": "1602100"},
{"Date": "2020-06-08", "Open": "182.32000732421875", "High": "187.72999572753906", "Low": "181.02999877929688", "Close": "186.30999755859375", "Adj Close": "186.30999755859375", "Volume": "1620800"},
{"Date": "2020-06-09", "Open": "186.0", "High": "187.0800018310547", "Low": "183.4499969482422", "Close": "183.92999267578125", "Adj Close": "183.92999267578125", "Volume": "1007300"},
{"Date": "2020-06-10", "Open": "186.42999267578125", "High": "188.3000030517578", "Low": "184.27999877929688", "Close": "187.22000122070312", "Adj Close": "187.22000122070312", "Volume": "1190300"},
{"Date": "2020-06-11", "Open": "183.0", "High": "183.35000610351562", "Low": "173.5", "Close": "173.74000549316406", "Adj Close": "173.74000549316406", "Volume": "2564900"},
{"Date": "2020-06-12", "Open": "179.61000061035156", "High": "181.27999877929688", "Low": "174.7899932861328", "Close": "178.8800048828125", "Adj Close": "178.8800048828125", "Volume": "1546100"},
{"Date": "2020-06-15", "Open": "172.85000610351562", "High": "181.83999633789062", "Low": "171.27999877929688", "Close": "181.5", "Adj Close": "181.5", "Volume": "1668500"},
{"Date": "2020-06-16", "Open": "184.27999877929688", "High": "185.41000366210938", "Low": "180.1999969482422", "Close": "184.14999389648438", "Adj Close": "184.14999389648438", "Volume": "1614900"},
{"Date": "2020-06-17", "Open": "183.41000366210938", "High": "187.5", "Low": "183.16000366210938", "Close": "183.7899932861328", "Adj Close": "183.7899932861328", "Volume": "1130500"},
{"Date": "2020-06-18", "Open": "184.5", "High": "186.97999572753906", "Low": "183.63999938964844", "Close": "186.1999969482422", "Adj Close": "186.1999969482422", "Volume": "1029400"},
{"Date": "2020-06-19", "Open": "188.0", "High": "189.94000244140625", "Low": "185.25", "Close": "187.16000366210938", "Adj Close": "187.16000366210938", "Volume": "1936400"},
{"Date": "2020-06-22", "Open": "191.0", "High": "196.32000732421875", "Low": "190.22999572753906", "Close": "193.08999633789062", "Adj Close": "193.08999633789062", "Volume": "2244500"},
{"Date": "2020-06-23", "Open": "195.2100067138672", "High": "197.22000122070312", "Low": "192.16000366210938", "Close": "193.0800018310547", "Adj Close": "193.0800018310547", "Volume": "1569900"},
{"Date": "2020-06-24", "Open": "193.0399932861328", "High": "195.33999633789062", "Low": "188.3300018310547", "Close": "190.61000061035156", "Adj Close": "190.61000061035156", "Volume": "1774300"},
{"Date": "2020-06-25", "Open": "191.80999755859375", "High": "194.16000366210938", "Low": "189.0", "Close": "193.0399932861328", "Adj Close": "193.0399932861328", "Volume": "821000"},
{"Date": "2020-06-26", "Open": "193.66000366210938", "High": "197.6999969482422", "Low": "190.1699981689453", "Close": "196.8000030517578", "Adj Close": "196.8000030517578", "Volume": "3419900"},
{"Date": "2020-06-29", "Open": "198.9600067138672", "High": "198.9600067138672", "Low": "190.99000549316406", "Close": "194.5", "Adj Close": "194.5", "Volume": "1777300"},
{"Date": "2020-06-30", "Open": "194.9199981689453", "High": "199.32000732421875", "Low": "194.19000244140625", "Close": "198.6999969482422", "Adj Close": "198.6999969482422", "Volume": "2095700"},
{"Date": "2020-07-01", "Open": "195.5800018310547", "High": "204.9499969482422", "Low": "195.5", "Close": "203.61000061035156", "Adj Close": "203.61000061035156", "Volume": "2091100"},
{"Date": "2020-07-02", "Open": "203.97000122070312", "High": "204.5", "Low": "199.08999633789062", "Close": "199.91000366210938", "Adj Close": "199.91000366210938", "Volume": "2053100"},
{"Date": "2020-07-06", "Open": "202.99000549316406", "High": "204.0", "Low": "196.5500030517578", "Close": "198.66000366210938", "Adj Close": "198.66000366210938", "Volume": "2824100"},
{"Date": "2020-07-07", "Open": "199.5", "High": "201.16000366210938", "Low": "196.52000427246094", "Close": "196.67999267578125", "Adj Close": "196.67999267578125", "Volume": "2101900"},
{"Date": "2020-07-08", "Open": "198.64999389648438", "High": "205.27999877929688", "Low": "197.3000030517578", "Close": "205.16000366210938", "Adj Close": "205.16000366210938", "Volume": "2293400"},
{"Date": "2020-07-09", "Open": "205.63999938964844", "High": "208.89999389648438", "Low": "201.8800048828125", "Close": "204.85000610351562", "Adj Close": "204.85000610351562", "Volume": "1772000"},
{"Date": "2020-07-10", "Open": "209.0399932861328", "High": "213.25999450683594", "Low": "204.85000610351562", "Close": "211.32000732421875", "Adj Close": "211.32000732421875", "Volume": "2647100"},
{"Date": "2020-07-13", "Open": "212.1300048828125", "High": "212.8000030517578", "Low": "197.27999877929688", "Close": "198.0", "Adj Close": "198.0", "Volume": "2250000"},
{"Date": "2020-07-14", "Open": "198.3699951171875", "High": "200.89999389648438", "Low": "190.47999572753906", "Close": "199.77999877929688", "Adj Close": "199.77999877929688", "Volume": "1957600"},
{"Date": "2020-07-15", "Open": "200.38999938964844", "High": "201.97000122070312", "Low": "196.22999572753906", "Close": "200.55999755859375", "Adj Close": "200.55999755859375", "Volume": "1099400"},
{"Date": "2020-07-16", "Open": "197.83999633789062", "High": "199.8800048828125", "Low": "195.3300018310547", "Close": "199.02000427246094", "Adj Close": "199.02000427246094", "Volume": "1063400"},
{"Date": "2020-07-17", "Open": "198.89999389648438", "High": "201.5", "Low": "197.41000366210938", "Close": "199.97000122070312", "Adj Close": "199.97000122070312", "Volume": "946500"},
{"Date": "2020-07-20", "Open": "201.75", "High": "208.8800048828125", "Low": "201.35000610351562", "Close": "207.6699981689453", "Adj Close": "207.6699981689453", "Volume": "1090100"},
{"Date": "2020-07-21", "Open": "208.99000549316406", "High": "209.0", "Low": "202.9199981689453", "Close": "203.9499969482422", "Adj Close": "203.9499969482422", "Volume": "913900"},
{"Date": "2020-07-22", "Open": "205.0", "High": "207.1999969482422", "Low": "202.6300048828125", "Close": "204.50999450683594", "Adj Close": "204.50999450683594", "Volume": "767500"},
{"Date": "2020-07-23", "Open": "204.63999938964844", "High": "208.72000122070312", "Low": "199.66000366210938", "Close": "201.92999267578125", "Adj Close": "201.92999267578125", "Volume": "1110000"},
{"Date": "2020-07-24", "Open": "199.88999938964844", "High": "202.0500030517578", "Low": "197.0", "Close": "199.57000732421875", "Adj Close": "199.57000732421875", "Volume": "790500"},
{"Date": "2020-07-27", "Open": "201.02000427246094", "High": "204.50999450683594", "Low": "199.14999389648438", "Close": "203.14999389648438", "Adj Close": "203.14999389648438", "Volume": "679600"},
{"Date": "2020-07-28", "Open": "204.16000366210938", "High": "208.64999389648438", "Low": "203.25", "Close": "205.3000030517578", "Adj Close": "205.3000030517578", "Volume": "1064400"},
{"Date": "2020-07-29", "Open": "207.47999572753906", "High": "210.49000549316406", "Low": "206.5399932861328", "Close": "208.3300018310547", "Adj Close": "208.3300018310547", "Volume": "985700"},
{"Date": "2020-07-30", "Open": "205.0", "High": "210.00999450683594", "Low": "204.1699981689453", "Close": "209.38999938964844", "Adj Close": "209.38999938964844", "Volume": "859300"},
{"Date": "2020-07-31", "Open": "211.77999877929688", "High": "212.0", "Low": "205.0", "Close": "209.82000732421875", "Adj Close": "209.82000732421875", "Volume": "1017500"},
{"Date": "2020-08-03", "Open": "211.99000549316406", "High": "214.89999389648438", "Low": "210.80999755859375", "Close": "214.4199981689453", "Adj Close": "214.4199981689453", "Volume": "1034600"},
{"Date": "2020-08-04", "Open": "214.4199981689453", "High": "215.0", "Low": "208.0", "Close": "210.88999938964844", "Adj Close": "210.88999938964844", "Volume": "958500"},
{"Date": "2020-08-05", "Open": "212.60000610351562", "High": "217.36000061035156", "Low": "211.6699981689453", "Close": "217.3000030517578", "Adj Close": "217.3000030517578", "Volume": "1184800"},
{"Date": "2020-08-06", "Open": "216.35000610351562", "High": "216.97999572753906", "Low": "211.22000122070312", "Close": "213.66000366210938", "Adj Close": "213.66000366210938", "Volume": "1112900"},
{"Date": "2020-08-07", "Open": "212.85000610351562", "High": "212.97000122070312", "Low": "198.13999938964844", "Close": "200.3800048828125", "Adj Close": "200.3800048828125", "Volume": "2190500"},
{"Date": "2020-08-10", "Open": "200.10000610351562", "High": "200.91000366210938", "Low": "193.88999938964844", "Close": "197.89999389648438", "Adj Close": "197.89999389648438", "Volume": "1675400"},
{"Date": "2020-08-11", "Open": "198.82000732421875", "High": "200.17999267578125", "Low": "193.02000427246094", "Close": "195.63999938964844", "Adj Close": "195.63999938964844", "Volume": "1630200"},
{"Date": "2020-08-12", "Open": "196.1699981689453", "High": "197.97000122070312", "Low": "189.10000610351562", "Close": "190.39999389648438", "Adj Close": "190.39999389648438", "Volume": "2601600"},
{"Date": "2020-08-13", "Open": "191.8699951171875", "High": "196.5", "Low": "190.39999389648438", "Close": "193.3699951171875", "Adj Close": "193.3699951171875", "Volume": "2447200"},
{"Date": "2020-08-14", "Open": "193.8699951171875", "High": "194.5", "Low": "190.75999450683594", "Close": "192.33999633789062", "Adj Close": "192.33999633789062", "Volume": "1351900"},
{"Date": "2020-08-17", "Open": "193.0", "High": "195.61000061035156", "Low": "192.5500030517578", "Close": "195.0", "Adj Close": "195.0", "Volume": "1725500"},
{"Date": "2020-08-18", "Open": "196.0", "High": "198.97999572753906", "Low": "194.8300018310547", "Close": "197.64999389648438", "Adj Close": "197.64999389648438", "Volume": "1145800"},
{"Date": "2020-08-19", "Open": "198.02999877929688", "High": "199.74000549316406", "Low": "195.0399932861328", "Close": "195.4600067138672", "Adj Close": "195.4600067138672", "Volume": "1200900"},
{"Date": "2020-08-20", "Open": "195.0", "High": "201.86000061035156", "Low": "194.52000427246094", "Close": "200.1699981689453", "Adj Close": "200.1699981689453", "Volume": "1183000"},
{"Date": "2020-08-21", "Open": "202.5", "High": "204.77999877929688", "Low": "201.1199951171875", "Close": "202.35000610351562", "Adj Close": "202.35000610351562", "Volume": "1171300"},
{}]