[{"Date": "2019-08-23", "Open": "76.16000366210938", "High": "76.55000305175781", "Low": "73.31999969482422", "Close": "73.55000305175781", "Adj Close": "71.96814727783203", "Volume": "2466200"},
{"Date": "2019-08-26", "Open": "74.38999938964844", "High": "74.48999786376953", "Low": "73.51000213623047", "Close": "73.75", "Adj Close": "72.59815216064453", "Volume": "1289300"},
{"Date": "2019-08-27", "Open": "74.2300033569336", "High": "74.68000030517578", "Low": "72.80000305175781", "Close": "72.87000274658203", "Adj Close": "71.73189544677734", "Volume": "1405700"},
{"Date": "2019-08-28", "Open": "72.33000183105469", "High": "73.55999755859375", "Low": "71.51000213623047", "Close": "73.37000274658203", "Adj Close": "72.22409057617188", "Volume": "1240700"},
{"Date": "2019-08-29", "Open": "74.51000213623047", "High": "75.52999877929688", "Low": "74.02999877929688", "Close": "74.94999694824219", "Adj Close": "73.77940368652344", "Volume": "1227800"},
{"Date": "2019-08-30", "Open": "75.4800033569336", "High": "75.62999725341797", "Low": "74.30999755859375", "Close": "75.2699966430664", "Adj Close": "74.09439849853516", "Volume": "1254900"},
{"Date": "2019-09-03", "Open": "74.86000061035156", "High": "75.23999786376953", "Low": "73.62999725341797", "Close": "74.16999816894531", "Adj Close": "73.01158142089844", "Volume": "1378500"},
{"Date": "2019-09-04", "Open": "75.44999694824219", "High": "76.27999877929688", "Low": "75.33000183105469", "Close": "76.0199966430664", "Adj Close": "74.83268737792969", "Volume": "1127900"},
{"Date": "2019-09-05", "Open": "77.58000183105469", "High": "79.33999633789062", "Low": "77.55999755859375", "Close": "79.33000183105469", "Adj Close": "78.09100341796875", "Volume": "2298200"},
{"Date": "2019-09-06", "Open": "79.27999877929688", "High": "80.13999938964844", "Low": "79.0", "Close": "79.87000274658203", "Adj Close": "78.62255859375", "Volume": "1548300"},
{"Date": "2019-09-09", "Open": "80.18000030517578", "High": "80.83000183105469", "Low": "79.08000183105469", "Close": "79.72000122070312", "Adj Close": "78.47489929199219", "Volume": "1343100"},
{"Date": "2019-09-10", "Open": "79.5", "High": "80.30000305175781", "Low": "78.58999633789062", "Close": "80.30000305175781", "Adj Close": "79.04584503173828", "Volume": "1344000"},
{"Date": "2019-09-11", "Open": "81.0", "High": "83.58999633789062", "Low": "80.6500015258789", "Close": "83.51000213623047", "Adj Close": "82.2057113647461", "Volume": "2366600"},
{"Date": "2019-09-12", "Open": "83.87000274658203", "High": "84.3499984741211", "Low": "81.73999786376953", "Close": "82.33000183105469", "Adj Close": "81.04413604736328", "Volume": "2024600"},
{"Date": "2019-09-13", "Open": "82.1500015258789", "High": "83.11000061035156", "Low": "82.06999969482422", "Close": "82.13999938964844", "Adj Close": "80.85710144042969", "Volume": "1676700"},
{"Date": "2019-09-16", "Open": "81.77999877929688", "High": "82.54000091552734", "Low": "80.61000061035156", "Close": "81.9800033569336", "Adj Close": "80.6996078491211", "Volume": "1342000"},
{"Date": "2019-09-17", "Open": "81.16000366210938", "High": "81.61000061035156", "Low": "79.62000274658203", "Close": "80.94999694824219", "Adj Close": "79.6856918334961", "Volume": "1697400"},
{"Date": "2019-09-18", "Open": "80.81999969482422", "High": "80.81999969482422", "Low": "78.87000274658203", "Close": "80.23999786376953", "Adj Close": "78.98677825927734", "Volume": "1405300"},
{"Date": "2019-09-19", "Open": "80.30000305175781", "High": "81.4800033569336", "Low": "79.2300033569336", "Close": "79.2699966430664", "Adj Close": "78.03192901611328", "Volume": "1536200"},
{"Date": "2019-09-20", "Open": "79.8499984741211", "High": "80.95999908447266", "Low": "79.31999969482422", "Close": "79.75", "Adj Close": "78.50444030761719", "Volume": "2019400"},
{"Date": "2019-09-23", "Open": "79.68000030517578", "High": "80.97000122070312", "Low": "79.4000015258789", "Close": "79.83999633789062", "Adj Close": "78.59302520751953", "Volume": "949300"},
{"Date": "2019-09-24", "Open": "80.08999633789062", "High": "80.73999786376953", "Low": "78.95999908447266", "Close": "79.72000122070312", "Adj Close": "78.47489929199219", "Volume": "1608000"},
{"Date": "2019-09-25", "Open": "79.2300033569336", "High": "81.0199966430664", "Low": "78.80999755859375", "Close": "80.98999786376953", "Adj Close": "79.72506713867188", "Volume": "1249000"},
{"Date": "2019-09-26", "Open": "79.69999694824219", "High": "80.7300033569336", "Low": "79.38999938964844", "Close": "80.36000061035156", "Adj Close": "79.10490417480469", "Volume": "2300600"},
{"Date": "2019-09-27", "Open": "80.08999633789062", "High": "80.73999786376953", "Low": "77.19999694824219", "Close": "77.47000122070312", "Adj Close": "76.26004791259766", "Volume": "2876400"},
{"Date": "2019-09-30", "Open": "78.19000244140625", "High": "79.33000183105469", "Low": "77.87999725341797", "Close": "79.25", "Adj Close": "78.01225280761719", "Volume": "1911300"},
{"Date": "2019-10-01", "Open": "79.80999755859375", "High": "81.01000213623047", "Low": "77.3499984741211", "Close": "77.41000366210938", "Adj Close": "76.20098876953125", "Volume": "1973400"},
{"Date": "2019-10-02", "Open": "76.7300033569336", "High": "76.9800033569336", "Low": "75.02999877929688", "Close": "75.43000030517578", "Adj Close": "74.25189971923828", "Volume": "2142000"},
{"Date": "2019-10-03", "Open": "75.75", "High": "77.44000244140625", "Low": "74.41999816894531", "Close": "77.2699966430664", "Adj Close": "76.06317138671875", "Volume": "1453700"},
{"Date": "2019-10-04", "Open": "79.0", "High": "80.69999694824219", "Low": "78.80000305175781", "Close": "80.6500015258789", "Adj Close": "79.390380859375", "Volume": "1821700"},
{"Date": "2019-10-07", "Open": "80.55999755859375", "High": "81.70999908447266", "Low": "80.23999786376953", "Close": "80.87999725341797", "Adj Close": "79.61678314208984", "Volume": "1434700"},
{"Date": "2019-10-08", "Open": "80.20999908447266", "High": "80.5999984741211", "Low": "78.93000030517578", "Close": "79.0", "Adj Close": "77.76615142822266", "Volume": "1827700"},
{"Date": "2019-10-09", "Open": "80.0999984741211", "High": "81.12999725341797", "Low": "79.58000183105469", "Close": "80.70999908447266", "Adj Close": "79.4494400024414", "Volume": "1291600"},
{"Date": "2019-10-10", "Open": "83.11000061035156", "High": "85.48999786376953", "Low": "83.05000305175781", "Close": "84.88999938964844", "Adj Close": "83.56416320800781", "Volume": "2907100"},
{"Date": "2019-10-11", "Open": "86.05000305175781", "High": "86.47000122070312", "Low": "83.61000061035156", "Close": "85.4000015258789", "Adj Close": "84.0661849975586", "Volume": "2565500"},
{"Date": "2019-10-14", "Open": "85.0999984741211", "High": "85.31999969482422", "Low": "84.5999984741211", "Close": "84.9800033569336", "Adj Close": "83.65275573730469", "Volume": "1352000"},
{"Date": "2019-10-15", "Open": "85.5999984741211", "High": "87.08000183105469", "Low": "84.94000244140625", "Close": "86.63999938964844", "Adj Close": "85.28681945800781", "Volume": "1633000"},
{"Date": "2019-10-16", "Open": "86.47000122070312", "High": "86.62000274658203", "Low": "85.2300033569336", "Close": "85.66000366210938", "Adj Close": "84.32212829589844", "Volume": "1349100"},
{"Date": "2019-10-17", "Open": "86.5", "High": "87.63999938964844", "Low": "85.87999725341797", "Close": "87.55000305175781", "Adj Close": "86.18262481689453", "Volume": "2006600"},
{"Date": "2019-10-18", "Open": "87.29000091552734", "High": "88.2699966430664", "Low": "86.81999969482422", "Close": "87.7699966430664", "Adj Close": "86.399169921875", "Volume": "2049300"},
{"Date": "2019-10-21", "Open": "88.20999908447266", "High": "90.01000213623047", "Low": "88.19999694824219", "Close": "89.88999938964844", "Adj Close": "88.48606872558594", "Volume": "1676100"},
{"Date": "2019-10-22", "Open": "89.6500015258789", "High": "89.83999633789062", "Low": "88.94000244140625", "Close": "88.95999908447266", "Adj Close": "87.57058715820312", "Volume": "1206700"},
{"Date": "2019-10-23", "Open": "87.62999725341797", "High": "89.66000366210938", "Low": "87.30999755859375", "Close": "89.29000091552734", "Adj Close": "87.89543914794922", "Volume": "1354600"},
{"Date": "2019-10-24", "Open": "90.30000305175781", "High": "90.9000015258789", "Low": "89.06999969482422", "Close": "89.69000244140625", "Adj Close": "88.28919219970703", "Volume": "1589500"},
{"Date": "2019-10-25", "Open": "90.01000213623047", "High": "90.58999633789062", "Low": "89.69000244140625", "Close": "90.05999755859375", "Adj Close": "88.65341186523438", "Volume": "1296300"},
{"Date": "2019-10-28", "Open": "90.9800033569336", "High": "91.94000244140625", "Low": "90.80000305175781", "Close": "91.66000366210938", "Adj Close": "90.22842407226562", "Volume": "1368700"},
{"Date": "2019-10-29", "Open": "91.5", "High": "91.62000274658203", "Low": "90.5", "Close": "91.20999908447266", "Adj Close": "89.78544616699219", "Volume": "1212300"},
{"Date": "2019-10-30", "Open": "91.5199966430664", "High": "91.5199966430664", "Low": "89.94999694824219", "Close": "90.97000122070312", "Adj Close": "89.5491943359375", "Volume": "1068100"},
{"Date": "2019-10-31", "Open": "90.58999633789062", "High": "91.05999755859375", "Low": "89.29000091552734", "Close": "91.05999755859375", "Adj Close": "89.63778686523438", "Volume": "1689600"},
{"Date": "2019-11-01", "Open": "94.6500015258789", "High": "98.56999969482422", "Low": "94.58999633789062", "Close": "98.30000305175781", "Adj Close": "96.76472473144531", "Volume": "3872300"},
{"Date": "2019-11-04", "Open": "99.13999938964844", "High": "99.2699966430664", "Low": "98.2300033569336", "Close": "98.4800033569336", "Adj Close": "96.94190979003906", "Volume": "1896400"},
{"Date": "2019-11-05", "Open": "98.75", "High": "99.94999694824219", "Low": "98.58000183105469", "Close": "98.72000122070312", "Adj Close": "97.17816162109375", "Volume": "1906800"},
{"Date": "2019-11-06", "Open": "98.12000274658203", "High": "98.55999755859375", "Low": "97.19999694824219", "Close": "98.12999725341797", "Adj Close": "96.59736633300781", "Volume": "1486500"},
{"Date": "2019-11-07", "Open": "99.19999694824219", "High": "99.51000213623047", "Low": "97.93000030517578", "Close": "98.63999938964844", "Adj Close": "97.09940338134766", "Volume": "1476400"},
{"Date": "2019-11-08", "Open": "98.5999984741211", "High": "100.80999755859375", "Low": "98.4800033569336", "Close": "100.44000244140625", "Adj Close": "98.87129211425781", "Volume": "1735600"},
{"Date": "2019-11-11", "Open": "100.05000305175781", "High": "100.55999755859375", "Low": "99.25", "Close": "100.37999725341797", "Adj Close": "98.81222534179688", "Volume": "1507900"},
{"Date": "2019-11-12", "Open": "101.93000030517578", "High": "102.87000274658203", "Low": "100.43000030517578", "Close": "101.58999633789062", "Adj Close": "100.00332641601562", "Volume": "4361600"},
{"Date": "2019-11-13", "Open": "95.5999984741211", "High": "101.98999786376953", "Low": "95.55000305175781", "Close": "101.13999938964844", "Adj Close": "99.56035614013672", "Volume": "7337400"},
{"Date": "2019-11-14", "Open": "100.0", "High": "100.41999816894531", "Low": "98.37000274658203", "Close": "98.75", "Adj Close": "97.20768737792969", "Volume": "2592800"},
{"Date": "2019-11-15", "Open": "99.68000030517578", "High": "100.0999984741211", "Low": "98.54000091552734", "Close": "99.41999816894531", "Adj Close": "97.86722564697266", "Volume": "2687700"},
{"Date": "2019-11-18", "Open": "98.9000015258789", "High": "99.20999908447266", "Low": "97.16999816894531", "Close": "97.44999694824219", "Adj Close": "95.92798614501953", "Volume": "2671000"},
{"Date": "2019-11-19", "Open": "98.08000183105469", "High": "98.0999984741211", "Low": "95.30000305175781", "Close": "96.61000061035156", "Adj Close": "95.10110473632812", "Volume": "2528900"},
{"Date": "2019-11-20", "Open": "95.62999725341797", "High": "97.6500015258789", "Low": "95.5999984741211", "Close": "96.04000091552734", "Adj Close": "94.5400161743164", "Volume": "2156100"},
{"Date": "2019-11-21", "Open": "96.4000015258789", "High": "97.0", "Low": "95.58000183105469", "Close": "96.41000366210938", "Adj Close": "94.90422821044922", "Volume": "1478500"},
{"Date": "2019-11-22", "Open": "96.9000015258789", "High": "97.87000274658203", "Low": "96.38999938964844", "Close": "97.83999633789062", "Adj Close": "96.31189727783203", "Volume": "1767000"},
{"Date": "2019-11-25", "Open": "98.5", "High": "101.12000274658203", "Low": "98.13999938964844", "Close": "100.81999969482422", "Adj Close": "99.24535369873047", "Volume": "2253800"},
{"Date": "2019-11-26", "Open": "100.5", "High": "100.70999908447266", "Low": "98.77999877929688", "Close": "99.12000274658203", "Adj Close": "97.57191467285156", "Volume": "2237400"},
{"Date": "2019-11-27", "Open": "99.55000305175781", "High": "100.12999725341797", "Low": "99.11000061035156", "Close": "99.62999725341797", "Adj Close": "98.07393646240234", "Volume": "991000"},
{"Date": "2019-11-29", "Open": "98.9000015258789", "High": "99.87999725341797", "Low": "98.0999984741211", "Close": "98.30000305175781", "Adj Close": "96.76472473144531", "Volume": "900000"},
{"Date": "2019-12-02", "Open": "98.0999984741211", "High": "99.05000305175781", "Low": "97.55000305175781", "Close": "98.36000061035156", "Adj Close": "97.25911712646484", "Volume": "1753600"},
{"Date": "2019-12-03", "Open": "96.37999725341797", "High": "97.58000183105469", "Low": "95.62999725341797", "Close": "97.44000244140625", "Adj Close": "96.34941101074219", "Volume": "2085700"},
{"Date": "2019-12-04", "Open": "98.63999938964844", "High": "100.11000061035156", "Low": "98.63999938964844", "Close": "98.81999969482422", "Adj Close": "97.7139663696289", "Volume": "1191300"},
{"Date": "2019-12-05", "Open": "99.63999938964844", "High": "100.33000183105469", "Low": "99.19000244140625", "Close": "99.9800033569336", "Adj Close": "98.86099243164062", "Volume": "1220400"},
{"Date": "2019-12-06", "Open": "100.55000305175781", "High": "102.08999633789062", "Low": "100.5", "Close": "101.36000061035156", "Adj Close": "100.22554779052734", "Volume": "1813200"},
{"Date": "2019-12-09", "Open": "103.91999816894531", "High": "105.41999816894531", "Low": "103.1500015258789", "Close": "103.2300033569336", "Adj Close": "102.0746078491211", "Volume": "2874500"},
{"Date": "2019-12-10", "Open": "103.6500015258789", "High": "105.0", "Low": "101.52999877929688", "Close": "104.38999938964844", "Adj Close": "103.22162628173828", "Volume": "1856200"},
{"Date": "2019-12-11", "Open": "104.77999877929688", "High": "109.7699966430664", "Low": "104.6500015258789", "Close": "109.29000091552734", "Adj Close": "108.06678009033203", "Volume": "4007300"},
{"Date": "2019-12-12", "Open": "108.0", "High": "112.7699966430664", "Low": "107.5", "Close": "111.48999786376953", "Adj Close": "110.24215698242188", "Volume": "3464200"},
{"Date": "2019-12-13", "Open": "111.61000061035156", "High": "112.86000061035156", "Low": "110.61000061035156", "Close": "111.86000061035156", "Adj Close": "110.60801696777344", "Volume": "2333800"},
{"Date": "2019-12-16", "Open": "112.86000061035156", "High": "114.41999816894531", "Low": "112.79000091552734", "Close": "113.16000366210938", "Adj Close": "111.89347076416016", "Volume": "2116600"},
{"Date": "2019-12-17", "Open": "113.4800033569336", "High": "113.72000122070312", "Low": "112.30000305175781", "Close": "113.0999984741211", "Adj Close": "111.83413696289062", "Volume": "2430200"},
{"Date": "2019-12-18", "Open": "113.4000015258789", "High": "116.13999938964844", "Low": "112.9800033569336", "Close": "115.87000274658203", "Adj Close": "114.57313537597656", "Volume": "2802400"},
{"Date": "2019-12-19", "Open": "116.0999984741211", "High": "118.22000122070312", "Low": "115.18000030517578", "Close": "117.8499984741211", "Adj Close": "116.53097534179688", "Volume": "2814600"},
{"Date": "2019-12-20", "Open": "118.52999877929688", "High": "119.19999694824219", "Low": "117.01000213623047", "Close": "118.9000015258789", "Adj Close": "117.56922912597656", "Volume": "3475600"},
{"Date": "2019-12-23", "Open": "119.41000366210938", "High": "121.36000061035156", "Low": "119.12000274658203", "Close": "120.02999877929688", "Adj Close": "118.68657684326172", "Volume": "2269700"},
{"Date": "2019-12-24", "Open": "120.33999633789062", "High": "122.23999786376953", "Low": "120.01000213623047", "Close": "122.16000366210938", "Adj Close": "120.79273986816406", "Volume": "1095900"},
{"Date": "2019-12-26", "Open": "122.12000274658203", "High": "122.88999938964844", "Low": "120.75", "Close": "122.27999877929688", "Adj Close": "120.9113998413086", "Volume": "1472600"},
{"Date": "2019-12-27", "Open": "122.63999938964844", "High": "122.68000030517578", "Low": "120.69000244140625", "Close": "122.29000091552734", "Adj Close": "120.9212875366211", "Volume": "1414100"},
{"Date": "2019-12-30", "Open": "121.80000305175781", "High": "121.93000030517578", "Low": "120.41999816894531", "Close": "121.02999877929688", "Adj Close": "119.67538452148438", "Volume": "1277700"},
{"Date": "2019-12-31", "Open": "120.4800033569336", "High": "121.23999786376953", "Low": "119.20999908447266", "Close": "120.87999725341797", "Adj Close": "119.52706146240234", "Volume": "1171300"},
{"Date": "2020-01-02", "Open": "122.01000213623047", "High": "122.4000015258789", "Low": "119.70999908447266", "Close": "121.66999816894531", "Adj Close": "120.30821990966797", "Volume": "2351900"},
{"Date": "2020-01-03", "Open": "119.91000366210938", "High": "120.88999938964844", "Low": "117.6500015258789", "Close": "118.6500015258789", "Adj Close": "117.32202911376953", "Volume": "2339000"},
{"Date": "2020-01-06", "Open": "117.04000091552734", "High": "117.45999908447266", "Low": "115.08000183105469", "Close": "116.55999755859375", "Adj Close": "115.25541687011719", "Volume": "3177000"},
{"Date": "2020-01-07", "Open": "117.16999816894531", "High": "118.4800033569336", "Low": "116.30000305175781", "Close": "117.66999816894531", "Adj Close": "116.35298919677734", "Volume": "2055800"},
{"Date": "2020-01-08", "Open": "118.08000183105469", "High": "120.87000274658203", "Low": "117.58999633789062", "Close": "119.54000091552734", "Adj Close": "118.20206451416016", "Volume": "2139000"},
{"Date": "2020-01-09", "Open": "120.9000015258789", "High": "121.2300033569336", "Low": "117.5999984741211", "Close": "119.6500015258789", "Adj Close": "118.31083679199219", "Volume": "1935800"},
{"Date": "2020-01-10", "Open": "121.29000091552734", "High": "121.5", "Low": "119.63999938964844", "Close": "120.08000183105469", "Adj Close": "118.73601531982422", "Volume": "2429900"},
{"Date": "2020-01-13", "Open": "121.19000244140625", "High": "125.2300033569336", "Low": "121.05999755859375", "Close": "124.51000213623047", "Adj Close": "123.1164321899414", "Volume": "2960600"},
{"Date": "2020-01-14", "Open": "125.2699966430664", "High": "125.75", "Low": "122.61000061035156", "Close": "123.33999633789062", "Adj Close": "121.95952606201172", "Volume": "2183500"},
{"Date": "2020-01-15", "Open": "123.0", "High": "123.25", "Low": "119.91999816894531", "Close": "120.41999816894531", "Adj Close": "119.07221221923828", "Volume": "2165500"},
{"Date": "2020-01-16", "Open": "121.72000122070312", "High": "123.33999633789062", "Low": "121.44999694824219", "Close": "123.08999633789062", "Adj Close": "121.71232604980469", "Volume": "1667500"},
{"Date": "2020-01-17", "Open": "123.94000244140625", "High": "124.75", "Low": "123.0199966430664", "Close": "124.16999816894531", "Adj Close": "122.78024291992188", "Volume": "1979300"},
{"Date": "2020-01-21", "Open": "124.01000213623047", "High": "125.47000122070312", "Low": "123.5999984741211", "Close": "123.80000305175781", "Adj Close": "122.41438293457031", "Volume": "2158500"},
{"Date": "2020-01-22", "Open": "124.68000030517578", "High": "126.93000030517578", "Low": "124.55000305175781", "Close": "124.95999908447266", "Adj Close": "123.5614013671875", "Volume": "2597000"},
{"Date": "2020-01-23", "Open": "125.43000030517578", "High": "128.3300018310547", "Low": "124.41000366210938", "Close": "128.19000244140625", "Adj Close": "126.7552490234375", "Volume": "4327600"},
{"Date": "2020-01-24", "Open": "126.5", "High": "128.47999572753906", "Low": "120.79000091552734", "Close": "122.30999755859375", "Adj Close": "120.9410629272461", "Volume": "7203700"},
{"Date": "2020-01-27", "Open": "118.47000122070312", "High": "118.5", "Low": "116.19999694824219", "Close": "116.87999725341797", "Adj Close": "115.57183074951172", "Volume": "3086000"},
{"Date": "2020-01-28", "Open": "118.11000061035156", "High": "121.06999969482422", "Low": "117.80000305175781", "Close": "119.79000091552734", "Adj Close": "118.44926452636719", "Volume": "2205700"},
{"Date": "2020-01-29", "Open": "120.0", "High": "120.33999633789062", "Low": "117.80000305175781", "Close": "117.88999938964844", "Adj Close": "116.57052612304688", "Volume": "1609900"},
{"Date": "2020-01-30", "Open": "116.56999969482422", "High": "118.5", "Low": "114.0999984741211", "Close": "116.2300033569336", "Adj Close": "114.92910766601562", "Volume": "2982200"},
{"Date": "2020-01-31", "Open": "115.5", "High": "115.73999786376953", "Low": "112.72000122070312", "Close": "113.1500015258789", "Adj Close": "111.88358306884766", "Volume": "2448400"},
{"Date": "2020-02-03", "Open": "113.12000274658203", "High": "115.48999786376953", "Low": "112.69999694824219", "Close": "115.02999877929688", "Adj Close": "113.74253845214844", "Volume": "1722000"},
{"Date": "2020-02-04", "Open": "117.88999938964844", "High": "118.73999786376953", "Low": "116.66000366210938", "Close": "117.95999908447266", "Adj Close": "116.6397476196289", "Volume": "1624200"},
{"Date": "2020-02-05", "Open": "119.81999969482422", "High": "120.66999816894531", "Low": "118.13999938964844", "Close": "119.63999938964844", "Adj Close": "118.30094146728516", "Volume": "1275100"},
{"Date": "2020-02-06", "Open": "119.66000366210938", "High": "120.31999969482422", "Low": "116.5199966430664", "Close": "117.68000030517578", "Adj Close": "116.36288452148438", "Volume": "1808900"},
{"Date": "2020-02-07", "Open": "116.41999816894531", "High": "116.83999633789062", "Low": "113.94000244140625", "Close": "113.94000244140625", "Adj Close": "112.66474151611328", "Volume": "2582800"},
{"Date": "2020-02-10", "Open": "112.45999908447266", "High": "116.27999877929688", "Low": "111.44999694824219", "Close": "116.27999877929688", "Adj Close": "115.42427825927734", "Volume": "1630400"},
{"Date": "2020-02-11", "Open": "117.37999725341797", "High": "120.29000091552734", "Low": "117.12999725341797", "Close": "119.16999816894531", "Adj Close": "118.29301452636719", "Volume": "1694700"},
{"Date": "2020-02-12", "Open": "120.61000061035156", "High": "123.27999877929688", "Low": "120.44000244140625", "Close": "123.05000305175781", "Adj Close": "122.14445495605469", "Volume": "2002300"},
{"Date": "2020-02-13", "Open": "121.83999633789062", "High": "124.5199966430664", "Low": "121.05000305175781", "Close": "122.58999633789062", "Adj Close": "121.68783569335938", "Volume": "2151300"},
{"Date": "2020-02-14", "Open": "122.83999633789062", "High": "123.62999725341797", "Low": "118.25", "Close": "118.98999786376953", "Adj Close": "118.11433410644531", "Volume": "1815200"},
{"Date": "2020-02-18", "Open": "116.06999969482422", "High": "118.79000091552734", "Low": "115.5999984741211", "Close": "116.7699966430664", "Adj Close": "115.9106674194336", "Volume": "2444400"},
{"Date": "2020-02-19", "Open": "118.08000183105469", "High": "120.41000366210938", "Low": "117.75", "Close": "119.13999938964844", "Adj Close": "118.26322937011719", "Volume": "1751800"},
{"Date": "2020-02-20", "Open": "118.77999877929688", "High": "119.5", "Low": "115.97000122070312", "Close": "117.5", "Adj Close": "116.63529968261719", "Volume": "1363300"},
{"Date": "2020-02-21", "Open": "116.8499984741211", "High": "117.0", "Low": "113.47000122070312", "Close": "114.62999725341797", "Adj Close": "113.78642272949219", "Volume": "1894700"},
{"Date": "2020-02-24", "Open": "110.04000091552734", "High": "112.88999938964844", "Low": "108.80000305175781", "Close": "111.19000244140625", "Adj Close": "110.37174224853516", "Volume": "3102700"},
{"Date": "2020-02-25", "Open": "111.9800033569336", "High": "112.68000030517578", "Low": "105.80000305175781", "Close": "106.16999816894531", "Adj Close": "105.38867950439453", "Volume": "2843400"},
{"Date": "2020-02-26", "Open": "106.97000122070312", "High": "109.44000244140625", "Low": "103.7300033569336", "Close": "103.80999755859375", "Adj Close": "103.0460433959961", "Volume": "2756600"},
{"Date": "2020-02-27", "Open": "100.5", "High": "101.68000030517578", "Low": "97.33000183105469", "Close": "97.55999755859375", "Adj Close": "96.842041015625", "Volume": "3629400"},
{"Date": "2020-02-28", "Open": "91.95999908447266", "High": "100.22000122070312", "Low": "91.80000305175781", "Close": "100.18000030517578", "Adj Close": "99.44276428222656", "Volume": "4766900"},
{"Date": "2020-03-02", "Open": "101.29000091552734", "High": "104.33000183105469", "Low": "98.75", "Close": "104.2699966430664", "Adj Close": "103.50265502929688", "Volume": "2899800"},
{"Date": "2020-03-03", "Open": "104.29000091552734", "High": "106.75", "Low": "99.44999694824219", "Close": "99.62999725341797", "Adj Close": "98.89680480957031", "Volume": "2428900"},
{"Date": "2020-03-04", "Open": "102.01000213623047", "High": "103.37000274658203", "Low": "100.12000274658203", "Close": "103.36000061035156", "Adj Close": "102.599365234375", "Volume": "5037900"},
{"Date": "2020-03-05", "Open": "100.95999908447266", "High": "101.2699966430664", "Low": "97.91999816894531", "Close": "98.58999633789062", "Adj Close": "97.86445617675781", "Volume": "3527000"},
{"Date": "2020-03-06", "Open": "94.73999786376953", "High": "97.9000015258789", "Low": "93.33999633789062", "Close": "95.70999908447266", "Adj Close": "95.00566101074219", "Volume": "3053300"},
{"Date": "2020-03-09", "Open": "87.33000183105469", "High": "93.1500015258789", "Low": "86.26000213623047", "Close": "88.31999969482422", "Adj Close": "87.67003631591797", "Volume": "3867100"},
{"Date": "2020-03-10", "Open": "91.9800033569336", "High": "95.79000091552734", "Low": "89.62999725341797", "Close": "95.79000091552734", "Adj Close": "95.08507537841797", "Volume": "3596500"},
{"Date": "2020-03-11", "Open": "93.13999938964844", "High": "93.76000213623047", "Low": "88.68000030517578", "Close": "89.83999633789062", "Adj Close": "89.17884826660156", "Volume": "3080600"},
{"Date": "2020-03-12", "Open": "83.23999786376953", "High": "90.36000061035156", "Low": "80.16000366210938", "Close": "80.55000305175781", "Adj Close": "79.95722961425781", "Volume": "3923100"},
{"Date": "2020-03-13", "Open": "85.6500015258789", "High": "87.0", "Low": "78.81999969482422", "Close": "83.0", "Adj Close": "82.38919067382812", "Volume": "5730600"},
{"Date": "2020-03-16", "Open": "72.69000244140625", "High": "79.81999969482422", "Low": "67.9000015258789", "Close": "67.9000015258789", "Adj Close": "67.40032196044922", "Volume": "4192800"},
{"Date": "2020-03-17", "Open": "70.0", "High": "80.70999908447266", "Low": "69.47000122070312", "Close": "77.77999877929688", "Adj Close": "77.20760345458984", "Volume": "4974200"},
{"Date": "2020-03-18", "Open": "71.12999725341797", "High": "77.66999816894531", "Low": "69.30999755859375", "Close": "72.0999984741211", "Adj Close": "71.56940460205078", "Volume": "3246600"},
{"Date": "2020-03-19", "Open": "72.13999938964844", "High": "79.72000122070312", "Low": "72.13999938964844", "Close": "77.27999877929688", "Adj Close": "76.7112808227539", "Volume": "2991100"},
{"Date": "2020-03-20", "Open": "80.0", "High": "81.48999786376953", "Low": "73.44999694824219", "Close": "73.66999816894531", "Adj Close": "73.12785339355469", "Volume": "2999500"},
{"Date": "2020-03-23", "Open": "74.16999816894531", "High": "76.08000183105469", "Low": "71.0", "Close": "74.94999694824219", "Adj Close": "74.39842987060547", "Volume": "3623000"},
{"Date": "2020-03-24", "Open": "79.69000244140625", "High": "87.61000061035156", "Low": "78.7699966430664", "Close": "87.29000091552734", "Adj Close": "86.64762115478516", "Volume": "3889900"},
{"Date": "2020-03-25", "Open": "87.47000122070312", "High": "92.51000213623047", "Low": "84.79000091552734", "Close": "85.33999633789062", "Adj Close": "84.71196746826172", "Volume": "3938100"},
{"Date": "2020-03-26", "Open": "86.5999984741211", "High": "93.06999969482422", "Low": "85.83000183105469", "Close": "92.95999908447266", "Adj Close": "92.27589416503906", "Volume": "4192200"},
{"Date": "2020-03-27", "Open": "90.2699966430664", "High": "90.2699966430664", "Low": "86.22000122070312", "Close": "87.08999633789062", "Adj Close": "86.44908905029297", "Volume": "3329500"},
{"Date": "2020-03-30", "Open": "88.5199966430664", "High": "90.55000305175781", "Low": "86.13999938964844", "Close": "90.11000061035156", "Adj Close": "89.44686889648438", "Volume": "2121800"},
{"Date": "2020-03-31", "Open": "89.97000122070312", "High": "94.27999877929688", "Low": "88.91999816894531", "Close": "89.37999725341797", "Adj Close": "88.72223663330078", "Volume": "3247500"},
{"Date": "2020-04-01", "Open": "86.33000183105469", "High": "89.19999694824219", "Low": "81.33000183105469", "Close": "82.44999694824219", "Adj Close": "81.8432388305664", "Volume": "2898500"},
{"Date": "2020-04-02", "Open": "81.83999633789062", "High": "84.0999984741211", "Low": "81.0999984741211", "Close": "83.37000274658203", "Adj Close": "82.75647735595703", "Volume": "2256000"},
{"Date": "2020-04-03", "Open": "82.75", "High": "83.7300033569336", "Low": "79.51000213623047", "Close": "80.30000305175781", "Adj Close": "79.70906829833984", "Volume": "2081700"},
{"Date": "2020-04-06", "Open": "84.04000091552734", "High": "90.22000122070312", "Low": "83.68000030517578", "Close": "89.80000305175781", "Adj Close": "89.13915252685547", "Volume": "2683700"},
{"Date": "2020-04-07", "Open": "93.1500015258789", "High": "93.87999725341797", "Low": "89.55999755859375", "Close": "89.93000030517578", "Adj Close": "89.2681884765625", "Volume": "2233000"},
{"Date": "2020-04-08", "Open": "91.5999984741211", "High": "94.4000015258789", "Low": "89.13999938964844", "Close": "93.0", "Adj Close": "92.31559753417969", "Volume": "2381900"},
{"Date": "2020-04-09", "Open": "94.8499984741211", "High": "95.30000305175781", "Low": "88.79000091552734", "Close": "89.94999694824219", "Adj Close": "89.28804016113281", "Volume": "2804300"},
{"Date": "2020-04-13", "Open": "90.0", "High": "90.87000274658203", "Low": "88.66000366210938", "Close": "90.47000122070312", "Adj Close": "89.8042221069336", "Volume": "1938400"},
{"Date": "2020-04-14", "Open": "95.51000213623047", "High": "95.87000274658203", "Low": "91.62999725341797", "Close": "95.69000244140625", "Adj Close": "94.98580932617188", "Volume": "2896100"},
{"Date": "2020-04-15", "Open": "93.45999908447266", "High": "93.94000244140625", "Low": "90.11000061035156", "Close": "92.87000274658203", "Adj Close": "92.18656158447266", "Volume": "1999700"},
{"Date": "2020-04-16", "Open": "93.69999694824219", "High": "95.55999755859375", "Low": "92.25", "Close": "95.01000213623047", "Adj Close": "94.31080627441406", "Volume": "1520000"},
{"Date": "2020-04-17", "Open": "96.94000244140625", "High": "97.62999725341797", "Low": "93.5", "Close": "95.4000015258789", "Adj Close": "94.69793701171875", "Volume": "1961700"},
{"Date": "2020-04-20", "Open": "93.83999633789062", "High": "94.91000366210938", "Low": "92.25", "Close": "92.52999877929688", "Adj Close": "91.84906005859375", "Volume": "1387500"},
{"Date": "2020-04-21", "Open": "91.48999786376953", "High": "92.13999938964844", "Low": "88.08000183105469", "Close": "88.0999984741211", "Adj Close": "87.45166015625", "Volume": "1811000"},
{"Date": "2020-04-22", "Open": "91.01000213623047", "High": "93.41000366210938", "Low": "90.70999908447266", "Close": "92.94000244140625", "Adj Close": "92.25604248046875", "Volume": "2272500"},
{"Date": "2020-04-23", "Open": "93.1500015258789", "High": "94.5999984741211", "Low": "92.38999938964844", "Close": "92.79000091552734", "Adj Close": "92.10714721679688", "Volume": "1459300"},
{"Date": "2020-04-24", "Open": "93.37999725341797", "High": "96.77999877929688", "Low": "92.44999694824219", "Close": "96.51000213623047", "Adj Close": "95.79977416992188", "Volume": "1457900"},
{"Date": "2020-04-27", "Open": "97.80000305175781", "High": "99.44999694824219", "Low": "97.55999755859375", "Close": "98.37999725341797", "Adj Close": "97.65599822998047", "Volume": "2113000"},
{"Date": "2020-04-28", "Open": "101.0", "High": "103.8499984741211", "Low": "100.2300033569336", "Close": "100.66999816894531", "Adj Close": "99.92915344238281", "Volume": "2203900"},
{"Date": "2020-04-29", "Open": "102.33999633789062", "High": "106.8499984741211", "Low": "102.33999633789062", "Close": "106.22000122070312", "Adj Close": "105.43830871582031", "Volume": "2051800"},
{"Date": "2020-04-30", "Open": "105.80999755859375", "High": "105.95999908447266", "Low": "103.12999725341797", "Close": "103.87999725341797", "Adj Close": "103.11553192138672", "Volume": "2551600"},
{"Date": "2020-05-01", "Open": "100.79000091552734", "High": "101.70999908447266", "Low": "98.4000015258789", "Close": "98.83000183105469", "Adj Close": "98.10269927978516", "Volume": "2358900"},
{"Date": "2020-05-04", "Open": "98.19999694824219", "High": "100.25", "Low": "96.7300033569336", "Close": "99.62000274658203", "Adj Close": "98.88688659667969", "Volume": "3376800"},
{"Date": "2020-05-05", "Open": "104.05000305175781", "High": "108.52999877929688", "Low": "103.23999786376953", "Close": "104.70999908447266", "Adj Close": "103.93942260742188", "Volume": "5330000"},
{"Date": "2020-05-06", "Open": "106.58000183105469", "High": "108.1500015258789", "Low": "105.41000366210938", "Close": "105.9000015258789", "Adj Close": "105.12066650390625", "Volume": "3021400"},
{"Date": "2020-05-07", "Open": "107.47000122070312", "High": "108.29000091552734", "Low": "105.77999877929688", "Close": "106.19000244140625", "Adj Close": "105.40853881835938", "Volume": "1564600"},
{"Date": "2020-05-08", "Open": "108.19999694824219", "High": "111.29000091552734", "Low": "107.01000213623047", "Close": "111.22000122070312", "Adj Close": "110.40151977539062", "Volume": "2124100"},
{"Date": "2020-05-11", "Open": "109.94000244140625", "High": "111.5999984741211", "Low": "108.61000061035156", "Close": "110.41000366210938", "Adj Close": "109.59748077392578", "Volume": "2188600"},
{"Date": "2020-05-12", "Open": "111.5", "High": "112.73999786376953", "Low": "108.1500015258789", "Close": "108.1500015258789", "Adj Close": "107.35411071777344", "Volume": "1812000"},
{"Date": "2020-05-13", "Open": "108.56999969482422", "High": "109.36000061035156", "Low": "104.16999816894531", "Close": "106.1500015258789", "Adj Close": "105.36882781982422", "Volume": "2097100"},
{"Date": "2020-05-14", "Open": "104.9000015258789", "High": "108.45999908447266", "Low": "102.31999969482422", "Close": "108.3499984741211", "Adj Close": "107.5526351928711", "Volume": "2142800"},
{"Date": "2020-05-15", "Open": "104.5", "High": "106.55999755859375", "Low": "103.69999694824219", "Close": "106.22000122070312", "Adj Close": "105.43830871582031", "Volume": "2033400"},
{"Date": "2020-05-18", "Open": "109.33999633789062", "High": "113.5199966430664", "Low": "108.9800033569336", "Close": "112.69000244140625", "Adj Close": "111.86070251464844", "Volume": "2137200"},
{"Date": "2020-05-19", "Open": "112.36000061035156", "High": "115.5199966430664", "Low": "112.3499984741211", "Close": "112.55000305175781", "Adj Close": "111.72173309326172", "Volume": "1657800"},
{"Date": "2020-05-20", "Open": "114.44000244140625", "High": "117.54000091552734", "Low": "113.62000274658203", "Close": "117.37999725341797", "Adj Close": "116.97347259521484", "Volume": "1772900"},
{"Date": "2020-05-21", "Open": "117.01000213623047", "High": "118.18000030517578", "Low": "113.91999816894531", "Close": "114.12999725341797", "Adj Close": "113.73472595214844", "Volume": "1305600"},
{"Date": "2020-05-22", "Open": "114.83000183105469", "High": "117.72000122070312", "Low": "113.13999938964844", "Close": "117.0199966430664", "Adj Close": "116.61471557617188", "Volume": "1506200"},
{"Date": "2020-05-26", "Open": "120.0", "High": "121.37999725341797", "Low": "117.38999938964844", "Close": "117.72000122070312", "Adj Close": "117.31230163574219", "Volume": "1617300"},
{"Date": "2020-05-27", "Open": "118.12999725341797", "High": "119.19000244140625", "Low": "114.58999633789062", "Close": "119.02999877929688", "Adj Close": "118.61775970458984", "Volume": "2111900"},
{"Date": "2020-05-28", "Open": "118.80000305175781", "High": "120.26000213623047", "Low": "114.7300033569336", "Close": "115.47000122070312", "Adj Close": "115.0700912475586", "Volume": "1997800"},
{"Date": "2020-05-29", "Open": "115.87000274658203", "High": "119.43000030517578", "Low": "114.79000091552734", "Close": "118.54000091552734", "Adj Close": "118.12945556640625", "Volume": "2645300"},
{"Date": "2020-06-01", "Open": "118.1500015258789", "High": "119.62000274658203", "Low": "116.80999755859375", "Close": "119.0999984741211", "Adj Close": "118.68751525878906", "Volume": "1122200"},
{"Date": "2020-06-02", "Open": "119.61000061035156", "High": "123.91000366210938", "Low": "118.68000030517578", "Close": "123.7699966430664", "Adj Close": "123.34133911132812", "Volume": "2027400"},
{"Date": "2020-06-03", "Open": "125.0", "High": "128.5", "Low": "124.76000213623047", "Close": "127.26000213623047", "Adj Close": "126.81925964355469", "Volume": "2222100"},
{"Date": "2020-06-04", "Open": "126.16000366210938", "High": "128.77000427246094", "Low": "126.16000366210938", "Close": "128.6699981689453", "Adj Close": "128.224365234375", "Volume": "2216300"},
{"Date": "2020-06-05", "Open": "130.61000061035156", "High": "137.8800048828125", "Low": "130.5", "Close": "136.16000366210938", "Adj Close": "135.6884307861328", "Volume": "3555300"},
{"Date": "2020-06-08", "Open": "137.0500030517578", "High": "138.22000122070312", "Low": "132.75999450683594", "Close": "134.74000549316406", "Adj Close": "134.2733612060547", "Volume": "2715500"},
{"Date": "2020-06-09", "Open": "133.60000610351562", "High": "136.1199951171875", "Low": "132.11000061035156", "Close": "134.50999450683594", "Adj Close": "134.0441436767578", "Volume": "2019400"},
{"Date": "2020-06-10", "Open": "135.07000732421875", "High": "135.39999389648438", "Low": "131.63999938964844", "Close": "131.89999389648438", "Adj Close": "131.44317626953125", "Volume": "2488500"},
{"Date": "2020-06-11", "Open": "127.69000244140625", "High": "128.77000427246094", "Low": "123.05999755859375", "Close": "123.37999725341797", "Adj Close": "122.95269012451172", "Volume": "2959100"},
{"Date": "2020-06-12", "Open": "127.16000366210938", "High": "128.22000122070312", "Low": "123.5", "Close": "126.91000366210938", "Adj Close": "126.47047424316406", "Volume": "2437500"},
{"Date": "2020-06-15", "Open": "123.37999725341797", "High": "127.30999755859375", "Low": "122.83000183105469", "Close": "127.23999786376953", "Adj Close": "126.79932403564453", "Volume": "2375500"},
{"Date": "2020-06-16", "Open": "131.8300018310547", "High": "133.3699951171875", "Low": "125.79000091552734", "Close": "128.38999938964844", "Adj Close": "127.94534301757812", "Volume": "2513900"},
{"Date": "2020-06-17", "Open": "129.83999633789062", "High": "131.97999572753906", "Low": "129.17999267578125", "Close": "130.74000549316406", "Adj Close": "130.28721618652344", "Volume": "1794800"},
{"Date": "2020-06-18", "Open": "130.22999572753906", "High": "130.97000122070312", "Low": "128.32000732421875", "Close": "129.10000610351562", "Adj Close": "128.65289306640625", "Volume": "1424300"},
{"Date": "2020-06-19", "Open": "132.83999633789062", "High": "132.83999633789062", "Low": "126.51000213623047", "Close": "127.3499984741211", "Adj Close": "126.90894317626953", "Volume": "3667600"},
{"Date": "2020-06-22", "Open": "127.16000366210938", "High": "128.2100067138672", "Low": "125.31999969482422", "Close": "127.58000183105469", "Adj Close": "127.13815307617188", "Volume": "1578800"},
{"Date": "2020-06-23", "Open": "128.75999450683594", "High": "129.72999572753906", "Low": "127.58999633789062", "Close": "128.35000610351562", "Adj Close": "127.90548706054688", "Volume": "1419900"},
{"Date": "2020-06-24", "Open": "128.30999755859375", "High": "129.3800048828125", "Low": "125.0199966430664", "Close": "126.41000366210938", "Adj Close": "125.97220611572266", "Volume": "2393700"},
{"Date": "2020-06-25", "Open": "126.66999816894531", "High": "127.56999969482422", "Low": "124.80000305175781", "Close": "127.30000305175781", "Adj Close": "126.85912322998047", "Volume": "1339500"},
{"Date": "2020-06-26", "Open": "126.5999984741211", "High": "128.13999938964844", "Low": "124.9000015258789", "Close": "125.8499984741211", "Adj Close": "125.41413879394531", "Volume": "2292100"},
{"Date": "2020-06-29", "Open": "126.13999938964844", "High": "126.4000015258789", "Low": "123.41000366210938", "Close": "126.0", "Adj Close": "125.5636215209961", "Volume": "1068800"},
{"Date": "2020-06-30", "Open": "125.94000244140625", "High": "128.38999938964844", "Low": "125.41999816894531", "Close": "127.86000061035156", "Adj Close": "127.41718292236328", "Volume": "1928800"},
{"Date": "2020-07-01", "Open": "127.69999694824219", "High": "127.69999694824219", "Low": "125.80000305175781", "Close": "125.8499984741211", "Adj Close": "125.41413879394531", "Volume": "1371700"},
{"Date": "2020-07-02", "Open": "127.5199966430664", "High": "130.0500030517578", "Low": "127.29000091552734", "Close": "128.4199981689453", "Adj Close": "127.97523498535156", "Volume": "1731900"},
{"Date": "2020-07-06", "Open": "130.88999938964844", "High": "133.27999877929688", "Low": "130.22000122070312", "Close": "131.4499969482422", "Adj Close": "130.99473571777344", "Volume": "1460500"},
{"Date": "2020-07-07", "Open": "133.52999877929688", "High": "135.22999572753906", "Low": "132.14999389648438", "Close": "132.27999877929688", "Adj Close": "131.82186889648438", "Volume": "2511900"},
{"Date": "2020-07-08", "Open": "133.13999938964844", "High": "133.5500030517578", "Low": "130.5800018310547", "Close": "132.14999389648438", "Adj Close": "131.69232177734375", "Volume": "1289700"},
{"Date": "2020-07-09", "Open": "132.85000610351562", "High": "133.60000610351562", "Low": "129.77000427246094", "Close": "132.72999572753906", "Adj Close": "132.2703094482422", "Volume": "1223200"},
{"Date": "2020-07-10", "Open": "132.74000549316406", "High": "133.1300048828125", "Low": "129.72000122070312", "Close": "131.22000122070312", "Adj Close": "130.7655487060547", "Volume": "1081300"},
{"Date": "2020-07-13", "Open": "133.32000732421875", "High": "134.80999755859375", "Low": "128.82000732421875", "Close": "129.47000122070312", "Adj Close": "129.0216064453125", "Volume": "1866700"},
{"Date": "2020-07-14", "Open": "128.27999877929688", "High": "131.49000549316406", "Low": "126.52999877929688", "Close": "131.17999267578125", "Adj Close": "130.72567749023438", "Volume": "1748300"},
{"Date": "2020-07-15", "Open": "131.8800048828125", "High": "132.39999389648438", "Low": "129.00999450683594", "Close": "131.32000732421875", "Adj Close": "130.86520385742188", "Volume": "1306900"},
{"Date": "2020-07-16", "Open": "130.0", "High": "132.5500030517578", "Low": "129.1300048828125", "Close": "131.6300048828125", "Adj Close": "131.17413330078125", "Volume": "1565500"},
{"Date": "2020-07-17", "Open": "132.47999572753906", "High": "134.27999877929688", "Low": "131.80999755859375", "Close": "133.9499969482422", "Adj Close": "133.486083984375", "Volume": "1538200"},
{"Date": "2020-07-20", "Open": "134.72000122070312", "High": "138.07000732421875", "Low": "133.8300018310547", "Close": "137.8000030517578", "Adj Close": "137.32275390625", "Volume": "1930700"},
{"Date": "2020-07-21", "Open": "139.22000122070312", "High": "139.8800048828125", "Low": "136.6699981689453", "Close": "137.4499969482422", "Adj Close": "136.97396850585938", "Volume": "1925300"},
{"Date": "2020-07-22", "Open": "137.0", "High": "138.4199981689453", "Low": "135.1999969482422", "Close": "136.3000030517578", "Adj Close": "135.8279571533203", "Volume": "1455900"},
{"Date": "2020-07-23", "Open": "137.1199951171875", "High": "139.19000244140625", "Low": "134.49000549316406", "Close": "135.33999633789062", "Adj Close": "134.87127685546875", "Volume": "2946200"},
{"Date": "2020-07-24", "Open": "131.47000122070312", "High": "136.0", "Low": "128.55999755859375", "Close": "131.61000061035156", "Adj Close": "131.15419006347656", "Volume": "3028100"},
{"Date": "2020-07-27", "Open": "133.61000061035156", "High": "137.75999450683594", "Low": "132.32000732421875", "Close": "136.69000244140625", "Adj Close": "136.2165985107422", "Volume": "2274400"},
{"Date": "2020-07-28", "Open": "137.3699951171875", "High": "137.9499969482422", "Low": "134.4600067138672", "Close": "134.66000366210938", "Adj Close": "134.19363403320312", "Volume": "1752100"},
{"Date": "2020-07-29", "Open": "135.8800048828125", "High": "137.22000122070312", "Low": "134.58999633789062", "Close": "136.4499969482422", "Adj Close": "135.97743225097656", "Volume": "1330600"},
{"Date": "2020-07-30", "Open": "134.9199981689453", "High": "142.25999450683594", "Low": "134.8000030517578", "Close": "142.19000244140625", "Adj Close": "141.6975555419922", "Volume": "3187900"},
{"Date": "2020-07-31", "Open": "144.41000366210938", "High": "145.89999389648438", "Low": "141.25", "Close": "145.5800018310547", "Adj Close": "145.0758056640625", "Volume": "3537500"},
{"Date": "2020-08-03", "Open": "146.92999267578125", "High": "149.49000549316406", "Low": "146.55999755859375", "Close": "147.1999969482422", "Adj Close": "146.69020080566406", "Volume": "1882800"},
{"Date": "2020-08-04", "Open": "147.44000244140625", "High": "147.88999938964844", "Low": "142.9600067138672", "Close": "145.27000427246094", "Adj Close": "144.7668914794922", "Volume": "1822700"},
{"Date": "2020-08-05", "Open": "144.85000610351562", "High": "146.1199951171875", "Low": "143.4499969482422", "Close": "145.3699951171875", "Adj Close": "144.8665313720703", "Volume": "1428400"},
{"Date": "2020-08-06", "Open": "145.6999969482422", "High": "149.19000244140625", "Low": "145.08999633789062", "Close": "148.07000732421875", "Adj Close": "147.55718994140625", "Volume": "1267300"},
{"Date": "2020-08-07", "Open": "148.7100067138672", "High": "148.72999572753906", "Low": "142.39999389648438", "Close": "144.3699951171875", "Adj Close": "143.8699951171875", "Volume": "1526100"},
{"Date": "2020-08-10", "Open": "143.83999633789062", "High": "144.49000549316406", "Low": "141.0", "Close": "143.5399932861328", "Adj Close": "143.5399932861328", "Volume": "1499700"},
{"Date": "2020-08-11", "Open": "143.19000244140625", "High": "144.57000732421875", "Low": "140.77000427246094", "Close": "141.3300018310547", "Adj Close": "141.3300018310547", "Volume": "1656500"},
{"Date": "2020-08-12", "Open": "142.33999633789062", "High": "147.85000610351562", "Low": "141.35000610351562", "Close": "147.55999755859375", "Adj Close": "147.55999755859375", "Volume": "1641700"},
{"Date": "2020-08-13", "Open": "147.6999969482422", "High": "149.32000732421875", "Low": "146.8000030517578", "Close": "148.05999755859375", "Adj Close": "148.05999755859375", "Volume": "1412800"},
{"Date": "2020-08-14", "Open": "148.47999572753906", "High": "148.6199951171875", "Low": "145.5", "Close": "146.1199951171875", "Adj Close": "146.1199951171875", "Volume": "997900"},
{"Date": "2020-08-17", "Open": "147.3699951171875", "High": "147.67999267578125", "Low": "144.63999938964844", "Close": "146.08999633789062", "Adj Close": "146.08999633789062", "Volume": "1215200"},
{"Date": "2020-08-18", "Open": "145.47000122070312", "High": "146.6199951171875", "Low": "143.07000732421875", "Close": "143.19000244140625", "Adj Close": "143.19000244140625", "Volume": "1178700"},
{"Date": "2020-08-19", "Open": "143.58999633789062", "High": "143.8699951171875", "Low": "141.42999267578125", "Close": "142.0500030517578", "Adj Close": "142.0500030517578", "Volume": "1717100"},
{"Date": "2020-08-20", "Open": "140.63999938964844", "High": "142.25999450683594", "Low": "139.36000061035156", "Close": "140.6300048828125", "Adj Close": "140.6300048828125", "Volume": "1708500"},
{"Date": "2020-08-21", "Open": "140.25", "High": "142.30999755859375", "Low": "139.39999389648438", "Close": "142.0500030517578", "Adj Close": "142.0500030517578", "Volume": "1322500"},
{}]