symbol,date,currentRatio,quickRatio,cashRatio,daysOfSalesOutstanding,daysOfInventoryOutstanding,operatingCycle,daysOfPayablesOutstanding,cashConversionCycle,grossProfitMargin,operatingProfitMargin,pretaxProfitMargin,netProfitMargin,effectiveTaxRate,returnOnAssets,returnOnEquity,returnOnCapitalEmployed,netIncomePerEBT,ebtPerEbit,ebitPerRevenue,debtRatio,debtEquityRatio,longTermDebtToCapitalization,totalDebtToCapitalization,interestCoverage,cashFlowToDebtRatio,companyEquityMultiplier,receivablesTurnover,payablesTurnover,inventoryTurnover,fixedAssetTurnover,assetTurnover,operatingCashFlowPerShare,freeCashFlowPerShare,cashPerShare,payoutRatio,operatingCashFlowSalesRatio,freeCashFlowOperatingCashFlowRatio,cashFlowCoverageRatios,shortTermCoverageRatios,capitalExpenditureCoverageRatio,dividendPaidAndCapexCoverageRatio,dividendPayoutRatio,priceBookValueRatio,priceToBookRatio,priceToSalesRatio,priceEarningsRatio,priceToFreeCashFlowsRatio,priceToOperatingCashFlowsRatio,priceCashFlowRatio,priceEarningsToGrowthRatio,priceSalesRatio,dividendYield,enterpriseValueMultiple,priceFairValue
ADBE,2019-11-29,0.7929403201440421,0.7051310851089339,0.32355525093707216,52.234649656167946,0.0,52.234649656167946,45.71424685542111,6.520402800746837,0.8502662672024565,0.2925462459730504,0.28687277761928626,0.2642001192878499,0.07903384392061637,0.14215398990482797,0.28028628258558397,0.2549219016849432,0.9209661560793836,1.0,0.28687277761928626,0.49282573305590877,0.9717088684829426,0.08585096082768423,,20.384577709364304,,1.9717088684829425,6.9876988244890095,7.984381787025236,,8.639727304014261,0.5380542230185335,8.99524993286843,8.192765251072071,8.49718047407094,0.0,0.39581912467281105,0.9107879505533137,,,-11.20924814755665,,,15.442042579620148,15.442042579620148,14.555794361209804,55.09382206353606,40.375866982971864,36.77385314123415,36.77385314123415,10.453470777233578,14.555794361209804,,39.26825316984432,15.442042579620148
ADBE,2018-11-30,1.1292482480169146,1.056593087484533,0.3819406825096498,53.17669375265227,0.0,53.17669375265227,56.89056643562045,-3.71387268296818,0.8676635723910765,0.31454778334637135,0.30939906144047713,0.28690716553075035,0.07269542384844567,0.13803707687092787,0.27672959333757313,0.19311319755734832,0.9273045761515544,1.0,0.30939906144047713,0.5011842600348815,1.0047482865515203,0.30533531891339205,,31.306738979404315,,2.0047482865515205,6.863909247494258,6.415826434300809,,8.399444874389808,0.4811210504818612,8.093523460207335,7.558055451216548,6.485904190678587,0.0,0.44621267223683525,0.933839938609745,,,-15.114859009899504,,,11.865237764675797,11.865237764675797,12.301617959806903,42.8766494453009,29.522143815984425,27.56895696874696,27.56895696874696,8.23917477549062,12.301617959806903,,35.16089855741096,11.865237764675797
ADBE,2017-12-01,2.0550042529061527,1.9954635667706266,0.653813439183442,60.88744717698611,0.0,60.88744717698611,41.1780015853679,19.709445591618206,0.8616051074401784,0.2969380970087674,0.29276717608219127,0.232000662877037,0.20755917387437833,0.11653508530544854,0.20023096926713949,0.1941721318920883,0.7924408261256216,1.0,0.29276717608219127,0.4179966978536048,0.7182033096926714,0.18189730200174065,,28.730961533292117,,1.7182033096926714,5.994667487684729,8.863956140350878,,7.792427961579509,0.502304966978536,5.812650786333894,5.45720511730653,11.61391514658078,0.0,0.3989387119504814,0.9388496432878694,,,-16.35313436857884,,,10.380235758865249,10.380235758865249,12.027218295406222,51.841310047380276,32.111675524941944,30.14803511196755,30.14803511196755,10.027456202228889,12.027218295406222,,34.43278849821122,10.380235758865249
ADBE,2016-12-02,2.076813655761024,1.9896870554765291,0.35988620199146515,51.934176341676306,0.0,51.934176341676306,39.175126965464415,12.759049376211891,0.8599508406454599,0.2551233851971926,0.24513710130619035,0.19964061403074254,0.18559608901722344,0.09197938144329897,0.15741171717171717,0.14503668519454269,0.8144039109827765,1.0,0.24513710130619035,0.4156763988352876,0.7113804713804713,0.20392409134770023,,20.373328412026915,,1.7113804713804714,7.0281272509003605,9.317136363636363,,7.174546568627451,0.46072479735578814,4.36195193724358,3.9578166920814835,9.442810713485452,0.0,0.3757373476153955,0.9073499087159868,,,-10.793297514781287,,,6.992266942760943,6.992266942760943,8.868084860524425,44.420244365501866,26.011816112144608,23.60181897489144,23.60181897489144,8.646483565636457,8.868084860524425,,28.744842892252255,6.992266942760943
ADBE,2015-11-27,,,,0.0,0.0,0.0,0.0,0.0,0.844788803528967,0.18832091095192985,0.18220811087702646,0.13127923176487344,0.27950939651926515,,,,0.7204906034807349,1.0,0.18220811087702646,,,,,13.613688769786863,,,,,,,,2.897488780749422,2.5328414477368266,0.6947870905663651,0.0,0.3064328285348527,0.8741505625715379,,,-7.94600294155816,,,,,9.972986236503264,75.96773764158901,37.2309131644462,32.545423687752724,32.545423687752724,14.871270783657259,9.972986236503264,,37.162816668989024,
ADBE,2014-11-28,,,,0.0,0.0,0.0,0.0,0.0,0.8500120569086086,0.09959006510730649,0.08705088015432844,0.06462503014227153,0.2575650969529086,,,,0.7423822714681441,1.0,0.08705088015432844,,,,,6.043661688876984,,,,,,,,2.534448818897638,2.2425196850393703,0.6855964566929134,0.0,0.3104653966722932,0.8848155339805825,,,-8.681726230613622,,,,,9.14693995659513,141.53865671641793,33.297366573033706,29.462027184466017,29.462027184466017,27.752956302610844,9.14693995659513,,51.18263873852158,
ADBE,2013-11-29,2.6513761467889907,2.473132372214941,0.5471821756225426,54.00739827373613,0.0,54.00739827373613,38.55195911413969,15.455439159596438,0.8554870530209617,0.10431565967940813,0.0877928483353884,0.07151664611590629,0.18583146067415732,0.027938342967244702,0.04312267657992565,0.04020781567653038,0.8146067415730337,1.0,0.0877928483353884,0.35221579961464355,0.5436431226765799,0.1822714007782101,,5.273449072702494,,1.5434944237918216,6.758333333333334,9.46774193548387,,6.143939393939394,0.39065510597302505,2.245029239766082,1.8777777777777778,6.187134502923977,0.0,0.284019728729963,0.8364157332638708,,,-6.1130573248407645,,,4.539573234200743,4.539573234200743,7.528638717632552,105.27113793103449,31.69171597633136,26.507449856733523,26.507449856733523,20.84477216407942,7.528638717632552,,41.87694666408901,4.539573234200743
ADBE,2012-11-30,3.404874213836478,3.266509433962264,1.1202830188679245,51.13646684831971,0.0,51.13646684831971,37.70661157024793,13.429855278071777,0.8900999091734787,0.26793823796548594,0.25408719346049047,0.1891462306993642,0.2556023235031278,0.08350877192982456,0.12498124531132783,0.12857635298173042,0.7444146559428061,1.0,0.25408719346049047,0.33172932330827065,0.4964741185296324,0.18341092869394757,,16.580971149999257,,1.4966241560390097,7.137763371150729,9.68,,6.632530120481928,0.44150375939849623,2.9813121272365803,2.44234592445328,7.033797216699801,0.0,0.3405086285195277,0.8192184582555349,,,-5.531538177794172,,,2.7848012003000746,2.7848012003000746,4.214509536784742,22.281752701080432,15.108424908424908,12.377100560149373,12.377100560149373,4.326012847374359,4.214509536784742,,12.536247582933797,2.7848012003000746
ADBE,2011-12-02,3.014388489208633,2.8345323741007196,0.7913669064748201,54.88851992409867,0.0,54.88851992409867,72.5,-17.611480075901333,0.8961100569259962,0.26067362428842505,0.24549335863377608,0.1975806451612903,0.1955391304347826,0.09264820375931487,0.1440428843160989,0.13372093023255813,0.8048309178743961,1.0,0.24549335863377608,0.3568012456901346,0.5547293792149404,0.20650384193194293,,15.4588361811447,,1.5547293792149404,6.649842271293376,5.0344827586206895,,7.984848484848484,0.4689133578022467,3.0621031746031746,2.6448412698412698,5.777777777777778,0.0,0.3660578747628083,0.8637335579602151,,,-7.338563956252972,,,2.4637869617845407,2.4637869617845407,3.379525616698292,17.10453781512605,10.688732183045762,9.232216678545972,9.232216678545972,3.3274562191930017,3.379525616698292,,10.756068151267545,2.4637869617845407
ADBE,2010-12-03,3.0112359550561796,2.8295880149812733,0.702247191011236,53.21315789473684,0.0,53.21315789473684,46.98019801980198,6.232959874934856,0.8936842105263157,0.2613157894736842,0.2481578947368421,0.20394736842105263,0.17865429480381761,0.09519715022724481,0.14926810477657934,0.1333239078184646,0.8218451749734889,1.0,0.2481578947368421,0.3622405109937354,0.5679892141756548,0.2257679689830003,,,,1.5679892141756548,6.859205776173285,7.769230769230769,,8.46325167037862,0.4667731236948778,2.1159695817490496,1.7935361216730037,4.692015209125476,0.0,0.29289473684210526,0.8476190476190476,,,-6.5625,,,3.1183127889060094,3.1183127889060094,4.2606,20.89068387096774,17.161628153487385,14.546522911051213,14.546522911051213,4.241396476932775,4.2606,,13.715157530794688,3.1183127889060094
ADBE,2009-11-27,2.927810650887574,2.739644970414201,1.1822485207100593,50.92158859470469,0.0,50.92158859470469,72.50841750841751,-21.58682891371282,0.8991853360488798,0.23455532926001357,0.23828920570264767,0.13136456211812628,0.4487350427350427,0.0531447404559187,0.07912492332856266,0.10905701413702035,0.5512820512820513,1.0,0.23828920570264767,0.3284811864872288,0.4890615416070333,0.16975046681378375,,206.04637511006752,,1.4888570844408096,7.1678832116788325,5.033898305084746,,7.592783505154639,0.40455918703652843,2.1050847457627118,1.87984934086629,3.585687382297552,0.0,0.37942973523421586,0.8930041152263375,,,-9.346153846153847,,,4.035426293191576,4.035426293191576,6.699684317718941,51.00069767441861,19.772861150070128,17.657246376811596,17.657246376811596,10.453003799295608,6.699684317718941,,19.981666681851635,4.035426293191576
ADBE,2008-11-28,3.584534731323722,3.258191349934469,1.161205766710354,47.61312849162011,0.0,47.61312849162011,56.30853994490358,-8.69541145328347,0.8986033519553073,0.2871508379888268,0.30139664804469274,0.2435754189944134,0.19156070435588507,0.14977670903469598,0.19773242630385487,0.21328325756078276,0.8081556997219648,1.0,0.30139664804469274,0.2423565784953624,0.3199546485260771,0.07352941176470588,,107.6953787803174,,1.3201814058956916,7.665952890792291,6.482142857142857,,11.437699680511182,0.6149089659910684,2.3327868852459015,2.129143897996357,3.6775956284153004,0.0,0.3577374301675978,0.9127039900054658,,,-11.455277280858676,,,2.6242448979591835,2.6242448979591835,3.232659217877095,13.27169724770642,9.900692959192403,9.036401967673928,9.036401967673928,2.8123494326370517,3.232659217877095,,8.121276249748899,2.6242448979591835
ADBE,2007-11-30,3.0199530516431925,2.7124413145539905,1.1103286384976525,36.754274857504754,0.0,36.754274857504754,68.88732394366197,-32.133049086157214,0.8875870804306523,0.2716909436352122,0.29987333755541484,0.2292590246991767,0.23588489968321014,0.12670633531676584,0.1556989247311828,0.19477581242287126,0.764519535374868,1.0,0.29987333755541484,0.18620931046552328,0.22881720430107527,,,,,1.2288172043010752,9.930817610062894,5.298507462686567,,10.889655172413793,0.5526776338816941,2.402838063439065,2.182303839732888,3.327212020033389,0.0,0.4557631412286257,0.9082192732578337,,,-10.895533686601059,,,5.530122580645161,5.530122580645161,8.142834072197592,35.51805248618784,19.6718711750306,17.86637254220802,17.86637254220802,8.211952659408546,8.142834072197592,,19.613115387569554,5.530122580645161
ADBE,2006-12-01,4.2599704579025115,3.896602658788774,1.1418020679468242,50.60388349514563,0.0,50.60388349514563,68.75,-18.14611650485437,0.8866019417475728,0.21398058252427185,0.26407766990291265,0.19650485436893203,0.25576176470588236,0.0848566157974174,0.09821428571428571,0.12864169504351117,0.7441176470588236,1.0,0.26407766990291265,0.1360053664262955,0.15741459627329193,,,,,1.157414596273292,7.212885154061625,5.3090909090909095,,11.343612334801762,0.4318296159651182,1.515032679738562,1.378921568627451,3.727124183006536,0.0,0.3600776699029126,0.9101596203623814,,,-11.130852340936375,,,4.884596273291925,4.884596273291925,9.77298640776699,49.73407114624506,29.820405261286883,27.14132873166523,27.14132873166523,11.748323683000516,9.77298640776699,,24.695753241309767,4.884596273291925
ADBE,2005-12-02,4.185416666666667,3.904166666666667,0.8770833333333333,32.11851475076297,0.0,32.11851475076297,132.43362831858408,-100.31511356782111,0.943031536113937,0.37029501525940994,0.3896236012207528,0.30671414038657174,0.21271148825065275,0.24713114754098361,0.32349785407725323,0.39081632653061227,0.7872062663185379,1.0,0.3896236012207528,0.2360655737704918,0.3090128755364807,,,,,1.3090128755364807,11.364161849710984,2.7560975609756095,,18.903846153846153,0.8057377049180328,1.4377952755905512,1.3415354330708662,3.3484251968503935,0.004975124378109453,0.37151576805696845,0.9330503833515882,,,-14.936605316973415,-15.912854030501089,0.0049751243781094535,10.072789699570816,10.072789699570816,9.550193285859613,31.1371144278607,27.550520909757886,25.70602409638554,25.70602409638554,6.105377825064338,9.550193285859613,0.0001597811637181716,22.10775959153832,10.072789699570816
ADBE,2004-12-03,3.4390243902439024,3.2261640798226163,0.8337028824833703,31.09178164367127,0.0,31.09178164367127,150.91346153846155,-119.82167989479028,0.9370125974805039,0.355128974205159,0.36532693461307736,0.2699460107978404,0.2598472906403941,0.22970903522205208,0.31623330990864373,0.40384615384615385,0.7389162561576355,1.0,0.36532693461307736,0.2730985196528841,0.3759662684469431,,,,,1.376669009135629,11.73943661971831,2.4186046511627906,,16.67,0.850944359367024,1.3784274193548387,1.251008064516129,2.6471774193548385,0.026444444444444444,0.4101379724055189,0.9075617961094047,,,-10.818037974683545,-13.32748538011696,0.026444444444444444,10.934307800421644,10.934307800421644,9.33384523095381,34.576711111111116,25.07577759871072,22.757817756325874,22.757817756325874,6.619662197903451,9.33384523095381,0.0007648050839614589,22.694250179733263,10.934307800421644
ADBE,2003-11-28,3.0411899313501145,2.8443935926773456,0.43478260869565216,41.150579150579155,0.0,41.150579150579155,145.21505376344086,-104.06447461286172,0.9281853281853282,0.29266409266409266,0.29343629343629346,0.20540540540540542,0.30038947368421054,0.17106109324758842,0.24159854677565848,0.33989266547406083,0.7,1.0,0.29343629343629346,0.2919614147909968,0.4123524069028156,,,,,1.4123524069028157,8.86986301369863,2.5135135135135136,,16.818181818181817,0.8327974276527331,0.896687370600414,0.8149068322981367,2.271221532091097,0.04360902255639098,0.33444015444015446,0.9087970445624567,,,-10.964556962025316,-15.523297491039427,0.04360902255639098,8.716811989100817,8.716811989100817,7.410972972972973,36.07973684210526,24.383155487804878,22.159339644423923,22.159339644423923,6.726373236236291,7.410972972972973,0.001208684607297329,21.920666063922003,8.716811989100817
ADBE,2002-11-29,2.1591511936339525,1.9496021220159152,0.4880636604774536,36.656652360515025,0.0,36.656652360515025,133.3653846153846,-96.70873225486959,0.9107296137339056,0.2463519313304721,0.2446351931330472,0.16394849785407725,0.3273333333333333,0.18155893536121673,0.28338278931750743,0.4222222222222222,0.6701754385964912,1.0,0.2446351931330472,0.3583650190114068,0.5593471810089021,,,,,1.5608308605341246,9.957264957264957,2.736842105263158,,16.408450704225352,1.1074144486692015,0.6775720164609054,0.6125514403292182,1.271604938271605,0.06230366492146597,0.28266094420600857,0.9040388703310052,,,-10.420886075949367,-16.715736040609137,0.062303664921465975,9.078249258160238,9.078249258160238,5.2521373390557935,32.035287958115184,20.55337588176016,18.581050713634983,18.581050713634983,6.009458929124647,5.2521373390557935,0.0019448448536790255,17.06414790534518,9.078249258160238
ADBE,2001-11-30,2.4426751592356686,2.248407643312102,0.697452229299363,36.796747967479675,0.0,36.796747967479675,139.69135802469137,-102.8946100572117,0.9333333333333333,0.3073170731707317,0.24959349593495936,0.16747967479674797,0.32992508143322474,0.22126745435016112,0.3338735818476499,0.49756888168557534,0.6710097719869706,1.0,0.24959349593495936,0.3372717508055854,0.5089141004862237,,,,,1.5089141004862237,9.919354838709678,2.6129032258064515,,15.185185185185185,1.3211600429645542,0.8407630522088353,0.7540160642570282,1.1686746987951808,0.05825242718446602,0.34040650406504064,0.8968235013135897,,,-9.69212962962963,-13.419871794871796,0.05825242718446603,13.019027552674228,13.019027552674228,6.530682926829268,38.99388349514563,21.3921171770972,19.1849534272749,19.1849534272749,7.495425683823647,6.530682926829268,0.0014938862704382317,21.472984745264323,13.019027552674228
ADBE,2000-12-01,2.787301587301587,2.6063492063492064,0.7523809523809524,40.65165876777252,0.0,40.65165876777252,167.816091954023,-127.16443318625048,0.9312796208530806,0.3222748815165877,0.35071090047393366,0.22748815165876776,0.35119594594594594,0.2694106641721235,0.38247011952191234,0.5888594164456233,0.6486486486486487,1.0,0.35071090047393366,0.29653882132834425,0.4209827357237716,,,,,1.4196547144754317,8.97872340425532,2.175,,19.78125,1.1842843779232928,0.868359375,0.81015625,1.328125,0.041666666666666664,0.35118483412322277,0.9329734592892488,,,-14.919463087248323,-24.97752808988764,0.041666666666666664,19.77965471447543,19.77965471447543,11.764676145339653,51.715555555555554,35.90665380906461,33.49995501574449,33.49995501574449,10.220252497687735,11.764676145339653,0.000805689240288759,30.082404444708978,19.77965471447543
ADBE,1999-12-03,2.324626865671642,2.1156716417910446,0.6380597014925373,24.45320197044335,0.0,24.45320197044335,138.31578947368422,-113.86258750324087,0.9073891625615763,0.2561576354679803,0.36847290640394087,0.23448275862068965,0.0,0.2960199004975124,0.46484375,0.6977611940298507,0.6363636363636364,1.0,0.36847290640394087,0.36318407960199006,0.5703125,,,,,1.5703125,14.926470588235293,2.638888888888889,,14.710144927536232,1.2624378109452736,0.64642166344294,0.5647969052224371,0.965183752417795,0.05126050420168067,0.3292610837438424,0.8737283064033513,,,-7.919431279620853,-11.14,0.05126050420168067,16.974160156249997,16.974160156249997,8.562334975369458,36.51584033613445,29.762910958904108,26.004697785757028,26.004697785757028,7.286891660091351,8.562334975369458,0.0014037881568606696,,16.974160156249997
ADBE,1998-11-27,1.8167330677290836,1.649402390438247,0.44223107569721115,57.50279329608938,0.0,57.50279329608938,161.12612612612614,-103.62333283003676,0.8748603351955307,0.13966480446927373,0.1877094972067039,0.11731843575418995,0.0,0.13689700130378096,0.20348837209302326,0.32558139534883723,0.625,1.0,0.1877094972067039,0.3272490221642764,0.48643410852713176,,,,,1.4864341085271318,6.347517730496454,2.2653061224489797,,9.52127659574468,1.166883963494133,0.3740808823529412,0.26433823529411765,0.5018382352941176,0.15523809523809523,0.22737430167597766,0.7066339066339067,,,-3.408710217755444,-4.688940092165899,0.15523809523809523,6.167441860465116,6.167441860465116,3.5557541899441336,30.308571428571426,22.130737134909598,15.638329238329238,15.638329238329238,6.364068366110999,3.5557541899441336,0.005121920563097035,,6.167441860465116
ADBE,1997-11-28,3.017777777777778,2.8177777777777777,1.191111111111111,52.42872807017544,0.0,52.42872807017544,168.015873015873,-115.58714494569757,0.8618421052631579,0.2532894736842105,0.32456140350877194,0.2050438596491228,0.0,0.19893617021276597,0.26153846153846155,0.413986013986014,0.6317567567567568,1.0,0.32456140350877194,0.2393617021276596,0.3146853146853147,,,,,1.3146853146853146,6.961832061068702,2.1724137931034484,,11.25925925925926,0.9702127659574468,0.35177065767284993,0.29460370994940976,0.8482293423271501,0.11176470588235295,0.22872807017543859,0.8374880153403643,,,-6.153392330383481,-16.046153846153846,0.11176470588235293,3.9146293706293704,3.9146293706293704,3.0690350877192984,14.967700534759356,16.021522610188896,13.41783317353787,13.41783317353787,3.425943913715476,3.0690350877192984,0.0074670591934146964,,3.9146293706293704
ADBE,1996-11-29,3.1904761904761907,2.9913419913419914,0.4805194805194805,58.900889453621346,0.0,58.900889453621346,111.31205673758866,-52.411167283967316,0.8195679796696315,0.18678526048284624,0.3113087674714104,0.19440914866581957,0.0,0.15118577075098813,0.2164073550212164,0.31370038412291934,0.6244897959183674,1.0,0.3113087674714104,0.30237154150197626,0.4328147100424328,,,,,1.4314002828854313,6.196850393700787,3.2790697674418605,,9.8375,0.7776679841897233,0.3296173044925125,0.25324459234608987,0.9384359400998337,0.09542483660130718,0.251715374841169,0.7682988389702171,,,-4.315904139433552,-6.329073482428115,0.0954248366013072,3.944328147100424,3.944328147100424,3.543379923761118,18.226405228758168,18.322207621550593,14.076930843008581,14.076930843008581,4.228106945061074,3.543379923761118,0.005235526995237823,,3.944328147100424
ADBE,1995-12-01,3.725806451612903,3.489247311827957,0.3118279569892473,63.70734908136483,19.653846153846153,83.36119523521099,73.0,-9.292650918635168,0.8293963254593176,0.17716535433070865,0.2152230971128609,0.1220472440944882,0.0,0.10508474576271186,0.1332378223495702,0.23462088698140202,0.5670731707317073,1.0,0.2152230971128609,0.21016949152542372,0.2664756446991404,,,,,1.2679083094555874,5.7293233082706765,5.0,18.571428571428573,14.653846153846153,0.8610169491525423,0.29797979797979796,0.23703703703703705,0.8686868686868687,0.13225806451612904,0.23228346456692914,0.7954802259887006,,,-4.889502762430939,-7.405857740585774,0.13225806451612904,6.595272206303725,6.595272206303725,6.041338582677165,49.5,32.6953125,26.008474576271187,26.008474576271187,11.349118062787415,6.041338582677165,0.00267188009123493,,6.595272206303725
ADBE,1994-11-25,3.1479289940828403,2.940828402366864,1.1242603550295858,59.2056856187291,32.589285714285715,91.79497133301481,101.02678571428572,-41.82110009555662,0.8127090301003345,0.051839464882943144,0.06688963210702341,0.010033444816053512,0.0,0.009584664536741214,0.01312910284463895,0.087527352297593,0.15,1.0,0.06688963210702341,0.26996805111821087,0.36980306345733044,,,,,1.3698030634573304,6.164948453608248,3.6129032258064515,11.2,15.333333333333334,0.9552715654952076,2.9081632653061225,2.1387755102040815,8.16326530612245,1.65,0.2382943143812709,0.7354385964912281,,,-3.779840848806366,-5.125899280575539,1.6500000000000001,0.3988621444201313,0.3988621444201313,0.3048160535117057,30.380000000000003,1.7393129770992366,1.2791578947368423,1.2791578947368423,0.5745850467852465,0.3048160535117057,0.054312047399605004,,0.3988621444201313
ADBE,1993-11-26,4.108108108108108,3.8783783783783785,1.2837837837837838,58.30670926517572,26.545454545454547,84.85216381063026,66.36363636363637,-8.056927098460655,0.8242811501597445,0.25878594249201275,0.29073482428115016,0.18210862619808307,0.0,0.16147308781869688,0.20955882352941177,0.32616487455197135,0.6263736263736264,1.0,0.29073482428115016,0.22946175637393768,0.2977941176470588,,,,,1.2977941176470589,6.26,5.5,13.75,13.608695652173912,0.886685552407932,0.22390852390852392,0.21434511434511436,0.49272349272349275,0.14912280701754385,0.3440894568690096,0.957288765088208,,,-23.41304347826087,27.615384615384617,0.14912280701754385,4.72158088235294,4.72158088235294,4.103099041533547,22.531052631578945,12.456547041707081,11.924512534818941,11.924512534818941,4.183088264661245,4.103099041533547,0.006618545944388642,,4.72158088235294
ADBE,1992-11-27,3.9298245614035086,3.6666666666666665,0.8245614035087719,67.23684210526315,38.020833333333336,105.2576754385965,38.020833333333336,29.216008771929815,0.8157894736842105,0.2556390977443609,0.2631578947368421,0.16541353383458646,0.0,0.15658362989323843,0.19555555555555557,0.3125,0.6285714285714286,1.0,0.2631578947368421,0.20284697508896798,0.25333333333333335,,,,,1.248888888888889,5.428571428571429,9.6,9.6,12.666666666666666,0.9466192170818505,0.21554959785522787,0.16809651474530832,0.4289544235924933,0.16363636363636364,0.3022556390977444,0.7798507462686567,,,-4.5423728813559325,-7.6571428571428575,0.16363636363636366,3.199511111111111,3.199511111111111,2.7063533834586466,16.361136363636362,11.481499202551834,8.953855721393035,8.953855721393035,2.3555523807311496,2.7063533834586466,0.010001528011223938,,3.199511111111111
ADBE,1991-11-29,4.378378378378378,4.162162162162162,0.8108108108108109,60.30434782608696,33.18181818181818,93.48616600790514,49.77272727272727,10.531620553359687,0.808695652173913,0.3391304347826087,0.3652173913043478,0.22608695652173913,0.0,0.23529411764705882,0.28415300546448086,0.45652173913043476,0.6190476190476191,1.0,0.3652173913043478,0.17194570135746606,0.20765027322404372,,,,,1.2076502732240437,6.052631578947368,7.333333333333333,11.0,12.777777777777779,1.0407239819004526,0.21553133514986375,0.16866485013623977,0.31607629427792916,0.125,0.34391304347826085,0.7825537294563844,,,-4.598837209302325,-7.392523364485982,0.125,7.861420765027322,7.861420765027322,6.25495652173913,27.666153846153843,23.24135702746365,18.187610619469027,18.187610619469027,3.919090766519372,6.25495652173913,0.004518156036256465,,7.861420765027322
ADBE,1990-11-30,2.945945945945946,2.7027027027027026,0.5135135135135135,66.95266272189349,48.666666666666664,115.61932938856015,48.666666666666664,18.285996055226825,0.8165680473372781,0.3668639053254438,0.3905325443786982,0.23668639053254437,0.0,0.273972602739726,0.37037037037037035,0.6055045871559633,0.6060606060606061,1.0,0.3905325443786982,0.2602739726027397,0.35185185185185186,,,,,1.3518518518518519,5.451612903225806,7.5,7.5,14.083333333333334,1.1575342465753424,0.13874643874643874,0.10826210826210826,0.19658119658119658,0.1175,0.28816568047337277,0.7802874743326489,,,-4.5514018691588785,-8.116666666666667,0.1175,5.9475,5.9475,3.800769230769231,16.05825,16.90342105263158,13.189527720739221,13.189527720739221,2.1755837251724777,3.800769230769231,0.007317111142247754,,5.9475
ADBE,1989-11-30,2.2941176470588234,2.176470588235294,0.38235294117647056,72.39669421487604,38.421052631578945,110.81774684645498,96.05263157894737,-23.655937364071335,0.8429752066115702,0.4297520661157025,0.45454545454545453,0.2809917355371901,0.0,0.3617021276595745,0.576271186440678,0.9166666666666666,0.6181818181818182,1.0,0.45454545454545453,0.3723404255319149,0.5932203389830508,,,,,1.5932203389830508,5.041666666666667,3.8,9.5,12.1,1.2872340425531914,0.12536023054755044,0.10489913544668587,0.1440922190201729,0.11764705882352941,0.359504132231405,0.8367816091954023,,,-6.126760563380282,-14.03225806451613,0.11764705882352941,7.469322033898305,7.469322033898305,3.6420661157024794,12.961470588235295,12.106868131868131,10.130804597701148,10.130804597701148,1.7360179985277169,3.6420661157024794,0.00907667521386916,,7.469322033898305
ADBE,1988-11-30,2.736842105263158,2.6315789473684212,0.6842105263157895,65.96385542168674,24.333333333333332,90.29718875502007,48.666666666666664,17.29718875502008,0.8313253012048193,0.40963855421686746,0.43373493975903615,0.25301204819277107,0.0,0.3230769230769231,0.4772727272727273,0.782608695652174,0.5833333333333334,1.0,0.43373493975903615,0.3230769230769231,0.4772727272727273,0.022222222222222223,,,,1.4772727272727273,5.533333333333333,7.5,15.0,10.375,1.2769230769230768,0.07906976744186046,0.05843023255813953,0.10174418604651163,0.0761904761904762,0.327710843373494,0.7389705882352942,,,-3.8309859154929575,-4.945454545454545,0.0761904761904762,11.961818181818181,11.961818181818181,6.341204819277109,25.062857142857144,26.18507462686567,19.35,19.35,3.3278174233425446,6.341204819277109,0.0030399756801945585,,11.961818181818181
ADBE,1987-11-30,3.125,3.125,0.75,74.87179487179488,60.833333333333336,135.7051282051282,121.66666666666667,-46.794871794871796,0.8717948717948718,0.41025641025641024,0.4358974358974359,0.23076923076923078,0.0,0.28125,0.375,0.7083333333333334,0.5294117647058824,1.0,0.4358974358974359,0.28125,0.375,,,,,1.3333333333333333,4.875,3.0,6.0,9.75,1.21875,0.026112759643916916,0.011869436201780416,0.050445103857566766,0.0,0.22564102564102564,0.45454545454545453,,,-1.8333333333333333,,,12.777916666666666,12.777916666666666,7.863333333333333,34.074444444444445,76.6675,34.84886363636364,34.84886363636364,4.432300068542365,7.863333333333333,,,12.777916666666666
ADBE,1986-11-30,3.4,3.4,2.6,91.25,0.0,91.25,182.5,-91.25,0.875,0.4375,0.4375,0.25,0.0,0.2,0.2857142857142857,0.4666666666666667,0.5714285714285714,1.0,0.4375,0.3,0.42857142857142855,,,,,1.4285714285714286,4.0,2.0,,8.0,0.8,0.0231023102310231,0.015511551155115511,0.0429042904290429,0.0,0.4375,0.6714285714285714,,,-3.0434782608695654,,,8.440714285714286,8.440714285714286,7.385625,29.5425,25.142553191489363,16.88142857142857,16.88142857142857,3.4550977815895942,7.385625,,,8.440714285714286
