symbol,date,currentRatio,quickRatio,cashRatio,daysOfSalesOutstanding,daysOfInventoryOutstanding,operatingCycle,daysOfPayablesOutstanding,cashConversionCycle,grossProfitMargin,operatingProfitMargin,pretaxProfitMargin,netProfitMargin,effectiveTaxRate,returnOnAssets,returnOnEquity,returnOnCapitalEmployed,netIncomePerEBT,ebtPerEbit,ebitPerRevenue,debtRatio,debtEquityRatio,longTermDebtToCapitalization,totalDebtToCapitalization,interestCoverage,cashFlowToDebtRatio,companyEquityMultiplier,receivablesTurnover,payablesTurnover,inventoryTurnover,fixedAssetTurnover,assetTurnover,operatingCashFlowPerShare,freeCashFlowPerShare,cashPerShare,payoutRatio,operatingCashFlowSalesRatio,freeCashFlowOperatingCashFlowRatio,cashFlowCoverageRatios,shortTermCoverageRatios,capitalExpenditureCoverageRatio,dividendPaidAndCapexCoverageRatio,dividendPayoutRatio,priceBookValueRatio,priceToBookRatio,priceToSalesRatio,priceEarningsRatio,priceToFreeCashFlowsRatio,priceToOperatingCashFlowsRatio,priceCashFlowRatio,priceEarningsToGrowthRatio,priceSalesRatio,dividendYield,enterpriseValueMultiple,priceFairValue
AMZN,2019-12-31,1.0970482394205803,0.8604860383546667,0.4110144399398715,26.72553311326741,45.19503310458148,71.92056621784889,104.03655398221535,-77.31102086894794,0.4099001147860061,0.05183550666257905,0.04982140438183102,0.04130870306072251,0.16986262163709215,0.051445517829237106,0.1867225265871737,0.10169096888733666,0.8291356611333714,1.0,0.04982140438183102,0.7244814604347208,2.6295198195294875,0.39494389142918424,,8.735,,3.6295198195294875,13.657351509250244,3.5083822563211324,8.076108698833975,2.8669746336079145,1.245391745986646,76.41666666666667,42.96230158730159,109.1686507936508,0.0,0.13729404467385803,0.5622111439995846,,,-2.2842061562184925,,,15.192116016757977,15.192116016757977,3.360958213616044,81.3619882637211,43.54235995012238,24.48,24.48,4.070926445439833,3.360958213616044,,25.360491553104335,15.192116016757977
AMZN,2018-12-31,1.098112324721089,0.8469974119401675,0.4642423710722171,26.137590333509383,45.04663830521142,71.1842286387208,100.1759176751272,-74.03832734161782,0.4024741612885219,0.053334879147397665,0.04835392271788464,0.04325273630559026,0.10629606606873279,0.06193128719689145,0.231302670555007,0.11947123290577888,0.8945031524731374,1.0,0.04835392271788464,0.732250012296493,2.734827435762015,0.477428722280887,,7.947071277346507,,3.734827435762015,13.964561971577622,3.643590280687055,8.102713403982765,3.768580999077625,1.431846687324775,61.446,34.592,82.5,0.0,0.13192234860683508,0.5629658561989389,,,-2.2881507410441646,,,19.178741188086985,19.178741188086985,3.586353038168726,82.9162116549191,48.28948889916744,27.185333463528956,27.185333463528956,4.115765494635118,3.586353038168726,,30.086056800342515,19.178741188086985
AMZN,2017-12-31,1.039977195376881,0.7627455384136966,0.35454278458269267,27.013931836326222,52.326862258116385,79.3407940944426,112.87758857898403,-85.86365674265781,0.3706835482891615,0.023084794170892695,0.021398131177403214,0.01705216286417865,0.20204939569101418,0.023098012337217273,0.10945902053484427,0.05183379410843423,0.7968996321597478,1.0,0.021398131177403214,0.788980275683497,3.7388935003067596,0.5778319494172317,,4.488207547169812,,4.73889350030676,13.511546642357946,3.2335914028195054,6.975384807129059,3.6398723038513485,1.3545503008148656,37.251521298174445,13.002028397565923,62.851926977687626,0.0,0.10325188625144772,0.349033487612306,,,-1.536177331660393,,,25.58176982207947,25.58176982207947,3.985276893841431,233.71093306956806,110.58428393135725,38.59761829567111,38.59761829567111,11.438448327538675,3.985276893841431,,45.03033606150794,25.58176982207947
AMZN,2016-12-31,1.044846631367537,0.7832755157933176,0.4412543363155012,22.382543919639378,47.39438055854529,69.77692447818467,104.65966124738006,-82.27711732774068,0.35093060366064405,0.030782354195621642,0.02862038283071176,0.017435490157147373,0.36613566289825283,0.02842857485432004,0.12294529427015816,0.09831758702571616,0.6091983556012333,1.0,0.02862038283071176,0.7687705330807415,3.324708322530464,0.44098208591802424,,8.041322314049587,,4.324708322530464,16.307351001319102,3.4874945671500255,7.7013349620451965,4.670845641272241,1.6305004676146855,35.54338842975206,19.419421487603305,53.679752066115704,0.0,0.12650473942362137,0.5463581933383712,,,-2.2043823680164016,,,20.840234379051076,20.840234379051076,2.9554583894048694,169.50819063686208,42.760285136716675,23.36243213393013,23.36243213393013,8.144739826093641,2.9554583894048694,,32.08961923201033,20.840234379051076
AMZN,2015-12-31,1.0536488919054505,0.751379585091628,0.46891138194587895,19.285927891893913,52.17924383469875,71.46517172659267,103.9051094890511,-84.6191815971572,0.33040203353083003,0.020867988710913405,0.014653383922396875,0.0055697811337682,0.6058673469387755,0.009205059693885432,0.04453078302450687,0.0508101101749838,0.38010204081632654,1.0,0.014653383922396875,0.7932877198943581,3.8376419605499104,0.5143510287020574,,3.4161220043572986,,4.83764196054991,18.925716307039263,3.5128205128205128,6.995118617592502,4.899990841652166,1.652678888597155,25.238993710691823,13.945492662473795,41.526205450733755,0.0,0.11250770984804591,0.552537586178254,,,-2.234824577687024,,,20.920427375971308,20.920427375971308,2.6166663551576548,469.7969798657718,42.09245339747444,23.25766259656118,23.25766259656118,22.246913471257137,2.6166663551576548,,33.584841902003376,20.920427375971308
AMZN,2014-12-31,1.1152764427355903,0.8198227063975222,0.5182455765602193,23.018609250685486,48.271529194288625,71.2901384449741,95.73455826109128,-72.7159490104058,0.2948262687103879,0.002000269699285297,-0.0012473591944981346,-0.0027082303231896437,-1.5045045045045045,-0.004421612696082928,-0.022437389442323805,-0.004201998788612962,2.171171171171171,1.0,-0.0012473591944981346,0.8029355105036236,4.074480960804395,0.5376237623762377,,-0.5285714285714286,,5.074480960804395,15.856735566642907,3.8126253113797923,7.561392938908302,5.244769257971356,1.6326575543528117,14.80952380952381,4.2186147186147185,37.696969696969695,0.0,0.07688677125005619,0.28485822858813215,,,-1.3983241365215615,,,15.249311982124569,15.249311982124569,1.8406173866139253,-679.6384232365144,84.0394356080041,23.939324758842442,23.939324758842442,-31.171741441007608,1.8406173866139253,,33.126763621466615,15.249311982124569
AMZN,2013-12-31,1.0715839860748477,0.7490861618798955,0.3767624020887728,23.37015795411809,49.925527398903675,73.29568535302177,101.946161938687,-78.57600398456891,0.27226938161500025,0.010006447106860796,0.0067963251490893465,0.0036802234997045076,0.3181818181818182,0.006822879055753381,0.02811409809152473,0.029454566622038537,0.541501976284585,1.0,0.0067963251490893465,0.7573146741701735,3.1205622819618304,0.3470891672807664,,3.5886524822695036,,4.12056228196183,15.61820851688693,3.580321152448292,7.310889218728916,6.799890400949859,1.8539306257625936,11.774193548387096,4.367741935483871,26.767741935483873,0.0,0.07353731263095686,0.37095890410958904,,,-1.5897212543554007,,,19.228365483275187,19.228365483275187,2.5170532692204373,683.9403284671533,92.26964549483013,34.22824657534247,34.22824657534247,31.572744240765044,2.5170532692204373,,48.03412118046487,19.228365483275187
AMZN,2012-12-31,1.1207241343016525,0.7794968950636775,0.42542890222081886,20.09821092432848,47.88486219573209,67.98307312006057,105.74209827935002,-85.64388735502153,0.24752426628255284,0.011065097474342396,0.008904457139115774,-0.0006383710081351383,0.7867647058823529,-0.0011979726616495163,-0.0047607421875,0.04013871467571755,-0.07169117647058823,1.0,0.008904457139115774,0.7483643065581324,2.9739990234375,0.3185825985692896,,5.913043478260869,,3.9739990234375,18.160820451843044,3.4517945637483107,7.6224506715304265,8.653399433427762,1.8766088158500998,9.227373068432671,0.8719646799116998,25.271523178807946,0.0,0.06842027728217635,0.09449760765550239,,,-1.1043593130779392,,,15.0830419921875,15.0830419921875,2.022494884847691,-3168.2123076923076,312.810835443038,29.559875598086123,29.559875598086123,-142.4799141650566,2.022494884847691,,45.19177272727273,15.0830419921875
AMZN,2011-12-31,1.174140708915145,0.8154538131041891,0.353719119226638,19.51900076959877,48.86505041836516,68.38405118796393,109.09474898090538,-89.5757482113066,0.22441084094265448,0.0179295713126859,0.019427168916529732,0.013124779000353599,0.31156316916488225,0.024962417912809558,0.08134588113961583,0.08996339818917357,0.6755888650963597,1.0,0.019427168916529732,0.6931323680670939,2.2587340466675263,0.1542738770170083,,14.36923076923077,,3.2587340466675263,18.699727732399843,3.3457155675190666,7.469551282051282,10.884537016074258,1.9019305324788354,8.466377440347072,4.537960954446855,20.772234273318873,0.0,0.08118227010836783,0.5359979502946451,,,-2.1551628934290448,,,11.41951140904989,11.41951140904989,1.8424849720240448,140.3821711568938,42.342805927342255,22.6956571867794,22.6956571867794,6.424717651477023,1.8424849720240448,,40.93099033816425,11.41951140904989
AMZN,2010-12-31,1.3253952950250676,0.9977824913227922,0.3641534901658311,16.935299964916382,44.001731862505174,60.937031827421556,110.63645947065245,-93.70115950573607,0.22345339726347796,0.04110630335633259,0.043766810899310025,0.03368027131329669,0.23513694054776219,0.0612863754854498,0.16783216783216784,0.17768545994065282,0.7695390781563126,1.0,0.043766810899310025,0.6348353460658616,1.738490675990676,0.08540972684876749,,38.38461538461539,,2.738490675990676,21.5526149968494,3.2990932803378463,8.295128044971893,14.169014084507042,1.8196520721391711,7.6644736842105265,5.517543859649122,19.214912280701753,0.0,0.10218103145830897,0.7198855507868384,,,-3.5699693564862103,,,11.369440559440559,11.369440559440559,2.2815998128873813,67.74291666666666,31.017424483306836,22.328995708154505,22.328995708154505,3.0666901618187232,2.2815998128873813,,35.48263382283278,11.369440559440559
AMZN,2009-12-31,1.3303910917979358,0.9986420423682781,0.467680608365019,14.713778611938471,41.75439983138371,56.46817844332218,107.79982084518916,-93.0860422332507,0.2256722020482272,0.04606471092251826,0.04737035374760292,0.036802807132073935,-0.21791559000861327,0.06530080359082024,0.17158074947688795,0.18002791130407816,0.7769164513350559,1.0,0.04737035374760292,0.6194164917107073,1.627544226745292,0.045743329097839895,,34.14705882352941,,2.627544226745292,24.80668016194332,3.385905441570027,8.741593735605711,18.99922480620155,1.7743430102077753,7.450226244343892,6.606334841628959,14.402714932126697,0.0,0.13435880696886857,0.8867294260552687,,,-8.828418230563003,,,10.544268594255279,10.544268594255279,2.2616679587090456,61.45368070953437,18.983294520547947,16.833045854843608,16.833045854843608,2.6965677428386967,2.2616679587090456,,49.23583411875589,10.544268594255279
AMZN,2008-12-31,1.2973029919932575,0.9595448798988622,0.5834386852085968,15.749504330585411,34.28000805585392,50.02951238643933,88.06458109559613,-72.31507676501072,0.22279035792549307,0.04393196285088177,0.047010330794114576,0.03365334446415528,-0.2741398446170921,0.07757998556651431,0.24139221556886228,0.2525224215246637,0.7158712541620422,1.0,0.047010330794114576,0.6786143853740678,2.1115269461077846,0.13274910743265173,,12.690140845070422,,3.1115269461077846,23.17533252720677,4.144685587089594,10.647605432451751,22.442622950819672,2.3052682222756795,3.928240740740741,3.1574074074074074,8.627314814814815,0.0,0.08854221016383179,0.8037713612256924,,,-5.096096096096096,,,9.509820359281438,9.509820359281438,1.3257977668788479,39.39572093023256,18.629208211143695,14.973624042427813,14.973624042427813,1.6895613463576358,1.3257977668788479,,30.48973544973545,9.509820359281438
AMZN,2007-12-31,1.39041464728056,1.0215401184706516,0.6836295099623048,16.779912369396694,38.14666434419091,54.92657671358761,88.84993903501133,-72.07002666561463,0.2260195483653522,0.044152342433434445,0.044489383215369056,0.03208628244017526,0.2787878787878788,0.07340015420200463,0.39766081871345027,0.2381811620353663,0.7212121212121212,1.0,0.044489383215369056,0.815420200462606,4.417710944026734,0.5171440096813231,,8.571428571428571,,5.417710944026734,21.752199413489738,4.108050089445438,9.568333333333333,27.320441988950275,2.2875867386276023,3.313679245283019,2.785377358490566,7.339622641509434,0.0,0.09470845972362656,0.8405693950177936,,,-6.272321428571429,,,26.286583124477858,26.286583124477858,2.1210003370407815,66.10302521008403,26.64270956816257,22.395046263345193,22.395046263345193,2.7824563376427704,2.1210003370407815,,30.73045778229908,26.286583124477858
AMZN,2006-12-31,1.3321484992101107,0.94826224328594,0.40363349131121645,13.017458687330782,38.777104784978796,51.79456347230958,80.29557843731072,-67.27811974997994,0.22929698440855195,0.036317804126598824,0.03519746055457007,0.01773877322378863,0.4960212201591512,0.04354801741920697,0.4408352668213457,0.2058984161660295,0.5039787798408488,1.0,0.03519746055457007,0.9012147604859042,9.122969837587007,0.7431466030989273,,4.833333333333333,,10.122969837587007,28.039267015706805,4.545704845814978,9.412770809578108,23.437636761487965,2.4549621819848726,1.6556603773584906,1.1462264150943395,4.761792452830188,0.0,0.0655400989636822,0.6923076923076923,,,-3.25,,,36.44825986078886,36.44825986078886,1.4666417701428436,82.67999999999999,32.32345679012345,22.377777777777776,22.377777777777776,3.4802263476620667,1.4666417701428436,,24.14272727272727,36.44825986078886
AMZN,2005-12-31,1.5184033177812337,1.1710730948678072,0.5251425609123899,11.134864546525323,32.024492326771046,43.15935687329637,77.28879243528135,-66.15392788875603,0.24016489988221437,0.05088339222614841,0.05041224970553593,0.04228504122497055,0.2219626168224299,0.09713203463203464,1.4593495934959348,0.2422184493491794,0.8387850467289719,1.0,0.05041224970553593,0.9334415584415584,14.024390243902438,0.8607809847198642,,4.6521739130434785,,15.024390243902438,32.77992277992278,4.722547584187408,11.397526501766784,24.396551724137932,2.2970779220779223,1.7206572769953052,1.2417840375586855,4.694835680751174,0.0,0.08633686690223792,0.7216916780354706,,,-3.593137254901961,,,77.85756097560976,77.85756097560976,2.255943462897527,53.35086350974931,36.20597353497165,26.129549795361527,26.129549795361527,2.2562759709275495,2.255943462897527,,29.47670164917541,77.85756097560976
AMZN,2004-12-31,1.567283950617284,1.2141975308641975,0.804320987654321,9.862014159803495,32.9385222786238,42.800536438427294,78.36623425455913,-68.50422009475564,0.23146944083224968,0.06357462794393874,0.051437653518277705,0.08495882097962722,-0.6533174157303371,0.1809787626962142,-2.590308370044053,0.2185389809699202,1.651685393258427,1.0,0.051437653518277705,1.069867651585103,-15.312775330396477,1.1394348894348894,,3.3200593134191947,,-14.312775330396477,37.01069518716577,4.657618213660245,11.08125,28.134146341463413,2.1301939058171744,1.3341176470588236,1.1247058823529412,4.188235294117647,0.0,0.08192457737321196,0.8430335097001763,,,-6.370786516853933,,,-79.04625550660793,-79.04625550660793,2.592616673891056,30.516156462585034,37.53870292887029,31.64638447971781,31.64638447971781,1.287537624997383,2.592616673891056,,34.3370228313215,-79.04625550660793
AMZN,2003-12-31,1.4533120510774142,1.217877094972067,0.879489225857941,9.083396656534955,26.780633890691288,35.86403054722624,74.69428500124782,-65.61088834471286,0.2387917933130699,0.05148176291793313,0.006838905775075988,0.006648936170212766,0.0,0.016188714153561518,-0.033783783783783786,0.039603960396039604,0.9722222222222222,1.0,0.006838905775075988,1.479185938945421,-3.086872586872587,2.1397139713971396,,0.2769678178782726,,-2.086872586872587,40.18320610687023,4.886585365853659,13.629251700680273,23.5,2.4347826086956523,0.9355608591885441,0.8257756563245824,3.3293556085918854,0.0,0.07446808510638298,0.8826530612244898,,,-8.521739130434783,,,-20.383783783783784,-20.383783783783784,4.011702127659574,603.36,61.033526011560696,53.871428571428574,53.871428571428574,25.097571726397298,4.011702127659574,,90.01020579640051,-20.383783783783784
AMZN,2002-12-31,1.5159474671669793,1.325515947467167,0.6923076923076923,10.394101195016527,25.078231292517007,35.472332487533535,76.72448979591837,-66.33038860090184,0.2524790236460717,0.01627256547165014,-0.037121789982201885,-0.03788456648868548,0.0,-0.07487437185929648,0.11012564671101256,-0.15800865800865802,1.0205479452054795,1.0,-0.037121789982201885,1.6798994974874373,-2.4708056171470805,2.4642857142857144,,-1.0215147804792724,,-1.4708056171470805,35.11607142857143,4.757281553398058,14.554455445544555,16.456066945606693,1.9763819095477386,0.4603174603174603,0.35714285714285715,3.441798941798942,0.0,0.04424103737604882,0.7758620689655172,,,-4.461538461538462,,,-6.096053215077605,-6.096053215077605,2.097116704805492,-55.35543624161074,61.096,47.402068965517245,47.402068965517245,-2.0772714086497426,2.097116704805492,,120.93864689527341,-6.096053215077605
AMZN,2001-12-31,1.3116178067318132,1.1552660152008687,0.5863192182410424,7.950032030749519,22.61617900172117,30.56621103247069,69.89027538726334,-61.940243356513825,0.25592568866111465,-0.13196668802049968,-0.16848174247277387,-0.18161434977578475,0.0,-0.34615384615384615,0.39375,-0.7336122733612274,1.0779467680608366,1.0,-0.16848174247277387,1.879120879120879,-2.1375,3.011173184357542,,-3.777867156975408,,-1.1375,45.911764705882355,5.222471910112359,16.13888888888889,11.477941176470589,1.9059829059829059,-0.32967032967032966,-0.46703296703296704,2.7362637362637363,0.0,-0.03843689942344651,1.4166666666666667,,,2.4,,,-3.513611111111111,-3.513611111111111,1.6206278026905832,-8.923456790123456,-29.76235294117647,-42.163333333333334,-42.163333333333334,-0.3224598701087003,1.6206278026905832,,-41.26650511844122,-3.513611111111111
AMZN,2000-12-31,1.3958974358974359,1.1282051282051282,0.8430769230769231,0.0,30.330009496676166,30.330009496676166,84.05745489078822,-84.05745489078822,0.23750905141202028,-0.3128167994207096,-0.4007965242577842,-0.5108616944243302,0.0,-0.6608899297423888,1.4591520165460186,-0.9543103448275863,1.2746160794941284,1.0,-0.4007965242577842,1.452927400468384,-3.2078593588417785,1.8336206896551723,,,,-2.2078593588417785,,4.342268041237113,12.034285714285714,7.546448087431694,1.2936768149882905,-0.37037037037037035,-0.7549857549857549,3.133903133903134,0.0,-0.04706734250543085,2.0384615384615383,,,0.9629629629629629,,,-6.874808686659773,-6.874808686659773,2.406929761042723,-4.711509567682495,-25.08656603773585,-51.138000000000005,-51.138000000000005,-0.16417550464177066,2.406929761042723,,,-6.874808686659773
AMZN,1999-12-31,1.3694181326116373,0.9553450608930988,0.15832205683355885,0.0,59.796145292809484,59.796145292809484,125.27427724240177,-125.27427724240177,0.1774390243902439,-0.3695121951219512,-0.39207317073170733,-0.43902439024390244,0.0,-0.2912621359223301,-2.706766917293233,-0.3710328909405655,1.119751166407465,1.0,-0.39207317073170733,0.8919902912621359,8.289473684210526,0.8464203233256351,,,,9.293233082706767,,2.913606911447084,6.104072398190045,5.1572327044025155,0.6634304207119741,-0.2782874617737003,-1.1559633027522935,2.159021406727829,0.0,-0.05548780487804878,4.153846153846154,,,0.3170731707317073,,,75.83695488721804,75.83695488721804,12.300384146341463,-28.017541666666663,-53.36674603174603,-221.67725274725277,-221.67725274725277,-0.9095340141963665,12.300384146341463,,,75.83695488721804
AMZN,1998-12-31,2.617283950617284,2.308641975308642,0.16049382716049382,0.0,23.004201680672267,23.004201680672267,86.64915966386555,-86.64915966386555,0.21967213114754097,-0.18360655737704917,-0.20491803278688525,-0.20491803278688525,0.0,-0.19290123456790123,-0.8992805755395683,-0.257201646090535,1.0,1.0,-0.20491803278688525,0.7870370370370371,3.6690647482014387,0.7145790554414785,,,,4.661870503597123,,4.212389380530974,15.866666666666667,20.333333333333332,0.941358024691358,0.10472972972972973,0.010135135135135136,1.2635135135135136,0.0,0.05081967213114754,0.0967741935483871,,,-1.1071428571428572,,,124.511654676259,124.511654676259,28.372327868852455,-138.45695999999998,5769.04,558.294193548387,558.294193548387,-4.06862505311228,28.372327868852455,,,124.511654676259
AMZN,1997-12-31,3.1136363636363638,2.840909090909091,2.5,0.0,27.60504201680672,27.60504201680672,101.21848739495798,-101.21848739495798,0.19594594594594594,-0.19594594594594594,-0.1891891891891892,-0.1891891891891892,0.0,-0.18791946308724833,-1.0,-0.26666666666666666,1.0,1.0,-0.1891891891891892,0.8120805369127517,4.321428571428571,0.7333333333333333,,,,5.321428571428571,,3.606060606060606,13.222222222222221,16.444444444444443,0.9932885906040269,0.015384615384615385,-0.011538461538461539,0.4807692307692308,0.0,0.02702702702702703,-0.75,,,-0.5714285714285714,,,45.68571428571428,45.68571428571428,8.643243243243244,-45.68571428571428,-426.4,319.79999999999995,319.79999999999995,-1.179220263504985,8.643243243243244,,,45.68571428571428
