symbol,date,currentRatio,quickRatio,cashRatio,daysOfSalesOutstanding,daysOfInventoryOutstanding,operatingCycle,daysOfPayablesOutstanding,cashConversionCycle,grossProfitMargin,operatingProfitMargin,pretaxProfitMargin,netProfitMargin,effectiveTaxRate,returnOnAssets,returnOnEquity,returnOnCapitalEmployed,netIncomePerEBT,ebtPerEbit,ebitPerRevenue,debtRatio,debtEquityRatio,longTermDebtToCapitalization,totalDebtToCapitalization,interestCoverage,cashFlowToDebtRatio,companyEquityMultiplier,receivablesTurnover,payablesTurnover,inventoryTurnover,fixedAssetTurnover,assetTurnover,operatingCashFlowPerShare,freeCashFlowPerShare,cashPerShare,payoutRatio,operatingCashFlowSalesRatio,freeCashFlowOperatingCashFlowRatio,cashFlowCoverageRatios,shortTermCoverageRatios,capitalExpenditureCoverageRatio,dividendPaidAndCapexCoverageRatio,dividendPayoutRatio,priceBookValueRatio,priceToBookRatio,priceToSalesRatio,priceEarningsRatio,priceToFreeCashFlowsRatio,priceToOperatingCashFlowsRatio,priceCashFlowRatio,priceEarningsToGrowthRatio,priceSalesRatio,dividendYield,enterpriseValueMultiple,priceFairValue
BKNG,2019-12-31,1.8324636600819977,1.6753633991800223,1.1762951919493105,40.700915969733174,,,,,0.0,0.3547723350590734,0.3954599761051374,0.32291251825302003,0.1834508224236321,0.22731520418652462,0.8199898870723075,0.37153903716637565,0.8165491775763679,1.0,0.3954599761051374,0.7227829174843473,2.6072813079386483,0.5628821925882266,,22.398496240601503,,3.6072813079386483,8.967857142857143,0.0,,11.094256259204712,0.7039529015979815,111.81594612608886,103.35792594635592,168.01121607023833,0.0,0.32291251825302003,0.9243576567317574,,,-13.220108695652174,,,13.728765179504466,13.728765179504466,5.406396111111111,16.742603044193217,18.112689306204135,16.742603044193217,16.742603044193217,0.1822045812530772,5.406396111111111,,12.368259944718362,13.728765179504466
BKNG,2018-12-31,2.3648382559774963,2.1960618846694797,0.7381153305203938,38.266331658291456,,,,,0.0,0.3676602189027328,0.3328285261926069,0.27521167481241826,0.17311271975180972,0.17622426940538635,0.45509391007398975,0.2527179594396822,0.8268872802481902,1.0,0.3328285261926069,0.6127738352360382,1.5824701195219124,0.49609957554204426,0.4968211237757031,17.973977695167285,0.6154023518561217,2.582470119521912,9.538411030860145,0.0,,22.14481707317073,0.6403226517388813,111.16896099298165,101.96388778974114,130.87031676281316,0.0,0.36745370689061746,0.9171974522292994,0.6154023518561217,213.52,-12.076923076923077,,,9.940639487763233,9.940639487763233,6.011462648860742,21.843051000500253,17.8367070874183,16.359782296740352,16.359782296740352,0.2623406152803954,6.011462648860742,,16.88580793851718,9.940639487763233
BKNG,2017-12-31,2.5829462403955783,2.4641518776580478,0.7266151838777221,35.05223286807034,0.0,35.05223286807034,1006.8012190082644,-971.7489861401941,0.9809163315195962,0.3572273480009463,0.346896932418579,0.18460689220093052,0.467732893839509,0.09197971825602524,0.20789304440137193,0.20037903021377787,0.5321664014548761,1.0,0.346896932418579,0.5575623103655013,1.2602052750662087,0.4390274388195014,,17.320534223706176,,2.260205275066209,10.413031357339992,0.36253432465997426,,26.414292588125754,0.49824639350903727,93.3265804540177,87.56517996556832,148.16585258437763,0.0,0.36763946061036196,0.9382662424743181,,,-16.19859279720644,,,8.524246191898511,8.524246191898511,7.56944323160634,41.003037001281506,21.943996469322265,20.589311112140702,20.589311112140702,0.5123225888849465,7.56944323160634,,20.389431119570546,8.524246191898511
BKNG,2016-12-31,1.8895217006510021,1.8050596955927056,0.7279871408732033,29.222933538117847,0.0,29.222933538117847,368.6130602409638,-339.390126702846,0.9613701945452853,0.2646374383319371,0.252536535418412,0.19873405938750816,0.21314080353851825,0.10761645776724431,0.21741029814029167,0.15977335622338423,0.7869517139697751,1.0,0.252536535418412,0.5050075424771232,1.0202328031509116,0.3869768294325772,,13.049543049543049,,2.0202328031509116,12.490190265255228,0.9901982305276922,,30.958137497586574,0.541509885617567,78.39516209575935,73.03425683638615,85.89087749435711,0.0,0.36532597970771663,0.9316168866029658,,,-14.623493291303845,,,8.168562687790054,8.168562687790054,7.466857072512333,37.57210563466042,21.939156628779696,20.438888793198558,20.438888793198558,0.4704783202571297,7.466857072512333,,26.1074191356431,8.168562687790054
BKNG,2015-12-31,2.468708617323579,2.2883742904586226,1.02637027464549,25.52981536075452,0.0,25.52981536075452,186.39838337182448,-160.86856801106995,0.9314634766939719,0.3533078483306622,0.33915052135264284,0.2766005632922076,0.18443126022913256,0.14645670421326507,0.29007662922807187,0.19574921009069057,0.8155687397708674,1.0,0.33915052135264284,0.495110293431761,0.9806305951393837,0.41182822260823787,,19.524056194571518,,1.9806305951393837,14.297009000742442,1.9581714894592401,,33.5678928329682,0.5294880909499255,60.12891283701277,56.75800980753203,51.33469656736379,0.0,0.336322134885923,0.9439387331246448,,,-17.837627576689762,,,6.246966160644759,6.246966160644759,5.95675137118038,21.53557209096325,18.76334289400461,17.71144612055002,17.71144612055002,0.2779101477961648,5.95675137118038,,16.744019999196865,6.246966160644759
BKNG,2014-12-31,3.7090076688017652,3.579253109625496,2.2837775793626327,27.839625367109175,0.0,27.839625367109175,95.35761355831524,-67.51798819120606,0.6770795587902398,0.3640514756565736,0.35411730270099245,0.2868705661272705,0.18989960688394647,0.1639534744384207,0.282694000742877,0.22322183670973278,0.8101003931160535,1.0,0.35411730270099245,0.4200319992374235,0.724233058867283,0.30862981384796073,,33.83527441060292,,1.724233058867283,13.110808611355285,3.827696461560324,,42.43198644906084,0.5715242126502532,54.964770005469326,52.48463874167814,80.92399524734549,0.0,0.34522708026360194,0.9548778014800318,,,-22.162040698381798,,,6.2481113531077455,6.2481113531077455,6.340421927533274,22.10203024007816,19.233818202855804,18.365946039609565,18.365946039609565,0.2931255501299811,6.340421927533274,,16.496487586364953,6.2481113531077455
BKNG,2013-12-31,5.413169319826339,5.274240231548481,0.9334298118668596,28.800235536581773,0.0,28.800235536581773,83.70937790157846,-54.90914236499669,0.8414544383924628,0.35507139702635065,0.3381422052112469,0.27866921831296926,0.17576795820635613,0.18125239371888166,0.2739507959479016,0.25347605385124694,0.824118415324336,1.0,0.3381422052112469,0.33847184986595175,0.5115774240231549,0.20217065004041104,,27.578671853426023,,1.5114327062228654,12.673507462686567,4.3603238866396765,,50.318518518518516,0.6504212945231712,44.25769230769231,42.63461538461539,129.8653846153846,0.0,0.3387899308111291,0.9633266707221692,,,-27.267772511848342,,,8.729377713458755,8.729377713458755,8.879729132930958,31.864764923402007,27.207938655841225,26.210132962544538,26.210132962544538,0.4144491685885203,8.879729132930958,,24.33159276036938,8.729377713458755
BKNG,2012-12-31,3.886456908344733,3.7968536251709986,1.0506155950752394,25.531267819806118,0.0,25.531267819806118,57.37043330501274,-31.83916548520662,0.7762782740923779,0.3478426154723437,0.33491731609960085,0.2699106633719825,0.1917321225879682,0.2161339421613394,0.36438285860918657,0.34494909945184027,0.8059023836549376,1.0,0.33491731609960085,0.40684931506849314,0.6859122401847575,0.1938353330575093,,28.390048981696314,,1.6859122401847575,14.296195652173912,6.3621621621621625,,59.1123595505618,0.8007610350076103,35.015686274509804,33.93333333333333,101.62745098039215,0.0,0.3394411708800608,0.9690894837047822,,,-32.35144927536232,,,9.096635873749038,9.096635873749038,6.738184755749858,24.9645,20.483988212180748,19.850817560757086,19.850817560757086,0.3184566033016508,6.738184755749858,,18.4884158905377,9.096635873749038
BKNG,2011-12-31,2.7730560578661843,2.6419529837251354,0.5723327305605787,22.12121212121212,0.0,22.12121212121212,42.04937304075235,-19.92816091954023,0.7070707070707071,0.3211662075298439,0.3140495867768595,0.24242424242424243,0.22563084795321636,0.2659279778393352,0.41025641025641024,0.4774869109947644,0.7719298245614035,1.0,0.3140495867768595,0.3515487282800302,0.5423465423465423,0.029045643153526972,,43.12600485482803,,1.5427350427350428,16.5,8.680272108843537,,68.0625,1.0969529085872576,26.309803921568626,25.392156862745097,52.11764705882353,0.0,0.30803489439853077,0.9651214786108213,,,-28.67094017094017,,,10.350780885780885,10.350780885780885,6.116370523415978,25.230028409090906,20.573675675675677,19.856096288567596,19.856096288567596,0.32184378410796305,6.116370523415978,,17.98868971109873,10.350780885780885
BKNG,2010-12-31,4.154989384288747,3.872611464968153,0.7622080679405521,19.166936790923824,0.0,19.166936790923824,27.933673469387756,-8.766736678463932,0.6188006482982171,0.25510534846029176,0.24181523500810373,0.17115072933549433,0.2924142091152815,0.18169304886441845,0.2912300055157198,0.30636550308008215,0.707774798927614,1.0,0.24181523500810373,0.37611837577426016,0.6028681742967458,0.20795107033639143,,24.91317125300561,,1.6028681742967457,19.04320987654321,13.066666666666666,,77.125,1.0615966964900208,15.241176470588234,14.798039215686275,32.588235294117645,0.0,0.2519611021069692,0.9709249967837386,,,-34.39380530973451,,,11.964043022614453,11.964043022614453,7.031056726094003,41.08107954545454,28.74096992182324,27.90532612890776,27.90532612890776,0.5240457870980945,7.031056726094003,,26.38302170980601,11.964043022614453
BKNG,2009-12-31,2.5012224938875307,2.2469437652811735,0.4938875305623472,18.577844311377245,0.0,18.577844311377245,20.673166202414112,-2.0953218910368676,0.539349871685201,0.20145423438836613,0.18905047048759624,0.20915312232677502,0.10671493212669683,0.26663031624863687,0.3698940998487141,0.3101754385964912,1.1063348416289593,1.0,0.18905047048759624,0.2797164667393675,0.3880484114977307,0.026509572901325478,,18.352433150639428,,1.3872919818456884,19.647058823529413,17.65573770491803,,77.93333333333334,1.2748091603053435,10.194,9.892,16.0,0.0,0.21800684345594526,0.9703747302334707,,,-33.75496688741722,,,7.388426626323751,7.388426626323751,4.177715996578272,19.974437627811863,19.74828143954711,19.16323327447518,19.16323327447518,0.2498053730341654,4.177715996578272,,16.017128977799725,7.388426626323751
BKNG,2008-12-31,1.2584745762711864,1.1779661016949152,0.7733050847457628,17.814323607427056,0.0,17.814323607427056,18.073196986006458,-0.25887337857940196,0.5071618037135278,0.153315649867374,0.1464190981432361,0.09655172413793103,-0.35655072463768117,0.13871951219512196,0.2603719599427754,0.32857142857142857,0.6594202898550725,1.0,0.1464190981432361,0.4679878048780488,0.8783977110157367,0.09689922480620156,,29.44,,1.8769670958512161,20.48913043478261,20.195652173913043,,65.0,1.4367378048780488,6.440816326530612,6.06734693877551,9.46938775510204,0.0,0.16742705570291777,0.9420152091254753,,,-17.24590163934426,,,4.703018597997139,4.703018597997139,1.7439840848806367,18.06269230769231,11.057551294988228,10.416381495564005,10.416381495564005,0.22137867010428294,1.7439840848806367,,22.02892692570572,4.703018597997139
BKNG,2007-12-31,0.8820143884892087,0.8316546762589928,0.5539568345323741,18.39247693399574,0.0,18.39247693399574,22.753246753246753,-4.360769819251011,0.45351312987934705,0.09794180269694819,0.08658623136976579,0.099361249112846,0.0,0.10362694300518134,0.24179620034542315,0.18597560975609756,1.1475409836065573,1.0,0.08658623136976579,0.5714285714285714,1.3333333333333333,,,11.71724932769881,,2.3333333333333335,19.845070422535212,16.041666666666668,,52.18518518518518,1.0429311621021466,3.391304347826087,3.0456521739130435,11.021739130434783,0.0,0.11071682044002838,0.8980769230769231,,,-9.81132075471698,,,8.463523316062176,8.463523316062176,3.4779134137686305,35.00271428571428,34.977730192719484,31.412692307692307,31.412692307692307,0.40273258057600225,3.4779134137686305,,24.029226446421728,8.463523316062176
BKNG,2006-12-31,4.98019801980198,4.762376237623762,4.198019801980198,15.926090828138914,0.0,15.926090828138914,24.77146814404432,-8.845377315905406,0.3570792520035619,0.05520926090828139,0.058771148708815675,0.06589492430988424,0.0,0.06690777576853527,0.20441988950276244,0.06567164179104477,1.121212121212121,1.0,0.058771148708815675,0.6726943942133815,2.0552486187845305,0.611170784103115,,9.34844192634561,,3.0552486187845305,22.918367346938776,14.73469387755102,,51.04545454545455,1.015370705244123,2.491111111111111,2.2044444444444444,9.6,0.0,0.09982190560997328,0.8849241748438894,,,-8.689922480620154,,,5.308011049723757,5.308011049723757,1.7110418521816564,25.966216216216218,19.369959677419356,17.140945584299732,17.140945584299732,0.29226606546516504,1.7110418521816564,,17.82080027595723,5.308011049723757
BKNG,2005-12-31,3.1549295774647885,2.5774647887323945,1.1267605633802817,11.370716510903426,0.0,11.370716510903426,19.9568345323741,-8.586118021470673,0.2782969885773624,0.037383177570093455,0.037383177570093455,0.20041536863966772,0.0,0.25596816976127323,0.5039164490861618,0.0527086383601757,5.361111111111111,1.0,0.037383177570093455,0.4920424403183024,0.9686684073107049,0.36902800658978585,,7.093596059113301,,1.968668407310705,32.1,18.289473684210527,,53.5,1.2771883289124668,1.3608695652173912,1.1217391304347826,3.3260869565217392,0.0,0.06500519210799585,0.8242811501597445,,,-5.6909090909090905,,,2.6122715404699743,2.6122715404699743,1.0389408099688473,5.183937823834197,19.38953488372093,15.982428115015976,15.982428115015976,0.059645107527857184,1.0389408099688473,,5.078202995008319,2.6122715404699743
BKNG,2004-12-31,3.689189189189189,3.27027027027027,1.364864864864865,7.188183807439826,0.0,7.188183807439826,20.900837988826815,-13.71265418138699,0.21663019693654267,0.03282275711159737,0.0350109409190372,0.0350109409190372,0.0,0.05904059040590406,0.15023474178403756,0.06837606837606838,1.0,1.0,0.0350109409190372,0.6070110701107011,1.5446009389671362,0.5125858123569794,,8.59752821063944,,2.544600938967136,50.77777777777778,17.463414634146343,,57.125,1.6863468634686347,1.0,0.8357142857142857,5.333333333333333,0.0,0.045951859956236324,0.8357142857142857,,,-6.086956521739131,,,4.359718309859155,4.359718309859155,1.015995623632385,29.019375,26.456410256410255,22.11,22.11,0.30485586543271637,1.015995623632385,,20.981205857707195,4.359718309859155
BKNG,2003-12-31,5.68,5.14,1.88,4.6469907407407405,0.0,4.6469907407407405,12.70891364902507,-8.061922908284329,0.16898148148148148,0.009259259259259259,0.011574074074074073,0.013888888888888888,0.0,0.03550295857988166,0.0736196319018405,0.034722222222222224,1.2,1.0,0.011574074074074073,0.5177514792899408,1.0736196319018405,0.4340277777777778,,11.025358324145534,,2.0736196319018405,78.54545454545455,28.72,,50.8235294117647,2.5562130177514795,0.5128205128205128,0.3435897435897436,6.3076923076923075,0.0,0.023148148148148147,0.67,,,-3.0303030303030303,,,4.577116564417177,4.577116564417177,0.8635069444444444,62.17249999999999,55.67686567164179,37.3035,37.3035,0.6064851175587793,0.8635069444444444,,31.7080834047415,4.577116564417177
BKNG,2002-12-31,2.6153846153846154,2.230769230769231,1.0307692307692307,5.089641434262948,0.0,5.089641434262948,15.118343195266272,-10.028701761003324,0.15737051792828685,-0.022908366533864542,-0.0199203187250996,-0.018924302788844622,0.0,-0.09004739336492891,-0.1310344827586207,-0.136986301369863,0.95,1.0,-0.0199203187250996,0.3127962085308057,0.45517241379310347,,,,,1.4551724137931035,71.71428571428571,24.142857142857142,,47.80952380952381,4.758293838862559,0.021052631578947368,-0.21842105263157896,3.4473684210526314,0.0,0.0007968127490039841,-10.375,,,-0.08791208791208792,,,1.9969655172413794,1.9969655172413794,0.288406374501992,-15.24,-34.88674698795181,361.95,361.95,-0.14485242621310654,0.288406374501992,,,1.9969655172413794
BKNG,2001-12-31,2.1264367816091956,1.896551724137931,1.1494252873563218,4.982935153583618,0.0,4.982935153583618,17.15015321756895,-12.167218063985331,0.16467576791808874,-0.011945392491467578,-0.006825938566552901,-0.005972696245733789,0.0,-0.026717557251908396,-0.040697674418604654,-0.045714285714285714,0.875,1.0,-0.006825938566552901,0.3435114503816794,0.5232558139534884,,,,,1.5232558139534884,73.25,21.282608695652176,,36.625,4.473282442748092,0.8264705882352941,0.55,4.382352941176471,0.0,0.023976109215017066,0.6654804270462633,,,-2.9893617021276597,,,7.128139534883721,7.128139534883721,1.046109215017065,-175.14857142857144,65.56363636363636,43.63131672597865,43.63131672597865,-1.4895076109483314,1.046109215017065,,,7.128139534883721
BKNG,2000-12-31,1.6582278481012658,1.2911392405063291,0.9746835443037974,4.137651821862348,0.0,4.137651821862348,14.34803451581975,-10.210382693957403,0.15546558704453442,-0.26072874493927123,-0.2550607287449393,-0.2550607287449393,0.0,-1.6153846153846154,1.2650602409638554,-2.7155172413793105,1.0,1.0,-0.2550607287449393,2.276923076923077,-1.783132530120482,3.2432432432432434,,,,-0.7831325301204819,88.21428571428571,25.4390243902439,,33.37837837837838,6.333333333333333,-0.6714285714285714,-2.0035714285714286,3.142857142857143,0.0,-0.015222672064777327,2.984042553191489,,,0.5040214477211796,,,-2.002730923694779,-2.002730923694779,0.40378947368421053,-1.583111111111111,-8.889126559714795,-26.525531914893616,-26.525531914893616,-0.011087321438497026,0.40378947368421053,,,-2.002730923694779
BKNG,1999-12-31,5.435897435897436,4.743589743589744,3.1794871794871793,16.6597510373444,0.0,16.6597510373444,20.611764705882354,-3.9520136685379548,0.12033195020746888,-2.203319502074689,-2.1887966804979255,-2.1887966804979255,0.0,-2.3868778280542986,-2.6178660049627793,-2.6178660049627793,1.0,1.0,-2.1887966804979255,0.08823529411764706,0.0967741935483871,,,,,1.096774193548387,21.90909090909091,17.708333333333332,,17.214285714285715,1.090497737556561,-3.0954545454545452,-4.340909090909091,7.409090909090909,0.0,-0.1412863070539419,1.4023494860499266,,,2.4854014598540144,,,19.529776674937967,19.529776674937967,16.32883817427386,-7.460189573459716,-82.41361256544502,-115.57268722466961,-115.57268722466961,-0.04105156843824756,16.32883817427386,,,19.529776674937967
