symbol,date,currentRatio,quickRatio,cashRatio,daysOfSalesOutstanding,daysOfInventoryOutstanding,operatingCycle,daysOfPayablesOutstanding,cashConversionCycle,grossProfitMargin,operatingProfitMargin,pretaxProfitMargin,netProfitMargin,effectiveTaxRate,returnOnAssets,returnOnEquity,returnOnCapitalEmployed,netIncomePerEBT,ebtPerEbit,ebitPerRevenue,debtRatio,debtEquityRatio,longTermDebtToCapitalization,totalDebtToCapitalization,interestCoverage,cashFlowToDebtRatio,companyEquityMultiplier,receivablesTurnover,payablesTurnover,inventoryTurnover,fixedAssetTurnover,assetTurnover,operatingCashFlowPerShare,freeCashFlowPerShare,cashPerShare,payoutRatio,operatingCashFlowSalesRatio,freeCashFlowOperatingCashFlowRatio,cashFlowCoverageRatios,shortTermCoverageRatios,capitalExpenditureCoverageRatio,dividendPaidAndCapexCoverageRatio,dividendPayoutRatio,priceBookValueRatio,priceToBookRatio,priceToSalesRatio,priceEarningsRatio,priceToFreeCashFlowsRatio,priceToOperatingCashFlowsRatio,priceCashFlowRatio,priceEarningsToGrowthRatio,priceSalesRatio,dividendYield,enterpriseValueMultiple,priceFairValue
EA,2020-03-31,2.4463213213213213,2.325825825825826,1.4144144144144144,30.389199927758714,0.0,30.389199927758714,18.1300219138057,12.259178013953015,0.7527541990247426,0.26097164529528627,0.2723496478237313,0.5488531695864186,-1.0152519893899203,0.273488120950324,0.40731805388017694,0.17850378787878787,2.0152519893899203,1.0,0.2723496478237313,0.3285637149028078,0.48934459187776436,0.05052176126240774,,34.27272727272727,,1.4893445918777644,12.010845986984815,20.13235294117647,,8.62461059190031,0.49829013678905687,6.091525423728814,5.6169491525423725,19.440677966101696,0.0,0.3245439768827885,0.9220923761825265,,,-12.835714285714285,,,4.517718804449806,4.517718804449806,6.087538378183132,11.091378743007567,20.342003621001812,18.757206455203118,18.757206455203118,3.210948703814752,6.087538378183132,,17.82356051703878,4.517718804449806
EA,2019-03-31,2.8172185430463577,2.679028697571744,2.078587196467991,45.93838383838384,0.0,45.93838383838384,31.198940998487142,14.7394428398967,0.7329292929292929,0.2012121212121212,0.21797979797979797,0.20585858585858585,0.05560704355885079,0.11376576978899185,0.19114612643031326,0.16123729826658698,0.9443929564411492,1.0,0.21797979797979797,0.40482304342971975,0.680172575501782,0.15715415019762846,,23.977777777777778,,1.680172575501782,7.945425361155698,11.699115044247788,,11.049107142857142,0.5526403929887239,5.055555555555555,4.666666666666667,17.794117647058822,0.0,0.31252525252525254,0.9230769230769231,,,-13.0,,,5.432920652785594,5.432920652785594,5.851090909090909,28.42286555446516,20.28214285714286,18.721978021978025,18.721978021978025,8.535227536473345,5.851090909090909,,19.896690307328605,5.432920652785594
EA,2018-03-31,2.4102769971898836,2.2946607788036935,1.709353673223605,27.28640776699029,0.0,27.28640776699029,13.719655442443226,13.566752324547064,0.7520388349514563,0.2784466019417476,0.28135922330097085,0.20252427184466018,0.28019323671497587,0.12150512581547064,0.22698585418933623,0.2378138847858198,0.7198067632850241,1.0,0.28135922330097085,0.4647017707362535,0.8681175190424374,0.1775550384821908,,32.93181818181818,,1.8681175190424375,13.376623376623376,26.604166666666668,,11.368653421633555,0.5999534016775396,5.423076923076923,5.080128205128205,17.08653846153846,0.0,0.32854368932038835,0.9367612293144209,,,-15.813084112149532,,,8.010829162132753,8.010829162132753,7.147526213592234,35.29219558964525,23.22382334384858,21.755177304964537,21.755177304964537,10.80585380173633,7.147526213592234,,20.591626764886435,8.010829162132753
EA,2017-03-31,2.1527950310559008,2.0252587991718425,1.062111801242236,27.045407636738908,0.0,27.045407636738908,24.75058456742011,2.2948230693187988,0.7351909184726522,0.25263157894736843,0.24974200206398348,0.1995872033023736,0.20082644628099172,0.12529152630215082,0.23817733990147782,0.2281727324156138,0.7991735537190082,1.0,0.24974200206398348,0.4739569836745271,0.9009852216748768,0.19603960396039605,,25.74468085106383,,1.9009852216748768,13.495821727019498,14.74712643678161,,11.163594470046084,0.6277533039647577,5.025477707006369,4.63375796178344,14.433121019108281,0.0,0.3256965944272446,0.9220532319391636,,,-12.829268292682928,,,7.333369458128078,7.333369458128078,6.1451971104231164,30.78953464322647,20.462872852233673,18.86785804816223,18.86785804816223,9.48764855542013,6.1451971104231164,,19.733016095171447,7.333369458128078
EA,2016-03-31,1.8006617038875103,1.6819685690653432,1.031017369727047,19.34599636032757,8.895864106351551,28.24186046667912,23.991875923190545,-4.645879562862973,0.6919927206551411,0.20427661510464057,0.1994995450409463,0.2629663330300273,-0.3181299885974915,0.16397163120567376,0.3404004711425206,0.18933506044905007,1.3181299885974915,1.0,0.1994995450409463,0.5182978723404256,1.0759717314487633,0.2258946888534306,,31.321428571428573,,2.0759717314487633,18.86695278969957,15.213483146067416,41.03030303030303,10.013667425968109,0.6235460992907801,4.4393939393939394,4.157575757575757,11.618181818181819,0.0,0.3332575068243858,0.936518771331058,,,-15.75268817204301,,,6.010159010600707,6.010159010600707,4.642970882620564,17.656141868512112,14.876457725947521,13.932081911262799,13.932081911262799,5.717886964287533,4.642970882620564,,17.15834845735027,6.010159010600707
EA,2015-03-31,1.3542045868219876,1.23152530032763,0.7528212595558791,29.26467331118494,0.0,29.26467331118494,17.36878936319104,11.895883947993898,0.6834994462901439,0.20996677740863787,0.20487264673311184,0.1937984496124031,0.05405405405405406,0.142345859768993,0.28820816864295123,0.27205882352941174,0.9459459459459459,1.0,0.20487264673311184,0.5061005368472425,1.024703557312253,0.010107597000326051,,29.838709677419356,,2.024703557312253,12.472375690607734,21.014705882352942,,9.836601307189543,0.7345046364080039,3.2830769230769232,2.9907692307692306,9.295384615384615,0.0,0.2363233665559247,0.9109653233364574,,,-11.23157894736842,,,6.218461791831358,6.218461791831358,4.181450719822813,21.576285714285714,19.42309670781893,17.69376757263355,17.69376757263355,6.881543530071498,4.181450719822813,,14.321641156462585,6.218461791831358
EA,2014-03-31,1.3129707112970712,1.1263598326359832,0.7456066945606694,33.386013986013985,15.174461766889385,48.56047575290337,32.24573125463994,1.1402827313740431,0.6232167832167832,0.009230769230769232,0.001958041958041958,0.0022377622377622378,-0.14285714285714285,0.0013995801259622112,0.0033030553261767133,0.0021046301864101023,1.1428571428571428,1.0,0.001958041958041958,0.5762771168649405,1.3600330305532617,0.1932045303131246,,0.23333333333333334,,2.3600330305532617,10.932721712538227,11.319327731092438,24.053571428571427,7.009803921568627,0.6254373687893632,2.2531645569620253,1.9462025316455696,7.484177215189874,0.0,0.19916083916083915,0.8637640449438202,,,-7.34020618556701,,,3.692320396366639,3.692320396366639,2.5014825174825175,1117.8500000000001,14.541138211382114,12.560112359550562,12.560112359550562,346.65417075564284,2.5014825174825175,,29.32121212121212,3.692320396366639
EA,2013-03-31,1.2128325508607198,1.0391236306729263,0.6739697443922796,29.992099025546484,11.044668587896252,41.036767613442734,35.763688760806915,-5.771589735260431,0.6344482486173295,0.03186726362918093,0.03660784830129049,0.025809849881485384,0.2949640287769784,0.01932938856015779,0.043228936921041024,0.04408499841420869,0.7050359712230215,1.0,0.03660784830129049,0.5528599605522683,1.2364358182620203,0.19780608634111818,,4.793103448275862,,2.23643581826202,12.169871794871796,10.205882352941176,33.04761904761905,6.928832116788321,0.7489151873767258,1.035143769968051,0.6964856230031949,5.36741214057508,0.0,0.08533052409797208,0.6728395061728395,,,-3.056603773584906,,,2.4313762681958533,2.4313762681958533,1.451653937318936,56.24418367346939,25.28408256880734,17.01212962962963,17.01212962962963,17.27618203120306,1.451653937318936,,11.062337962962962,2.4313762681958533
EA,2012-03-31,1.2306603773584905,1.044811320754717,0.6099056603773585,32.24475018102824,13.476220275344179,45.72097045637241,49.108260325406754,-16.863510144378516,0.6142891624426744,0.008447984552256819,0.004344677769732078,0.018344195027757665,-3.2222222222222223,0.01384083044982699,0.030919446704637917,0.005339661821417977,4.222222222222222,1.0,0.004344677769732078,0.5523584046621745,1.2339300244100895,0.1798465131798465,,0.9,,2.2339300244100895,11.319672131147541,7.432558139534883,27.084745762711865,7.294014084507042,0.7545073757057003,0.8244047619047619,0.3125,5.502976190476191,0.0,0.06685976345643253,0.37906137184115524,,,-1.6104651162790697,,,2.102392188771359,2.102392188771359,1.2473280231716148,67.99578947368421,49.216,18.655884476534297,18.655884476534297,22.420593977583803,1.2473280231716148,,17.376692913385828,2.102392188771359
EA,2011-03-31,1.5152423788105946,1.2853573213393303,0.7891054472763618,34.06937865700752,18.749166110740493,52.81854476774801,55.51701134089393,-21.44763268388641,0.5823349122318194,-0.08693229311786013,-0.07773753134577877,-0.07690164391195319,0.010752688172043012,-0.056006493506493504,-0.10764430577223089,-0.09531943969935087,0.989247311827957,1.0,-0.07773753134577877,0.4797077922077922,0.921996879875195,,,,,1.921996879875195,10.713432835820896,6.574561403508772,19.467532467532468,6.996101364522417,0.7282873376623377,0.9696969696969697,0.7909090909090909,6.778787878787878,0.0,0.08916132627472834,0.815625,,,-5.423728813559322,,,2.5972698907956318,2.5972698907956318,1.8555029256060185,-24.128260869565217,25.51494252873563,20.810624999999998,20.810624999999998,-7.813862695737509,1.8555029256060185,,-51.31717171717172,2.5972698907956318
EA,2010-03-31,1.642312579415502,1.3989834815756035,0.8087674714104193,20.577449370552817,19.560557341907824,40.13800671246064,17.80010718113612,2.7773421894166965,0.48932676518883417,-0.18773946360153257,-0.1932129173508484,-0.18527640941434045,0.04107648725212465,-0.14571674558760223,-0.24807621839501648,-0.22981770833333334,0.9589235127478754,1.0,-0.1932129173508484,0.4126130004304778,0.7024551117625504,,,,,1.7024551117625504,17.737864077669904,20.505494505494507,18.66,6.804469273743017,0.7864829961256995,0.4676923076923077,-0.4707692307692308,6.141538461538461,0.0,0.04159824849480022,-1.006578947368421,,,-0.49836065573770494,,,2.306797361670942,2.306797361670942,1.7228379857690204,-9.298744460856721,-41.14542483660131,41.41611842105264,41.41611842105264,-2.9657428358964024,1.7228379857690204,,-9.770914396887159,2.306797361670942
EA,2009-03-31,2.7464788732394365,2.3204225352112675,1.4269366197183098,10.052231718898385,37.23789374706159,47.290125465959974,26.08368594264222,-16.031454223743836,0.495014245014245,-0.196343779677113,-0.202991452991453,-0.258309591642925,-0.27251461988304093,-0.23257802479692177,-0.34716017868538607,-0.2413890457368718,1.272514619883041,1.0,-0.202991452991453,0.3300555793073963,0.49266113592852584,,,,,1.4926611359285258,36.310344827586206,13.993421052631579,9.80184331797235,11.898305084745763,0.9003847798204361,0.0375,-0.321875,7.875,0.0,0.002849002849002849,-8.583333333333334,,,-0.10434782608695652,,,2.0778557753669435,2.0778557753669435,1.546058879392213,-5.98529411764706,-63.22330097087379,542.6666666666667,542.6666666666667,-1.879582058534896,1.546058879392213,,-7.444444444444445,2.0778557753669435
EA,2008-03-31,3.0215550423402617,2.5573518090839107,1.195535026943803,30.474761255115958,33.97229916897507,64.44706042409103,36.80332409972299,-6.328562844607035,0.5075034106412005,-0.13287858117326057,-0.1383356070941337,-0.12387448840381991,0.10453648915187377,-0.07492985641194917,-0.10463240377967274,-0.1065126050420168,0.8954635108481263,1.0,-0.1383356070941337,0.28387522693513784,0.3964047015441346,,,,,1.3964047015441345,11.977124183006536,9.917582417582418,10.744047619047619,9.255050505050505,0.6048852946030698,1.0764331210191083,0.8089171974522293,9.605095541401274,0.0,0.0922237380627558,0.7514792899408284,,,-4.023809523809524,,,3.7247245909195668,3.7247245909195668,4.409708049113234,-35.59819383259912,63.62826771653543,47.81532544378698,47.81532544378698,-10.96941399748393,4.409708049113234,,-42.59061224489796,3.7247245909195668
EA,2007-03-31,3.5058479532163744,3.1500974658869394,1.3362573099415205,30.22969912649628,18.67161716171617,48.90131628821245,54.20792079207921,-23.97822166558293,0.6078938854739566,0.012617275962471692,0.04464574571336137,0.024587512131996118,0.4782608695652174,0.014768752429071124,0.018849206349206348,0.03349514563106796,0.5507246376811594,1.0,0.04464574571336137,0.2164788184998057,0.27628968253968256,,,,,1.2762896825396826,12.07421875,6.733333333333333,19.548387096774192,6.386363636363637,0.600660707345511,1.252365930599369,0.6908517350157729,9.38801261829653,0.0,0.12843739890003236,0.5516372795969773,,,-2.230337078651685,,,3.96328621031746,3.96328621031746,5.169838240051763,210.2627631578947,72.96789954337899,40.25181360201511,40.25181360201511,65.41049648778471,5.169838240051763,,50.550069204152244,3.96328621031746
EA,2006-03-31,3.4660529344073647,3.0276179516685846,1.429228998849252,24.613690274483226,18.852667231160034,43.46635750564326,50.37679932260796,-25.763109048124733,0.5997966790918333,0.11013215859030837,0.13181972212809218,0.07997289054557777,0.37789203084832906,0.053807569539443684,0.06924882629107981,0.1106056297981234,0.6066838046272494,1.0,0.13181972212809218,0.22298221614227087,0.2869718309859155,,,,,1.2869718309859155,14.829145728643216,7.245398773006135,19.360655737704917,7.528061224489796,0.6728226174190607,1.8980891719745223,1.5063694267515924,7.745222929936306,0.0,0.20196543544561166,0.7936241610738255,,,-4.845528455284553,,,5.233333333333333,5.233333333333333,6.0437817688919,75.5728813559322,37.70655391120508,29.9248322147651,29.9248322147651,23.28742369554731,6.0437817688919,,34.71380753138075,5.233333333333333
EA,2005-03-31,4.475845410628019,4.099033816425121,1.5338164251207729,34.52860338766379,18.905597326649957,53.43420071431375,40.86048454469507,-6.331881157031276,0.6174496644295302,0.21380632790028764,0.2317034196228827,0.1610738255033557,0.30482758620689654,0.11533180778032037,0.14408233276157806,0.204686617730096,0.6951724137931035,1.0,0.2317034196228827,0.19954233409610983,0.24928530588907946,,,,,1.2492853058890794,10.570945945945946,8.932835820895523,19.306451612903224,8.864022662889518,0.7160183066361556,1.9937106918238994,1.5974842767295598,9.742138364779874,0.0,0.20262064557366571,0.8012618296529969,,,-5.031746031746032,,,4.8536363636363635,4.8536363636363635,5.4260210930009585,33.686547619047616,33.42129921259843,26.779211356466877,26.779211356466877,10.512583064629188,5.4260210930009585,,19.635025,4.8536363636363635
EA,2004-03-31,3.9368279569892475,3.5309139784946235,2.889784946236559,26.1675289980048,18.200362647325477,44.367891645330275,37.72438803263826,-11.556859034633458,0.6270332420276622,0.2622839944540259,0.26938554665043457,0.1952250515707957,0.2752548330404218,0.16665704387990762,0.21557132188200148,0.2928676470588235,0.7247049962339944,1.0,0.26938554665043457,0.22690531177829099,0.2935026138909634,,,,,1.2935026138909633,13.948584905660377,9.675438596491228,20.054545454545455,9.923154362416108,0.8536662817551963,2.173051948051948,1.8821428571428571,7.840909090909091,0.0,0.22633661357410978,0.8661287912744658,,,-7.469866071428571,,,5.821867064973861,5.821867064973861,5.272381725339015,27.006686298285118,26.894876660341556,23.294427013297472,23.294427013297472,8.16296308132661,5.272381725339015,,15.37747635195431,5.821867064973861
EA,2003-03-31,3.347521457348047,2.92660711157821,1.6640392362935716,12.072556603013455,13.507177479492917,25.57973408250637,36.16657345264728,-24.094016849633825,0.5678027556200145,0.1795181693658851,0.18588349045201838,0.12774957698815567,0.3100325097529259,0.1343928798474253,0.1776769204908388,0.2579671251257967,0.687256176853056,1.0,0.18588349045201838,0.24361093452002544,0.32207093629181377,,,-84.62949376375641,,1.3220709362918137,30.233861144945188,10.092191909689557,27.022670025188916,9.463210064811285,1.0520025429116338,2.4032963336696938,2.2045072317524386,5.343760511268079,0.0,0.28784948835710256,0.9172848145556333,,,-12.089678510998308,,,4.925848041687679,4.925848041687679,3.541681169929901,27.723623462630083,13.413428440646934,12.303934219734082,12.303934219734082,8.088550790421907,3.541681169929901,,14.353293172029135,4.925848041687679
EA,2002-03-31,2.5441501103752757,2.194922737306843,1.2203090507726269,40.315707079492086,10.66151202749141,50.9772191069835,39.68949435444281,0.6262127250492782,0.5275700121760306,0.0785064069113469,0.0859859685742448,0.05885081463442918,0.0,0.059726962457337884,0.0816375774149441,0.1189826700898588,0.6844234659474039,1.0,0.0859859685742448,0.26838884312110156,0.3668462961473498,,,,,1.3668462961473498,9.053543307086613,9.196388261851016,34.23529411764706,5.585168393782383,1.014887607390844,0.9856312008210742,0.8094423537461513,2.749914471433459,0.0,0.16704354380471967,0.8212426240888581,,,-5.594174757281554,,,6.942507037722192,6.942507037722192,5.004707485359773,85.04058128078817,36.481906170752325,29.96049635543214,29.96049635543214,24.393878222153468,5.004707485359773,,,6.942507037722192
EA,2001-03-31,2.407941176470588,1.9144117647058823,1.3720588235294118,48.14036149134084,8.617293233082707,56.757654724423546,40.122556390977444,8.017805100363397,0.49708840656431974,-0.02291461846782122,-0.010133857672237767,-0.008394464191182031,0.0,-0.008049894843716005,-0.010731895968287731,-0.012898257772644143,0.8283582089552238,1.0,-0.010133857672237767,0.24990934803103923,0.3331721937542299,,,,,1.33317219375423,7.581995412844036,9.097127222982216,42.35668789808917,3.92141162514828,0.9589527884545652,0.7313988095238095,0.2838541666666667,1.7726934523809523,0.0,0.14868032972850337,0.38809766022380465,,,-1.6342477140482128,,,7.357370202069032,7.357370202069032,5.754917946003176,-685.561081081081,99.7343119266055,38.70665310274669,38.70665310274669,-180.84280529400843,5.754917946003176,,,7.357370202069032
EA,2000-03-31,2.6584998115341123,2.1639653222766677,1.280814172634753,60.17359154929578,11.912870725131262,72.08646227442703,50.60380303675323,9.569788512542551,0.5037323943661972,0.10830985915492958,0.1195774647887324,0.08225352112676056,0.0,0.09796192233498281,0.1264890621615768,0.1831715210355987,0.6878680800942285,1.0,0.1195774647887324,0.22553048729346642,0.291206411089452,,,,,1.291206411089452,6.06578385305425,7.212896622313203,30.639130434782608,4.973730297723293,1.1909754256479075,0.2934086629001883,-0.21468926553672316,1.28060263653484,0.0,0.054859154929577464,-0.7317073170731707,,,-0.5774647887323944,,,4.3502436647173495,4.3502436647173495,2.8288838028169017,34.39225171232877,-70.47394736842105,51.566302952503214,51.566302952503214,8.960885995704896,2.8288838028169017,,,4.3502436647173495
EA,1999-03-31,2.4110922946655378,1.9779847586790855,1.3243014394580863,44.65790981258695,13.027405991077119,57.68531580366407,37.163001912045885,7.494907900541065,0.4863736803339062,0.08617726491529586,0.0969801129388657,0.059661183402897125,0.0,0.0808293602394944,0.10997133806003923,0.17800811176205497,0.6151898734177215,1.0,0.0969801129388657,0.26488524226632665,0.36038618192789257,,,,,1.3605370342434757,8.17324414715719,9.821596244131456,28.017857142857142,6.739658025372311,1.3548065195697971,0.6179375740813907,0.1604109047807191,1.2552350849466614,0.0,0.12799738112775186,0.2595907928388747,,,-1.3506044905008636,,,4.848951576406698,4.848951576406698,2.6306326213274405,44.09286694101508,79.17167487684729,20.552237851662404,20.552237851662404,10.951820041973424,2.6306326213274405,,,4.848951576406698
EA,1998-03-31,3.2460099064391854,2.849201981287837,2.0616400660429277,55.980855979755745,14.866999168744805,70.84785514850054,42.62884455527847,13.352011424477276,0.4704587963472329,0.09175926944658379,0.11915502255473649,0.07987677412256573,0.0,0.0973581869384471,0.12872340425531914,0.1920212765957447,0.6703601108033241,1.0,0.11915502255473649,0.243663671717849,0.3221631205673759,,,,,1.3221631205673758,6.520086083213774,8.562277580071175,24.551020408163264,8.647954329210275,1.2188547673327075,0.3240360951599672,0.13863822805578344,1.551681706316653,0.0,0.08691825283309496,0.4278481012658228,,,-1.747787610619469,,,4.997035460992908,4.997035460992908,3.100811970513808,38.819944903581266,83.38248520710059,35.67503797468355,35.67503797468355,9.287833726686078,3.100811970513808,,,4.997035460992908
EA,1997-03-31,3.091776798825257,2.7665198237885464,1.9684287812041117,55.9702823179792,19.86470051687443,75.83498283485363,48.274551535421104,7.695730782558094,0.5112927191679049,0.09331352154531947,0.11292719167904904,0.0762258543833581,0.0,0.08784246575342466,0.11456007146047342,0.16971862438588656,0.675,1.0,0.11292719167904904,0.23339041095890412,0.30437695399732023,,,,,1.304153640017865,6.521317829457364,7.560919540229885,18.374301675977655,7.494432071269488,1.1523972602739727,0.33585222502099077,0.17170445004198154,1.1486146095717884,0.0,0.1188707280832095,0.51125,,,-2.0460358056265986,,,3.2075614113443502,3.2075614113443502,2.1342436849925703,27.998947368421053,35.11848410757946,17.954325,17.954325,6.54499437012551,2.1342436849925703,,,3.2075614113443502
EA,1996-03-31,2.985089463220676,2.5745526838966204,1.47117296222664,45.430784948067426,18.406518010291595,63.83730295835902,46.32933104631218,-0.8985460982447506,0.5036608207049208,0.10573812361655031,0.11850842840115784,0.07951643112548953,0.0,0.11008958038661008,0.1448960595718275,0.21508034610630408,0.6709770114942529,1.0,0.11850842840115784,0.24021687883074022,0.31616506360533664,,,,,1.3161650636053366,8.03419972640219,7.878378378378378,19.829931972789115,8.378031383737518,1.3844884488448845,0.07216494845360824,-0.18213058419243985,0.7985395189003437,0.0,0.028605482717520857,-2.5238095238095237,,,-0.28378378378378377,,,4.832243251628918,4.832243251628918,2.651850842840116,33.349721627409,-36.73188679245283,92.70428571428573,92.70428571428573,7.619053184358012,2.651850842840116,,,4.832243251628918
EA,1995-03-31,2.6388349514563108,2.341747572815534,1.6902912621359223,41.73119805392256,17.182991647684133,58.914189701606695,47.391799544419136,-5.660601490496575,0.46624771944050275,0.13136022704236772,0.1583215082100142,0.11291303466450436,0.0,0.16324736225087924,0.2349219738506959,0.32787573467674225,0.7131882202304738,1.0,0.1583215082100142,0.30539273153575613,0.439477013918178,,,,,1.4390552509489667,8.74645390070922,7.701754385964913,21.241935483870968,16.17377049180328,1.4457796014067996,0.305409286740067,0.22642412637625658,0.8846337960746768,0.0,0.12933306304480033,0.7413793103448276,,,-3.8666666666666667,,,5.066111345423872,5.066111345423872,2.4349787147780253,21.565080789946137,25.394820295983088,18.82719435736677,18.82719435736677,4.420947376859419,2.4349787147780253,,,5.066111345423872
EA,1994-03-31,2.3846938775510202,2.1153061224489798,1.329591836734694,53.8077445652174,15.19527896995708,69.00302353517448,56.2381974248927,-2.430452859675299,0.4723731884057971,0.14379528985507245,0.1526268115942029,0.10529891304347826,0.0,0.16989404457435148,0.2700348432055749,0.3836084234490609,0.6899109792284867,1.0,0.1526268115942029,0.37084398976982097,0.5894308943089431,,,,,1.589430894308943,6.783410138248848,6.49025069637883,24.02061855670103,17.593625498007967,1.6134453781512605,0.18403247631935046,0.12088407758231845,0.6414073071718539,0.0,0.09239130434782608,0.6568627450980392,,,-2.914285714285714,,,7.003763066202091,7.003763066202091,2.7310869565217395,25.93651612903226,45.00179104477612,29.560000000000002,29.560000000000002,5.642910329545095,2.7310869565217395,,,7.003763066202091
EA,1993-03-31,2.257016248153619,1.8375184638109305,1.447562776957164,32.292225201072384,28.636363636363637,60.928588837436024,76.81818181818181,-44.52595661710943,0.46179624664879354,0.1380697050938338,0.14644772117962465,0.10355227882037533,0.0,0.1704357418643133,0.2793851717902351,0.3846830985915493,0.7070938215102975,1.0,0.14644772117962465,0.38996138996138996,0.6392405063291139,,,,,1.639240506329114,11.303030303030303,4.7514792899408285,12.746031746031745,15.788359788359788,1.6458907887479317,0.21382073109664496,0.12468703054581873,0.49073610415623437,0.012944983818770227,0.14309651474530832,0.5831381733021077,,,-2.398876404494382,-2.454022988505747,0.012944983818770225,13.090641952983724,13.090641952983724,4.851960455764075,46.855177993527505,58.14558232931727,33.90690866510539,33.90690866510539,9.182511330036744,4.851960455764075,0.0002762764836910538,,13.090641952983724
EA,1992-03-31,2.515873015873016,2.0873015873015874,1.5634920634920635,41.27355796687607,37.34323432343234,78.61679229030841,58.624862486248624,-17.351304519372555,0.480868075385494,0.14848657909765847,0.15705311250713877,0.10679611650485436,0.0,0.1767485822306238,0.275,0.40441176470588236,0.68,1.0,0.15705311250713877,0.3572778827977316,0.5558823529411765,,,,,1.5558823529411765,8.843434343434344,6.226027397260274,9.774193548387096,33.67307692307692,1.6550094517958411,0.16555183946488294,0.14381270903010032,0.3294314381270903,0.08021390374331551,0.16961736150770987,0.8686868686868687,,,-7.615384615384615,-12.375,0.08021390374331551,7.25514705882353,7.25514705882353,2.8175328383780696,26.38235294117647,19.122093023255815,16.61111111111111,16.61111111111111,4.644743981989262,2.8175328383780696,0.0030404378230465185,,7.25514705882353
EA,1991-03-31,2.5476190476190474,2.104761904761905,1.2809523809523808,55.83112290008842,32.483818770226534,88.31494167031495,49.021035598705495,6.8100873013829215,0.4535809018567639,0.1282051282051282,0.13969938107869143,0.09549071618037135,0.0,0.17034700315457413,0.25471698113207547,0.37264150943396224,0.6835443037974683,1.0,0.13969938107869143,0.3312302839116719,0.49528301886792453,,,,,1.4952830188679245,6.53757225433526,7.445783132530121,11.236363636363636,36.483870967741936,1.7839116719242902,0.04073436603557085,0.028112449799196786,0.15433161216293748,0.07407407407407407,0.0627763041556145,0.6901408450704225,,,-3.227272727272727,-5.071428571428571,0.07407407407407407,5.220778301886793,5.220778301886793,1.9572148541114058,20.496388888888887,45.175714285714285,31.17760563380282,31.17760563380282,3.5059083251553806,1.9572148541114058,0.00361400608056523,,5.220778301886793
EA,1990-03-31,2.842857142857143,2.3214285714285716,1.5714285714285714,49.008951406649615,48.727959697733,97.73691110438261,53.32493702770781,-4.315985621058196,0.4936061381074169,0.09974424552429667,0.10869565217391304,0.06777493606138107,0.0,0.11324786324786325,0.16257668711656442,0.25914634146341464,0.6235294117647059,1.0,0.10869565217391304,0.3034188034188034,0.43558282208588955,,,,,1.4355828220858895,7.447619047619048,6.844827586206897,7.490566037735849,35.54545454545455,1.670940170940171,0.0707070707070707,0.06262626262626263,0.14814814814814814,0.0,0.13427109974424553,0.8857142857142857,,,-8.75,,,4.054141104294478,4.054141104294478,1.6900895140664962,24.93679245283019,14.211290322580645,12.587142857142858,12.587142857142858,3.6340664173162742,1.6900895140664962,,,4.054141104294478
