symbol,date,currentRatio,quickRatio,cashRatio,daysOfSalesOutstanding,daysOfInventoryOutstanding,operatingCycle,daysOfPayablesOutstanding,cashConversionCycle,grossProfitMargin,operatingProfitMargin,pretaxProfitMargin,netProfitMargin,effectiveTaxRate,returnOnAssets,returnOnEquity,returnOnCapitalEmployed,netIncomePerEBT,ebtPerEbit,ebitPerRevenue,debtRatio,debtEquityRatio,longTermDebtToCapitalization,totalDebtToCapitalization,interestCoverage,cashFlowToDebtRatio,companyEquityMultiplier,receivablesTurnover,payablesTurnover,inventoryTurnover,fixedAssetTurnover,assetTurnover,operatingCashFlowPerShare,freeCashFlowPerShare,cashPerShare,payoutRatio,operatingCashFlowSalesRatio,freeCashFlowOperatingCashFlowRatio,cashFlowCoverageRatios,shortTermCoverageRatios,capitalExpenditureCoverageRatio,dividendPaidAndCapexCoverageRatio,dividendPayoutRatio,priceBookValueRatio,priceToBookRatio,priceToSalesRatio,priceEarningsRatio,priceToFreeCashFlowsRatio,priceToOperatingCashFlowsRatio,priceCashFlowRatio,priceEarningsToGrowthRatio,priceSalesRatio,dividendYield,enterpriseValueMultiple,priceFairValue
EBAY,2019-12-31,1.1574028529267093,0.8617806197737334,0.2397934087555337,23.65740740740741,0.0,23.65740740740741,39.29425837320574,-15.636850965798335,0.7677777777777778,0.21009259259259258,0.20435185185185184,0.16537037037037036,0.18803806071590395,0.09827225707054034,0.6222996515679442,0.1564360646441735,0.8092433167195288,1.0,0.20435185185185184,0.8420820953009794,5.332404181184669,0.7012905911740216,0.701632186297952,7.096463022508039,0.4614016891391317,6.332404181184669,15.428571428571429,9.28888888888889,,5.051449953227316,0.5942555298778475,3.6378504672897196,2.9906542056074765,3.2757009345794392,0.2648376259798432,0.28833333333333333,0.8220937700706487,0.4614016891391317,283.09090909090907,-5.620938628158845,-38.44444444444444,0.2648376259798432,10.45691986062718,10.45691986062718,2.7788296296296298,16.80367301231803,11.723187500000002,9.637559409120103,9.637559409120103,5.685353398634085,2.7788296296296298,0.015760698615457612,11.207441277795176,10.45691986062718
EBAY,2018-12-31,1.5999101930848676,1.2595419847328244,0.4943870678042209,24.183882374837147,0.0,24.183882374837147,43.824517212426535,-19.64063483758939,0.7783361250697934,0.20677461380978968,0.2529313232830821,0.23543644146659223,0.06990434142752024,0.11087251851527236,0.4028021015761821,0.14799891097195753,0.9308314937454011,1.0,0.2529313232830821,0.7247469214251282,2.6330202197102373,0.5502649291135615,0.5503937007874016,8.337423312883436,0.3456886461178307,3.6330202197102373,15.092696629213483,8.328671328671328,,6.728866624921729,0.47092335334589597,2.682139253279516,2.025227043390515,4.942482341069627,0.0,0.24734785036292575,0.755079006772009,0.3456886461178307,664.5,-4.082949308755761,,,5.377054609138672,5.377054609138672,3.14286990508096,13.349122529644267,16.827742899850524,12.706275395033858,12.706275395033858,5.228846018528644,3.14286990508096,,10.491790486370924,5.377054609138672
EBAY,2017-12-31,2.1758921045237427,1.8373138522056758,0.5956729418375948,25.590812934421272,0.0,25.590812934421272,54.23232778027916,-28.641514845857884,0.7762667472549613,0.24488768006447065,0.2291729626271784,-0.10244786944696282,1.4452747252747253,-0.03913645809281921,-0.12635109951546775,0.10144022829625006,-0.447032967032967,1.0,0.2291729626271784,0.6902562918494574,2.2284755870294446,0.5342822426662038,0.5351160910246043,7.791095890410959,0.3395574743658931,3.2284755870294446,14.262931034482758,6.7303030303030305,,6.216030056355667,0.38201339182636807,2.956766917293233,2.330827067669173,5.491541353383458,0.0,0.3169134683187267,0.7883026064844246,0.3395574743658931,101.48387096774194,-4.723723723723723,,,5.340489501801466,5.340489501801466,4.330170242772238,-42.26705998033432,17.33290322580645,13.66357279084552,13.66357279084552,-17.775554078686053,4.330170242772238,,15.477184316146959,5.340489501801466
EBAY,2016-12-31,2.306992461658435,2.0072783987522747,0.4720561476475175,23.23940632394063,0.0,23.23940632394063,51.544411177644704,-28.305004853704073,0.7844697784469779,0.2500537750053775,0.39266508926650895,0.7814583781458379,-0.9953437414407011,0.3046924141401434,0.6894392257329918,0.18255,1.990139687756779,1.0,0.39266508926650895,0.5580576173103535,1.2627384002277255,0.41605718085106386,0.4160895340462075,16.226666666666667,0.3762982689747004,2.2627384002277258,15.70608108108108,7.081272084805653,,6.133245382585752,0.3899022937895752,2.4702797202797204,1.9230769230769231,6.2325174825174825,0.0,0.30393633039363305,0.778485491861288,0.3762982689747004,2826.0,-4.514376996805112,,,3.492027706613531,3.492027706613531,3.9581071198107116,5.065026149187999,16.7284,13.02281670205237,13.02281670205237,2.290272693545878,3.9581071198107116,,9.362520378938092,3.492027706613531
EBAY,2015-12-31,3.4927087936367656,2.97039328325232,0.8095448519664162,26.295972998137803,0.0,26.295972998137803,71.92828910220216,-45.63231610406436,0.7938780260707635,0.25570297951582865,0.28002793296089384,0.200768156424581,0.19077306733167082,0.09715573078006196,0.2623175182481752,0.15530596436870642,0.7169576059850374,1.0,0.28002793296089384,0.6296254576175725,1.699969586374696,0.5064915572232646,,16.708333333333332,,2.6999695863746958,13.880452342487883,5.074498567335244,,5.528957528957529,0.4839200225288651,3.305737704918033,2.7581967213114753,5.002459016393443,0.0,0.4693901303538175,0.8343664765683114,,,-6.037425149700598,,,4.352372262773723,4.352372262773723,3.331145251396648,16.592000000000002,8.50555720653789,7.096751797669229,7.096751797669229,8.000885375494072,3.331145251396648,,11.123781094527363,4.352372262773723
EBAY,2014-12-31,1.5133763048314415,0.6198163253664937,0.3609605841081513,16.249860350798794,0.0,16.249860350798794,25.534717376133987,-9.284857025335192,0.6798123114735783,0.19629091721595351,0.1972405317841582,0.0025695453022008714,0.9869725290286038,0.001019232473632899,0.0023108610469205265,0.12793014745842543,0.013027470971396206,1.0,0.1972405317841582,0.5589382256492068,1.2672561036873304,0.2539819360641607,,28.70731707317073,,2.2672561036873304,22.461731493099123,14.29426433915212,,6.168849069607168,0.3966586900646991,4.498415213946117,3.491283676703645,7.978605388272583,0.0,0.3171154060998771,0.776114144794786,,,-4.466561762391818,,,1.4144087209886467,1.4144087209886467,1.5727415931180873,612.07,6.390199727644122,4.9595243966883915,4.9595243966883915,305.3092252964427,1.5727415931180873,,5.560695956454121,1.4144087209886467
EBAY,2013-12-31,1.8421552338001423,0.7838436585172878,0.3555661049133634,20.448370411914997,0.0,20.448370411914997,22.395750595710883,-1.947380183795886,0.6861718701314887,0.21474418894497413,0.2159905278245155,0.1779771919985044,0.17599538372763993,0.06883918241419205,0.1207764198418404,0.12014281257582585,0.8240046162723601,1.0,0.2159905278245155,0.430027959892017,0.754472026049816,0.14828554963261778,,34.66,,1.7544720260498161,17.849833147942157,16.297734627831716,,5.814130434782609,0.38678654068646356,3.8042650418888044,2.852246763137852,6.860624523990861,0.0,0.31127313516545146,0.7497497497497497,,,-3.996,,,1.242649807586586,1.242649807586586,1.8311796597494858,10.288844537815127,7.846445927903872,5.88287087087087,5.88287087087087,5.339625643538048,1.8311796597494858,,5.84130890052356,1.242649807586586
EBAY,2012-12-31,1.9588062980593188,0.936470157451483,0.6240388136213841,21.321063104036384,0.0,21.321063104036384,26.059060721062618,-4.737997617026235,0.7003979533826038,0.20523024445707788,0.2191586128482092,0.18540363843092666,0.15402075226977952,0.0703727679775584,0.12504193625688953,0.11793499043977056,0.8459792477302205,1.0,0.2191586128482092,0.4372066677455899,0.7768511861969806,0.16443073965800328,,,,1.7768511861969807,17.119221411192214,14.006644518272426,,5.649136892814131,0.37956519393645144,2.923076923076923,1.9657273419649657,7.1652703731911656,0.0,0.27274019329164295,0.6724856696195936,,,-3.053301511535402,,,1.4775576323987538,1.4775576323987538,2.1908214894826608,11.816496742046763,11.94468810538551,8.032631578947369,8.032631578947369,6.1324348704772325,2.1908214894826608,,6.563548085901027,1.4775576323987538
EBAY,2011-12-31,1.8801603801603801,0.9817344817344817,0.6966141966141967,21.363714383796776,0.0,21.363714383796776,29.85404624277457,-8.490331858977793,0.7029694473051836,0.2105217988328184,0.3355647099210436,0.27711980775832473,0.17408158567774937,0.1181918008784773,0.18008923591745676,0.189934907218498,0.8258312020460358,1.0,0.3355647099210436,0.3437042459736457,0.5237032905744562,0.07838601901824724,,,,1.5237032905744563,17.085043988269796,12.226148409893993,,5.867069486404834,0.4265007320644217,2.4932977913175933,1.7594821020563596,4.515613099771516,0.0,0.2809560590456574,0.7056846992699393,,,-3.397716658017644,,,0.9732163970998327,0.9732163970998327,1.4975772399588052,5.404078662124497,7.553359016535365,5.330289886061642,5.330289886061642,2.80456730567963,1.4975772399588052,,2.945314299417753,0.9732163970998327
EBAY,2010-12-31,2.449634713305291,1.5665264556121319,1.2346690281160062,18.098514635211885,0.0,18.098514635211885,26.325536062378166,-8.227021427166282,0.7199650502402796,0.22433377020532985,0.2291393621668851,0.19670161642638706,0.1417950428979981,0.08184875477185966,0.11769703306757287,0.11997483845142105,0.8584366062917064,1.0,0.2291393621668851,0.30458098527540445,0.43798196314207294,0.08894974994046201,,,,1.437981963142073,20.16740088105727,13.864864864864865,,6.011818778726198,0.4161061625159062,2.069178598342125,1.5236623963828184,4.9902034664657124,0.0,0.29989078200087377,0.7363609876902907,,,-3.793065340516646,,,1.106556005750882,1.106556005750882,1.8493359545653123,9.401732370905053,8.37455858351056,6.1666982300240365,6.1666982300240365,4.931264370035971,1.8493359545653123,,4.491290764792278,1.106556005750882
EBAY,2009-12-31,2.3228995057660624,1.4695222405271828,1.098297638660077,17.06428325885184,0.0,17.06428325885184,28.258064516129032,-11.193781257277191,0.7159390397616592,0.16695313395210268,0.3298957259081013,0.2737481379626447,-0.17021674192427927,0.12978053020425903,0.17326660864519872,0.1949749424353244,0.8298020145883988,1.0,0.3298957259081013,0.251032159930465,0.33514650420655645,,,,,1.3350739773716276,21.389705882352942,12.916666666666666,,6.641552511415525,0.47408735332464147,2.2284291187739464,1.7938697318007664,3.788505747126437,0.0,0.3332302051105764,0.8049929507238404,,,-5.1280197496032445,,,0.9171344647519581,0.9171344647519581,1.4490030938466827,5.293197990791126,5.401730029901751,4.348354595784189,4.348354595784189,2.730285920151154,1.4490030938466827,,3.1903842506179316,0.9171344647519581
EBAY,2008-12-31,1.6968960863697706,1.0224021592442645,0.8607287449392712,18.58974358974359,0.0,18.58974358974359,27.85008976660682,-9.26034617686323,0.7391406158529447,0.2430628731998595,0.2557077625570776,0.20828942746750967,-0.18502289377289377,0.11409697280656747,0.16050162396246842,0.18373012534701774,0.8145604395604396,1.0,0.2557077625570776,0.2891867624422781,0.4068025983399495,,,271.7431877566256,,1.4067123782028148,19.63448275862069,13.105882352941176,,7.123436196830692,0.5477809132888661,2.194973343488195,1.763975628332064,2.5536938309215538,0.0,0.33743121414354293,0.8036433032616239,,2.882,-5.092772574659834,,,0.5994027426921689,0.5994027426921689,0.777869101978691,3.734558740865655,2.868520357497517,2.305267175572519,2.305267175572519,1.9381326587970769,0.777869101978691,,2.118552541033229,0.5994027426921689
EBAY,2007-12-31,2.297741935483871,1.7348387096774194,1.3616129032258064,22.88386339937435,0.0,22.88386339937435,32.504254112308566,-9.620390712934217,0.7702033368091762,0.07990093847758081,0.09788842544316997,0.04535974973931178,-0.5360852197070572,0.022647403358063256,0.02973088423750534,0.06122615359530409,0.4633821571238349,1.0,0.09788842544316997,0.23825328647663674,0.312772319521572,,,45.24096385542169,,1.312772319521572,15.95010395010395,11.229299363057326,,6.85,0.4992841338019003,1.919404069767442,1.5894622093023256,3.5588662790697674,0.0,0.34425182481751826,0.8281019272272917,,13.2055,-5.817400881057269,,,1.301351559162751,1.301351559162751,1.9854431699687176,43.77103448275862,6.964619816194961,5.767415092196433,5.767415092196433,23.805906501294807,1.9854431699687176,,19.88880610253681,1.301351559162751
EBAY,2006-12-31,1.9741858617950754,1.4289118347895156,1.0575853852263701,24.02763819095477,0.0,24.02763819095477,24.101034208432775,-0.07339601747800373,0.7894472361809045,0.23835845896147403,0.25912897822445563,0.18860971524288106,-0.272409825468649,0.08344449384911813,0.10325538743695553,0.14094387755102042,0.7278603749191984,1.0,0.25912897822445563,0.19186305024455313,0.237414030261348,,,261.4942528735632,,1.237414030261348,15.19083969465649,15.144578313253012,,5.981963927855712,0.4424188528234771,1.5774035087719298,1.215719298245614,2.2491228070175437,0.0,0.37651591289782244,0.7707091378236498,,,-4.36127279782693,,,1.7654057771664373,1.7654057771664373,3.2247487437185933,17.09746891651865,11.112762641422304,8.56470771420945,8.56470771420945,9.629997314639951,3.2247487437185933,,13.217095398128274,1.7654057771664373
EBAY,2005-12-31,2.1434343434343432,1.6242424242424243,0.8848484848484849,25.899604569420035,0.0,25.899604569420035,24.987775061124697,0.9118295082953374,0.820298769771529,0.31678383128295257,0.34028998242530756,0.23769771528998243,-0.3016688185926404,0.09178047332258886,0.10768312101910828,0.1503299689440994,0.6985151710781149,1.0,0.34028998242530756,0.1476800407159216,0.17326831210191082,,,445.37090281771134,,1.1732683121019107,14.092879256965944,14.607142857142858,,5.675810473815462,0.38612265671388585,1.4418220946915352,1.199139167862267,1.4985652797704447,0.0,0.4415421792618629,0.8316831683168316,,,-5.9411764705882355,,,2.516636146496815,2.516636146496815,5.555175746924428,23.370757855822553,15.127518545106485,12.58130255236579,12.58130255236579,12.877010454947289,5.555175746924428,,24.059944218797202,2.516636146496815
EBAY,2004-12-31,2.6829493087557603,2.0764976958525345,1.2258064516129032,26.892387649036994,0.0,26.892387649036994,22.58957654723127,4.302811101805723,0.8122898196270254,0.3237542036074595,0.34484867013145826,0.23784775298073985,-0.3048625886524823,0.09735952947065449,0.11563614744351962,0.1633362293657689,0.6897163120567376,1.0,0.34484867013145826,0.15805280941058691,0.1877229488703924,,,127.0413334835004,,1.1877229488703924,13.572614107883817,16.157894736842106,,4.607042253521127,0.4093355024402453,0.939546783625731,0.7255116959064327,1.4707602339181287,0.0,0.3929379394680526,0.7721932622733992,,,-4.389685792349726,,,3.470832342449465,3.470832342449465,7.139027820238459,30.015115681233937,23.528221662468514,18.16833424103322,18.16833424103322,16.229517095623727,7.139027820238459,,31.608941658748318,3.470832342449465
EBAY,2003-12-31,3.3168469860896446,3.012364760432767,2.1360123647604325,38.10161662817552,0.0,38.10161662817552,57.03125,-18.92963337182448,0.8078521939953811,0.29006928406466514,0.30577367205542727,0.20415704387990763,-0.3122930513595166,0.07594501718213058,0.09027777777777778,0.12797216315484244,0.6676737160120846,1.0,0.30577367205542727,0.15876288659793814,0.18872549019607843,0.024701195219123506,,153.45387111729252,,1.1887254901960784,9.579646017699115,6.4,,3.596345514950166,0.37199312714776633,0.6657273419649657,0.38743335872048745,1.3122619954303123,0.0,0.4037413394919169,0.5819700263127788,,,-2.3921729611384785,,,3.7759477124183007,3.7759477124183007,8.539048498845267,41.82588235294117,36.34173383133478,21.149799794073903,21.149799794073903,21.706475703324806,8.539048498845267,,43.22648629119666,3.7759477124183007
EBAY,2002-12-31,3.8031088082901556,3.4455958549222796,2.873056994818653,39.386326194398684,0.0,39.386326194398684,80.16355140186916,-40.77722520747047,0.8237232289950577,0.2883031301482702,0.32784184514003295,0.20593080724876442,-0.36669849246231156,0.06062075654704171,0.0703037120359955,0.10647405029427501,0.628140703517588,1.0,0.32784184514003295,0.13773035887487875,0.1597300337457818,0.00392156862745098,,-8.08795139100571,,1.1597300337457819,9.267175572519085,4.553191489361702,,5.568807339449541,0.2943743937924345,0.4098206660973527,0.29137489325362936,1.0239111870196413,0.0,0.39530477759472815,0.7109814544696812,,,-3.4599855803893296,,,2.5718532058492687,2.5718532058492687,7.5333690280065895,36.58204,26.803956623681124,19.05711606584705,19.05711606584705,16.931845391304346,7.5333690280065895,,61.24622465670052,2.5718532058492687
EBAY,2001-12-31,4.911111111111111,4.583333333333333,2.911111111111111,49.70627503337784,0.0,49.70627503337784,89.22222222222221,-39.51594718884437,0.8197596795727636,0.16555407209612816,0.21762349799732977,0.12016021361815754,0.0,0.05360333531864205,0.06298110566829951,0.10873915943962642,0.5521472392638037,1.0,0.21762349799732977,0.148302561048243,0.17424772568229532,0.008327550312283136,,,,1.1749475157452764,7.3431372549019605,4.090909090909091,,5.274647887323944,0.4460988683740322,0.22468805704099823,0.17352941176470588,0.6443850267379679,0.0,0.3365821094793057,0.7723125743752479,,,-4.39198606271777,,,4.76594821553534,4.76594821553534,9.092843791722297,75.67266666666667,34.97966101694915,27.015232050773502,27.015232050773502,33.55918260869566,9.092843791722297,,,4.76594821553534
EBAY,2000-12-31,4.927007299270073,4.547445255474453,1.4744525547445255,56.74013921113689,0.0,56.74013921113689,122.94736842105263,-66.20722920991574,0.7795823665893271,0.08120649651972157,0.18097447795823665,0.11136890951276102,0.0,0.04060913705583756,0.047337278106508875,0.07464114832535886,0.6153846153846154,1.0,0.18097447795823665,0.14297800338409475,0.16666666666666666,0.010731707317073172,,,,1.165680473372781,6.432835820895522,2.96875,,3.448,0.3646362098138748,0.08929527207850134,0.044870651204281894,0.495985727029438,0.0,0.2322505800464037,0.5024975024975025,,,-2.0100401606425704,,,6.190927021696252,6.190927021696252,14.56519721577726,130.78333333333333,124.80318091451292,62.713286713286706,62.713286713286706,57.947872200263504,14.56519721577726,,,6.190927021696252
EBAY,1999-12-31,5.168539325842697,4.921348314606742,2.4719101123595504,60.02222222222222,0.0,60.02222222222222,201.3793103448276,-141.35708812260538,0.7422222222222222,-0.0044444444444444444,0.08888888888888889,0.04888888888888889,0.0,0.011410788381742738,0.012910798122065728,0.022857142857142857,0.55,1.0,0.08888888888888889,0.11514522821576763,0.13028169014084506,0.01730103806228374,,,,1.1314553990610328,6.081081081081081,1.8125,,2.0089285714285716,0.23340248962655602,0.06126954921803128,-0.018215271389144434,0.3689052437902484,0.0,0.296,-0.2972972972972973,,,-0.7708333333333334,,,9.900375586854459,9.900375586854459,37.48942222222222,766.829090909091,-426.01616161616164,126.65345345345345,126.65345345345345,329.4637240388071,37.48942222222222,,,9.900375586854459
EBAY,1998-12-31,10.375,9.75,4.0,46.59574468085106,0.0,46.59574468085106,52.142857142857146,-5.547112462006083,0.851063829787234,0.1276595744680851,0.14893617021276595,0.0425531914893617,0.0,0.021739130434782608,0.023809523809523808,0.08333333333333333,0.2857142857142857,1.0,0.14893617021276595,0.08695652173913043,0.09523809523809523,,,,,1.0952380952380953,7.833333333333333,7.0,,5.875,0.5108695652173914,0.006870229007633588,-0.0028353326063249727,0.07851690294438386,0.0,0.13404255319148936,-0.4126984126984127,,,-0.7078651685393258,,,53.16416666666667,53.16416666666667,95.0168085106383,2232.895,-1717.6115384615384,708.8555555555556,708.8555555555556,809.3141166007905,95.0168085106383,,,53.16416666666667
