symbol,date,currentRatio,quickRatio,cashRatio,daysOfSalesOutstanding,daysOfInventoryOutstanding,operatingCycle,daysOfPayablesOutstanding,cashConversionCycle,grossProfitMargin,operatingProfitMargin,pretaxProfitMargin,netProfitMargin,effectiveTaxRate,returnOnAssets,returnOnEquity,returnOnCapitalEmployed,netIncomePerEBT,ebtPerEbit,ebitPerRevenue,debtRatio,debtEquityRatio,longTermDebtToCapitalization,totalDebtToCapitalization,interestCoverage,cashFlowToDebtRatio,companyEquityMultiplier,receivablesTurnover,payablesTurnover,inventoryTurnover,fixedAssetTurnover,assetTurnover,operatingCashFlowPerShare,freeCashFlowPerShare,cashPerShare,payoutRatio,operatingCashFlowSalesRatio,freeCashFlowOperatingCashFlowRatio,cashFlowCoverageRatios,shortTermCoverageRatios,capitalExpenditureCoverageRatio,dividendPaidAndCapexCoverageRatio,dividendPayoutRatio,priceBookValueRatio,priceToBookRatio,priceToSalesRatio,priceEarningsRatio,priceToFreeCashFlowsRatio,priceToOperatingCashFlowsRatio,priceCashFlowRatio,priceEarningsToGrowthRatio,priceSalesRatio,dividendYield,enterpriseValueMultiple,priceFairValue
MSFT,2020-06-30,2.5157654542940118,2.3307702945650672,0.18774719955746094,81.69782889906652,15.010959677069318,96.70878857613585,99.25452493597813,-17.556696036911603,0.6778100199279796,0.3693738419046953,0.3708422193476209,0.3096248645247002,0.16507655177615205,0.14696111326835065,0.37429841763592103,0.23159724193344133,0.8349234482238479,1.0,0.3708422193476209,0.6073691302342098,1.5469214903976196,0.36680974962266777,,20.469316866074873,,2.5469214903976196,4.4676829839742584,3.677414205905826,24.3155672823219,2.7032927566913654,0.4746424790332912,7.897305739945334,5.8875439281530655,17.77001171417415,0.34183961518484224,0.42425619690242283,0.745512978986403,,,-3.929473479696911,-199.58881578947367,0.3418396151848423,13.241848575720178,13.241848575720178,10.953841582365486,35.377784013504666,34.632436970022546,25.818931255080347,25.818931255080347,6.926797007537115,10.953841582365486,0.009662550233625508,23.698488138520673,13.241848575720178
MSFT,2019-06-30,2.5288389513108616,2.3529674445404782,0.16358398156150966,85.63257392147358,17.548240503379166,103.18081442485274,79.80494057329294,5.82763334818064,0.6590195720063889,0.34116319541015394,0.34716273451840785,0.3118171054409065,0.10181285478850027,0.13693658482111698,0.3834652594547054,0.20120109056075455,0.8981871452114997,1.0,0.34716273451840785,0.6428970253632798,1.8003127137691781,0.4160879662651427,,16.265078183172005,,2.8003127137691783,4.262396694214876,4.5736516734171815,20.799806107610276,2.869459139000365,0.43915674423149403,6.730942860828066,4.934863923642461,17.260286340771316,0.35196228338430174,0.41468337531686306,0.7331608699817955,,,-3.747576301615799,-457.7631578947368,0.35196228338430174,10.633573243428124,10.633573243428124,8.646754686394951,27.730212793068297,28.440500522739153,20.851462105969148,20.851462105969148,5.478907741708933,8.646754686394951,0.01269237585772445,19.80323394653438,10.633573243428124
MSFT,2018-06-30,2.900800164136233,2.7378436602379974,0.20424702503077555,87.58214026821311,25.333872187312597,112.9160124555257,82.00675305712721,5.575387211085896,0.652473722363175,0.31724356650960495,0.33050018122508157,0.1501540413193186,0.5456763722103416,0.06401826554580294,0.20033124591987234,0.18204232381712918,0.4543236277896584,1.0,0.33050018122508157,0.6804379404129064,2.1292826228874007,0.4800389728761354,,13.345773874862788,,3.1292826228874007,4.167516332464786,4.45085296506905,14.407588279489106,3.053173241852487,0.4263505995796761,5.630484988452656,4.138054914036438,17.14780600461894,0.7663387846237403,0.39764407393983325,0.7349375626652083,,,-3.7726960110041263,41.12839737582006,0.7663387846237403,9.928356343238473,9.928356343238473,7.441589162740123,49.559699474986424,25.46365434701724,18.714196062346186,18.714196062346186,9.843738473701432,7.441589162740123,0.015462942526730286,17.903994097194147,9.928356343238473
MSFT,2017-06-30,2.918575657009597,2.7861153466678625,0.13746524351959816,84.78026529703534,23.235311286885963,108.0155765839213,78.72945915180526,6.050806145230084,0.6452247569146017,0.2999865384017976,0.3096271137297947,0.26394052044609667,0.06504799170596301,0.10182891751094635,0.2906020909578046,0.15367970930322203,0.8524464064746998,1.0,0.3096271137297947,0.6495933075521749,1.8538267720126325,0.4722848943198022,0.49959778869358346,13.456795679567957,0.4511476533059267,2.8538267720126322,4.30524720253221,4.636129905277402,15.708849151765245,3.188319191785797,0.3858025184569657,5.044305413687436,4.0063840653728295,16.966419816138917,0.4647102671740751,0.40909796936968656,0.7942389956210292,0.4511476533059267,4.354828042328043,-4.860007380981671,10.631593110871906,0.4647102671740751,6.521978771191756,6.521978771191756,5.923613507160535,22.442986386284282,18.230903180572376,14.479694231402032,14.479694231402032,4.479446212471419,5.923613507160535,0.02070625803427285,16.963008794296716,6.521978771191756
MSFT,2016-06-30,2.3528817157201343,2.2144650167629765,0.10967535421264551,73.18499462448165,25.064521049420378,98.24951567390202,76.80811470408786,-3.6231200796062097,0.6403887925927552,0.2825547973758694,0.2812712552383878,0.22532198257893235,0.11517609891181403,0.10616225939173403,0.2852757753795297,0.19117745747925227,0.801084285658567,1.0,0.2812712552383878,0.6278609382430169,1.6871675208689252,0.3646295724308344,0.42958667078649015,20.626709573612228,0.6146029287005275,2.687167520868925,4.987361164304864,4.752102058567701,14.56241670368725,4.965896709522772,0.4711580209647073,4.158866841382753,3.117683763883689,14.122925246474479,0.5358586104484152,0.365590100269873,0.7496474118529632,0.6146029287005275,2.582532548047117,-3.9943665348196093,12.51408186256102,0.5358586104484152,6.308274511437976,6.308274511437976,4.982522324856835,22.112899362189005,18.180163317588665,13.628712378094523,13.628712378094523,4.515562247431715,4.982522324856835,0.024232851679535223,16.00563957011194,6.308274511437976
MSFT,2015-06-30,2.4734022196708763,2.3000382701875237,0.11269563115596108,69.84847189570421,32.06096010654398,101.9094320022482,72.81660512137539,-2.968133225671181,0.646954477452447,0.19211369950844198,0.19776661679846122,0.13029493481513144,0.34116820662452046,0.06988513916273098,0.15225453591898405,0.14826356899659524,0.6588317933754796,1.0,0.19776661679846122,0.5409979824842954,1.178639661351348,0.257741609587454,0.2905223431021652,23.696542893725994,0.8867746165340165,2.178639661351348,5.225597498324771,5.012592929752693,11.384562370778774,6.352589776661462,0.5363611353111101,3.5231402956142475,2.803004603828447,11.664889750424036,0.8104650209136389,0.3107501602906604,0.7955983493810179,0.8867746165340165,5.833500501504513,-4.892328398384926,7.384459116302692,0.810465020913639,4.831830975363061,4.831830975363061,4.134938234665527,31.735218568030838,16.72491009681881,13.306310866574966,13.306310866574966,6.675394853734112,4.134938234665527,0.025538346905544195,16.40505129728659,4.831830975363061
MSFT,2014-06-30,2.504021917808219,2.301567123287671,0.1900054794520548,82.15263782202618,35.8556761946968,118.00831401672298,100.18022010488218,-18.027582282856002,0.6881600313244964,0.31846187509357043,0.3203851070445568,0.2542121082998399,0.20654205607476636,0.12805132726935214,0.24585672280139,0.21947159570523592,0.7934579439252336,1.0,0.3203851070445568,0.4791627993317245,0.9199857435623273,0.18695270264151626,0.20141600476745325,46.59966499162479,1.4233164053875027,1.9199857435623273,4.442949242734343,3.643433799784715,10.1796992481203,6.673814464683729,0.5037184425468721,3.837480652458626,3.184426717466365,10.17561614477914,0.40223792697290933,0.3711837665403706,0.8298222208432875,1.4233164053875027,16.1155,-5.876207839562443,9.496464348850914,0.40223792697290933,4.076766684487214,4.076766684487214,4.215314684509345,16.581880039865904,13.685351828310775,11.356409047190592,11.356409047190592,3.5492153530793513,4.215314684509345,0.024257679226110367,11.29990246513426,4.076766684487214
MSFT,2013-06-30,2.7117620333003716,2.5192025015367348,0.10166501857444477,81.98422587316472,34.700515084621046,116.68474095778576,86.44689722835419,-4.462671355189471,0.7381469254582589,0.3411219155030893,0.3474932240619661,0.2808385464167812,0.19181576223569421,0.15349888718045931,0.2769431495743818,0.2576037480716857,0.8081842377643058,1.0,0.3474932240619661,0.4457386383582226,0.8042029793271179,0.13764815118247856,,63.05827505827506,,1.804202979327118,4.452075946471463,4.222245236122618,10.518575851393189,7.791912721449305,0.5465734285373268,3.4041322314049585,2.901534828807556,9.064344746162927,0.3409870557563006,0.37037084612519106,0.8523566746436375,,,-6.77307963354475,9.01594746716698,0.34098705575630056,3.4172261349817594,3.4172261349817594,3.4652917828103122,12.339088871609569,10.976949055989584,9.356275795095899,9.356275795095899,2.663406797720006,3.4652917828103122,0.027634702959378282,8.918123319247023,3.4172261349817594
MSFT,2012-06-30,2.602912383749388,2.4112824278022518,0.2122491434165443,78.12622926359481,23.67398745008557,101.80021671368038,86.92954934398175,-8.80332008038694,0.762218032364391,0.2951995984970769,0.30203599962019995,0.23029448069123612,0.23752638433556383,0.1400004947596705,0.2558353299278212,0.25136877278936137,0.7624736156644362,1.0,0.30203599962019995,0.45277106645446974,0.8273887557825897,0.13899268254709637,,58.59736842105263,,1.8273887557825896,4.67192648922687,4.198802395209581,15.417766051011434,8.915588342000241,0.6079194531256442,3.718081354338114,3.4470961674112393,7.411239125323301,0.376074920485334,0.42898417047597087,0.9271169291089609,,,-13.72060737527115,7.751470588235295,0.3760749204853339,3.7990723746666064,3.7990723746666064,3.419798977252689,14.84967840735069,8.598541659561407,7.97185353822804,7.97185353822804,3.218944050278414,3.419798977252689,0.02532545892032075,9.990350589521356,3.7990723746666064
MSFT,2011-06-30,2.603669979842914,2.35486897893932,0.3339820671439494,78.21018543671276,32.14868074725557,110.35886618396833,98.34403286897349,-20.133847432260723,0.777290079064381,0.38833049769097694,0.4013410920320833,0.3309838010951775,0.17530547540166008,0.21296364439211068,0.4055498134295675,0.3511947954460153,0.8246945245983399,1.0,0.4013410920320833,0.4748767294671769,0.904314769721283,0.17275810097965336,,95.15593220338982,,1.904314769721283,4.666911323146727,3.711460567071718,11.353498542274053,8.569345748591031,0.643426184869002,3.1413941580356104,2.867333876411032,6.141277784242988,0.22375809935205185,0.38594283916903765,0.9127583907535007,,,-11.462420382165606,9.555398230088496,0.22375809935205182,4.124664085629697,4.124664085629697,3.366286833564474,10.170548596112312,9.555915418645236,8.722241979699191,8.722241979699191,2.227204997104819,3.366286833564474,0.022000592911731752,7.637132211229603,4.124664085629697
MSFT,2010-06-30,2.1293456228247982,1.9046926989712012,0.21054040616514322,76.02122143268677,21.791044776119403,97.81226620880618,118.52561516740622,-42.50439373471944,0.8016292170795724,0.38566673068305485,0.40031047948274756,0.3002368606363229,0.24999000519729742,0.21785328579889215,0.4062804547915539,0.41711970116399294,0.7500099948027026,1.0,0.40031047948274756,0.46378595566290803,0.8649269085002708,0.0966271471612474,0.11396169935142188,165.64900662251657,4.053375989223775,1.8649269085002707,4.80129091747349,3.079503105590062,16.75,8.189252948885976,0.7256047286704679,2.6966506105074495,2.475187633023412,4.1209812927075165,0.24402985074626865,0.3852666282568338,0.917874797490965,4.053375989223775,24.073,-12.17653009610521,9.25528642829681,0.24402985074626868,4.989840173253925,4.989840173253925,3.6874379041034504,12.281762793176972,10.427492306299783,9.571132388983507,9.571132388983507,2.794069736358074,3.6874379041034504,0.01986928544832647,8.292555591478967,4.989840173253925
MSFT,2009-06-30,1.8228896944588295,1.577236073093142,0.22475401346452614,69.9057104231908,21.53064582476347,91.43635624795427,99.81571369806663,-29.910003274875834,0.7919982203056283,0.3632116638431131,0.3391857898249397,0.24931122405325393,0.26497149487916855,0.18705063681183237,0.3682946559482279,0.38976285051323395,0.7350285051208314,1.0,0.3391857898249397,0.4921168857847165,0.9689569745689873,0.0865047108812119,0.12683206780858203,,3.313087365123564,1.9689569745689872,5.221318799142244,3.656738868832732,16.95258019525802,7.755408095554081,0.7502696179129006,2.1161627389951088,1.7694530902623389,3.495664739884393,0.3066785640744046,0.325769632253538,0.8361611598466144,3.313087365123564,9.5185,-6.103558832959282,14.111934766493698,0.3066785640744045,5.414701451033924,5.414701451033924,3.665396238684395,14.702090740613631,13.456135192863425,11.251497609917529,11.251497609917529,3.370540476619782,3.665396238684395,0.020859520559699966,9.554785328150828,5.414701451033924
MSFT,2008-06-30,1.4468982132101988,1.2464364585424614,0.3459479354881885,82.0917742469381,30.998879117089153,113.09065336402725,126.95378513536816,-44.86201088843006,0.808043694141013,0.36860311155246606,0.39414101290963255,0.29263488910956637,0.2575375829344083,0.2428942343357191,0.4872678167888442,0.5550143333255646,0.7424624170655917,1.0,0.39414101290963255,0.5015180031046942,1.006090503224384,,,,,2.006090503224384,4.446243285009935,2.8750619732275657,11.774619289340102,9.679589875040051,0.8300248650282307,2.282154171066526,1.9461457233368533,2.4986272439281945,0.22707991629432725,0.3576961271102284,0.8527669813066815,,,-6.7919547454431175,25.944777911164465,0.22707991629432725,6.845563027062779,6.845563027062779,4.1111900033101625,14.048871670154403,13.477921866521974,11.493526744401258,11.493526744401258,3.3904896716708004,4.1111900033101625,0.016163569689140133,9.202129880170082,6.845563027062779
MSFT,2007-06-30,1.6909994106255788,1.4628694114675422,0.2572619348320283,80.95086264230665,38.46955952492284,119.42042216722949,110.83465818759936,-29.883795545292713,0.790833691952584,0.3606666405852666,0.39319666679707366,0.2751261687727397,0.3002835679816925,0.22264963353437495,0.4522944335466444,0.5099576324935942,0.6997164320183076,1.0,0.39319666679707366,0.5077329787402447,1.031417821654822,,,,,2.031417821654822,4.508908096666079,3.2931937172774868,9.488021295474711,11.752183908045977,0.8092637444396954,1.8001213837750354,1.571110661541574,2.3680962977948616,0.27052968361180235,0.34810844646140604,0.8727804000899079,,,-7.860424028268551,11.54834523036989,0.2705296836118023,9.346509309579702,9.346509309579702,5.685387895622237,20.664656949875575,18.712876641771825,16.332231962238705,16.332231962238705,5.206187528197501,5.685387895622237,0.013091419047894294,13.209108212246413,9.346509309579702
MSFT,2006-06-30,2.183851706621513,1.937305053025577,0.2991711968630247,76.78831127772007,70.51895424836601,147.3072655260861,138.7954248366013,-62.007113558881244,0.8272435752676031,0.37197958538458065,0.4124023305180434,0.28451741113770834,0.3100974701566094,0.18102791787002312,0.3141581887093557,0.38727600466546497,0.6899025298433906,1.0,0.4124023305180434,0.423768265873529,0.7354129263913824,,,,,1.7354129263913824,4.753327608415629,2.6297696803025095,5.175913396481732,14.5473061760841,0.6362630573156889,1.36777134175292,1.2179280220301965,3.2438514860886905,0.28137153742360504,0.3252788943588817,0.8904470980283254,,,-9.128010139416984,7.322826639552618,0.2813715374236051,6.367862307999203,6.367862307999203,5.767055462716228,20.26960473053417,19.91086464992983,17.729571646764786,17.729571646764786,5.439837090144121,5.767055462716228,0.013881451620008478,12.974836942342812,6.367862307999203
MSFT,2005-06-30,2.887776263553949,2.6622622503999525,0.28743260058067194,65.86659294259576,29.71563588128005,95.58222882387581,126.24606201293318,-60.37946907033742,0.8484216346637177,0.3659646124459636,0.41791494923092387,0.3079823062229818,0.263050276641809,0.17304243451246204,0.2546814922581316,0.3082798768956951,0.736949723358191,1.0,0.41791494923092387,0.3205535550377745,0.47178634521459006,,,,,1.47178634521459,5.54150417827298,2.8911792905081497,12.283095723014256,16.95993179880648,0.5618583633411001,1.5225563909774436,1.4481019622226297,3.4614890885750964,2.9469560959686634,0.4173368854931135,0.951099066546221,,,-20.449507389162562,0.47039660056657223,2.9469560959686634,5.804897848903668,5.804897848903668,7.019771287825475,22.79277460421087,17.68521876780852,16.820395061728394,16.820395061728394,6.334811412678994,7.019771287825475,0.12929343386847802,15.698201681633586,5.804897848903668
MSFT,2004-06-30,4.71414256129334,4.441312044892778,0.9555748546997127,58.36432740599973,23.296694966646452,81.66102237264619,95.01288659793813,-36.6485591919384,0.8209311795846341,0.24525587077507804,0.33109814035564,0.2217456223700285,0.3302722204001312,0.08655476432689047,0.1091613765452723,0.15360394967191024,0.6697277795998688,1.0,0.33109814035564,0.207093506273313,0.2611827597728032,,,,,1.2611827597728031,6.253820033955857,3.8415841584158414,15.667458432304038,15.836199484092864,0.39033358765683285,1.342573893886543,1.2407747383881036,5.561960712318707,0.21167972575905974,0.3970680059725804,0.9241761247094216,,,-13.188458070333635,23.59032258064516,0.21167972575905974,4.147946007350484,4.147946007350484,8.425955205646803,37.998293339862876,22.96146038322113,21.220433474634213,21.220433474634213,10.549271346698934,8.425955205646803,0.005570769293919652,22.12420116574503,4.147946007350484
MSFT,2003-06-30,4.2201946472019465,3.88178044940604,0.46071275225418634,58.922546369652345,38.55421686746988,97.47676323712223,94.75903614457832,-35.83648977492597,0.8117562991269768,0.29654829589585857,0.3434305775623699,0.23397645011961352,0.4281707979012122,0.09214261244065972,0.11601860981020458,0.16313940789279494,0.6812918400578976,1.0,0.3434305775623699,0.20579454803504135,0.2591200394380084,,,,,1.2591200394380084,6.194572748267898,3.851875397329943,9.4671875,14.479082321187585,0.3938114814271032,1.451663297188017,1.3697849659988972,4.507259694909024,0.11379630859115655,0.4907882064187405,0.9435968854845856,,,-17.72951739618406,-464.61764705882354,0.11379630859115655,4.39725875030811,4.39725875030811,8.868016901233418,37.90132253352808,19.14899101033141,18.068928277521046,18.068928277521046,10.51075922043457,8.868016901233418,0.0030024363527286053,20.428854067511168,4.39725875030811
MSFT,2002-06-30,3.8116760828625234,3.435420590081607,0.23666038920276208,65.99982372642341,43.10317599578873,109.10299972221215,77.3679592911037,-11.368135564680287,0.7990833774017275,0.29162700511193373,0.27763088313061873,0.18878900052882072,0.4678095238095238,0.0791621086243089,0.10262552702184745,0.14343739754471604,0.68,1.0,0.27763088313061873,0.22863140466546433,0.2963970870065159,,,,,1.296397087006516,5.530317800740885,4.7177152317880795,8.468053491827638,12.506613756613756,0.4193152588475298,1.3064109490365567,1.2370790563659284,3.480280929227445,0.0,0.5115106645513837,0.9469294920394238,,,-18.84285714285714,,,5.118806055960139,5.118806055960139,9.416509783183502,49.878487394957986,19.440956401484826,18.40921497001861,18.40921497001861,14.116984735178475,9.416509783183502,,26.469209181116568,5.118806055960139
MSFT,2001-06-30,4.237086665225848,3.811432893883726,0.42381672790144803,52.96944180898166,8.768451519536903,61.73789332851856,125.50506512301013,-72.53562331402847,0.8634171410499684,0.463314358001265,0.4556056293485136,0.29040164452877926,0.0,0.124868264490906,0.15534268011588317,0.2324713571082782,0.6373969631236442,1.0,0.4556056293485136,0.1961754207037226,0.2440525280720675,,,,,1.2440525280720676,6.8907654590029965,2.9082491582491583,41.626506024096386,10.955391944564747,0.4299847016828149,1.203982777179763,1.1050412630068174,2.834589163975601,0.0,0.5305977229601518,0.9178214871107138,,,-12.168631006346327,,,7.755909408107594,7.755909408107594,14.499098671726754,49.927742989381976,29.772643883432096,27.325972284309344,27.325972284309344,14.18436490432289,14.499098671726754,,40.85197027696465,7.755909408107594
MSFT,2000-06-30,3.10691952844695,2.7727319323423885,0.49677088672475656,51.674943369925074,0.0,51.674943369925074,131.6772151898734,-80.00227181994833,0.8692280885171633,0.47943892664227217,0.6218417842829761,0.4103937968287158,0.0,0.18065196548418025,0.22773641461999614,0.33671423516924165,0.6599649737302977,1.0,0.6218417842829761,0.20674976030680728,0.26063624057242313,,,,,1.2606362405724232,7.063384615384615,2.7719298245614037,,12.063058328954282,0.44019175455417064,1.0319725433526012,0.9525830924855492,2.149385838150289,0.0013798959770724977,0.4977347970029622,0.9230701907929284,,,-12.998862343572242,-13.193995381062356,0.0013798959770724977,9.32480371301489,9.32480371301489,16.803819480745776,40.94559813183314,36.57423722385513,33.76058813232977,33.76058813232977,11.553253377055466,16.803819480745776,3.370071607281511e-05,35.69510636304002,9.32480371301489
MSFT,1999-06-30,2.4655760054533062,2.213246989320609,0.5652124517155191,41.49617663442548,0.0,41.49617663442548,113.36531627576404,-71.86913964133856,0.8574973413683091,0.5069124423963134,0.6021674178356206,0.39423709930622375,0.0,0.20155339805825243,0.27375342851114703,0.3987191094121986,0.6546968295349423,1.0,0.6021674178356206,0.2637411003236246,0.3582178774878683,,,,,1.3582178774878684,8.795991091314031,3.219679633867277,,12.257603972687772,0.5112491909385113,1.1078073695731485,1.054633345494345,1.572053994892375,0.003596660244059088,0.6150807717627994,0.9520006586530545,,,-20.8336192109777,-21.884684684684686,0.003596660244059088,16.54354173992545,16.54354173992545,23.82464374335342,60.43227231856133,40.68712617832742,38.73417092046764,38.73417092046764,16.88530666923309,23.82464374335342,5.951555528310658e-05,53.43706118700493,16.54354173992545
MSFT,1998-06-30,2.7729493891797556,2.6853403141361256,2.430541012216405,34.91678679072205,0.0,34.91678679072205,112.6158536585366,-77.69906686781454,0.8388153584064998,0.4202594679596383,0.4663215830166426,0.2941947320141528,0.0,0.2008319541977904,0.2700427016298791,0.4280387321825946,0.6308837993536602,1.0,0.4663215830166426,0.25629556738381715,0.3446201960666386,,,,,1.3446201960666386,10.453424657534246,3.241106719367589,,10.140863787375416,0.6826497293912421,0.786367027228646,0.7251958224543081,1.2986758672137262,0.0062360801781737195,0.5525488140479623,0.9222103640460098,,,-12.855182926829269,-13.428343949044587,0.0062360801781737195,18.291492151320142,18.291492151320142,19.927443323286592,67.73555456570156,39.10667866786679,36.064584370923754,36.064584370923754,18.51162301637573,19.927443323286592,9.206509370385237e-05,52.63069278200943,18.291492151320142
MSFT,1997-06-30,2.8734072022160664,2.755124653739612,2.4836565096952907,29.968163538873995,0.0,29.968163538873995,121.27419354838709,-91.3060300095131,0.8181970509383378,0.408093163538874,0.4452077747989276,0.28937667560321717,0.0,0.24007784805727392,0.3204973554792614,0.4930871299990721,0.6499811817839669,1.0,0.4452077747989276,0.25092097032042815,0.33497262689060037,,,,,1.3349726268906004,12.179591836734694,3.0097087378640777,,8.147440273037542,0.8296378675192883,0.4470823798627002,0.3995041952707857,0.8548817696414951,0.004342790966994789,0.3928451742627346,0.8935807208359992,,,-9.396793587174349,-9.688016528925619,0.004342790966994788,17.166959265101607,17.166959265101607,15.500026809651473,53.56349739432542,44.15473031026253,39.45581573896354,39.45581573896354,14.316359854018476,15.500026809651473,8.107743478779764e-05,43.889882822238846,17.166959265101607
MSFT,1996-06-30,3.232577319587629,3.125360824742268,2.861855670103093,25.77182320441989,0.0,25.77182320441989,137.49184149184148,-111.7200182874216,0.7629834254143646,0.3401104972375691,0.37337016574585635,0.2425414364640884,0.0,0.217477459625483,0.3177475390851187,0.4406624934793949,0.6496004735128736,1.0,0.37337016574585635,0.31556524323788765,0.4610596409959467,,,,,1.4610596409959467,14.162754303599375,2.6547029702970297,,6.825037707390648,0.8966610522144061,0.3629709154792114,0.31475697833300803,0.6773374975600234,0.0,0.410939226519337,0.867168593707986,,,-7.52834008097166,,,10.990570353213666,10.990570353213666,8.389266298342541,34.58900227790433,23.541972093023254,20.41485883301963,20.41485883301963,9.031572817008351,8.389266298342541,,25.787985046728974,10.990570353213666
MSFT,1995-06-30,4.172234595397179,3.9576837416481068,3.526354862657758,34.90781893004115,23.86329866270431,58.77111759274546,152.6708766716196,-117.76305774157845,0.7784362139917695,0.3354732510288066,0.3642798353909465,0.2391769547325103,0.0,0.2015256588072122,0.2724545284080255,0.37745181647620674,0.6565747853592409,1.0,0.3642798353909465,0.26033287101248265,0.3519594974685918,,,,,1.3519594974685918,10.456110154905335,2.390763765541741,15.295454545454545,5.096476510067114,0.8425797503467406,0.198325692645007,0.14899342236396254,0.4733904723938609,0.0,0.32757201646090534,0.7512562814070352,,,-4.02020202020202,,,10.893842115132195,10.893842115132195,9.56326913580247,39.984074328974536,38.86077591973244,29.19440201005025,29.19440201005025,10.224266101348892,9.56326913580247,,30.97959349593496,10.893842115132195
MSFT,1994-06-30,4.72289156626506,4.478641840087623,3.9583789704271632,36.77874416631311,34.56824512534819,71.3469892916613,109.8050139275766,-73.02626976126348,0.771531607976241,0.34365719134493,0.3652948663555367,0.24310564276622826,0.0,0.21368636956927092,0.2575280898876405,0.38696629213483147,0.6655052264808362,1.0,0.3652948663555367,0.17024053701286593,0.2051685393258427,,,,,1.2051685393258427,9.92421052631579,3.324074074074074,10.558823529411764,5.068817204301075,0.8789856423643483,0.16331761328685668,0.13481648554439205,0.3705146606520402,0.0,0.3379295714891812,0.8254865034526051,,,-5.73021582733813,,,7.057950561797753,7.057950561797753,6.662681374628765,27.406527050610823,23.884319391634982,19.716183301946014,19.716183301946014,6.812519491632465,6.662681374628765,,20.096804049168476,7.057950561797753
MSFT,1993-06-30,5.0621669626998225,4.66785079928952,4.067495559502665,32.58584257791865,59.05095541401274,91.63679799193139,111.12738853503184,-78.54154595711319,0.7926571579503434,0.3483888008452192,0.37004754358161646,0.251716851558373,0.0,0.25045992115637317,0.2939543491671808,0.43214065391733497,0.6802284082798001,1.0,0.37004754358161646,0.14796320630749016,0.17365823565700186,,,,,1.1736582356570018,11.201183431952662,3.284518828451883,6.181102362204724,4.366782006920415,0.9950065703022339,0.11081304168386298,0.08646306231943872,0.23627734213784565,0.0,0.2836767036450079,0.7802607076350093,,,-4.5508474576271185,,,6.905774213448489,6.905774213448489,5.913502377179081,23.492675760755507,26.716610978520286,20.845921787709496,20.845921787709496,5.8025232791346175,5.913502377179081,,18.205181159420288,6.905774213448489
MSFT,1992-06-30,3.959731543624161,3.6129753914988814,3.0089485458612977,35.71946357375861,67.36051502145922,103.07997859521782,147.25321888412014,-111.53375531036153,0.8307357738310982,0.3570134106560348,0.3773106197897789,0.25661471547662196,0.0,0.2681818181818182,0.3228454172366621,0.4746922024623803,0.6801152737752162,1.0,0.3773106197897789,0.1693181818181818,0.20383036935704515,,,,,1.2038303693570451,10.218518518518518,2.478723404255319,5.4186046511627906,3.597131681877445,1.0450757575757577,0.09516728624535316,0.06149761019649495,0.14285714285714285,0.0,0.32475534613990575,0.6462053571428571,,112.0,-2.826498422712934,,,9.831440948472412,9.831440948472412,7.814552374048568,30.45247175141243,37.237219343696026,24.062890625,24.062890625,7.306575472465546,7.814552374048568,,24.662621951219514,9.831440948472412
MSFT,1991-06-30,3.5119453924914676,3.1706484641638224,2.3412969283276452,48.12533912099837,47.25895316804408,95.38429228904245,86.47382920110194,-38.348490080103566,0.8035811177428106,0.3434617471513836,0.3640803038524145,0.25122083559414,0.0,0.2816301703163017,0.3427091043671355,0.4966691339748335,0.6900149031296572,1.0,0.3640803038524145,0.17822384428223845,0.21687638786084382,,,,,1.2168763878608437,7.584362139917696,4.22093023255814,7.723404255319149,3.4773584905660377,1.1210462287104623,0.0619449378330373,0.03263765541740675,0.07615452930728242,0.0,0.3027672273467173,0.5268817204301075,,29.36842105263158,-2.1136363636363638,,,10.134833456698741,10.134833456698741,7.429278350515465,29.572699784017278,46.57197278911565,24.537921146953405,24.537921146953405,6.788758400979298,7.429278350515465,,24.165417439703155,10.134833456698741
MSFT,1990-06-30,3.8502673796791442,3.3689839572192515,2.4010695187165774,55.84530853761623,80.7905138339921,136.63582237160833,73.57707509881423,-17.731766561198,0.7869822485207101,0.32121724429416737,0.3474218089602705,0.23584108199492815,0.0,0.2524886877828054,0.30359085963003263,0.4477124183006536,0.6788321167883211,1.0,0.3474218089602705,0.16923076923076924,0.20348204570184983,,,,,1.2023939064200218,6.535911602209945,4.96078431372549,4.517857142857143,3.64,1.0705882352941176,0.03233310072109793,0.013956734124214934,0.05222144684810421,0.0,0.23499577345731193,0.4316546762589928,,39.714285714285715,-1.759493670886076,,,8.794472252448312,8.794472252448312,6.831885038038884,28.96817204301075,67.351,29.072374100719426,29.072374100719426,6.3473074216566365,6.831885038038884,,23.50806153846154,8.794472252448312
MSFT,1989-06-30,2.949685534591195,2.591194968553459,1.8930817610062893,50.39179104477611,67.99019607843137,118.38198712320748,75.1470588235294,-24.755267778753293,0.7450248756218906,0.2885572139303483,0.31218905472636815,0.2126865671641791,0.0,0.23717059639389737,0.304270462633452,0.44661921708185054,0.6812749003984063,1.0,0.31218905472636815,0.22052704576976423,0.28291814946619215,,,,,1.282918149466192,7.243243243243243,4.857142857142857,5.368421052631579,4.040201005025126,1.115117891816921,0.027410791455735276,0.016421780466724288,0.037165082108902334,0.0,0.27611940298507465,0.5990990990990991,,8.88,-2.49438202247191,,,5.476192170818505,5.476192170818505,3.8278855721393037,17.997777777777777,23.14,13.863153153153153,13.863153153153153,3.714678955714124,3.8278855721393037,,14.367282051282052,5.476192170818505
MSFT,1988-06-30,2.9237288135593222,2.347457627118644,1.5508474576271187,58.05414551607445,133.17567567567568,191.22982119175012,106.04729729729729,-47.99315178122284,0.7495769881556683,0.2927241962774958,0.311336717428088,0.2098138747884941,0.0,0.2515212981744422,0.33066666666666666,0.49066666666666664,0.6739130434782609,1.0,0.311336717428088,0.23935091277890466,0.31466666666666665,,,,,1.3146666666666667,6.287234042553192,3.441860465116279,2.740740740740741,4.546153846153846,1.1987829614604462,0.013933814381686987,0.0034834535954217467,0.0227668574272207,0.0,0.1895093062605753,0.25,,5.6,-1.3333333333333333,,,8.788213333333333,8.788213333333333,5.576277495769881,26.577258064516126,117.69928571428571,29.424821428571427,29.424821428571427,5.4441386422676,5.576277495769881,,22.37557142857143,8.788213333333333
MSFT,1987-06-30,4.346938775510204,3.816326530612245,2.693877551020408,58.02023121387283,83.85135135135135,141.87158256522417,103.58108108108108,-45.56084986720825,0.7861271676300579,0.3265895953757225,0.34971098265895956,0.20809248554913296,0.0,0.25,0.301255230125523,0.5062761506276151,0.5950413223140496,1.0,0.34971098265895956,0.1701388888888889,0.20502092050209206,,,,,1.205020920502092,6.290909090909091,3.5238095238095237,4.352941176470588,4.942857142857143,1.2013888888888888,0.007412991581857017,0.00012564392511622062,0.016584998115341122,0.0,0.17052023121387283,0.01694915254237288,,11.8,-1.0172413793103448,,,11.32242677824268,11.32242677824268,7.820982658959538,37.58416666666667,2706.06,45.86542372881356,45.86542372881356,7.623149401121305,7.820982658959538,,32.23825,11.32242677824268
