symbol,date,currentRatio,quickRatio,cashRatio,daysOfSalesOutstanding,daysOfInventoryOutstanding,operatingCycle,daysOfPayablesOutstanding,cashConversionCycle,grossProfitMargin,operatingProfitMargin,pretaxProfitMargin,netProfitMargin,effectiveTaxRate,returnOnAssets,returnOnEquity,returnOnCapitalEmployed,netIncomePerEBT,ebtPerEbit,ebitPerRevenue,debtRatio,debtEquityRatio,longTermDebtToCapitalization,totalDebtToCapitalization,interestCoverage,cashFlowToDebtRatio,companyEquityMultiplier,receivablesTurnover,payablesTurnover,inventoryTurnover,fixedAssetTurnover,assetTurnover,operatingCashFlowPerShare,freeCashFlowPerShare,cashPerShare,payoutRatio,operatingCashFlowSalesRatio,freeCashFlowOperatingCashFlowRatio,cashFlowCoverageRatios,shortTermCoverageRatios,capitalExpenditureCoverageRatio,dividendPaidAndCapexCoverageRatio,dividendPayoutRatio,priceBookValueRatio,priceToBookRatio,priceToSalesRatio,priceEarningsRatio,priceToFreeCashFlowsRatio,priceToOperatingCashFlowsRatio,priceCashFlowRatio,priceEarningsToGrowthRatio,priceSalesRatio,dividendYield,enterpriseValueMultiple,priceFairValue
NVDA,2020-01-26,7.673766816143497,7.036995515695067,6.1076233183856505,55.39521890456127,86.10481927710843,141.5000381816697,60.42289156626506,-5.0276726617037895,0.619893753434695,0.2606704524638212,0.27202784392745927,0.2560908591317091,0.05858585858585859,0.16147848686110308,0.22910521140609635,0.1912304423411242,0.9414141414141414,1.0,0.27202784392745927,0.29517759168351143,0.4187971156997706,0.1402606551602677,,57.11538461538461,,1.4187971156997705,6.589016294508148,6.04075691411936,4.239019407558733,4.7635253054101225,0.630551544903263,7.703883495145631,6.912621359223301,17.632686084142396,0.13948497854077252,0.43606887708371495,0.8972904851921865,,,-9.736196319018404,-48.09090909090909,0.13948497854077255,13.269985250737463,13.269985250737463,14.833018867924528,57.92092274678112,37.908918539325846,34.01531190926276,34.01531190926276,8.644078787131306,14.833018867924528,0.002408196760790111,44.97264178665883,13.269985250737463
NVDA,2019-01-27,7.943566591422122,6.656132430398796,0.5884123401053424,44.36326391259816,126.48514851485149,170.84841242744966,41.03740374037404,3.325860172224118,0.6120689655172413,0.3246841925571868,0.33253670194605667,0.35344827586206895,-0.06288501026694045,0.3115407764068613,0.44326696638835367,0.3256708183565995,1.0628850102669405,1.0,0.33253670194605667,0.29717123081552815,0.4228216655962321,0.17546337157987643,,67.17241379310344,,1.422821665596232,8.22752808988764,8.894324853228962,2.8857142857142857,8.344729344729345,0.8814324405657539,5.9888,5.0288,11.8752,0.08959188601787008,0.31947763741891433,0.8397007747795886,,,-6.238333333333333,-16.344978165938866,0.08959188601787008,10.510329693855704,10.510329693855704,8.380633321952885,23.711060130403283,31.240057270124087,26.23230029388191,26.23230029388191,3.5787038351852334,8.380633321952885,0.0037784850413749207,23.57530834914611,10.510329693855704
NVDA,2018-01-28,8.026886383347788,7.261925411968777,3.470945359930616,47.5319127033148,74.65056526207606,122.18247796539086,55.894141829393625,-8.362229126078823,0.5993411570928556,0.3304508956145769,0.3290096767551987,0.3136709903232448,0.046620775969962454,0.2710612934792278,0.4078436621603534,0.31681205392545597,0.9533792240300375,1.0,0.3290096767551987,0.3353794146428254,0.5046178557087405,0.20991962774957698,,52.39344262295082,,1.5046178557087404,7.67905138339921,6.530201342281879,4.889447236180905,9.743229689067201,0.8641579930611155,5.541139240506329,4.602848101265823,11.246835443037975,0.11191335740072202,0.36051060325303685,0.8306681896059395,,,-5.905564924114671,-13.896825396825397,0.11191335740072202,20.815141212689063,20.815141212689063,16.008844966028413,51.03705940269117,53.45820556892403,44.40603083952028,44.40603083952028,7.789283154431494,16.008844966028413,0.0021927861579505666,44.413460648148146,20.815141212689063
NVDA,2017-01-29,4.774049217002237,4.263982102908278,0.9876957494407159,43.63096960926194,101.7948717948718,145.42584140413373,62.17948717948718,-18.548517570225243,0.5879884225759768,0.27988422575976846,0.27568740955137483,0.2410998552821997,0.12545931758530185,0.16929173864444672,0.28913571676501215,0.23655780454489012,0.8745406824146982,1.0,0.27568740955137483,0.41449039731734577,0.707913918778202,0.2595733744538679,,32.8448275862069,,1.707913918778202,8.365617433414043,5.870103092783505,3.5856423173803527,13.26295585412668,0.7021644141855502,2.5762711864406778,2.305084745762712,10.474576271186441,0.1566626650660264,0.24196816208393632,0.8947368421052632,,,-9.5,19.67058823529412,0.15666266506602639,11.430149253731344,11.430149253731344,9.53118958031838,39.532124849939976,44.02441176470588,39.39026315789474,39.39026315789474,6.19568921217364,9.53118958031838,0.003962920426379871,30.75093953488372,11.430149253731344
NVDA,2016-01-31,2.5746490854955337,2.3572947681837517,0.2535091450446618,36.79141716566866,69.38153706230105,106.17295422796971,49.13142337426103,-12.34000620859237,0.5610778443113772,0.14910179640718563,0.14830339321357286,0.12255489021956088,0.17362045760430686,0.08331071913161466,0.13739091519355562,0.14803745766088863,0.8263795423956931,1.0,0.14830339321357286,0.39362279511533244,0.6491385097337212,0.021243977222952255,,15.808510638297872,,1.6491385097337212,9.92079207920792,7.429054054054054,5.260765550239235,10.75107296137339,0.6797829036635007,2.0650263620386644,1.913884007029877,8.85237258347979,0.3469055374592834,0.2345309381237525,0.9268085106382978,,,-13.662790697674419,9.251968503937007,0.34690553745928343,4.169780711568584,4.169780711568584,3.7195109780439117,30.349755700325733,17.111799816345272,15.859361702127659,15.859361702127659,4.17025138698028,3.7195109780439117,0.011430257985752425,18.374620060790274,4.169780711568584
NVDA,2015-01-25,6.376116071428571,5.688616071428571,0.5546875,36.956048554450526,84.67457241250126,121.6306209669518,51.365734403442794,-14.409685848992268,0.5552650033418726,0.16212493113862694,0.1612378236324329,0.13469743823943872,0.1646039669544113,0.0875693653659214,0.1427313263920326,0.11972022204599524,0.8353960330455887,1.0,0.1612378236324329,0.38647410081933065,0.629923042100498,0.24037138927097662,,-16.36217024689485,,1.629923042100498,9.876597046413503,7.105904436860068,4.310621118012422,8.404859964093358,0.6501190112484377,1.6084309532774017,1.3910842029737083,8.210376011423131,0.29568005683593224,0.19345394549233827,0.8648703260399092,,,-7.400299066031492,14.135193769412059,0.29568005683593224,2.8433786962426435,2.8433786962426435,2.6833340375225325,19.921195774730528,16.03785015479876,13.870660692360012,13.870660692360012,2.7087630674923857,2.6833340375225325,0.014842485369828753,14.49466109979458,2.8433786962426435
NVDA,2014-01-26,5.9523809523809526,5.394708994708995,1.2190476190476192,37.648910411622275,76.05800214822771,113.70691255985,63.51235230934479,-25.863441897722517,0.5491525423728814,0.12009685230024213,0.1234866828087167,0.10653753026634383,0.13777254901960784,0.06068128533995311,0.09874326750448834,0.08087535680304472,0.8627450980392157,1.0,0.1234866828087167,0.3853261619087022,0.6270197486535009,0.23567753001715266,,48.83654122378627,,1.6272441651705565,9.694835680751174,5.746913580246914,4.798969072164948,7.084048027444254,0.5695766101227417,1.403529411764706,0.9746218487394958,7.852100840336134,0.41204545454545455,0.20220338983050848,0.694407855346665,,,-3.272335423197492,-11.30040595399188,0.4120454545454545,2.502311490125673,2.502311490125673,2.699830508474576,25.341590909090904,19.227970339713742,13.352053646269907,13.352053646269907,3.6412090294395285,2.699830508474576,0.016259652206667086,14.96735355162561,2.502311490125673
NVDA,2013-01-27,4.892418032786885,4.284836065573771,0.7510245901639344,38.717289719626166,73.21324245374879,111.93053217337496,63.26192794547225,-24.544638225846086,0.5200934579439253,0.15140186915887852,0.15467289719626168,0.13154205607476635,0.15030664652567977,0.08780411728009982,0.11661143330571665,0.12178072111846946,0.850453172205438,1.0,0.15467289719626168,0.2471927635683094,0.3282932891466446,0.003919950484835981,,200.97146326654524,,1.328086164043082,9.427312775330396,5.769662921348314,4.985436893203883,7.430555555555555,0.6674984404242046,1.31872,1.02544,5.9648,0.08330373001776199,0.19257009345794393,0.777602523659306,,,-4.49645390070922,-6.042521994134898,0.08330373001776198,1.6013359569179784,1.6013359569179784,1.8063668224299065,13.732238010657191,12.0631143704166,9.38030817762679,9.38030817762679,2.072602935682382,1.8063668224299065,0.006066289409862571,7.86689865548875,1.6013359569179784
NVDA,2012-01-29,4.198924731182796,3.7268817204301077,0.7182795698924731,30.675337668834416,63.9361154044307,94.61145307326512,62.995878413189075,-32.32054074435466,0.5145072536268134,0.16208104052026012,0.16583291645822912,0.14532266133066532,0.12414177978883861,0.10462812893931209,0.1401350699469368,0.14341336794289422,0.8763197586726998,1.0,0.16583291645822912,0.25337655321447866,0.3393632416787265,0.005039596832253419,,214.63256717384266,,1.3393632416787264,11.898809523809524,5.794029850746269,5.708823529411765,7.139285714285714,0.7199711867459031,1.475974025974026,1.2508116883116882,5.0811688311688314,0.0,0.2274137068534267,0.8474483062032556,,,-6.555155010814708,,,2.2776845151953693,2.2776845151953693,2.36200100050025,16.253493975903613,12.25604153147307,10.386361636603608,10.386361636603608,2.417810260602904,2.36200100050025,,10.103756626215404,2.2776845151953693
NVDA,2011-01-30,3.4220572640509013,3.010604453870626,0.7051961823966065,35.953993790572966,59.17994376757263,95.13393755814559,48.91752577319588,-12.96353198262291,0.39768557719446795,0.07225515100197573,0.07648885125599775,0.07140841095117133,0.06650553505535055,0.05628476084538376,0.07953473750392959,0.07629504504504504,0.933579335793358,1.0,0.07648885125599775,0.29232480533926586,0.41307764853819556,0.00717852684144819,,86.66453469779341,,1.4130776485381955,10.151862464183381,7.461538461538462,6.167630057803469,6.226713532513181,0.7882091212458286,1.1473684210526316,0.9811544991511035,4.227504244482173,0.0,0.19074230877787185,0.8551346552234389,,,-6.902962206332993,,,4.0087551084564605,4.0087551084564605,3.5991673722833752,50.40256916996047,22.065841841148988,18.86926605504587,18.86926605504587,7.169068640692276,3.5991673722833752,,26.260110593082512,4.0087551084564605
NVDA,2010-01-31,3.1645408163265305,2.6823979591836733,0.5701530612244898,41.15303668069753,56.19302325581395,97.34605993651148,58.56976744186046,-17.41673076116293,0.35387853277209863,-0.029765484064942876,-0.02465423932651834,-0.020444978953698137,0.17447560975609755,-0.018962632459564976,-0.02551594746716698,-0.02926481084939329,0.8292682926829268,1.0,-0.02465423932651834,0.25683212493028446,0.34559099437148216,0.008925251022685012,,-24.698795180722893,,1.345590994371482,8.869333333333334,6.231884057971015,6.495468277945619,5.814685314685315,0.9274958170663692,0.8869090909090909,0.7458181818181818,3.1418181818181816,0.0,0.14666265784726398,0.8409184091840919,,,-6.286082474226804,,,3.4754221388367728,3.4754221388367728,2.784726398075767,-136.20588235294116,22.57922964407606,18.987289872898728,18.987289872898728,-18.090614656874582,2.784726398075767,,75.08941238435857,3.4754221388367728
NVDA,2009-01-25,2.7830551989730425,2.0205391527599486,0.5365853658536586,33.889051094890505,87.23678365171035,121.12583474660086,35.510884051532656,-1.6218329566421517,0.34277372262773725,-0.02072992700729927,-0.012554744525547445,-0.008759124087591242,0.30030232558139536,-0.008952551477170993,-0.012526096033402923,-0.01671850699844479,0.6976744186046512,1.0,-0.012554744525547445,0.28528797373918235,0.39916492693110645,0.0107393638992152,,-105.91133004926108,,1.3991649269311064,10.770440251572326,10.278538812785389,4.184014869888476,5.4712460063897765,1.0220829603103552,0.4551094890510949,-0.2888686131386861,2.291970802919708,0.0,0.07281751824817519,-0.6347233360064154,,,-0.6117243070885455,,,1.8098872651356994,1.8098872651356994,1.2656,-144.48933333333332,-27.382691092861656,17.380433039294306,17.380433039294306,-19.1210226193351,1.2656,,27.669289017706134,1.8098872651356994
NVDA,2008-03-21,2.9869163458824333,2.5600411927279945,0.7516525170059587,59.36520769377187,58.719078965080904,118.08428665885278,80.59667366663975,-21.231465972867873,0.4561600445110375,0.20409335604437437,0.2199540735896297,0.19464915834118296,0.11504635870330984,0.2128375196221867,0.3046874761260119,0.3241639123757872,0.8849536412966902,1.0,0.2199540735896297,1.0,1.431549647199753,,,16691.5,,1.431549647199753,6.148382431049642,4.528722878932897,6.216037554285523,11.389018587691213,1.0934417669000294,2.3089938702945605,1.9677063413002538,3.289314098322511,0.0,0.3099656894086182,0.8521921026361285,,,6.765538363205412,,,3.996717292254285,3.996717292254285,2.55329712581689,13.11743214086467,9.666076487526919,8.237354046147209,8.237354046147209,1.742575310346965,2.55329712581689,,10.041984079014954,3.996717292254285
NVDA,2008-01-27,2.9875904860392968,2.560496380558428,0.7518097207859359,59.319180087847734,58.78645132346343,118.10563141131117,80.56527590847914,-21.246095820631403,0.4560761346998536,0.20400195217179112,0.21986334797462176,0.19472913616398244,0.0,0.2129135538954109,0.3048128342245989,0.3239841783531104,0.8856825749167592,1.0,0.21986334797462176,0.3014941302027748,0.43162719633307867,,,,,1.4316271963330787,6.153153153153153,4.530487804878049,6.20891364902507,11.383333333333333,1.0933831376734258,2.0925864909390444,1.7833607907742999,2.981878088962109,0.0,0.30995607613469983,0.8522279955912455,,,-6.767181672882259,,,5.216768525592054,5.216768525592054,3.3327232796486093,17.11466165413534,12.616628175519631,10.752243741143127,10.752243741143127,2.508717610253598,3.3327232796486093,,,5.216768525592054
NVDA,2007-01-28,3.179968701095462,2.560250391236307,0.8513302034428795,61.72531769305962,73.28902714932127,135.0143448423809,56.15384615384615,5.571471539213469,0.4235907461713913,0.14760508308895406,0.1609644835451287,0.14630172694688823,0.0938259109311741,0.1678504672897196,0.22371699053313404,0.24263261296660119,0.9089068825910931,1.0,0.1609644835451287,0.2497196261682243,0.3328350772296961,,,23523.809523809523,,1.332835077229696,5.913294797687861,6.5,4.980281690140845,11.758620689655173,1.1472897196261682,0.9756388415672913,0.7528109028960818,1.9028960817717206,0.0,0.1866080156402737,0.7716081718177056,,,-4.378440366972477,,,6.080582959641255,6.080582959641255,3.9764516129032255,27.179799554565697,27.616496945010184,21.30911471974856,21.30911471974856,3.852823554341962,3.9764516129032255,,19.33713229989502,6.080582959641255
NVDA,2006-01-29,3.530751708428246,2.888382687927107,1.2574031890660593,48.851010101010104,63.48908594815825,112.34009604916835,44.56684856753069,4.284161533479413,0.382996632996633,0.14183501683501684,0.15025252525252525,0.12668350168350168,0.16144257703081233,0.15396419437340153,0.20120320855614973,0.2354881266490765,0.8431372549019608,1.0,0.15025252525252525,0.23478260869565218,0.3068181818181818,,,4958.333333333333,,1.3068181818181819,7.471698113207547,8.189944134078212,5.749019607843137,13.348314606741573,1.2153452685421995,0.8131147540983606,0.6681238615664845,1.7304189435336976,0.0,0.18787878787878787,0.8216845878136201,,,-5.608040201005025,,,5.765233957219251,5.765233957219251,3.629962121212121,28.653787375415284,23.513604143947656,19.320766129032258,19.320766129032258,3.7988237790637505,3.629962121212121,,17.676081163634453,5.765233957219251
NVDA,2005-01-30,3.1045130641330165,2.2969121140142517,0.49643705463182897,53.75124378109452,84.6842878120411,138.43553159313564,63.78120411160059,-10.029960330506064,0.32238805970149254,0.0472636815920398,0.05323383084577114,0.044278606965174126,0.2344766355140187,0.05348557692307692,0.0728910728910729,0.08608205953338696,0.8317757009345794,1.0,0.05323383084577114,0.265625,0.361998361998362,,,652.439024390244,,1.3628173628173628,6.79054054054054,5.722689075630252,4.310126582278481,11.22905027932961,1.2079326923076923,0.250853889943074,0.12314990512333966,1.2732447817836812,0.0,0.06577114427860696,0.4909228441754917,,,-1.964338781575037,,,4.160753480753481,4.160753480753481,2.5275024875621894,57.08179775280899,78.27858243451463,38.42874432677761,38.42874432677761,7.264454821475571,2.5275024875621894,,22.463512148782815,4.160753480753481
NVDA,2004-03-29,3.1507757877597933,2.396423953644287,0.6417668326788621,39.37053229801228,66.0683488567439,105.43888115475617,52.276914564701826,-12.906382266689548,0.2901228506619783,0.04945678558596118,0.04754559243422045,0.04082350262898771,0.14138197593252802,0.041779463001492226,0.07079534049667756,0.05989336075327443,0.858618024067472,1.0,0.04754559243422045,0.0,0.0,,,7.216736053288926,,1.6945009679552125,9.270893195884677,6.9820494005675995,5.524581835568951,9.592983176252046,1.023416912095772,0.30870473018319206,-0.4842410081777734,3.7535917575998607,0.0,0.0272515078622778,-1.568621925198277,,12.373100871731008,0.3893138146139619,,,1.1251981335350105,1.1251981335350105,0.6488354832427747,15.89367500235155,-15.178392320919848,23.809158983856033,23.809158983856033,0.6176464033031686,0.6488354832427747,,10.705660086536238,1.1251981335350105
NVDA,2004-01-25,3.1526946107784433,2.3982035928143715,0.6407185628742516,39.44322545255074,65.80123266563945,105.24445811819018,52.02234206471495,-12.579116612164206,0.287986834887548,0.02029621503017005,0.025233132199670872,0.026878771256171146,0.0,0.035025017869907075,0.046622264509990484,0.0431924882629108,1.065217391304348,1.0,0.025233132199670872,0.24874910650464618,0.33111322549952427,0.0009505703422053232,,,,1.3311132254995242,9.253807106598984,7.0162162162162165,5.547008547008547,9.594736842105263,1.3030736240171552,0.09631782945736433,-0.150968992248062,1.1705426356589148,0.0,0.027262753702687877,-1.567404426559356,,,-0.3894984326018809,,,3.662568981921979,3.662568981921979,2.111552386176632,78.55836734693878,-49.41412066752247,77.45191146881288,77.45191146881288,9.788968256706209,2.111552386176632,,,3.662568981921979
NVDA,2003-01-26,3.5672823218997363,3.1213720316622693,0.9155672823218998,29.63593504452593,39.70367591897974,69.33961096350566,38.60840210052513,-8.972467055999203,0.30172865374541646,0.07543216343635412,0.07909900471451022,0.047668936616029334,0.3957483443708609,0.05627705627705628,0.09753483386923902,0.12197092084006463,0.6026490066225165,1.0,0.07909900471451022,0.4230055658627087,0.7331189710610932,0.24636510500807754,,,,1.7331189710610932,12.316129032258065,9.453900709219859,9.193103448275862,14.14074074074074,1.1805813234384663,0.5247524752475248,0.3998019801980198,2.0356435643564357,0.0,0.13881613410162388,0.7618867924528302,,,-4.199683042789223,,,2.3328510182207927,2.3328510182207927,1.1401519119958092,23.918131868131866,10.780336800396237,8.213396226415092,8.213396226415092,2.916845349772179,1.1401519119958092,,10.215210712200538,2.3328510182207927
NVDA,2002-01-27,2.8498845265588915,2.1662817551963047,0.76905311778291,39.19284149013879,91.89411764705882,131.0869591371976,91.89411764705882,-52.70127615692003,0.379108838568298,0.17677136596055515,0.1848064280496713,0.12929145361577793,0.0,0.11776447105788423,0.23167539267015708,0.23644859813084113,0.6996047430830039,1.0,0.1848064280496713,0.4916833000665336,0.9672774869109948,0.28598130841121494,,,,1.9672774869109948,9.312925170068027,3.97196261682243,3.97196261682243,11.408333333333333,0.9108449767132402,0.3134502923976608,0.12436647173489279,1.5419103313840157,0.0,0.11745799853907962,0.39676616915422885,,,-1.6577319587628867,,,12.307971204188481,12.307971204188481,6.868728999269539,53.12593220338983,147.38699059561128,58.47817164179104,58.47817164179104,6.581406235290746,6.868728999269539,,,12.307971204188481
NVDA,2001-01-28,3.01294498381877,2.5210355987055015,2.1812297734627832,52.142857142857146,71.1038961038961,123.24675324675326,56.88311688311688,-4.740259740259731,0.37142857142857144,0.17414965986394557,0.19727891156462585,0.13333333333333333,0.0,0.09636184857423795,0.24078624078624078,0.20480225988700565,0.6758620689655173,1.0,0.19727891156462585,0.599803343166175,1.4987714987714988,0.4243281471004243,,,,2.498771498771499,7.0,6.416666666666667,5.133333333333334,15.638297872340425,0.7227138643067846,0.5604602510460251,0.4845188284518828,1.4100418410041842,0.0,0.36448979591836733,0.864501679731243,,,-7.380165289256198,,,9.771400491400492,9.771400491400492,5.410829931972789,40.58122448979592,17.17167530224525,14.844942142590519,14.844942142590519,4.684333568249807,5.410829931972789,,,9.771400491400492
NVDA,2000-01-30,2.276315789473684,1.6973684210526316,0.8157894736842105,65.21333333333332,59.52789699570815,124.74123032904147,101.82403433476394,-36.61070100143061,0.37866666666666665,0.15733333333333333,0.16,0.10933333333333334,0.0,0.20297029702970298,0.328,0.47619047619047616,0.6833333333333333,1.0,0.16,0.38613861386138615,0.624,0.007936507936507936,,,,1.616,5.597014925373134,3.5846153846153848,6.131578947368421,14.423076923076923,1.8564356435643565,0.036720554272517324,0.009930715935334873,0.14318706697459585,0.0,0.0424,0.27044025157232704,,,-1.3706896551724137,,,18.46312,18.46312,6.154373333333333,56.29,536.7186046511628,145.1503144654088,145.1503144654088,5.885914030427433,6.154373333333333,,,18.46312
NVDA,1999-01-31,2.148936170212766,1.5106382978723405,1.0638297872340425,48.5126582278481,96.22727272727273,144.73993095512083,119.45454545454547,-70.94188722669736,0.3037974683544304,0.03164556962025317,0.02531645569620253,0.02531645569620253,0.0,0.035398230088495575,0.0625,0.06060606060606061,1.0,1.0,0.02531645569620253,0.4336283185840708,0.765625,0.030303030303030304,0.09859154929577464,,-0.2714285714285714,1.765625,7.523809523809524,3.0555555555555554,3.793103448275862,13.166666666666666,1.3982300884955752,-0.005775075987841946,-0.029787234042553193,0.1519756838905775,0.0,-0.012025316455696202,5.157894736842105,-0.2714285714285714,-0.38,0.24050632911392406,,,9.3559375,9.3559375,3.789746835443038,149.695,-61.1,-315.14736842105265,-315.14736842105265,11.893179183772036,3.789746835443038,,,9.3559375
