symbol,date,currentRatio,quickRatio,cashRatio,daysOfSalesOutstanding,daysOfInventoryOutstanding,operatingCycle,daysOfPayablesOutstanding,cashConversionCycle,grossProfitMargin,operatingProfitMargin,pretaxProfitMargin,netProfitMargin,effectiveTaxRate,returnOnAssets,returnOnEquity,returnOnCapitalEmployed,netIncomePerEBT,ebtPerEbit,ebitPerRevenue,debtRatio,debtEquityRatio,longTermDebtToCapitalization,totalDebtToCapitalization,interestCoverage,cashFlowToDebtRatio,companyEquityMultiplier,receivablesTurnover,payablesTurnover,inventoryTurnover,fixedAssetTurnover,assetTurnover,operatingCashFlowPerShare,freeCashFlowPerShare,cashPerShare,payoutRatio,operatingCashFlowSalesRatio,freeCashFlowOperatingCashFlowRatio,cashFlowCoverageRatios,shortTermCoverageRatios,capitalExpenditureCoverageRatio,dividendPaidAndCapexCoverageRatio,dividendPayoutRatio,priceBookValueRatio,priceToBookRatio,priceToSalesRatio,priceEarningsRatio,priceToFreeCashFlowsRatio,priceToOperatingCashFlowsRatio,priceCashFlowRatio,priceEarningsToGrowthRatio,priceSalesRatio,dividendYield,enterpriseValueMultiple,priceFairValue
ORLY,2019-12-31,0.8577524590959871,0.05712611482411504,0.009040532488840292,7.728481864751524,265.1242131401339,272.85269500488545,276.686053480605,-268.95757161585345,0.5314974357104961,0.1892343683266527,0.176387354267026,0.13704867544139226,0.22302437149819948,0.12979576678896274,3.5008858911763228,0.286556579802626,0.7769756285018005,1.0,0.176387354267026,0.9629248793523657,25.97226556601399,0.9073338795256476,,,,26.97226556601399,47.22790405509155,1.3191846694419154,1.376713185404442,1.7271948680285036,0.947077863911708,21.96327196996966,13.889314547230935,0.5194374453643236,0.0,0.16832330294084177,0.6323882236773176,,,-2.7202610591076923,,,82.20069824331807,82.20069824331807,3.2178988875353016,23.479970726980206,30.230433515792903,19.117370152047524,19.117370152047524,1.3789942543115457,3.2178988875353016,,17.713795645651764,82.20069824331807
ORLY,2018-12-31,0.9098828460048998,0.057354867206639924,0.008041817967036636,7.349658593343336,259.2194841188472,266.56914271219057,274.07928611428275,-266.7296275209394,0.5284962042391553,0.19034212810079412,0.177643767666468,0.13888711790200692,0.21817061343366664,0.1659594057680262,3.745011550413242,0.41452966879214365,0.7818293865663334,1.0,0.177643767666468,0.9556852085677243,21.565828872922832,0.906208753658717,,,,22.565828872922832,49.66217074771125,1.3317314313486868,1.4080731671877504,2.658606825421341,1.1949229581185519,20.99605007292173,14.867367525522607,0.3805906660184735,0.0,0.18115325780260702,0.7081030705245275,,,-3.425866800986777,,,80.42183862220676,80.42183862220676,2.9825161370693514,21.474390009112962,23.25092181965475,16.464049133023263,16.464049133023263,1.3340356001605258,2.9825161370693514,,16.296961737285358,80.42183862220676
ORLY,2017-12-31,0.9315412821197544,0.07199688761698168,0.012707252302072236,8.791938515387972,258.0610531770527,266.8529916924407,273.51393561211387,-264.7219970967259,0.5258216835755514,0.19218675196814872,0.18242971549811166,0.12629077786512977,0.3077291299813653,0.14973867141405345,1.73617784964612,0.4173260468352937,0.6922708700186347,1.0,0.18242971549811166,0.913753840688283,10.59471920814154,0.820168660551914,,,,11.59471920814154,41.515303975472946,1.334484106570818,1.414393979666423,2.6848824363614394,1.1856659207053462,15.68330316640969,10.477385980201559,0.5178431766887891,0.0,0.1563521764865624,0.6680599022431639,,,-3.012591750010731,,,36.767243869497705,36.767243869497705,2.6744747545202423,21.17711839083298,25.604668999207675,17.105452668579247,17.105452668579247,1.4310404331762663,2.6744747545202423,,14.395190305447228,36.767243869497705
ORLY,2016-12-31,0.9580450672798045,0.101119521597201,0.043108830108605736,8.379402487764596,248.36070747792957,256.74010996569416,262.45277461169394,-254.07337212392935,0.5247248488786812,0.19774083752817379,0.19052399740442794,0.1207586881375467,0.36617596847282935,0.14403994675875384,0.6377407911815607,0.4304387491652513,0.6338240315271706,1.0,0.19052399740442794,0.774140295319848,3.4275272626258655,0.5369765989263422,,,,4.4275272626258655,43.55919178401614,1.3907263908336558,1.4696366575314073,2.751172028452045,1.1927915827860707,15.619447890818858,10.694468569065343,1.515694789081886,0.0,0.1758054372952426,0.6846892824778763,,,-3.1714748165191544,,,15.567230274543737,15.567230274543737,2.947715328677813,24.409964816115778,24.48836034335909,16.766917872554217,16.766917872554217,1.7825254585471342,2.947715328677813,,14.592770895988641,15.567230274543737
ORLY,2015-12-31,0.9880606539263747,0.09105146471340908,0.03817656130288951,7.3799266795654,252.44812016516164,259.82804684472706,250.26197604593654,-242.88204936637115,0.5225070085709544,0.19004430205127007,0.18330937101229447,0.1168889300603991,0.36234067350239596,0.13947282812845418,0.47479189971621066,0.40227298896009844,0.637659326497604,1.0,0.18330937101229447,0.7062442973188487,2.404189232320781,0.41476583042205306,,,,3.404189232320781,49.458485950905775,1.4584716614440976,1.4458416238599932,2.7840356784910028,1.193208185380647,13.25421124179916,9.17575900860965,1.1456646373899166,0.0,0.16888955164978509,0.6922900835979213,,,-3.2498140186464424,,,13.503703435553918,13.503703435553918,3.324474253622026,28.441309642446004,28.43361511077138,19.68430978202704,19.68430978202704,2.179856130745914,3.324474253622026,,16.615799145467975,13.503703435553918
ORLY,2014-12-31,1.089610066469982,0.14022677993815091,0.08907688479721323,7.27865467496293,265.8821852189781,273.16083989394104,251.56192974452557,-244.28327506956265,0.5139756932415016,0.17605077534956556,0.16937126702789596,0.10784218622247474,0.3632793323514973,0.11913473461826977,0.3855529131985731,0.32865440464666024,0.6367206676485027,1.0,0.16937126702789596,0.6910028934033465,2.236276258422513,0.4075378654455794,,,,3.236276258422513,50.14662960389159,1.4509349660764521,1.3727884765930798,2.7142481005040247,1.1047136449227661,11.230188679245282,7.173584905660378,2.3641509433962264,0.0,0.1649644544837239,0.6387768817204301,,,-2.7683720930232556,,,9.839556084026952,9.839556084026952,2.7522013275869237,25.52063736828579,26.118043135192003,16.683602150537638,16.683602150537638,2.0424417612542016,2.7522013275869237,,14.824879977407512,9.839556084026952
ORLY,2013-12-31,1.170119686339249,0.1497317375154767,0.09546017333883615,7.2185375684292845,264.2750442046217,271.49358177305095,228.83436985549662,-221.61583228706732,0.5066774950369969,0.16595981471455212,0.15925224087108222,0.1008091198941226,0.36703182547927093,0.11047929852320675,0.3408940649951686,0.2905713188079688,0.6330153933327037,1.0,0.15925224087108222,0.6759131065400844,2.0855922290596554,0.41520937425648347,,,,3.0855922290596554,50.56425855513308,1.5950401167031365,1.3811368421052632,2.7418250793781698,1.0959256329113924,8.172817281728173,4.609360936093609,2.0819081908190817,0.0,0.13655778138723457,0.5639867841409691,,,-2.293508461732761,,,7.474657478512944,7.474657478512944,2.210404108764964,21.92662837535432,28.70029095879711,16.186584801762113,16.186584801762113,1.8392392016696764,2.210404108764964,,12.769970615465121,7.474657478512944
ORLY,2012-12-31,1.2023846187689735,0.16327159135905672,0.10915570416648335,7.261977936656854,269.336585840249,276.59856377690585,228.25515430497927,-220.99317636832242,0.5010190547054446,0.15809905858755782,0.15229206431367473,0.09473973666332373,0.3778810408921933,0.10187504348431085,0.27780676374330027,0.2708339326295199,0.6220924057355284,1.0,0.15229206431367473,0.6332881096500382,1.7269363942512925,0.34197877652933834,,,,2.7269363942512923,50.26178861788618,1.5990876574568451,1.3551816544392215,2.795351781515645,1.0753148264106311,10.150851581508515,7.712084347120843,2.0121654501216546,0.0,0.2024522014816732,0.759747523170342,,,-4.162287994679082,,,5.365243086847222,5.365243086847222,1.8296952541166573,19.31285982584941,11.895616784099275,9.037665388302973,9.037665388302973,1.7978852314346856,1.8296952541166573,,10.870207183246542,5.365243086847222
ORLY,2011-12-31,1.650379746835443,0.31436708860759494,0.22886075949367088,8.518432144831399,245.5634423174657,254.0818744622971,158.20582754531594,-149.68739540048455,0.49013612493090103,0.14526326699834163,0.14092730790491984,0.0877038419016031,0.377666094631037,0.09230069993636943,0.17845969981370172,0.20808570335416401,0.6223339053689629,1.0,0.14092730790491984,0.4828106535769475,0.9334950261872123,0.21882036355648304,,,,1.9334598755668038,42.84826054774241,2.307121081841632,1.4863775998388478,2.7647339765020535,1.0524134169620945,8.167883211678832,5.771532846715329,2.6394160583941604,0.0,0.19330431177446103,0.7066130473637176,,,-3.4084678647578435,,,3.965675419171148,3.965675419171148,1.94892723880597,22.221686035060074,14.268306563804224,10.082171581769435,10.082171581769435,2.298528401413702,1.94892723880597,,11.935672812468168,3.965675419171148
ORLY,2010-12-31,1.8724979658258747,0.12327095199349064,0.0241659886086249,8.236591014358499,266.010264721772,274.2468557361305,117.749144606519,-109.5125535921605,0.4855951829550718,0.13421028253821213,0.12772579898100972,0.07770264011116257,0.391644908616188,0.08308570070129562,0.13066641742218899,0.18052791452812403,0.608355091383812,1.0,0.12772579898100972,0.36413883275882564,0.5726703430227124,0.10016820857863751,,,,1.5726703430227125,44.314449917898195,3.0998102043094784,1.3721275018532246,2.796487228641003,1.0692777051388724,4.955633802816902,2.382394366197183,0.2091549295774648,0.0,0.13037517369152385,0.48074463549808155,,,-1.9258347016967707,,,2.5000529644515064,2.5000529644515064,1.486691987031033,19.13309489747258,23.719834466449896,11.403183174648287,11.403183174648287,2.051284365524997,1.486691987031033,,9.816666666666666,2.5000529644515064
ORLY,2009-12-31,1.826511360839964,0.11057337380034452,0.0220654581248462,8.125167626003178,277.0553461614759,285.1805137874791,118.48561793294981,-110.36045030694663,0.4799777186358854,0.11091167914835674,0.10251490581997483,0.06343999504858575,0.381163211913866,0.06431036285684409,0.11448676421311292,0.13948461711205928,0.6188367880861341,1.0,0.10251490581997483,0.4382725086269999,0.78022264417886,0.20297338199946585,,10.999203116699132,,1.78022264417886,44.92215013901761,3.0805426546076755,1.317426301484424,2.8076343836886006,1.0137195440761266,2.0681653372008704,-0.939811457577955,0.19506889050036258,0.0,0.05883930597676962,-0.4544179523141655,,,-0.6875602700096431,,,1.9407349491790458,1.9407349491790458,1.075410038992387,16.95160975609756,-40.22083333333333,18.277068723702662,18.277068723702662,1.7649301090655125,1.075410038992387,,8.503439204028533,1.9407349491790458
ORLY,2008-12-31,1.7801613668723304,0.13032747982914095,0.029710488846701473,10.817536207571438,294.101662732218,304.91919893978945,138.05039515549626,-127.23285894792483,0.45515293854498684,0.09067270592182519,0.0845775317340491,0.052060616227702285,0.3844628099173554,0.044404168554599006,0.08158794145999475,0.09634371616026499,0.6155371900826446,1.0,0.0845775317340491,0.45575084062671406,0.8373937428796775,0.2409870959159239,,11.573188461244166,,1.8373937428796776,33.741509433962264,2.643962008141113,1.2410674479332526,2.466790813159528,0.8529320582834522,2.3803827751196174,-0.3444976076555024,0.24960127591706538,0.0,0.08345915114913605,-0.14472361809045226,,,-0.8735733099209834,,,1.5973087371834196,1.5973087371834196,1.0192299949672874,19.577755102040815,-84.38375,12.2123216080402,12.2123216080402,1.8535859467068518,1.0192299949672874,,9.824059523863436,1.5973087371834196
ORLY,2007-12-31,2.083742911153119,0.24914933837429112,0.08998109640831758,12.184514133925385,229.58627576859976,241.77078990252514,99.11940937299379,-86.9348952390684,0.444237402370852,0.1210006739880268,0.12191254014193395,0.07691392776434207,0.36910569105691055,0.08509891652410405,0.1218210361067504,0.1756440281030445,0.6308943089430894,1.0,0.12191254014193395,0.3014870377681274,0.431585557299843,0.04503478052290717,,82.59468170829976,,1.4315227629513343,29.956057007125892,3.6824271079590227,1.5898162848718531,2.3136121812511465,1.1064175110760188,2.5788113695090438,0.1438415159345392,0.4099913867355728,0.0,0.11870118542600008,0.055778223112892454,,,-1.059073222497347,,,2.052983359497645,2.052983359497645,1.296188399476668,16.852453608247423,195.77101796407186,10.919759519038077,10.919759519038077,1.4772284393259623,1.296188399476668,,8.450862932972422,2.052983359497645
ORLY,2006-12-31,2.3068234209313045,0.2556477639465191,0.06892577224527432,12.948931324456902,232.43909126517823,245.38802258963514,91.04269486878184,-78.09376354432493,0.44091625788367206,0.12364225648213034,0.12364225648213034,0.07800455501051157,0.36904002833864685,0.09006321112515803,0.13056227549299904,0.18287231975124701,0.6308891250442792,1.0,0.12364225648213034,0.31018963337547406,0.4496737775822887,0.07474733771959574,,65.31698287829708,,1.4496737775822888,28.187654320987654,4.009108040201005,1.5703038504121047,2.585437662778847,1.1545891276864728,1.6151172893136403,-0.3735881841876629,0.25977410947002605,0.0,0.0814208128941836,-0.23130715438407745,,,-0.8121450415028396,,,2.7625350047650468,2.7625350047650468,1.6504791520672741,21.15875350926446,-87.63660465116278,20.270973641742874,20.270973641742874,1.83872890327828,1.6504791520672741,,10.94922361750431,2.7625350047650468
ORLY,2005-12-31,1.8748198476425777,0.21659460572369776,0.06464896026353717,13.17019508140615,229.64477793199165,242.8149730133978,92.67479181124219,-79.50459672983604,0.43636630323179976,0.12345377206277808,0.12276927590084584,0.08033051386104728,0.3456909597769813,0.09558438536273198,0.14339326234945016,0.20361660720077845,0.654320987654321,1.0,0.12276927590084584,0.333410902321252,0.5001745505323791,0.02177068214804064,,49.60489924930857,,1.5001745505323791,27.71409214092141,3.9385035872907412,1.5894112780918241,2.8470211581291758,1.1898888824248066,1.8227513227513228,0.013227513227513227,0.2768959435626102,0.0,0.10106096905099496,0.00725689404934688,,,-1.0073099415204678,,,3.222468144527841,3.222468144527841,1.805262797633599,22.472939744370056,2461.5360000000005,17.86310595065312,17.86310595065312,1.9240893772544119,1.805262797633599,,11.763930241092657,3.222468144527841
ORLY,2004-12-31,2.43708807669263,0.38915518274415817,0.2067106051527861,12.914536369974435,233.3447500255598,246.25928639553422,89.74798077906145,-76.83344440908701,0.4317917731815013,0.11067859632814316,0.1090518243086219,0.08110620497327446,0.0,0.09745881038815973,0.1472884574804811,0.17085381394502094,0.743740010655301,1.0,0.1090518243086219,0.33824350740016756,0.5111837940493775,0.09569697547943898,,,,1.5112893015404094,28.26272577996716,4.066943866943867,1.564209179593795,3.0329515418502204,1.201619659313041,2.033213644524237,0.4757630161579892,0.6193895870736086,0.0,0.13159423657913083,0.23399558498896247,,,-1.3054755043227666,,,2.653948090314412,2.653948090314412,1.4614292354171508,18.018710601719196,47.46060377358491,11.105571743929358,11.105571743929358,1.5155183561873529,1.4614292354171508,,,2.653948090314412
ORLY,2003-12-31,3.0510915002322343,0.34045517882025084,0.09800278680910357,12.60285752083609,218.87464224384658,231.47749976468268,61.00744132799084,-48.40458380715475,0.4222119327953433,0.10933985976981082,0.10583410504034925,0.0662124619658685,0.0,0.08651685393258426,0.1276297335203366,0.1699054900711479,0.625625,1.0,0.10583410504034925,0.32212618841832324,0.47520081601428027,0.1336573511543135,,,,1.4752008160142802,28.961685823754788,5.982876712328767,1.6676212294768995,3.3662881318191937,1.3066551426101989,1.547204399633364,0.29605866177818513,0.1934005499541705,0.0,0.11165498081756846,0.19135071090047392,,,-1.2366300366300367,,,2.676378936631391,2.676378936631391,1.388466728403228,20.969870129870127,64.98712074303405,12.4353317535545,12.4353317535545,1.7273199594777684,1.388466728403228,,,2.676378936631391
ORLY,2002-12-31,4.280868385345998,0.5101763907734057,0.19877883310719133,12.62552380952381,242.38769595573706,255.01321976526086,41.0631010407061,-28.437577231182292,0.42163809523809526,0.10537142857142857,0.0998095238095238,0.06247619047619048,0.0,0.08123637804636417,0.12605687932359724,0.1519721577726218,0.6259541984732825,1.0,0.0998095238095238,0.3555577570834159,0.5517294388931591,0.22651605231866825,,,,1.551729438893159,28.909691629955947,8.888758782201405,1.5058520134893871,3.7118212669683257,1.3002773925104023,0.972998137802607,0.020484171322160148,0.2774674115456238,0.0,0.07961904761904762,0.021052631578947368,,,-1.021505376344086,,,2.0126149116064567,2.0126149116064567,0.9974902857142858,15.965926829268293,595.0936363636364,12.528287081339712,12.528287081339712,1.2946450523586979,0.9974902857142858,,,2.0126149116064567
ORLY,2001-12-31,4.54748142031379,0.47068538398018167,0.12386457473162675,13.870066843695632,261.80842543648885,275.67849228018446,36.19013294890277,-22.32006610520714,0.4283490522845893,0.10420291182126179,0.09770167567072613,0.06080029301346031,0.0,0.07748862177616991,0.11936005752291928,0.14501223158466975,0.6223055295220243,1.0,0.09770167567072613,0.35079939316139575,0.5403559230630954,0.22939465299903034,0.2346952813316825,,0.29308323563892147,1.5403559230630954,26.31566265060241,10.08562197092084,1.394149173738276,3.778892733564014,1.274477768701132,0.4734848484848485,-0.17518939393939395,0.14678030303030304,0.0,0.045783353172786374,-0.37,0.29308323563892147,10.0,-0.7299270072992701,,,3.0353118820780156,3.0353118820780156,1.546144125995788,25.42987951807229,-91.27264864864866,33.77088,33.77088,2.0274984028596985,1.546144125995788,,,3.0353118820780156
ORLY,2000-12-31,2.937867887508175,0.27730542838456507,0.060170045781556575,13.404649595687331,267.5132952531022,280.91794484878955,49.53417372464054,-36.12952412895321,0.42980682839173406,0.10107816711590296,0.09344115004492363,0.05806379155435759,0.0,0.07220670391061453,0.11149450075479836,0.14775350736991652,0.6213942307692307,1.0,0.09344115004492363,0.35237430167597766,0.5441017899503989,0.16329844821364128,0.21300067888662594,,0.046215139442231074,1.544101789950399,27.229357798165136,7.368650217706821,1.3644181671593658,3.606318347509113,1.2435754189944135,0.05603864734299517,-0.736231884057971,0.09371980676328502,0.0,0.00651392632524708,-13.137931034482758,0.046215139442231074,0.1657142857142857,-0.07073170731707316,,,2.455251240025879,2.455251240025879,1.2786388140161726,22.02127659574468,-14.940944881889763,196.29310344827584,196.29310344827584,1.7208187982664793,1.2786388140161726,,,2.455251240025879
ORLY,1999-12-31,3.168695652173913,0.32,0.08521739130434783,12.82654820315608,250.17140858208953,262.9979567852456,55.243703358208954,-42.417155155052875,0.4313751491844583,0.10197586526985811,0.09680413738231004,0.06046943376210052,0.0,0.07470511140235911,0.11315136476426799,0.14735567218409365,0.6246575342465753,1.0,0.09680413738231004,0.33977719528178246,0.5146401985111663,0.1837148065626899,0.19189893723681573,,0.33019853709508884,1.5146401985111662,28.456603773584906,6.6070878274268106,1.4589996597482138,3.1885835095137423,1.2354193971166447,0.317907444668008,-0.5472837022132797,0.10362173038229376,0.0,0.041904256729876674,-1.7215189873417722,0.33019853709508884,6.32,-0.3674418604651163,,,1.6032258064516127,1.6032258064516127,0.8567829200371304,14.168859649122806,-11.876838235294118,20.44620253164557,20.44620253164557,1.0633435051629854,0.8567829200371304,,,1.6032258064516127
ORLY,1998-12-31,3.033170731707317,0.29073170731707315,0.016585365853658537,16.34593542106117,250.53013392857142,266.8760693496326,67.92829241071428,-51.58235698965311,0.41846503326302126,0.09232516631510627,0.08096706149602466,0.04997566120395911,0.0,0.06243665112507602,0.14102564102564102,0.12768679631525076,0.6172344689378757,1.0,0.08096706149602466,0.5572673829312791,1.2586996336996337,0.4379825012866701,0.4451219512195122,,-0.10901826484018265,2.2586996336996337,22.329710144927535,5.373313343328336,1.4569105691056912,3.604093567251462,1.2493411717007905,-0.22106481481481483,-0.8888888888888888,0.02546296296296296,0.0,-0.03099140029206555,4.020942408376963,-0.10901826484018265,-3.82,0.3310225303292894,,,4.921318681318681,4.921318681318681,1.7439818270322893,34.89662337662338,-13.995,-56.2730890052356,-56.2730890052356,2.2764045700261764,1.7439818270322893,,,4.921318681318681
ORLY,1997-12-31,3.3193069306930694,0.3910891089108911,0.05693069306930693,14.420037926675095,224.46094609460945,238.88098402128455,59.62871287128713,-45.208674944612035,0.4254108723135272,0.1172566371681416,0.11883691529709228,0.07300884955752213,0.0,0.09329563812600969,0.12692307692307692,0.18146718146718147,0.6143617021276596,1.0,0.11883691529709228,0.2649434571890145,0.36043956043956044,0.1104594330400782,,,,1.3604395604395605,25.312,6.121212121212121,1.6261180679785332,2.918819188191882,1.2778675282714056,0.21034077555816685,-0.22679200940070504,0.038777908343125736,0.0,0.05657395701643489,-1.0782122905027933,,,-0.48118279569892475,,,2.964472527472527,2.964472527472527,1.7052275600505689,23.356450216450213,-27.955129533678758,30.141564245810056,30.141564245810056,1.5006820855319178,1.7052275600505689,,,2.964472527472527
ORLY,1996-12-31,3.8988326848249026,0.5252918287937743,0.04669260700389105,15.912422839506172,203.0736074270557,218.98603026656187,41.87334217506631,-25.960919335560142,0.4185956790123457,0.11149691358024691,0.11574074074074074,0.07330246913580248,0.0,0.10348583877995643,0.12195121951219512,0.18999366687777075,0.6333333333333333,1.0,0.11574074074074074,0.1514161220043573,0.17843388960205392,0.001282051282051282,0.02012578616352201,,1.53125,1.1784338896020539,22.938053097345133,8.716763005780347,1.7973778307508939,3.2481203007518795,1.411764705882353,0.05826397146254459,-0.351961950059453,0.026159334126040427,0.0,0.01890432098765432,-6.040816326530612,1.53125,1.6333333333333333,-0.14202898550724638,,,2.175372272143774,2.175372272143774,1.3075733024691358,17.838052631578947,-11.450101351351352,69.16795918367347,69.16795918367347,1.1326500194534106,1.3075733024691358,,,2.175372272143774
ORLY,1995-12-31,5.417582417582418,1.9615384615384615,0.15384615384615385,17.208436724565757,184.375,201.58343672456576,40.625,-23.416563275434243,0.42034739454094294,0.10918114143920596,0.11066997518610422,0.06997518610421836,0.0,0.091796875,0.1053024645257655,0.16469719350073855,0.6322869955156951,1.0,0.11066997518610422,0.12825520833333334,0.14712471994025392,0.0029784065524944155,,,,1.147124719940254,21.210526315789473,8.984615384615385,1.9796610169491526,3.875,1.3118489583333333,0.012569832402234637,-0.38687150837988826,0.3659217877094972,0.0,0.004466501240694789,-30.77777777777778,,,-0.03146853146853147,,,2.0212696041822253,2.0212696041822253,1.3431662531017368,19.194893617021275,-9.770685920577618,300.71999999999997,300.71999999999997,1.0376503378128463,1.3431662531017368,,,2.0212696041822253
ORLY,1994-12-31,3.6202531645569622,0.8291139240506329,0.21518987341772153,16.600837821663674,158.61451942740288,175.21535724906656,38.44069529652352,-21.839857474859848,0.414721723518851,0.10293237582286056,0.1047277079593058,0.06642728904847396,0.0,0.12714776632302405,0.1581196581196581,0.24475524475524477,0.6342857142857142,1.0,0.1047277079593058,0.1958762886597938,0.24358974358974358,0.007072135785007072,,,,1.2435897435897436,21.986842105263158,9.495145631067961,2.3011764705882354,6.076363636363636,1.9140893470790379,0.1206896551724138,-0.07614942528735633,0.07902298850574713,0.0,0.05026929982046679,-0.6309523809523809,,,-0.6131386861313869,,,3.033846153846154,3.033846153846154,1.2745421903052063,19.187027027027025,-40.184150943396226,25.354285714285712,25.354285714285712,1.0082523128434486,1.2745421903052063,,,3.033846153846154
ORLY,1993-12-31,3.942857142857143,1.3285714285714285,0.22857142857142856,17.558309037900873,154.71376370280146,172.27207274070233,46.680876979293544,-29.12256794139267,0.40160349854227406,0.09183673469387756,0.09329446064139942,0.060495626822157436,0.0,0.11354309165526676,0.14359861591695502,0.21658206429780033,0.6484375,1.0,0.09329446064139942,0.20930232558139536,0.2647058823529412,0.011965811965811967,,,,1.2647058823529411,20.78787878787879,7.819047619047619,2.3591954022988504,8.070588235294117,1.8768809849521204,-0.02723146747352496,-0.15582450832072617,0.1815431164901664,0.0,-0.013119533527696793,5.722222222222222,,,0.21176470588235294,,,4.608702422145329,4.608702422145329,1.9415670553935862,32.09433734939759,-25.86242718446602,-147.99055555555557,-147.99055555555557,1.6017036775711506,1.9415670553935862,,,4.608702422145329
