symbol,date,currentRatio,quickRatio,cashRatio,daysOfSalesOutstanding,daysOfInventoryOutstanding,operatingCycle,daysOfPayablesOutstanding,cashConversionCycle,grossProfitMargin,operatingProfitMargin,pretaxProfitMargin,netProfitMargin,effectiveTaxRate,returnOnAssets,returnOnEquity,returnOnCapitalEmployed,netIncomePerEBT,ebtPerEbit,ebitPerRevenue,debtRatio,debtEquityRatio,longTermDebtToCapitalization,totalDebtToCapitalization,interestCoverage,cashFlowToDebtRatio,companyEquityMultiplier,receivablesTurnover,payablesTurnover,inventoryTurnover,fixedAssetTurnover,assetTurnover,operatingCashFlowPerShare,freeCashFlowPerShare,cashPerShare,payoutRatio,operatingCashFlowSalesRatio,freeCashFlowOperatingCashFlowRatio,cashFlowCoverageRatios,shortTermCoverageRatios,capitalExpenditureCoverageRatio,dividendPaidAndCapexCoverageRatio,dividendPayoutRatio,priceBookValueRatio,priceToBookRatio,priceToSalesRatio,priceEarningsRatio,priceToFreeCashFlowsRatio,priceToOperatingCashFlowsRatio,priceCashFlowRatio,priceEarningsToGrowthRatio,priceSalesRatio,dividendYield,enterpriseValueMultiple,priceFairValue
PCAR,2019-12-31,4.387839037166915,1.4380371019763187,0.9037599844145724,18.62234713688051,20.477545718580792,39.099892855461306,19.81165258257075,-1.1893054456902412,0.1970569967616808,0.12523584260753057,0.12106391871779748,0.09327843685668191,0.2295108415074858,0.08419631114449017,0.2460205437817455,0.13053990076406616,0.7704891584925142,1.0,0.12106391871779748,0.6577671528960443,1.921987203923306,0.5362434481803022,,,,2.921987203923306,19.600107189342317,18.423500941113204,17.824401664932363,3.89651288451879,0.9026342419722789,8.231079136690648,2.5597122302158275,15.35884892086331,0.4768206373801248,0.11173177810677469,0.3109813655910219,,,-1.4513395575400851,-3.437034366738765,0.4768206373801248,2.7231174210032867,2.7231174210032867,1.0324671773497345,11.06865865404749,29.71427768409219,9.240586651749817,9.240586651749817,1.7522476799605953,1.0324671773497345,0.0430784481013664,8.016030168801628,2.7231174210032867
PCAR,2018-12-31,4.277178520960905,1.3590909090909091,0.8092086669806877,20.41888515770971,22.848541370546307,43.26742652825602,25.166760896788954,-4.7478757390792445,0.19452069953225484,0.12243942508629238,0.11960486386870789,0.09342560553633218,0.21888121841861788,0.08614180767902552,0.25545508501204484,0.13232939669623853,0.7811187815813821,1.0,0.11960486386870789,0.6627907889366779,1.9655180439665305,0.5366060161566919,,,,2.9655180439665303,17.875608642726718,14.503256954555905,15.974761543006668,3.8375990200081667,0.9220363858977176,8.505685048322912,2.956225127913587,12.667140420693576,0.36640699740330734,0.1273552181888601,0.34755873408414933,,,-1.5327050145981662,-2.6065331010452963,0.36640699740330734,2.650915290530554,2.650915290530554,0.9694986742254966,10.377226550043279,21.902932692307694,7.612555559268789,7.612555559268789,1.6631170790876157,0.9694986742254966,0.035308759583915925,7.580583805605155,2.650915290530554
PCAR,2017-12-31,4.595291804037249,1.405431199028284,0.683874139626352,21.15928434859481,21.731373529826723,42.890657878421536,27.02845434606949,-5.869169997474682,0.19854649369873154,0.11790464834193376,0.11170103410702904,0.08610020353199975,0.2291906317581558,0.07146696700540098,0.20808645425749953,0.10876070942429338,0.7708093682418442,1.0,0.11170103410702904,0.6565515652596821,1.9116452394261225,0.5244803572377864,,,,2.9116452394261225,17.250110825427786,13.504286827747467,16.795993106419647,2.945083555340276,0.8300441122516019,7.695664494190989,2.4630206857466703,10.574667044488523,0.3332736389684814,0.1395838901338377,0.32005302305029826,,,-1.47070291346258,-2.1080493673833733,0.3332736389684814,3.320122476864791,3.320122476864791,1.3737714068378528,15.95549546322827,30.750858260469396,9.841905147654465,9.841905147654465,2.5651197435074744,1.3737714068378528,0.02088770228016788,10.132695074372105,3.320122476864791
PCAR,2016-12-31,5.194014017806403,1.484675127865126,0.725781397992044,18.476184325628637,19.65237140553217,38.1285557311608,25.344484475449978,-6.868300149821341,0.20640055422153597,0.0729999001931556,0.06636568053590404,0.03062895924945253,0.5384819532908705,0.02527750994481295,0.07697415014164306,0.06280209340311343,0.4615180467091295,1.0,0.06636568053590404,0.6716104055933213,2.045163479697828,0.5556487989090527,,,,3.045163479697828,19.755161215495246,14.401555508203707,18.57282220390217,2.8880090881345586,0.8252813861203844,6.540079590676521,0.9548038658328596,8.688459351904491,1.589610887483228,0.1350797574106582,0.14599269819193325,,,-1.1709501755814544,-2.02606551602677,1.589610887483228,3.5099026203966006,3.5099026203966006,1.3966333390086245,45.59845888441633,70.82082762727002,10.33932371349096,10.33932371349096,7.3078847594814205,1.3966333390086245,0.034861066061741205,14.291601601130209,3.5099026203966006
PCAR,2015-12-31,5.028515678488293,1.4868889497466795,0.6902642749554977,16.784374656685028,19.010416666666668,35.794791323351696,22.189559792843692,-5.405185136158664,0.1999623334431941,0.12778379396393427,0.12226459709862883,0.08391271821753483,0.3136793461982799,0.07598366635401567,0.23111059881274854,0.1284925722705431,0.68632065380172,1.0,0.12226459709862883,0.6712237917933851,2.041582617716558,0.5531519002826442,,,,3.041582617716558,21.74641638225256,16.44917715392062,19.2,3.4445345442750566,0.9055083420970355,7.18785151856018,2.3363329583802024,9.742688413948256,0.42425187032418954,0.13371627666085975,0.32503912363067294,,,-1.4815673545096222,-2.446635397721834,0.42425187032418954,2.514162296121261,2.514162296121261,0.9128538171393297,10.878610972568579,21.00299951853635,6.826796557120501,6.826796557120501,1.7623042512165217,0.9128538171393297,0.038998716968000766,7.405336292460391,2.514162296121261
PCAR,2014-12-31,4.715415019762846,1.3362977602108037,0.572463768115942,20.1165973574775,21.8241105443275,41.940707901805,0.0,20.1165973574775,0.18476601568668738,0.1123335263462652,0.10622729904721798,0.0715376112017687,0.32646184340931617,0.06591008293321693,0.20124389160373168,0.11476994824546437,0.6734390485629336,1.0,0.10622729904721798,0.6724865415393569,2.053309640159929,0.5493192738921516,,,,3.053309640159929,18.14422158548233,,16.72462203023758,3.420417716960749,0.9213346913041369,5.965168539325843,1.6469101123595506,8.455056179775282,0.4590139808682855,0.11178607148497131,0.2760877754756075,,,-1.3813829441228127,-2.324685276409414,0.4590139808682855,3.168837553679846,3.168837553679846,1.126449439385166,15.74625459896983,36.49865256694525,10.076831795064983,10.076831795064983,2.553718116365204,1.126449439385166,0.029150676942459427,9.501672628172372,3.168837553679846
PCAR,2013-12-31,4.632294429708223,1.3388594164456233,0.580238726790451,21.741415557112827,21.371745072651418,43.113160629764245,0.0,21.741415557112827,0.18815697266993692,0.10663396402709648,0.09898388227049755,0.06838355524410185,0.3089675516224189,0.056499083277043324,0.1765149231233042,0.09570863918690006,0.6908554572271386,1.0,0.09898388227049755,0.6798706938145325,2.124057883629786,0.555004024684733,,,,3.12420862224902,16.788235294117648,,17.078624078624077,2.93118794933242,0.8262086268455081,6.692112676056338,1.4166197183098592,8.501408450704226,0.24175918018787362,0.13873510861948143,0.21168497705939301,,,-1.268528406663819,-1.4944329118701642,0.2417591801878736,3.0742764546276757,3.0742764546276757,1.1910038542396637,17.416524338172504,40.55428514615232,8.584732920823336,8.584732920823336,2.8166671860285355,1.1910038542396637,0.01388102330256561,10.744292328570289,3.0742764546276757
PCAR,2012-12-31,2.1155437841416984,0.5573580533024334,0.21056116536997185,19.30854495337517,20.521245236896974,39.82979019027214,0.0,19.30854495337517,0.18427071725998476,0.10286786698727347,0.09553691865579732,0.06521611635681192,0.31755678330263964,0.05969508267124758,0.19018299982897213,0.1294192420751569,0.6826273787599755,1.0,0.09553691865579732,0.6861176723212369,2.1859073028903713,0.4247343565525384,0.5740511400888759,10.284090909090908,0.19276649746192892,3.1859073028903713,18.903547671840354,,17.786445012787723,3.2777777777777777,0.9153424951685635,4.26685393258427,-0.798876404494382,6.924157303370786,0.7279676258992805,0.0890856841240983,-0.18722843976300196,0.19276649746192892,0.4263261296660118,-0.8422978817788621,-1.5283227688902303,0.7279676258992805,2.9316572601334014,2.9316572601334014,1.0053017418333237,15.414928057553956,-60.27215189873418,11.284660961158657,11.284660961158657,2.499983776816185,1.0053017418333237,0.04722484744536619,9.543277344691795,2.9316572601334014
PCAR,2011-12-31,1.7698884219678308,0.5789016084625417,0.30531806984495,21.826352797309692,19.163647119721954,40.989999917031646,0.0,21.826352797309692,0.17315805564047693,0.09043106083766432,0.09214307551207582,0.06371140324059921,0.30829462508294625,0.060676643568392245,0.19425801640566742,0.1467095015576324,0.6914399469143995,1.0,0.09214307551207582,0.6875909858498807,2.2013422818791946,0.3385943279901356,0.5537437603993345,8.31218974076117,0.23927283653846154,3.2015287099179717,16.722903885480573,,19.046478873239437,3.7485674994269997,0.9523670878704944,4.375274725274726,-0.15027472527472527,8.288461538461538,0.20863723608445298,0.09737694894527667,-0.03434635187743313,0.23927283653846154,0.4073145780051151,-0.9667941479997572,-1.113784180711938,0.20863723608445298,2.998046234153617,2.998046234153617,0.9832785081014981,15.433320537428022,-293.9948811700183,10.097651638829586,10.097651638829586,2.5592130999151745,0.9832785081014981,0.0135186226177625,8.735453275183131,2.998046234153617
PCAR,2010-12-31,2.282658693652254,0.7134314627414904,0.46941122355105797,21.631205673758867,23.170470756062766,44.80167642982163,0.0,21.631205673758867,0.18274555523171088,0.06305255999222772,0.06412124744972311,0.04449625959389877,0.30712121212121213,0.032176478853449486,0.0854796565882792,0.06676107626947198,0.693939393939394,1.0,0.06412124744972311,0.6235773500070254,1.65658827920866,0.3496783590241534,0.49505230421260954,3.0985915492957745,0.2953359984770607,2.65658827920866,16.873770491803278,,15.752808988764045,2.787164906580016,0.7231277223549248,4.238797814207651,1.8240437158469944,6.808743169398907,0.5495633187772926,0.15072379286894005,0.4303210003867475,0.2953359984770607,0.6540472175379427,-1.7553745191219734,-2.454358487581079,0.5495633187772926,3.744703247480403,3.744703247480403,1.94929758088021,43.80812227074236,30.054104254044336,12.932912208327961,12.932912208327961,7.304347296748078,1.94929758088021,0.01254478143073307,15.54954906807402,3.744703247480403
PCAR,2009-12-31,2.1289228159457165,0.5697625106022053,0.40542832909245125,25.04946209966613,34.048708487084866,59.098170586750996,0.0,25.04946209966613,0.16211203165574378,0.024236428836404107,0.02163966860393224,0.013849387906516632,0.0,0.007687555769098771,0.0219435736677116,0.017761087993504517,0.64,1.0,0.02163966860393224,0.6496671013796417,1.8544278996865204,0.37496938525593926,0.5433479466762101,-4.069767441860465,0.22613205993742796,2.85442789968652,14.571171171171171,,10.719936708860759,2.142251655629139,0.5550827098634086,3.7624657534246575,1.1021917808219177,5.841095890410959,2.0723214285714286,0.16981575367874366,0.2929440034952305,0.22613205993742796,0.45609432082364665,-1.4143151390319257,-1.858573555284883,2.072321428571428,2.576596786833856,2.576596786833856,1.626183999010758,117.41919642857142,32.689410887397464,9.576166897254788,9.576166897254788,19.52439829457818,1.626183999010758,0.0176489150973884,24.021021229360343,2.576596786833856
PCAR,2008-12-31,2.075698620445702,0.5003537318712415,0.3457729041386629,17.039671408535362,19.79803808424697,36.83770949278233,0.0,17.039671408535362,0.1898083216456288,0.09203232485139919,0.09777599679422962,0.06798904695117879,0.0,0.06264615384615385,0.21002682071384363,0.13816534541336353,0.6953551912568307,1.0,0.09777599679422962,0.7017230769230769,2.3525892304518257,0.44643672910004567,0.6069575089198832,,0.17433533734134937,3.3525892304518257,21.4206008583691,,18.43617021276596,4.000267165375368,0.9214153846153846,3.5653005464480874,-0.669672131147541,5.819672131147541,0.6180746561886051,0.08715020369999332,-0.18783048509464326,0.17433533734134937,0.3649049217002237,-0.8418709677419355,-1.4171372719374458,0.6180746561886051,1.992725397152878,1.992725397152878,0.6450771388499299,9.48795677799607,-39.40734394124847,7.401900528776152,7.401900528776152,1.5819744798626767,0.6450771388499299,0.06514307249185712,9.109235936188076,1.992725397152878
PCAR,2007-12-31,1.885288213363923,0.471608832807571,0.2664181244622885,15.633950860596505,18.622146396945322,34.256097257541825,0.0,15.633950860596505,0.19136775719353566,0.1083957430035475,0.11588490342924715,0.08060701616081986,0.0,0.0708838821490468,0.24476361460203472,0.1706656346749226,0.6955782312925171,1.0,0.11588490342924715,0.7103986135181976,2.453022142429683,0.4276743920538874,0.6110636977267437,98.0,0.26097003555104115,3.453022142429683,23.346625766871167,,19.60031847133758,4.410895392639815,0.8793760831889081,5.510455764075067,2.1126005361930296,7.06970509383378,0.6004074979625101,0.13502824858757062,0.38338036391943175,0.26097003555104115,0.49767554479418885,-1.6217453053495345,-3.8729979272658754,0.6004074979625101,3.403355276281668,3.403355276281668,1.1208132965444753,13.904661776691116,21.651040609137056,8.30058382796536,8.30058382796536,2.362734655690304,1.1208132965444753,0.043180302232809054,13.028689172406006,3.403355276281668
PCAR,2006-12-31,1.7753713730390115,0.4636956823545745,0.25725392197695407,14.751732101616629,18.612049963262308,33.36378206487893,0.0,14.751732101616629,0.17284550869089582,0.1272638872006807,0.1321867023216239,0.09092014099914915,0.0,0.0928788725398895,0.3357271095152603,0.2442722371967655,0.6878160919540229,1.0,0.1321867023216239,0.7233500962314522,2.6146768402154397,0.40689471582590175,0.6203135650988412,,0.25449175824175824,3.6146768402154397,24.742857142857144,,19.610951008645532,5.878528045730618,1.0215434283230893,4.914323607427056,2.383023872679045,7.095490716180372,0.35454545454545455,0.11259876017989547,0.4849139094294813,0.25449175824175824,0.4387165522140658,-1.9414230325893325,-4.3706062750648735,0.35454545454545455,3.7150067324955116,3.7150067324955116,1.006081803816701,11.065554812834224,18.42616874443455,8.935105521671074,8.935105521671074,1.900466568465447,1.006081803816701,0.032040458932455884,11.385615870713767,3.7150067324955116
PCAR,2005-12-31,1.8319256756756757,0.4851351351351351,0.28699324324324327,15.112043821583551,15.530582482628462,30.642626304212015,0.0,15.112043821583551,0.17080458134737142,0.1221455502596571,0.12620046951696665,0.08060041260581917,0.0,0.08261028071454611,0.29043834914124583,0.22758178319435535,0.6386696730552424,1.0,0.12620046951696665,0.7155668975574189,2.5157651884132273,0.4070527435780514,0.6155892786756011,-161.27272727272728,0.15796382263486475,3.5157651884132273,24.152920962199314,,23.50201612903226,5.981702127659575,1.0249362012395187,2.5367609254498715,0.35552699228791773,5.886889460154242,0.4385701676963813,0.07019990040549193,0.1401499797324686,0.15796382263486475,0.2764920145699075,-1.1629935179728934,-2.806598407281001,0.4385701676963813,3.29867213534991,3.29867213534991,0.9154243437433307,11.35756398940865,93.04497469269704,13.040251317389542,13.040251317389542,2.012706661145262,0.9154243437433307,0.03861480931169433,11.672220360565646,3.29867213534991
PCAR,2004-12-31,1.9731305977921267,0.5746719433451364,0.3363882524474068,17.263513513513512,18.9273392577104,36.190852771223916,0.0,17.263513513513512,0.16075816075816077,0.11477711477711477,0.12004212004212005,0.07958932958932959,0.0,0.07417402682368335,0.24109516214779372,0.1841928100175037,0.6630116959064327,1.0,0.12004212004212005,0.6923454367026497,2.2503987240829346,0.380842659644503,0.5614362322219631,-40.23529411764706,0.18500830564784054,3.2503987240829346,21.142857142857142,,19.284274193548388,5.119496855345912,0.9319594373568858,2.2556962025316456,0.6518987341772152,5.620253164556962,0.2986769570011025,0.07818532818532818,0.2890011223344557,0.18500830564784054,0.35611510791366907,-1.4064719810576165,-2.457253171538886,0.2986769570011026,3.24546783625731,3.24546783625731,1.0713803088803089,13.461356119073871,47.41533980582524,13.703086419753086,13.703086419753086,2.4223204715202855,1.0713803088803089,0.02218773163410309,15.487889447236181,3.24546783625731
PCAR,2003-12-31,1.9674586776859504,0.5689566115702479,0.34788223140495866,21.334350213544845,17.515398939979946,38.84974915352479,0.0,21.334350213544845,0.14813910921293472,0.09322757779133618,0.09835265405735204,0.06430750457596095,0.0,0.05301810865191147,0.16235366605052373,0.13282794990112062,0.6538461538461539,1.0,0.09835265405735204,0.6733400402414487,2.0619223659889094,0.32417239225484074,0.5406170393433343,-268.6666666666667,0.2037434554973822,3.062230437461491,17.108559498956158,,20.838805970149252,4.408284023668639,0.8244466800804829,1.9654040404040405,1.0328282828282829,4.353535353535354,0.32618595825426944,0.0949725442342892,0.5255043042528588,0.2037434554973822,0.34392399469730445,-2.107500676956404,-3.942755825734549,0.32618595825426944,2.8437338262476892,2.8437338262476892,1.1263892617449665,17.51567362428842,22.569095354523228,11.860156751895156,11.860156751895156,3.1598591204128357,1.1263892617449665,0.018622518622518625,18.284268083112014,2.8437338262476892
PCAR,2002-12-31,2.0023571007660577,0.5047142015321155,0.22775486152033,20.4772129103754,18.35327405012126,38.83048696049666,0.0,20.4772129103754,0.14323313478321098,0.07563374428591217,0.07951239783903588,0.051530682920072034,0.0,0.04274388142019993,0.14302191464821223,0.10811828969674138,0.6480836236933798,1.0,0.07951239783903588,0.7011375387797312,2.3460207612456747,0.3737057548759933,0.5779652766509816,-57.4,0.16510387422796183,3.3460207612456747,17.82469135802469,,19.887459807073956,4.5776791376030435,0.8294840859473744,1.4964376590330788,0.6307888040712468,3.3282442748091605,0.33064516129032256,0.08146557694971603,0.4215269511987757,0.16510387422796183,0.29258706467661694,-1.7286890064667841,-2.707642725598527,0.3306451612903226,1.9068281430219147,1.9068281430219147,0.6870286743316248,13.33241935483871,20.006696248487295,8.433361673184832,8.433361673184832,2.3869713482081054,0.6870286743316248,0.02480008710274495,16.143041666666665,1.9068281430219147
PCAR,2001-12-31,2.004126984126984,0.36412698412698413,0.20793650793650795,5.085231929191936,18.270451998505788,23.355683927697726,0.0,5.085231929191936,0.12227503687920013,0.036059662350434354,0.041796426815276184,0.02851991476807081,0.0,0.021986353297952996,0.07723035952063914,0.0535264483627204,0.6823529411764706,1.0,0.041796426815276184,0.7153146322971948,2.5126498002663116,0.40710526315789475,0.6061188811188811,,0.1804730314392847,3.5126498002663116,71.7764705882353,,19.97761194029851,4.472873900293255,0.7709123073035128,1.6084832904884319,0.8133676092544987,2.730077120822622,0.967816091954023,0.10255695787575807,0.505673645517021,0.1804730314392847,0.32588541666666665,-2.02295505981248,-4.440738112136267,0.967816091954023,2.223843763870395,2.223843763870395,0.8212293066710377,28.794942528735636,15.835398230088495,8.007543551222632,8.007543551222632,5.102834788245712,0.8212293066710377,0.033610627664500466,27.787992895204262,2.223843763870395
PCAR,2000-12-31,1.867914144193726,0.30242157402311504,0.14777105118326914,7.679853849061358,16.244858989424205,23.92471283848556,0.0,7.679853849061358,0.14211918861030617,0.0793750787451178,0.0837848053420688,0.055688547310066776,0.0,0.05343972917422319,0.19653179190751446,0.14341168859176193,0.6646616541353384,1.0,0.0837848053420688,0.7280860839076291,2.6776345042240997,0.4239241803278688,0.6359663321463257,,0.16986510562484092,3.6776345042240997,47.52694610778443,,22.46864686468647,6.20078125,0.9596179422077137,1.7112820512820512,0.767948717948718,2.3897435897435897,0.4920814479638009,0.08408718659443115,0.4487563679952053,0.16986510562484092,0.29349164467897976,-1.8140799130198424,-4.4375,0.49208144796380093,1.770520231213873,1.770520231213873,0.5016882953256898,9.008823529411766,13.295158597662773,5.966287084207373,5.966287084207373,1.6005836528953528,0.5016882953256898,0.05462216529797333,13.635170118343195,1.770520231213873
PCAR,1999-12-31,1.748006379585327,0.3463583200425306,0.14035087719298245,9.87251967631083,18.731671554252202,28.604191230563032,0.0,9.87251967631083,0.16838487972508592,0.09444629198536747,0.10231681631748143,0.06473783394302184,0.0,0.07361653851002142,0.2766461392704879,0.221289858547111,0.6327193932827736,1.0,0.10231681631748143,0.7338963822009328,2.7579346281383232,0.4113218070273285,0.6295841375679944,,0.2662486064659978,3.7579346281383232,36.971311475409834,,19.485714285714284,7.239967897271268,1.137148619689903,2.394235588972431,1.3764411027568921,2.654135338345865,0.3220890410958904,0.10589735062631637,0.57489793782058,0.2662486064659978,0.45210601041173687,-2.3523762620044324,-4.382110091743119,0.3220890410958904,1.498848886783515,1.498848886783515,0.35074492850016625,5.417928082191781,5.761234522942462,3.3121218465403537,3.3121218465403537,0.9848085758254843,0.35074492850016625,0.059448747973338135,,1.498848886783515
PCAR,1998-12-31,1.7311393977025769,0.3651040049674014,0.13411983855945359,15.672577580747308,28.22136480556816,43.89394238631547,0.0,15.672577580747308,0.1628879037365421,0.0785307156428119,0.08271057631412286,0.052818239392020266,0.0,0.06136865342163356,0.23639455782312926,0.18270844991606044,0.6385911179173047,1.0,0.08271057631412286,0.7403973509933774,2.8520408163265305,0.42634146341463414,0.6241210313232474,,0.22765448958688972,3.8520408163265305,23.289085545722713,,12.933463796477495,7.256433823529412,1.1618837380426785,1.6753768844221106,1.1155778894472361,2.1030150753768844,0.39232613908872904,0.08445851804939836,0.6658668266346731,0.22765448958688972,0.41211372064276885,-2.992818671454219,-11.263513513513514,0.392326139088729,1.9448752834467118,1.9448752834467118,0.43454844838505374,8.227242206235012,7.726936936936936,5.145110977804438,5.145110977804438,1.4917053428461275,0.43454844838505374,0.047686226958458186,,1.9448752834467118
PCAR,1997-12-31,1.9486644407345577,0.44156928213689484,0.14106844741235391,19.588261383796567,25.225399052797755,44.81366043659432,0.0,19.588261383796567,0.15715552927261975,0.06712004730928445,0.07909520993494973,0.0510053222945003,0.0,0.061618146097517416,0.23030707610146864,0.16703090852325944,0.6448598130841121,1.0,0.07909520993494973,0.732630826933381,2.7383177570093458,0.471045197740113,0.6177596325593263,,0.19206939281288724,3.737650200267023,18.633608815426996,,14.469543147208121,9.368421052631579,1.208072870155385,1.1772151898734178,0.8405063291139241,1.759493670886076,0.29884057971014494,0.06874630396215257,0.7139784946236559,0.19206939281288724,0.42778288868445263,-3.4962406015037595,-15.551839464882944,0.2988405797101449,2.6315754339118826,2.6315754339118826,0.582806031933767,11.426376811594203,11.873795180722892,8.477634408602151,8.477634408602151,2.0561335887110883,0.582806031933767,0.02615357296872225,,2.6315754339118826
PCAR,1996-12-31,1.7796610169491525,0.35262505167424557,0.09218685407193054,25.77683615819209,38.23809523809524,64.01493139628732,0.0,25.77683615819209,0.1558018252933507,0.06192959582790091,0.06801390699695785,0.043676662320730114,0.0,0.0379316852236271,0.1480117820324006,0.10868055555555556,0.6421725239616614,1.0,0.06801390699695785,0.7437252311756936,2.902061855670103,0.4574510587295246,0.6456158663883089,,0.14482619240097008,3.902061855670103,14.16,,9.545454545454545,5.915167095115681,0.8684657482543876,0.9117048346055979,0.5982188295165395,1.3435114503816794,0.7736318407960199,0.0778574532811821,0.6561540608428691,0.14482619240097008,0.2696012039127163,-2.908279220779221,11.092879256965944,0.77363184079602,1.8550294550810016,1.8550294550810016,0.5473989569752282,12.532985074626867,10.715142492556359,7.030784259000837,7.030784259000837,2.243844532972693,0.5473989569752282,0.0617276599460925,,1.8550294550810016
PCAR,1995-12-31,2.2292397660818715,0.3649122807017544,0.10760233918128655,0.22577319587628866,21.397166585246705,21.622939781122994,0.0,0.22577319587628866,0.1558762886597938,0.07402061855670103,0.08247422680412371,0.05216494845360825,0.0,0.05761785470280118,0.20223820943245405,0.14919806042521447,0.6325,1.0,0.08247422680412371,0.7148713277157823,2.509192645883293,0.4811281625881377,0.6280107047279215,,0.1412405303030303,3.509992006394884,1616.6666666666667,,17.058333333333334,10.275423728813559,1.1045319972671372,0.7590330788804072,0.5206106870229008,1.5801526717557253,0.4608695652173913,0.06150515463917526,0.685886691250419,0.1412405303030303,0.3133403361344538,-3.1835645677694773,13.026200873362445,0.46086956521739125,1.4199520383693045,1.4199520383693045,0.36625979381443297,7.0211857707509875,8.682111436950146,5.954944686557156,5.954944686557156,1.2570388628787472,0.36625979381443297,0.06563984777860343,,1.4199520383693045
PCAR,1994-12-31,2.312925170068027,2.082312925170068,0.21156462585034014,203.20088790233075,26.414473684210524,229.61536158654127,0.0,203.20088790233075,0.1564927857935627,0.06947835738068812,0.07103218645948946,0.04550499445061043,0.0,0.05218940936863544,0.17446808510638298,0.13018714401952808,0.640625,1.0,0.07103218645948946,0.7011201629327902,2.3438297872340423,0.4624885635864593,0.5911621433542101,,0.20582695703354914,3.342978723404255,1.7962519936204147,,13.818181818181818,10.625,1.1468940936863543,0.8875634517766497,0.682994923857868,1.4035532994923858,0.36341463414634145,0.07762486126526082,0.7695167286245354,0.20582695703354914,0.5082848837209303,-4.338709677419355,-57.32786885245902,0.3634146341463415,1.3748085106382977,1.3748085106382977,0.35857935627081017,7.88,6.002972872538089,4.61938804689734,4.61938804689734,1.4143865883103275,0.35857935627081017,0.04611860839420578,,1.3748085106382977
PCAR,1993-12-31,0.7118914604948124,0.5123703112529928,0.1779728651237031,18.77846499859432,23.41600529100529,42.19447028959961,0.0,18.77846499859432,0.15012651110486364,0.056508293505763287,0.06184987348889514,0.03992128197919595,0.0,0.04314797933758736,0.12815884476534295,0.10794896957801767,0.6454545454545455,1.0,0.06184987348889514,0.6636280765724704,1.9711191335740073,0.39420448332422087,0.5611881188118812,,0.14248412138320396,2.970216606498195,19.437158469945356,,15.587628865979381,9.073979591836734,1.0808264965056213,0.5124365482233503,0.2350253807106599,1.1649746192893402,0.30985915492957744,0.05676131571549058,0.45864289252105,0.14248412138320396,0.29008620689655173,-1.847209515096066,-3.091883614088821,0.30985915492957744,2.140685920577617,2.140685920577617,0.6668203542310935,16.703380281690137,25.614254859611233,11.747795938583456,11.747795938583456,2.998101148460623,0.6668203542310935,0.018550685532151712,,2.140685920577617
PCAR,1992-12-31,0.7971153846153847,0.6038461538461538,0.2403846153846154,21.71988388969521,23.49317988064791,45.213063770343126,0.0,21.71988388969521,0.14876632801161102,0.026124818577648767,0.033381712626995644,0.02358490566037736,0.0,0.02328080229226361,0.0626204238921002,0.05251141552511415,0.7065217391304348,1.0,0.033381712626995644,0.6282234957020058,1.6897880539499037,0.32815533980582523,0.50968351440718,,0.12298424467099166,2.6897880539499037,16.804878048780488,,15.536423841059603,7.851851851851852,0.9871060171919771,0.3368020304568528,0.08248730964467005,1.1776649746192893,0.5723076923076923,0.04814949201741654,0.2449133383571967,0.12298424467099166,0.23199300699300698,-1.3243512974051896,-2.1063492063492064,0.5723076923076923,2.2053371868978804,2.2053371868978804,0.8306023222060958,35.21753846153846,70.43507692307692,17.250489826676713,17.250489826676713,6.321220060063848,0.8306023222060958,0.016250644346785255,,2.2053371868978804
PCAR,1991-12-31,0.8305905130687319,0.611810261374637,0.2855759922555663,21.222744762719113,27.393141153081512,48.615885915800625,0.0,21.222744762719113,0.13980333475844378,-0.005985463873450192,0.020521590423257803,0.0235143223599829,0.0,0.02008765522279036,0.05329457364341085,0.0281524926686217,1.1458333333333333,1.0,0.020521590423257803,0.6227173119065011,1.6521317829457365,0.3268101761252446,0.5092724679029957,,0.12296918767507002,2.6531007751937983,17.198529411764707,,13.324503311258278,7.449044585987261,0.8542731921110299,0.33341772151898735,0.20354430379746835,1.2556962025316456,0.6145454545454545,0.0563061137238136,0.6104783599088838,0.12296918767507002,0.23105263157894737,-2.5672514619883042,-7.525714285714286,0.6145454545454546,2.047722868217054,2.047722868217054,0.9034843950406156,38.42272727272727,26.284203980099498,16.0459377372817,16.0459377372817,6.914025453385847,0.9034843950406156,0.015994321542647582,,2.047722868217054
PCAR,1990-12-31,0.8594802694898941,0.6063522617901829,0.31665062560153995,19.971202303815694,29.594594594594593,49.565796898410284,0.0,19.971202303815694,0.14758819294456443,0.015478761699064075,0.033837293016558675,0.023038156947444204,0.0,0.02202339986235375,0.06280667320902845,0.05034815211569363,0.6808510638297872,1.0,0.033837293016558675,0.6493461803165864,1.8518155053974485,0.3912783751493429,0.5444792132320071,,0.08095238095238096,2.8518155053974485,18.276315789473685,,12.333333333333334,8.418181818181818,0.9559532002752925,0.24405940594059405,0.04702970297029703,1.183168316831683,1.359375,0.035493160547156226,0.1926977687626775,0.08095238095238096,0.17513321492007106,-1.2386934673366834,13.324324324324325,1.359375,1.4669283611383712,1.4669283611383712,0.5380849532037437,23.35625,78.67368421052632,15.160243407707911,15.160243407707911,4.298631041865974,0.5380849532037437,0.058201766122558195,,1.4669283611383712
PCAR,1989-12-31,0.8770281810418445,0.623398804440649,0.39026473099914605,18.130854385466932,27.972193964055613,46.103048349522545,0.0,18.130854385466932,0.1629293216009083,0.08827703661652,0.10303718421799603,0.06869145614533069,0.0,0.07890446690577112,0.24031777557100298,0.19145569620253164,0.6666666666666666,1.0,0.10303718421799603,0.6716661232474731,2.0456802383316783,0.41076653013458164,0.5518469069870939,,0.22733870967741934,3.0456802383316783,20.13142857142857,,13.048672566371682,11.219745222929935,1.1486794913596348,0.6909313725490196,0.5169117647058824,1.3602941176470589,0.3669421487603306,0.08001703093954017,0.7481376374600922,0.22733870967741934,0.5239776951672862,-3.9704225352112674,15.837078651685394,0.3669421487603306,1.519364448857994,1.519364448857994,0.4342889582741981,6.322314049586777,7.2546230440967285,5.427456544874069,5.427456544874069,1.1751191892084212,0.4342889582741981,0.05803921568627451,,1.519364448857994
PCAR,1988-12-31,0.7457191780821918,0.4922945205479452,0.2645547945205479,21.674318947046217,30.671153146598762,52.34547209364498,0.0,21.674318947046217,0.15855524946434038,0.06978879706152434,0.08203244566880931,0.05387205387205387,0.0,0.062146892655367235,0.19469026548672566,0.16105769230769232,0.6567164179104478,1.0,0.08203244566880931,0.6804378531073446,2.131637168141593,0.3858695652173913,0.5605250364608654,,0.2367736339982654,3.1327433628318584,16.84020618556701,,11.9004329004329,9.100278551532034,1.1536016949152543,0.65311004784689,0.511244019138756,0.9114832535885168,0.33636363636363636,0.08356290174471992,0.7827838827838828,0.2367736339982654,0.4666666666666667,-4.60370994940978,-2730.0,0.3363636363636364,2.076128318584071,2.076128318584071,0.5744781144781145,10.66375,8.782498830135705,6.8747985347985345,6.8747985347985345,2.030635278575008,0.5744781144781145,0.031542715870461736,,2.076128318584071
PCAR,1987-12-31,0.8027282266526757,0.540398740818468,0.2990556138509968,23.32222657781262,32.55314232902033,55.87536890683295,0.0,23.32222657781262,0.15170521364170914,0.06272050176401411,0.07252058016464132,0.04390435123480988,0.0,0.04649232046492321,0.13982521847690388,0.12706043956043955,0.6054054054054054,1.0,0.07252058016464132,0.6674968866749689,2.00749063670412,0.3805104408352668,0.5477131564088086,,0.22402061855670102,3.00749063670412,15.650306748466258,,11.212435233160623,7.897832817337461,1.0589456205894563,0.5198564593301436,0.3875598086124402,0.8421052631578947,0.2732142857142857,0.08518228145825167,0.7455131155085136,0.22402061855670102,0.454602510460251,-3.9294755877034357,-8.79757085020243,0.2732142857142857,1.5968539325842697,1.5968539325842697,0.5014033712269698,11.420357142857142,7.895555555555555,5.886240220892775,5.886240220892775,2.174711532829614,0.5014033712269698,0.023923444976076555,,1.5968539325842697
PCAR,1986-12-31,2.0550161812297736,1.5307443365695792,0.9255663430420712,25.54046997389034,22.181107099879664,47.72157707377001,0.0,25.54046997389034,0.13211488250652742,0.03498694516971279,0.04543080939947781,0.028198433420365536,0.0,0.05004633920296571,0.07427785419532325,0.11298701298701298,0.6206896551724138,1.0,0.04543080939947781,0.3262279888785913,0.48418156808803303,0.016238159675236806,0.024161073825503355,,7.472222222222222,1.484181568088033,14.291044776119403,,16.455445544554454,9.623115577889447,1.7747914735866543,0.32100238663484487,0.22410501193317423,0.8090692124105012,0.8018518518518518,0.07023498694516972,0.6981412639405205,7.472222222222222,22.416666666666668,-3.312807881773399,49.81481481481482,0.8018518518518518,1.5503576341127923,1.5503576341127923,0.5885691906005222,20.872407407407405,12.003301384451545,8.379999999999999,8.379999999999999,3.9841185839841935,0.5885691906005222,0.0384168359787421,,1.5503576341127923
PCAR,1985-12-31,2.1914191419141913,0.4752475247524752,0.066006600660066,23.536141445657826,26.024565608148592,49.56070705380642,0.0,23.536141445657826,0.13260530421216848,0.05408216328653146,0.061362454498179925,0.037961518460738426,0.0,0.06906338694418164,0.1020979020979021,0.15649867374005305,0.6186440677966102,1.0,0.061362454498179925,0.32450331125827814,0.4797202797202797,0.016506189821182942,0.02054794520547945,,9.74,1.4783216783216784,15.508064516129032,,14.025210084033613,9.426470588235293,1.8192999053926207,0.3462085308056872,0.2599526066350711,0.04739336492890995,0.5465753424657535,0.07597503900156007,0.7508555783709788,9.74,48.7,-4.013736263736264,41.74285714285714,0.5465753424657535,1.3397762237762239,1.3397762237762239,0.498148725949038,13.122465753424656,8.73236098450319,6.556741957563313,6.556741957563313,2.522746365972031,0.498148725949038,0.04165187798818298,,1.3397762237762239
