symbol,date,currentRatio,quickRatio,cashRatio,daysOfSalesOutstanding,daysOfInventoryOutstanding,operatingCycle,daysOfPayablesOutstanding,cashConversionCycle,grossProfitMargin,operatingProfitMargin,pretaxProfitMargin,netProfitMargin,effectiveTaxRate,returnOnAssets,returnOnEquity,returnOnCapitalEmployed,netIncomePerEBT,ebtPerEbit,ebitPerRevenue,debtRatio,debtEquityRatio,longTermDebtToCapitalization,totalDebtToCapitalization,interestCoverage,cashFlowToDebtRatio,companyEquityMultiplier,receivablesTurnover,payablesTurnover,inventoryTurnover,fixedAssetTurnover,assetTurnover,operatingCashFlowPerShare,freeCashFlowPerShare,cashPerShare,payoutRatio,operatingCashFlowSalesRatio,freeCashFlowOperatingCashFlowRatio,cashFlowCoverageRatios,shortTermCoverageRatios,capitalExpenditureCoverageRatio,dividendPaidAndCapexCoverageRatio,dividendPayoutRatio,priceBookValueRatio,priceToBookRatio,priceToSalesRatio,priceEarningsRatio,priceToFreeCashFlowsRatio,priceToOperatingCashFlowsRatio,priceCashFlowRatio,priceEarningsToGrowthRatio,priceSalesRatio,dividendYield,enterpriseValueMultiple,priceFairValue
PYPL,2019-12-31,1.430030833240462,0.41591440989635575,0.27300419777852075,8.933997299122215,0.0,8.933997299122215,923.5600408788963,-914.6260435797741,0.44941480981318926,0.15299347287868556,0.16869232500562684,0.13836371820841772,0.17978652434956638,0.04790290846044455,0.14563221794492154,0.12279839436388958,0.8202134756504337,1.0,0.16869232500562684,0.6710692926577445,2.0401539828249926,0.2276906188537712,,26.069565217391304,,3.0401539828249926,40.855172413793106,0.39520982269073873,,8.182320441988951,0.3462100403249372,3.839225589225589,3.2466329966329965,9.058080808080808,0.0,0.2566396578888139,0.8456478842359132,,,-6.478693181818182,,,8.240364820846905,8.240364820846905,7.829088453747468,56.58339162261081,36.07429608504019,30.50615215961412,30.50615215961412,32.67917804942229,7.829088453747468,,33.97951801242236,8.240364820846905
PYPL,2018-12-31,1.2725061766522545,0.36372760963557754,0.29242588017294624,7.394019804543395,0.0,7.394019804543395,956.3026268441885,-948.9086070396451,0.4604232735745259,0.1419972817293379,0.15377645459840786,0.13313054171251051,0.13425925925925927,0.047470691405889415,0.13369296763291305,0.13633233876520542,0.8657407407407407,1.0,0.15377645459840786,0.644927536231884,1.816326530612245,,,30.857142857142858,,2.816326530612245,49.364217252396166,0.3816783408872408,,8.962296983758701,0.35657250992338224,4.557772236076476,3.8736492103075646,7.57190357439734,0.0,0.3548637628632451,0.8498996899507569,,2.744244244244244,-6.662211421628189,,,7.226131548160666,7.226131548160666,7.195732315060514,54.05019931939719,23.85863948497854,20.27745030093015,20.27745030093015,31.610301303468557,7.195732315060514,,32.704942706720345,7.226131548160666
PYPL,2017-12-31,1.4278528627039322,0.26147049818484014,0.12609893714735598,7.888727661524362,0.0,7.888727661524362,1074.4237562555197,-1066.5350285939953,0.4811363983503895,0.16244081258591722,0.16801588513823126,0.1370856881014205,0.18409090909090908,0.04402315200863295,0.11222958609478555,0.12282954608899559,0.8159090909090909,1.0,0.16801588513823126,0.6077402266149997,1.5493309991246718,,,,,2.5493309991246718,46.26855123674912,0.33971698584929244,,8.569371727748692,0.3211360180507186,2.072891072891073,1.5266175266175266,4.664209664209665,0.0,0.19329463876584696,0.7364677992888187,,2.531,-3.7946026986506745,,,6.39585969738652,6.39585969738652,7.812385825568963,56.989069637883006,54.87949570815451,40.41698143026471,40.41698143026471,33.827736523021464,7.812385825568963,,33.41510149750416,6.39585969738652
PYPL,2016-12-31,1.5246474700793933,0.3074416400047399,0.09420547458229649,7.204390333886737,0.0,7.204390333886737,983.086300649009,-975.8819103151222,0.47417450654860727,0.14628297362110312,0.15043349935436268,0.1292197011621472,0.14101778050275904,0.04232244811648491,0.0952283849918434,0.10052388289676426,0.858982219497241,1.0,0.15043349935436268,0.5555689816632934,1.2500679717237628,,,,,2.250067971723763,50.66355140186916,0.37127971344838817,,7.315789473684211,0.3275231852097997,2.592775041050903,2.0435139573070606,4.084564860426929,0.0,0.2912746725696366,0.7881570614312856,,,-4.720478325859491,,,3.2999918433931485,3.2999918433931485,4.477908135030438,34.65344753747323,19.505616713539574,15.37348955034832,15.37348955034832,20.51915367070607,4.477908135030438,,19.940331210191083,3.2999918433931485
PYPL,2015-12-31,1.5163398692810457,0.26055665711977677,0.10229859734155834,5.407115051903114,0.0,5.407115051903114,999.8211525723117,-994.4140375204086,0.5102724913494809,0.15798010380622837,0.16089965397923875,0.1327854671280277,0.17473118279569894,0.042519303348222015,0.08925067228723017,0.09748427672955975,0.8252688172043011,1.0,0.16089965397923875,0.5235968283646688,1.0990624318627806,,,,,2.0990624318627806,67.5036496350365,0.3650652909882315,,6.880952380952381,0.3202105190263495,2.0716029292107403,1.48413344182262,2.775427176566314,0.0,0.27530276816608995,0.7164179104477612,,,-3.526315789473684,,,3.228145940838724,3.228145940838724,4.802774653979239,36.16942996742671,24.3509100877193,17.44542812254517,17.44542812254517,21.61022334952233,4.802774653979239,,20.526269083969467,3.228145940838724
