symbol,date,currentRatio,quickRatio,cashRatio,daysOfSalesOutstanding,daysOfInventoryOutstanding,operatingCycle,daysOfPayablesOutstanding,cashConversionCycle,grossProfitMargin,operatingProfitMargin,pretaxProfitMargin,netProfitMargin,effectiveTaxRate,returnOnAssets,returnOnEquity,returnOnCapitalEmployed,netIncomePerEBT,ebtPerEbit,ebitPerRevenue,debtRatio,debtEquityRatio,longTermDebtToCapitalization,totalDebtToCapitalization,interestCoverage,cashFlowToDebtRatio,companyEquityMultiplier,receivablesTurnover,payablesTurnover,inventoryTurnover,fixedAssetTurnover,assetTurnover,operatingCashFlowPerShare,freeCashFlowPerShare,cashPerShare,payoutRatio,operatingCashFlowSalesRatio,freeCashFlowOperatingCashFlowRatio,cashFlowCoverageRatios,shortTermCoverageRatios,capitalExpenditureCoverageRatio,dividendPaidAndCapexCoverageRatio,dividendPayoutRatio,priceBookValueRatio,priceToBookRatio,priceToSalesRatio,priceEarningsRatio,priceToFreeCashFlowsRatio,priceToOperatingCashFlowsRatio,priceCashFlowRatio,priceEarningsToGrowthRatio,priceSalesRatio,dividendYield,enterpriseValueMultiple,priceFairValue
VRSN,2019-12-31,1.3247348124571316,1.263599215057306,0.5265374039284434,0.45163401293050603,0.0,0.45163401293050603,0.0,0.45163401293050603,0.8534767277684363,0.6551672903501856,0.6160591266590401,0.4971327337635924,0.1930437968517718,0.3302567571139083,-0.4109113482316623,0.8536670705625178,0.8069562031482282,1.0,0.6160591266590401,1.8037177813052687,-2.2442178377290114,6.009328828601684,,8.373994327399544,,-1.2442178377290114,808.1765091863517,,,4.74782203102353,0.6643230965976972,6.336930939412279,5.998049895770291,10.23854313765046,0.0,0.6120937498223943,0.9465228441209086,,,-18.699573370374043,,,-17.032838816186832,-17.032838816186832,20.60683347122301,41.45137117650037,35.56822695830577,33.66613934091355,33.66613934091355,8.466059833105684,20.60683347122301,,29.76386751619094,-17.032838816186832
VRSN,2018-12-31,1.389877478656381,1.3462552369695755,0.37718316993636486,1.8112272823421833,0.0,1.8112272823421833,0.0,1.8112272823421833,0.841860985753546,0.6713570469699227,0.6004400112266239,0.47942704710984396,0.20154047340976758,0.30425060485640143,-0.42042578929665947,0.7544786816614507,0.7984595265902324,1.0,0.6004400112266239,1.7236725543535036,-2.3818404387234984,4.4673864350193835,,6.352179023901781,,-1.3818404387234982,201.52081605573065,,,4.785132234497154,0.6346129336893525,5.688580722479028,5.38687928518437,10.351040673074571,0.0,0.5743084802986743,0.9469636712541579,,,-18.85500040532872,,,-14.895778087499295,-14.895778087499295,16.98620561512269,35.43021971230358,31.233296885404684,29.576797483973877,29.576797483973877,7.460924034841637,16.98620561512269,,24.716761712414083,-14.895778087499295
VRSN,2017-12-31,1.5675162509099485,1.5506687480134929,0.29852139788584375,1.6011698616850985,0.0,1.6011698616850985,0.0,1.6011698616850985,0.8340684665198975,0.6163814967878156,0.5141314656744729,0.39245555083491046,0.23666303847001396,0.15546371058225453,-0.36281720360144765,0.4338591688033259,0.7633369615299861,1.0,0.5141314656744729,1.4284904603173956,-3.333774243793597,3.4131195692550427,,4.393645112076047,,-2.333774243793597,227.9583251809822,,,4.421394769897501,0.3961307471674711,5.659212433564181,5.260605572555967,19.445570945401837,0.0,0.6031791398984632,0.9295649587839963,,,-14.19747873694418,,,-11.050628793330958,-11.050628793330958,11.9533488685472,30.45784125901043,21.318838383374512,19.817245123164206,19.817245123164206,6.493263782739099,11.9533488685472,,19.412837832674924,-11.050628793330958
VRSN,2016-12-31,1.2105149384112082,1.1898940109031249,0.15239998186535816,4.170681695408815,0.0,4.170681695408815,0.0,4.170681695408815,0.8264334374920655,0.6011134974132504,0.508833646918533,0.3857973483737492,0.24180063423455667,0.18874765909982644,-0.36702218483335347,0.7151815786656297,0.7581993657654433,1.0,0.508833646918533,1.514267711597672,-2.9445125125458627,33.80852052249003,,5.029014225883493,,-1.9445125125458627,87.51566929737184,,,4.291844058243306,0.48924042608238255,5.379110942072296,4.062879852211778,13.955329767994225,0.0,0.606747524661455,0.755306944951494,,,-4.086752686142923,,,-8.674748537183646,-8.674748537183646,9.118508694437853,23.635488250178717,19.897216491891033,15.0285058015287,15.0285058015287,5.227619504806571,9.118508694437853,,15.12788873817068,-8.674748537183646
VRSN,2015-12-31,1.3093480951176995,1.2828301108464517,0.1521370876525303,4.354368556287439,0.0,4.354368556287439,0.0,4.354368556287439,0.8180156810771726,0.5719892841567503,0.46032249477517684,0.3542080829477253,0.23052189070029735,0.15915091462703432,-0.35054140933647343,0.5705130229995191,0.7694781092997026,1.0,0.46032249477517684,1.4540145911100348,-3.2025723833127655,7.491216261286665,,4.530757867157232,,-2.2025723833127655,83.82386453552778,,,3.5841458876069967,0.44931474545294914,5.036014162112591,4.730401184686277,14.39837331148379,0.0,0.6324027767551536,0.9393145119158858,,,-16.47840417158599,,,-9.39527468431412,-9.39527468431412,9.49354953811997,26.80218209340255,15.981731157336045,15.01187200162401,15.01187200162401,6.121181835309224,9.49354953811997,,16.84578301145603,-9.39527468431412
VRSN,2014-12-31,1.0335195530726258,1.0041899441340782,0.1340782122905028,4.697554697554698,0.0,4.697554697554698,56.183651804670916,-51.486097107116215,0.8134838134838135,0.5587565587565587,0.47846747846747845,0.3517473517473517,0.26495137595696255,0.18690163072067334,-0.40237825594563986,1.0304904051172707,0.7351541485619698,1.0,0.47846747846747845,1.465018411362441,-3.1540203850509627,-5.174825174825175,,5.620159546014838,,-2.1528878822197055,77.7,6.496551724137931,,3.1664576802507836,0.5313519200420831,4.26472675656494,3.985805535841022,10.113555713271824,0.0,0.5948915948915949,0.9345981028457314,,,-15.290076335877863,,,-8.693354473386183,-8.693354473386183,7.599477279477279,21.604931044188007,13.668504273504274,12.774558162755865,12.774558162755865,5.226081151963539,7.599477279477279,,12.99154404505209,-8.693354473386183
VRSN,2013-12-31,0.8886150813208477,0.8560867422375554,0.16707737801872843,5.294788104859601,0.0,5.294788104859601,48.79679144385027,-43.50200333899067,0.806237695575588,0.5473007978447829,0.4733188270645529,0.5641902393534349,-0.19194176882661995,0.20462232243517475,-1.284198113207547,0.7227848101265822,1.191987740805604,1.0,0.4733188270645529,1.1589627959413755,-7.273584905660377,2.3006134969325154,,6.110137638608365,,-6.275943396226415,68.93571428571428,7.48,,2.8385294117647057,0.3626832018038331,3.718870346598203,3.2978177150192556,11.059050064184852,0.0,0.6003522950989535,0.8867794269934415,,,-8.832317073170731,,,-21.841396226415092,-21.841396226415092,9.595639830069423,17.007808999081725,18.024040482678085,15.983348291335863,15.983348291335863,4.54912735185889,9.595639830069423,,16.329640272707934,-21.841396226415092
VRSN,2012-12-31,2.3640287769784174,2.256115107913669,0.1884892086330935,4.595924908424908,0.0,4.595924908424908,52.2673031026253,-47.67137819420039,0.8081501831501832,0.5234661172161172,0.47241300366300365,0.3663003663003663,0.2428156045553671,0.15518913676042678,-35.55555555555556,0.30190197512801753,0.7753816331475648,1.0,0.47241300366300365,1.0048496605237633,-230.22222222222223,1.0130624092888243,,8.221770659016654,,-229.11111111111111,79.41818181818182,6.983333333333333,,2.615568862275449,0.4236663433559651,3.2800488102501526,2.956680902989628,9.499694935936546,0.0,0.6153846153846154,0.9014136904761905,,,-10.143396226415094,,,-786.1736666666667,-786.1736666666667,8.09931662087912,22.111134375000002,14.600831613702022,13.161389508928572,13.161389508928572,6.221602337662171,8.09931662087912,,14.551553104876943,-786.1736666666667
VRSN,2011-12-31,2.1972685887708647,2.065250379362671,1.992412746585736,7.091968911917098,0.0,7.091968911917098,41.979418886198545,-34.887449974281445,0.785880829015544,0.4266839378238342,0.25077720207253884,0.1851036269430052,0.28425103305785127,0.07699353448275863,-1.6238636363636363,0.1617376775271512,0.7381198347107438,1.0,0.25077720207253884,1.0474137931034482,-22.09090909090909,1.1461794019933556,,1.3140390410772949,,-21.09090909090909,51.46666666666667,8.694736842105263,,2.36085626911315,0.41594827586206895,2.012582384661474,0.8579988016776513,8.064709406830437,3.2435269419174246,0.4351036269430052,0.42631735635605833,,,-1.7431240269849506,1.2403988183161005,3.243526941917425,-70.38248863636363,-70.38248863636363,8.022874352331606,43.34261021693492,43.25180865921788,18.438996725215837,18.438996725215837,12.418915456268596,8.022874352331606,0.07483460100079775,13.89319962191025,-70.38248863636363
VRSN,2010-12-31,3.335375191424196,3.1791730474732005,2.3889739663093414,8.044372612400823,0.0,8.044372612400823,39.59795788130185,-31.55358526890103,0.769761974728181,0.34131648545401116,0.1401704378489568,1.2209814869233029,0.26542976939203355,0.3400163666121113,1.2292899408284024,0.053266331658291456,8.71069182389937,1.0,0.1401704378489568,0.723404255319149,2.6153846153846154,0.4626391096979332,,0.605072716548168,,3.6153846153846154,45.373333333333335,9.217647058823529,,3.582105263157895,0.2784779050736498,1.2022346368715084,0.7525139664804469,11.513966480446927,0.6235860409145608,0.3161915956508963,0.6259293680297398,,,-2.6732919254658385,0.49166095499200363,0.6235860409145607,8.936760355029586,8.936760355029586,8.87635909491625,7.269855595667869,44.84966592427617,28.072723048327138,28.072723048327138,2.234040731455098,8.87635909491625,0.08577695013449205,4.680874077484378,8.936760355029586
VRSN,2009-12-31,1.9288939051918736,1.7381489841986455,1.6670428893905191,37.3356064296152,0.0,37.3356064296152,35.032993401319736,2.302613028295461,0.7293391784380582,0.2597824322130216,0.20230556908589056,0.39876603344698813,-6.420545746388443e-05,0.0994331983805668,0.4465454545454545,0.07866161616161617,1.971107544141252,1.0,0.20230556908589056,0.7773279352226721,3.4909090909090907,0.5106761565836299,,,,4.490909090909091,9.776190476190477,10.41875,,1.5245049504950494,0.24935222672064777,2.051921079958463,1.444963655244029,7.668743509865005,0.0,0.6416626075661633,0.7042004048582996,,,-3.380667236954662,,,8.022665454545455,8.022665454545455,7.164257184607891,17.9660667752443,15.85507006827165,11.165146761133604,11.165146761133604,5.940480353984457,7.164257184607891,,10.574120497029154,8.022665454545455
VRSN,2008-12-31,1.6632548618219039,0.8935516888433982,0.8075742067553736,54.85775630703167,0.0,54.85775630703167,70.36691542288557,-15.509159115853898,0.7122920021470747,-0.04651994990159242,0.04204687779567007,-0.6697083556986939,0.0,-0.15813265737220109,-0.7980810234541578,0.016906474820143885,-15.927659574468086,1.0,0.04204687779567007,0.801858893113646,4.046908315565032,0.5481695568400771,,,,5.046908315565032,6.6535714285714285,5.187096774193549,,1.4516883116883117,0.23612167300380227,2.4127617148554337,1.8095712861415754,3.933200398803589,0.0,0.8659867597065665,0.75,,,-4.0,,,8.259245202558635,8.259245202558635,6.930731794596529,-10.34888057707721,10.671035812672175,8.003276859504131,8.003276859504131,-3.5639908114345307,6.930731794596529,,-14.870109890109887,8.259245202558635
VRSN,2007-12-31,1.7898477157360406,1.6101522842639593,1.3979695431472081,89.69429747207525,0.0,89.69429747207525,51.686797167846734,38.007500304228515,0.7176954732510288,-0.2721928277483833,-0.16119929453262788,-0.17671957671957672,7.293946024799417e-06,-0.03723061679464949,-0.10040080160320641,-0.044921363040629096,1.0962800875273524,1.0,-0.16119929453262788,0.6291800842209562,1.6967267869071476,0.45800144822592326,,,,2.696726786907148,4.069377990430622,7.061764705882353,,1.367363344051447,0.21067624473619023,1.9920067311737484,1.3420277660917121,5.793016407236012,0.0,0.5567313345091123,0.6737064413938754,,,-3.0647249190938513,,,5.320859719438877,5.320859719438877,9.365463844797178,-52.99618762475049,24.969677115987462,16.822232312565998,16.822232312565998,-21.626492171359786,9.365463844797178,,97.8010560530019,5.320859719438877
VRSN,2006-12-31,0.9801324503311258,0.6769683590875644,0.3524650478292862,89.88501068484787,0.0,89.88501068484787,43.19526627218935,46.68974441265852,0.7077439706929887,0.024727790780502697,0.06858654726773177,0.38964078559071946,-3.5798961424332343,0.09635128334172119,0.16108540176693312,0.025774378585086043,5.681008902077151,1.0,0.06858654726773177,0.4018621036738802,0.671855279764409,,,,,1.6718552797644088,4.060743801652893,8.45,,1.624297520661157,0.2472823351786613,1.9214892755969244,1.1865641440712262,2.743828409550789,0.0,0.4831586445507276,0.6175231676495366,,2.385929648241206,-2.6145374449339207,,,2.517779554059739,2.517779554059739,6.090121094942505,15.630091407678245,20.4118758526603,12.604806234203874,12.604806234203874,6.630503901081899,6.090121094942505,,15.285457444100585,2.517779554059739
VRSN,2005-12-31,1.2935010482180294,1.189727463312369,0.5,63.6918858282438,0.0,63.6918858282438,48.8102261553589,14.8816596728849,0.6830985915492958,0.13423906269475258,0.1666458930574598,0.2673563504923345,0.3913799551234106,0.13486325055014148,0.2120612951062778,0.12007184553210597,1.6043380703066568,1.0,0.1666458930574598,0.36372209996856336,0.5719228868017795,,,,,1.5724172021749876,5.730714285714286,7.477941176470588,,2.8756272401433693,0.5044325683747249,1.8244216913158893,1.404247250663633,3.242320819112628,0.0,0.29982550168266237,0.7696944502182499,,,-4.342057761732852,,,3.003286208601087,3.003286208601087,3.786394116913873,14.162349650349649,16.40736699972995,12.628659322386198,12.628659322386198,6.411471466065801,3.786394116913873,,7.727015892513336,3.003286208601087
VRSN,2004-12-31,1.437142857142857,1.3271428571428572,0.47,62.86364447617348,0.0,62.86364447617348,47.510847225393924,15.352797250779552,0.6092271997144387,0.06755309655541675,0.13974656434053187,0.1363555238265215,0.17611749680715197,0.05892788276128037,0.09030732860520095,0.08272583201267829,0.9757343550446999,1.0,0.13974656434053187,0.347473968376398,0.5325059101654847,,,,,1.5325059101654845,5.8062176165803105,7.682456140350877,,2.205905511811024,0.4321635171615889,1.4303054032889584,1.0681284259984338,2.8817541111981204,0.0,0.3259860788863109,0.7467834656446756,,,-3.9491891891891893,,,3.8626985815602835,3.8626985815602835,5.8323094770658575,42.77281413612566,23.957793255131964,17.891283876266083,17.891283876266083,18.75430562700153,5.8323094770658575,,17.9706004980022,3.8626985815602835
VRSN,2003-12-31,1.5873873873873874,1.4846846846846846,0.5441441441441441,35.87928831219896,0.0,35.87928831219896,38.22859744990893,-2.349309137709973,0.5683672466332449,-0.23729479996068023,-0.24545365182345424,-0.2554801926668633,0.09352422907488987,-0.12370299857210852,-0.18778901734104048,-0.16151358344113842,1.0408490188225872,1.0,-0.24545365182345424,0.3412660637791528,0.5180635838150289,,,,,1.518063583815029,10.173,9.547826086956523,,1.956346153846154,0.48419800095192767,1.494578815679733,1.0442035029190992,3.019182652210175,0.0,0.35230512139978376,0.6986607142857143,,,-3.3185185185185184,,,3.0286878612716763,3.0286878612716763,4.1204207215177435,-16.128141592920354,16.74003194888179,11.69560267857143,11.69560267857143,-6.63965903902443,4.1204207215177435,,291.42908518768263,3.0286878612716763
VRSN,2002-12-31,0.9029275808936826,0.7996918335901386,0.4345146379044684,40.034378325284436,0.0,40.034378325284436,46.63108155407771,-6.596703228793274,0.5322910698207416,-3.930261111565851,-4.05246787263649,-4.060980600802161,0.0020955785816720194,-2.0749895441237975,-3.14205193160228,-2.8420780711825486,1.0021006281686158,1.0,-4.05246787263649,0.33960685905478877,0.5142495250158328,,,,,1.5142495250158328,9.117164179104478,7.8273972602739725,,2.0060755336617406,0.5109577582601422,1.014792899408284,0.27007607776838544,1.6272189349112427,0.0,0.19652942620938038,0.26613910870470636,,,-1.3626560726447219,,,1.2391906269791007,1.2391906269791007,1.6016059589097158,-0.39438897063269707,30.621001564945228,8.149446064139942,8.149446064139942,-0.16019603881222844,1.6016059589097158,,-0.36546955387880475,1.2391906269791007
VRSN,2001-12-31,1.3081534772182255,1.2206235011990407,0.3669064748201439,107.98596990646605,0.0,107.98596990646605,118.9409368635438,-10.954966957077744,0.6504676697844652,-13.634404229361529,-13.65788938592924,-13.578690524603497,0.0,-1.7718227646590607,-2.0528742699047036,-2.0038633651551314,0.9942012371686554,1.0,-13.65788938592924,0.13677368002122578,0.15846910544113127,,,,,1.15862280971411,3.3800687285223368,3.06875,,1.8454033771106941,0.1304855399310162,1.117936117936118,-0.7508599508599508,3.5724815724815726,0.0,0.2312932086213908,-0.6716483516483517,,,-0.5982119379437286,,,0.9934153089455887,0.9934153089455887,6.570923139487597,-0.4839143456124589,-42.29816753926701,28.409494505494504,28.409494505494504,-0.1690616807049324,6.570923139487597,,,0.9934153089455887
VRSN,2000-12-31,1.7834586466165414,1.7353383458646616,0.6917293233082706,98.39932603201349,0.0,98.39932603201349,87.33128834355828,11.068037688455206,0.6564869418702611,-6.740311710193766,-6.558761583824769,-6.561710193765796,0.0,-0.1623078926803855,-0.16866980672405393,-0.16805720453318942,1.0004495680935102,1.0,-6.558761583824769,0.037770252669966135,0.039250717340696226,,,,,1.0391965784202264,3.709375,4.17948717948718,,4.479245283018868,0.024735608231310238,1.2060301507537687,0.8366834170854272,6.444723618090452,0.0,0.4043807919123842,0.69375,,,-3.2653061224489797,,,0.6706378647609768,0.6706378647609768,26.089620893007584,-3.9760398009950246,92.99813813813813,64.51745833333334,64.51745833333334,-1.0866909698181562,26.089620893007584,,,0.6706378647609768
VRSN,1999-12-31,4.255813953488372,4.162790697674419,1.627906976744186,98.99764150943396,0.0,98.99764150943396,57.210031347962385,41.78761016147158,0.6238207547169812,-0.03891509433962264,0.036556603773584904,0.04716981132075472,0.0,0.011730205278592375,0.013422818791946308,0.01040268456375839,1.2903225806451613,1.0,0.036556603773584904,0.12609970674486803,0.14429530201342283,,,,,1.1442953020134228,3.6869565217391305,6.38,,8.48,0.24868035190615836,0.12827225130890052,0.07591623036649214,1.361256544502618,0.0,0.1733490566037736,0.5918367346938775,,,-2.45,,,63.24920134228188,63.24920134228188,222.2672405660377,4712.0655,2166.466896551724,1282.1946938775511,1282.1946938775511,927.0607793451893,222.2672405660377,,,63.24920134228188
VRSN,1998-12-31,2.347826086956522,2.260869565217391,1.0,93.83033419023137,0.0,93.83033419023137,93.58974358974359,0.2405906004877778,0.5012853470437018,-0.5938303341902313,-0.5398457583547558,-0.506426735218509,0.0,-0.3078125,-0.48048780487804876,-0.5121951219512195,0.9380952380952381,1.0,-0.5398457583547558,0.375,0.5853658536585366,,,,,1.5609756097560976,3.89,3.9,,4.322222222222222,0.6078125,-0.14131736526946106,-0.19401197604790418,0.5029940119760479,0.0,-0.3033419023136247,1.3728813559322033,,,2.6818181818181817,,,48.49109756097561,48.49109756097561,51.10886889460154,-100.92055837563451,-122.72438271604938,-168.48601694915254,-168.48601694915254,-14.466997015163345,51.10886889460154,,,48.49109756097561
VRSN,1997-12-31,1.5454545454545454,1.4545454545454546,0.45454545454545453,81.71641791044776,0.0,81.71641791044776,150.51546391752578,-68.79904600707802,0.27611940298507465,-1.5895522388059702,-1.5,-1.3880597014925373,0.0,-0.6888888888888889,-1.3285714285714285,-1.25625,0.9253731343283582,1.0,-1.5,0.48148148148148145,0.9285714285714286,,,,,1.9285714285714286,4.466666666666667,2.425,,1.488888888888889,0.4962962962962963,-0.18795888399412627,-0.2878120411160059,0.19089574155653452,0.0,-0.9552238805970149,1.53125,,,1.8823529411764706,,,31.034142857142857,31.034142857142857,32.42373134328358,-23.359032258064513,-22.167244897959183,-33.94359375,-33.94359375,-2.730953025334716,32.42373134328358,,,31.034142857142857
