symbol,date,currentRatio,quickRatio,cashRatio,daysOfSalesOutstanding,daysOfInventoryOutstanding,operatingCycle,daysOfPayablesOutstanding,cashConversionCycle,grossProfitMargin,operatingProfitMargin,pretaxProfitMargin,netProfitMargin,effectiveTaxRate,returnOnAssets,returnOnEquity,returnOnCapitalEmployed,netIncomePerEBT,ebtPerEbit,ebitPerRevenue,debtRatio,debtEquityRatio,longTermDebtToCapitalization,totalDebtToCapitalization,interestCoverage,cashFlowToDebtRatio,companyEquityMultiplier,receivablesTurnover,payablesTurnover,inventoryTurnover,fixedAssetTurnover,assetTurnover,operatingCashFlowPerShare,freeCashFlowPerShare,cashPerShare,payoutRatio,operatingCashFlowSalesRatio,freeCashFlowOperatingCashFlowRatio,cashFlowCoverageRatios,shortTermCoverageRatios,capitalExpenditureCoverageRatio,dividendPaidAndCapexCoverageRatio,dividendPayoutRatio,priceBookValueRatio,priceToBookRatio,priceToSalesRatio,priceEarningsRatio,priceToFreeCashFlowsRatio,priceToOperatingCashFlowsRatio,priceCashFlowRatio,priceEarningsToGrowthRatio,priceSalesRatio,dividendYield,enterpriseValueMultiple,priceFairValue
XLNX,2020-03-28,2.6795541231724602,2.3397701534797055,1.6374082258048175,31.509878058574635,106.03371419298799,137.54359225156261,35.58299685957829,-4.073118801003652,0.6687509841380658,0.2503862247863037,0.2636965142699229,0.25064961017065984,0.04947696838308649,0.16890359816710254,0.34242082996947365,0.2311707916476446,0.9505230316169135,1.0,0.2636965142699229,0.5067367888157971,1.027315188577002,0.24398145230211757,,20.943847312908087,,2.027315188577002,11.583669074234145,10.257708237459733,3.442301373463889,7.34832118552114,0.6738633985989491,4.670989201507788,4.163860156976265,8.89303099124118,0.4690086423848996,0.37652916874560893,0.8914300541804245,,,-9.210652104974129,4.910582918219905,0.46900864238489964,9.780133306033695,9.780133306033695,7.158987964584309,28.561735881855032,21.328766253401874,19.013103256871645,19.013103256871645,8.183888317985689,7.158987964584309,0.016420873168386654,20.95425145224112,9.780133306033695
XLNX,2019-03-30,8.193016950294293,7.390700915299051,3.2513114795510236,39.99137801401747,120.42004753794457,160.41142555196205,44.864160114158025,-4.8727821001405545,0.6875268057952821,0.3127775380511533,0.31654767508760917,0.2908592238087766,0.08115191896994006,0.17272178078436945,0.3109373411021947,0.20707172660848977,0.91884808103006,1.0,0.31654767508760917,0.4445125819494237,0.8002207925957947,0.3014432968550278,,18.310837131025092,,1.8002207925957947,9.126967314606238,8.135669966210179,3.0310567672296247,9.30000091205093,0.5938329151903541,4.255344455103457,3.908101109837229,12.384020839670246,0.40937791514470356,0.3567181207176108,0.9183982991436151,,,-12.254646527036892,3.96518519326015,0.40937791514470356,10.492118920471682,10.492118920471682,9.814612662796172,33.74351527957291,29.958283245357574,27.51363637779906,27.51363637779906,9.725186397529644,9.814612662796172,0.012132047054164683,26.39860490860227,10.492118920471682
XLNX,2018-03-31,4.555744041581455,4.1996129152525645,2.389758154274655,56.553907280151016,115.90785949780675,172.46176677795776,48.606014912182765,7.947892367968251,0.6986574507007028,0.27807685619469297,0.2802482992659574,0.18807323644732943,0.3442829475584303,0.09168593829876494,0.196572716030187,0.16665348953695727,0.671095014456615,1.0,0.2802482992659574,0.5335774966619221,1.1439788879036314,0.3397231671875826,,15.083426053188472,,2.1439788879036312,6.454019139507019,7.509358680390711,3.149053063195483,8.112085151438427,0.4875012523349749,3.178892076290898,2.985381454489068,13.36474647232129,0.7609212446199306,0.3323953607242413,0.9391263946187137,,,-16.42748106895308,2.7051544691309153,0.7609212446199306,7.020708512667384,7.020708512667384,6.717144671938607,35.71557973279078,21.51818820452689,20.208298507244272,20.208298507244272,10.354808595527631,6.717144671938607,0.021305022914728786,18.477889467465147,7.020708512667384
XLNX,2017-04-01,4.324713886374884,3.9739053673890656,1.077462449676548,37.776292441005424,116.93946223145441,154.71575467245984,55.77922673545648,-18.00293429445106,0.6993171081094155,0.2997315785945173,0.2962038271478168,0.26652599223843765,0.09822426211472676,0.13250263894432102,0.25034804162071617,0.1816328314776538,0.8998060383110148,1.0,0.2962038271478168,0.47072628135407585,0.8893815520603705,0.2840084970233594,,12.938594702796879,,1.8893815520603705,9.662144599553123,6.543654714524484,3.1212731188858007,7.756906113716778,0.49714715563569656,3.4750216693389087,3.206987757288524,12.356013288047825,0.5294133567254069,0.3963654061411898,0.9228684199539465,,,-12.964858225423658,3.586039440901989,0.5294133567254069,6.788253064221002,6.788253064221002,7.226922454812619,27.115263296149067,19.7568574610245,18.232979828311016,18.232979828311016,8.192116069039303,7.226922454812619,0.019524551576107864,20.97745386582727,6.788253064221002
XLNX,2016-04-02,4.147257985783521,3.8597718967764614,0.533479034770335,50.690244868626635,96.99370597418988,147.6839508428165,55.15630883440714,-4.466063965780506,0.6965026575502478,0.3025822074447543,0.2876509622694264,0.2488241237898514,0.13497899736976407,0.11430509481832203,0.21164505585743282,0.16434736424841903,0.865021002630236,1.0,0.2876509622694264,0.4599207888167272,0.8515802484029619,0.27628512306384173,,11.483428303519908,,1.851580248402962,7.200596504237978,6.617556680520811,3.763130775693083,7.813348344426955,0.45938108040866776,2.777620623299475,2.6510550235049335,12.42318185709447,0.5790653642349243,0.33707999662131793,0.9544338061386524,,,-21.946094577108575,2.618585604805884,0.5790653642349242,4.514965911540207,4.514965911540207,5.308096767622108,21.332725648840825,16.49909172468694,15.7472909126237,15.7472909126237,6.4415840425929956,5.308096767622108,0.027144462164233066,16.09170969158247,4.514965911540207
XLNX,2015-03-28,4.08536803134532,3.685271894070427,0.9266678156074609,37.86346233443709,119.11961096070529,156.9830732951424,41.25323952524114,-3.389777190804054,0.7018424763096969,0.3176141105368007,0.3113037069940236,0.27266394766596674,0.12412238743048011,0.1323412408777752,0.24595177991918926,0.18808196176788036,0.8758776125695199,1.0,0.3113037069940236,0.46192200389337423,0.8584666298114885,0.2740316440703177,,13.351301618228067,,1.8584666298114885,9.63990024937656,8.84778999662976,3.0641470120348595,7.897155840790863,0.48536391411710544,2.9350760349554363,2.8278086215201195,11.962281302173308,0.4723086131783233,0.34090228422979596,0.9634532761135282,,,-27.362233701340354,2.930660774791259,0.4723086131783233,4.5312593315755665,4.5312593315755665,5.023387338979971,18.423364665481877,15.294528657583088,14.73556374176067,14.73556374176067,5.71746526724007,5.023387338979971,0.025636392795461704,13.83765643292154,4.5312593315755665
XLNX,2014-03-29,3.099959571457449,2.754295532646048,0.9841317970487163,41.02707240293809,114.90649804923989,155.93357045217797,73.51069554688551,-32.483623143947426,0.6880587618048268,0.3102203567681007,0.29779643231899267,0.2645960125918153,0.11154052149400986,0.1251464077978282,0.2261362413459124,0.1752760690728526,0.8885130373502467,1.0,0.29779643231899267,0.4466083020665833,0.8070093625569466,0.26282525914956634,,13.130378458406588,,1.806973490691251,8.896564600448096,4.965263861055444,3.1764957264957263,6.70937764010138,0.4729716316280547,2.80062630480167,2.6443980514961725,8.550104384133611,0.42401649746192893,0.33783840503672613,0.9442166728786184,,,-17.92650334075724,3.619154676258993,0.42401649746192893,4.825911683466657,4.825911683466657,5.646671143756559,21.34072652284264,17.70157105263158,16.714118524040256,16.714118524040256,6.893312506507417,5.646671143756559,0.019868887641105896,16.061303677672306,4.825911683466657
XLNX,2013-03-30,5.940020682523268,5.025853154084798,1.6122026887280247,38.57518328952829,99.66698317959847,138.24216646912677,36.04449267498644,2.5306906145418537,0.6600267441324296,0.26776409830774195,0.25222483515470095,0.2247890441278185,0.10872029250457038,0.10307643514113543,0.1645125366989505,0.12595850507748635,0.8912248628884827,1.0,0.25222483515470095,0.3734432815308172,0.5960247021901258,0.23744209984559958,,9.932993154043109,,1.596024702190126,9.462041884816754,10.126373626373626,3.662195727769498,5.930270713699754,0.4585474151601649,2.408290535583272,2.297138664710198,6.290535583272193,0.4728205128205128,0.3027159127587956,0.9538461538461539,,,-21.666666666666668,3.279220779220779,0.4728205128205128,3.4671798332939625,3.4671798332939625,4.737535850970627,21.07547487179487,16.407368252954328,15.650105102817975,15.650105102817975,6.457065973645722,4.737535850970627,0.02243463151823376,15.651789163912076,3.4671798332939625
XLNX,2012-03-31,7.147899649941657,6.2211201866977826,2.3010501750291716,35.02253759985719,95.13865920366366,130.16119680352085,36.49535682483145,-1.472819224974259,0.6492167626188244,0.2801803007988575,0.2664792252421118,0.23657785513455618,0.11216211689834199,0.1187473398893394,0.1957750120028068,0.14488146943925462,0.8877909897839558,1.0,0.2664792252421118,0.3934499675186488,0.6486686117368985,0.25083695321362365,,,,1.6486686117368985,10.421860465116279,10.001272264631043,3.8365056124938994,5.6726582278481015,0.5019376806075133,3.0371050698016164,2.7795738427626744,7.0448199853049225,0.37804187889077534,0.3689472039987504,0.915205032055159,,,-11.793152639087019,6.344589409056025,0.37804187889077534,3.6572131329172364,3.6572131329172364,4.419438568304548,18.68069420863988,13.088337298440392,11.978512156767874,11.978512156767874,5.714959217298989,4.419438568304548,0.0202370358761041,14.967670044452943,3.6572131329172364
XLNX,2011-04-02,7.125237707144797,6.011953273566966,3.3208367291496876,44.13459103570524,117.88128355295267,162.0158745886579,44.222181551976576,-0.08759051627133374,0.6541318477251625,0.33320671900059085,0.3254410399257196,0.27091246729129737,0.1675593308260926,0.15501461035040692,0.2658411331069328,0.2043840118744699,0.8324471534171962,1.0,0.3254410399257196,0.41686589871767005,0.7149010188022861,0.26954259438528555,,,,1.714942433529363,8.270157068062828,8.253776435045317,3.096335474121647,6.22543352601156,0.5721944504817793,2.701230883998508,2.4587840358075344,7.185751585229392,0.2634366723788752,0.305646999240314,0.9102457884562276,,,-11.141538461538461,6.956772334293948,0.26343667237887525,3.888371572931335,3.888371572931335,3.96254832447033,14.626673936750274,14.2428125,12.964460093896715,12.964460093896715,4.407318103335485,3.96254832447033,0.018010702468520677,10.912539081089873,3.888371572931335
XLNX,2010-04-03,5.339025755879059,4.617301231802911,2.8877379619260917,52.29357547993019,70.95713009824352,123.25070557817372,52.26704376302471,0.026531716905481062,0.6336169284467714,0.23358420593368237,0.23003926701570682,0.1949716404886562,0.15239687055476528,0.11226957259052225,0.16859231313369488,0.14919882565172793,0.8475580844001896,1.0,0.23003926701570682,0.3340765631378953,0.5016741334590898,0.143336161273381,,64.11308709530324,,1.5016741334590897,6.979824895317853,6.983367983367984,5.143950995405819,5.0112052473353375,0.575825142103445,2.0010830324909747,1.89927797833935,5.005776173285199,0.4632167832167832,0.3023014834205934,0.9491250225509652,,,-19.656028368794328,4.034206695778749,0.4632167832167832,3.4420891299221883,3.4420891299221883,3.9806664485165797,20.41664335664336,13.873693214217829,13.16786938480967,13.16786938480967,6.356178937668121,3.9806664485165797,0.02268819487734537,13.417315017424427,3.4420891299221883
XLNX,2009-03-28,7.5182325182325185,6.612183612183612,4.573144573144573,43.27525750602673,65.34219964136282,108.61745714738956,26.289599521817095,16.985657984209638,0.6333552487398642,0.2467674775367083,0.2509314047775586,0.19817006355467895,0.26756331877729256,0.1286318859134393,0.18560139573070608,0.177601985419575,0.7897379912663756,1.0,0.2509314047775586,0.30694548170276326,0.44288793103448276,0.1530270763614238,,,,1.4428879310344827,8.434380776340111,13.883817427385893,5.585976627712855,4.705336426914153,0.6490984743411928,1.5980498374864571,1.4568436258577104,4.784759841097869,0.4271495714680675,0.24243918474687706,0.9116384180790961,,,-11.317135549872123,3.834488734835355,0.4271495714680674,2.8602201354679804,2.8602201354679804,3.0539102564102563,15.410552944429083,13.817543381259297,12.59660338983051,12.59660338983051,4.795933813219908,3.0539102564102563,0.027717991236809063,8.74835656581657,2.8602201354679804
XLNX,2008-03-29,5.342530085118873,4.536248899324919,2.544760786615791,49.37628977951559,69.2278020378457,118.6040918173613,31.558951965065503,17.817337814450084,0.6269143043336591,0.22879330943847073,0.25496904529162595,0.20055392636037797,0.2130926517571885,0.11772018743425457,0.2208996291422419,0.16789443570304677,0.7865814696485623,1.0,0.25496904529162595,0.4670874374422237,0.8764804402440484,0.3742560916270539,,,,1.8764804402440483,7.392211963067042,11.565656565656566,5.272448196469686,4.553412462908012,0.5869752319020751,1.9457468184862692,1.7930341594105828,4.341594105827194,0.3790955862442459,0.31552079939176714,0.9215146299483649,,,-12.741228070175438,6.154661016949152,0.3790955862442459,4.459888742672568,4.459888742672568,4.049115890083632,20.189661521797994,13.92611505416511,12.833118760757316,12.833118760757316,6.775648137576714,4.049115890083632,0.018776718264194327,14.026400663897961,4.459888742672568
XLNX,2007-03-31,5.603493737640079,4.351351351351352,2.095912986156889,36.10978455527216,88.68494294461453,124.79472749988669,40.0758419148344,-3.9660573595622424,0.6100287621425082,0.1876594128181473,0.23395018179844793,0.1903185542953275,0.18667130596149387,0.11030383091149273,0.19783381282788967,0.14989568845618914,0.813500347947112,1.0,0.23395018179844793,0.4424105177077436,0.7934788740339594,0.36056703819932906,,,,1.7935352851582331,10.10806363137685,9.107731305449937,4.115693012600229,4.461743341404358,0.5795747625338115,1.6053550640279395,1.2828870779976718,3.311699650756694,0.3444539492443684,0.2993433548597167,0.7991298042059464,,,-4.978339350180505,55.16,0.34445394924436845,5.714067806171377,5.714067806171377,5.497003310359798,28.883170801254636,22.979419237749546,18.36353879622915,18.36353879622915,11.153984250981841,5.497003310359798,0.011925766447685374,20.77522897634802,5.714067806171377
XLNX,2006-04-01,4.777391304347826,3.5257971014492755,2.2707246376811594,41.060649944969015,111.64967280474814,152.71032274971714,39.4384416374981,1.6222083074709133,0.6193013960493541,0.23784973643051613,0.2644963216126977,0.2051207785437062,0.22438239159001314,0.11158027414526547,0.12975924365128808,0.16142831889694184,0.775514673674989,1.0,0.2644963216126977,0.1401291948952261,0.16295943420425812,,,,,1.1629227894023233,8.889289392378991,9.25492957746479,3.2691542288557214,4.818029584147363,0.5439735308019537,1.3782033230076034,1.1895240777245846,2.8786257392283865,0.27449872917255014,0.28349649539477495,0.8630976706170821,,,-7.304477611940299,16.205298013245034,0.27449872917255014,3.609686686943457,3.609686686943457,5.706119446214447,27.818339452132165,23.320250946969697,20.12765427053535,20.12765427053535,11.102323505987224,5.706119446214447,0.009867545460248919,17.236046558046432,3.609686686943457
XLNX,2005-04-02,4.867962466487936,3.602882037533512,1.5060321715817695,49.53438850750064,117.61322228006246,167.1476107875631,40.02776331771646,9.506625189784174,0.6336765827612509,0.23449021103483347,0.2545766590389016,0.19876684464785152,0.21927840199750312,0.10288891813635168,0.11696278286889845,0.14612521891418565,0.7807740324594257,1.0,0.2545766590389016,0.12032771782047907,0.1367869833551524,,,,,1.1367869833551525,7.368618266978923,9.11867088607595,3.1033925686591277,4.566618287373005,0.51763622005791,0.7691233947515355,0.5977107761027359,2.40536013400335,0.2228973456987528,0.1751207729468599,0.7771324863883847,,,-4.486970684039088,33.19277108433735,0.2228973456987528,3.5572133906863663,3.5572133906863663,6.045137299771167,30.41320754716981,44.41947687996264,34.519818511796736,34.519818511796736,12.243901032195815,6.045137299771167,0.007328965396137414,19.54778747888445,3.5572133906863663
XLNX,2004-04-03,3.533980582524272,2.868538441353975,0.8850695355549725,65.02003147803691,70.58962264150944,135.60965411954635,53.648113207547176,11.371918270489736,0.6209042781513807,0.23401058806696237,0.25075118042638433,0.21676920875661754,0.13567760342368046,0.10314893617021277,0.12202488824453304,0.1371068690345799,0.8644793152639088,1.0,0.25075118042638433,0.15468936170212766,0.18299706012645484,,,,,1.1829970601264548,5.613654618473896,6.803594351732991,5.170731707317073,4.171292151596538,0.4758468085106383,1.2196841511562324,1.1040609137055837,2.3807106598984773,0.0,0.3094147946773501,0.9052023121387284,,,-10.548780487804878,,,4.843957955781081,4.843957955781081,8.604973529832595,39.69647524752476,30.722942528735633,27.810478612716764,27.810478612716764,15.820590191370924,8.604973529832595,,27.93117272520935,4.843957955781081
XLNX,2003-03-29,3.745379222434672,2.7829827915869982,0.6819630337794774,62.422577854671275,85.93222128378378,148.35479913845506,32.137880067567565,30.28469778710371,0.5903114186851212,0.12560553633217994,0.14697231833910035,0.10873702422145329,0.2599587992937022,0.05190568608828509,0.06443840672579074,0.08060154656292993,0.7398469688051795,1.0,0.14697231833910035,0.19445017962588265,0.24140052288921926,,,,,1.2414517865381658,5.847243297926151,11.357314148681056,4.247533632286996,3.0182767624020888,0.47735062146426066,0.9896729776247849,0.8577165806081469,1.9380378657487092,0.0,0.2984429065743945,0.8666666666666667,,,-7.5,,,4.816101912134105,4.816101912134105,8.12696366782007,74.73961813842482,31.420635451505017,27.231217391304344,27.231217391304344,29.282642183821178,8.12696366782007,,37.87962057540837,4.816101912134105
XLNX,2002-03-30,5.101123595505618,3.361082737487232,1.1762002042900919,53.33398975974793,51.88116149847643,105.21515125822435,24.010575371930454,29.323414387817476,0.4506695549428909,-0.2160299330445057,-0.19003544702638833,-0.11185506104765655,0.4111243523316062,-0.04864263081270875,-0.059673267846824606,-0.090203776406805,0.5886010362694301,1.0,-0.19003544702638833,0.18480774171448147,0.22671639438987234,,,-3385.964912280702,,1.2267689236749488,6.84366576819407,15.201634877384196,7.03530895334174,2.2578923966207203,0.4348719705403785,0.8420263788968825,0.5575539568345323,1.5278776978417266,0.0,0.2765852697912564,0.6621573513705945,,,-2.9599578503688093,,,6.36112832904344,6.36112832904344,11.923670736510436,-106.59929577464789,65.1058064516129,43.11028835884656,43.11028835884656,-39.96799670741504,11.923670736510436,,-136.87498559741906,6.36112832904344
XLNX,2001-03-31,3.1446917808219177,1.5513698630136987,0.5956050228310502,38.00891888634446,184.00426847218134,222.01318735852578,56.24889608478069,-18.23997719843623,0.5905749065927444,0.013197541279980716,0.03682053754369049,0.021272749186452933,0.0,0.014107585324914075,0.018401709847260594,0.028394832233478946,0.5777414075286416,1.0,0.03682053754369049,0.23335464790983934,0.30438409007975814,,,,,1.304384090079758,9.60300925925926,6.48901623686724,1.9836496350364963,3.9774688398849474,0.6631764047638079,1.0679309368808378,0.43758845174073024,1.0495329748089441,0.0,0.22737133903820658,0.4097535117943281,,,-1.694207453973956,,,8.742715425115987,8.742715425115987,10.10675605640593,475.10342776203964,108.48092496765847,44.45043996819507,44.45043996819507,188.65303852579783,10.10675605640593,,,8.742715425115987
XLNX,2000-04-01,4.253780138945648,3.035145075602779,0.34940743767879034,48.261508325171405,124.80338541666667,173.0648937418381,53.60937500000001,-5.347866674828602,0.623898139079334,0.3155729676787463,1.003232125367287,0.6390793339862879,0.0,0.27782508728604277,0.36725389767546573,0.4868577403869005,0.6370204041784634,1.0,1.003232125367287,0.2435493485480712,0.3219451792649294,,,,,1.3218888951426802,7.562962962962963,6.808510638297872,2.924600152322925,4.247088186356073,0.4347270714468194,0.9930131004366812,0.5746724890829694,1.769141193595342,0.0,0.3340842311459354,0.5787159190853123,,,-2.373695198329854,,,13.848654809478246,13.848654809478246,24.09882957884427,37.70866666666666,124.64490881458967,72.13399296394019,72.13399296394019,14.557939870750209,24.09882957884427,,,13.848654809478246
XLNX,1999-04-03,3.9336124401913874,2.805023923444976,0.32057416267942584,36.66540785498489,75.52725825706327,112.19266611204816,33.84202148826104,2.8233863667238523,0.620392749244713,0.27492447129909364,0.28610271903323264,0.15498489425981873,0.0,0.09586993085404598,0.11668372569089049,0.2097452934662237,0.5417106652587117,1.0,0.28610271903323264,0.17837787329471128,0.2171045149550779,,,,,1.2171045149550779,9.954887218045112,10.785407725321889,4.832692307692308,6.509341199606686,0.6185759671089516,0.7893713545042126,0.6568373298768633,1.3042773817239144,0.0,0.36797583081570995,0.8321018062397373,,,-5.9559902200489,,,8.268640964403502,8.268640964403502,10.982803625377642,70.8637037037037,35.86885051800691,29.84653530377668,29.84653530377668,24.57829610897776,10.982803625377642,,,8.268640964403502
XLNX,1998-03-31,4.774860779634049,3.365950676213206,1.3277645186953062,36.22636897001304,87.49241439098395,123.718783360997,32.117468573905505,4.108900396107536,0.6240221642764016,0.28340938722294656,0.2943285528031291,0.20632333767926989,0.0,0.1345091372715682,0.2300981461286805,0.22145922746781116,0.7009966777408638,1.0,0.2943285528031291,0.41553336166595833,0.7108324245728825,0.3124218945263684,,,,1.7106506724827335,10.075533661740558,11.364532019704434,4.1717902350813745,6.949037372593431,0.6519337016574586,0.6825,0.5896875,1.131875,0.0,0.3559322033898305,0.864010989010989,,,-7.353535353535354,,,6.653580516175936,6.653580516175936,5.966101694915254,28.916271721958925,19.40010598834128,16.761904761904763,16.761904761904763,10.39978303009481,5.966101694915254,,,6.653580516175936
XLNX,1997-03-31,6.182939362795478,5.118191161356629,2.218910585817061,46.38795986622074,106.28091460569296,152.66887447191368,28.614092393840412,17.773867472380328,0.6227776799859179,0.28005632811124803,0.29185002640380214,0.19433198380566802,0.0,0.13023475286068184,0.22498471571224782,0.22094882729211088,0.6658624849215923,1.0,0.29185002640380214,0.42113955408753095,0.7275320970042796,0.33751856352099363,,,,1.7275320970042796,7.868421052631579,12.755952380952381,3.434294871794872,6.560046189376443,0.6701663324289253,0.4392845936617509,0.3551929714465014,1.3360527141512395,0.0,0.24643548671008625,0.8085714285714286,,,-5.223880597014926,,,7.956134094151212,7.956134094151212,6.872161591269142,35.3629981884058,34.48829505300353,27.88625,27.88625,12.66669010693445,6.872161591269142,,,7.956134094151212
XLNX,1996-03-31,5.250487329434698,4.45906432748538,1.0808966861598441,51.743045649072755,70.41338582677166,122.15643147584441,55.14517716535433,-3.402131516281578,0.637660485021398,0.2956490727532097,0.3047432239657632,0.18099144079885876,0.0,0.14079622693854904,0.27566539923954375,0.27640304059518034,0.5939145699239321,1.0,0.3047432239657632,0.4891108336801221,0.957631721890277,0.4043998705920414,,,,1.9579033134166215,7.054088050314466,6.618892508143323,5.183673469387755,6.789346246973365,0.7779164932722985,0.4759341355288157,0.28435718809373023,1.1969601013299556,0.0,0.2680099857346648,0.5974717232202262,,,-2.484297520661157,,,7.907865290602934,7.907865290602934,5.192004279600571,28.686463054187193,32.42400890868597,19.372428476380573,19.372428476380573,10.181719620693809,5.192004279600571,,,7.907865290602934
XLNX,1995-04-01,3.366622864651774,2.1918528252299607,0.7450722733245729,45.123908758096306,67.46570397111914,112.58961272921545,59.29602888086642,-14.172120122770117,0.6099690228104759,0.2590819487468319,0.26696705153477895,0.16699521261616446,0.0,0.18479277033343722,0.2430327868852459,0.3872549019607843,0.6255274261603375,1.0,0.26696705153477895,0.23995014023060143,0.3155737704918033,0.0036749693752552064,,,,1.3151639344262296,8.08883826879271,6.155555555555556,5.41015625,9.058673469387756,1.106575257089436,0.29510395707578807,0.20724346076458752,0.4121395036887995,0.0,0.2478175161926218,0.7022727272727273,,,-3.3587786259541983,,,7.894967213114754,7.894967213114754,5.424871867079696,32.48519392917369,31.171067961165047,21.890590909090907,21.890590909090907,10.887423242123736,5.424871867079696,,,7.894967213114754
XLNX,1994-03-31,3.8003913894324852,2.964774951076321,0.9256360078277887,51.10569422776911,98.26923076923077,149.37492499699988,39.89878542510122,11.206908802667897,0.6146645865834633,0.2542901716068643,0.2628705148205928,0.1610764430577223,0.0,0.1825817860300619,0.2388663967611336,0.38492290119931466,0.612759643916914,1.0,0.2628705148205928,0.23563218390804597,0.3082706766917293,0.012564249000571102,,,,1.3082706766917294,7.142061281337047,9.148148148148149,3.7142857142857144,10.77310924369748,1.1335101679929267,0.14953271028037382,0.10695742471443406,0.4001384562132226,0.0,0.1684867394695788,0.7152777777777778,,,-3.5121951219512195,,,7.736304222093695,7.736304222093695,5.2168759750390015,32.387578692493946,43.28825242718447,30.963125,30.963125,10.516180370060692,5.2168759750390015,,,7.736304222093695
XLNX,1993-03-31,3.831932773109244,3.134453781512605,0.8403361344537815,55.57022471910112,68.99711399711398,124.5673387162151,32.65512265512265,22.915102063978466,0.6106741573033708,0.23370786516853934,0.2449438202247191,0.15280898876404495,0.0,0.16697360343769183,0.22060016220600162,0.34276729559748426,0.6238532110091743,1.0,0.2449438202247191,0.2430939226519337,0.32116788321167883,0.030660377358490566,,,,1.3211678832116789,6.568265682656826,11.17741935483871,5.290076335877862,8.682926829268293,1.092694904849601,0.10479887085391673,0.07021877205363444,0.2992237120677488,0.0,0.16685393258426967,0.67003367003367,,,-3.0306122448979593,,,6.090916463909164,6.090916463909164,4.219157303370786,27.61066176470588,37.7391959798995,25.286531986531983,25.286531986531983,8.794449614068723,4.219157303370786,,,6.090916463909164
XLNX,1992-03-31,3.6787878787878787,3.106060606060606,0.706060606060606,56.7120765832106,68.08653846153845,124.79861504474906,47.730769230769226,8.981307352441377,0.6170839469808542,0.22164948453608246,0.24889543446244478,0.1568483063328424,0.0,0.14529331514324692,0.19595216191352346,0.2975352112676056,0.6301775147928994,1.0,0.24889543446244478,0.25852660300136426,0.3486660533578657,0.04397537379067722,,,,1.3486660533578656,6.436018957345971,7.647058823529412,5.360824742268041,8.083333333333334,0.9263301500682128,0.08486956521739131,0.05982608695652174,0.2831304347826087,0.0,0.1796759941089838,0.7049180327868853,,,-3.388888888888889,,,5.951011959521619,5.951011959521619,4.763438880706922,30.369718309859152,37.60901162790697,26.511270491803277,26.511270491803277,9.813199229091888,4.763438880706922,,,5.951011959521619
XLNX,1991-03-31,4.044715447154472,3.4390243902439024,1.0284552845528456,47.868852459016395,85.546875,133.4157274590164,50.37760416666667,-2.5087517076502763,0.6075819672131147,0.23155737704918034,0.26331967213114754,0.16290983606557377,0.0,0.1424731182795699,0.1908763505402161,0.29540229885057473,0.6186770428015564,1.0,0.26331967213114754,0.25448028673835127,0.34093637454981995,0.04362801377726751,,,,1.339735894357743,7.625,7.245283018867925,4.266666666666667,9.20754716981132,0.8745519713261649,0.0797523670793882,0.06482155863073562,0.2614712308812819,0.0,0.22438524590163936,0.8127853881278538,,,-5.341463414634147,,,5.900768307322929,5.900768307322929,5.036209016393443,30.914088050314465,27.614269662921348,22.444474885844752,22.444474885844752,9.540891911903739,5.036209016393443,,,5.900768307322929
