[{"Date": "2019-08-23", "Open": "47.900001525878906", "High": "48.52000045776367", "Low": "46.43000030517578", "Close": "46.61000061035156", "Adj Close": "45.13517379760742", "Volume": "25871100"},
{"Date": "2019-08-26", "Open": "47.04999923706055", "High": "47.27000045776367", "Low": "46.66999816894531", "Close": "47.099998474121094", "Adj Close": "45.60967254638672", "Volume": "14820100"},
{"Date": "2019-08-27", "Open": "47.540000915527344", "High": "47.650001525878906", "Low": "46.689998626708984", "Close": "46.790000915527344", "Adj Close": "45.30948257446289", "Volume": "20859000"},
{"Date": "2019-08-28", "Open": "46.529998779296875", "High": "46.959999084472656", "Low": "46.2400016784668", "Close": "46.869998931884766", "Adj Close": "45.3869514465332", "Volume": "11187600"},
{"Date": "2019-08-29", "Open": "47.59000015258789", "High": "47.90999984741211", "Low": "47.11000061035156", "Close": "47.27000045776367", "Adj Close": "45.7742919921875", "Volume": "14733400"},
{"Date": "2019-08-30", "Open": "47.52000045776367", "High": "47.56999969482422", "Low": "46.54999923706055", "Close": "46.810001373291016", "Adj Close": "45.32884979248047", "Volume": "19248400"},
{"Date": "2019-09-03", "Open": "46.630001068115234", "High": "46.970001220703125", "Low": "46.20000076293945", "Close": "46.5", "Adj Close": "45.028656005859375", "Volume": "17009400"},
{"Date": "2019-09-04", "Open": "47.02000045776367", "High": "47.40999984741211", "Low": "46.88999938964844", "Close": "47.31999969482422", "Adj Close": "45.82271194458008", "Volume": "13691300"},
{"Date": "2019-09-05", "Open": "48.02000045776367", "High": "48.709999084472656", "Low": "47.779998779296875", "Close": "48.41999816894531", "Adj Close": "46.88790512084961", "Volume": "18434200"},
{"Date": "2019-09-06", "Open": "48.650001525878906", "High": "48.9900016784668", "Low": "48.27000045776367", "Close": "48.84000015258789", "Adj Close": "47.294612884521484", "Volume": "17939100"},
{"Date": "2019-09-09", "Open": "48.970001220703125", "High": "49.0099983215332", "Low": "48.459999084472656", "Close": "48.58000183105469", "Adj Close": "47.042842864990234", "Volume": "21175100"},
{"Date": "2019-09-10", "Open": "48.56999969482422", "High": "49.349998474121094", "Low": "47.95000076293945", "Close": "49.209999084472656", "Adj Close": "47.65290832519531", "Volume": "16119200"},
{"Date": "2019-09-11", "Open": "49.95000076293945", "High": "50.06999969482422", "Low": "49.33000183105469", "Close": "50.029998779296875", "Adj Close": "48.44696044921875", "Volume": "18656000"},
{"Date": "2019-09-12", "Open": "50.279998779296875", "High": "50.29999923706055", "Low": "49.40999984741211", "Close": "49.93000030517578", "Adj Close": "48.350128173828125", "Volume": "16546700"},
{"Date": "2019-09-13", "Open": "50.0099983215332", "High": "50.220001220703125", "Low": "49.7599983215332", "Close": "50.029998779296875", "Adj Close": "48.44696044921875", "Volume": "15867800"},
{"Date": "2019-09-16", "Open": "49.79999923706055", "High": "50.18000030517578", "Low": "49.790000915527344", "Close": "49.959999084472656", "Adj Close": "48.37917709350586", "Volume": "13025600"},
{"Date": "2019-09-17", "Open": "49.97999954223633", "High": "50.02000045776367", "Low": "49.18000030517578", "Close": "49.40999984741211", "Adj Close": "47.846580505371094", "Volume": "16070600"},
{"Date": "2019-09-18", "Open": "49.470001220703125", "High": "49.7400016784668", "Low": "48.779998779296875", "Close": "49.34000015258789", "Adj Close": "47.7787971496582", "Volume": "12563800"},
{"Date": "2019-09-19", "Open": "49.349998474121094", "High": "49.91999816894531", "Low": "49.040000915527344", "Close": "49.189998626708984", "Adj Close": "47.633541107177734", "Volume": "15349400"},
{"Date": "2019-09-20", "Open": "49.290000915527344", "High": "49.869998931884766", "Low": "48.869998931884766", "Close": "49.599998474121094", "Adj Close": "48.03056335449219", "Volume": "48301300"},
{"Date": "2019-09-23", "Open": "49.65999984741211", "High": "49.75", "Low": "49.279998779296875", "Close": "49.41999816894531", "Adj Close": "47.856258392333984", "Volume": "16450000"},
{"Date": "2019-09-24", "Open": "49.75", "High": "50.20000076293945", "Low": "48.93000030517578", "Close": "49.119998931884766", "Adj Close": "47.56575393676758", "Volume": "26717200"},
{"Date": "2019-09-25", "Open": "49.04999923706055", "High": "49.77000045776367", "Low": "48.58000183105469", "Close": "49.61000061035156", "Adj Close": "48.040252685546875", "Volume": "14013500"},
{"Date": "2019-09-26", "Open": "49.43000030517578", "High": "49.4900016784668", "Low": "48.2599983215332", "Close": "48.83000183105469", "Adj Close": "47.28493118286133", "Volume": "20172900"},
{"Date": "2019-09-27", "Open": "49.0", "High": "49.470001220703125", "Low": "48.599998474121094", "Close": "48.84000015258789", "Adj Close": "47.294612884521484", "Volume": "16065300"},
{"Date": "2019-09-30", "Open": "48.95000076293945", "High": "49.65999984741211", "Low": "48.95000076293945", "Close": "49.40999984741211", "Adj Close": "47.846580505371094", "Volume": "14903600"},
{"Date": "2019-10-01", "Open": "49.650001525878906", "High": "49.869998931884766", "Low": "47.36000061035156", "Close": "47.7400016784668", "Adj Close": "46.229427337646484", "Volume": "24185600"},
{"Date": "2019-10-02", "Open": "47.349998474121094", "High": "47.380001068115234", "Low": "46.0099983215332", "Close": "46.560001373291016", "Adj Close": "45.086761474609375", "Volume": "30722400"},
{"Date": "2019-10-03", "Open": "46.31999969482422", "High": "47.08000183105469", "Low": "45.70000076293945", "Close": "47.060001373291016", "Adj Close": "45.91609573364258", "Volume": "15915500"},
{"Date": "2019-10-04", "Open": "47.25", "High": "47.630001068115234", "Low": "46.95000076293945", "Close": "47.52000045776367", "Adj Close": "46.36491394042969", "Volume": "16718800"},
{"Date": "2019-10-07", "Open": "47.470001220703125", "High": "48.130001068115234", "Low": "47.31999969482422", "Close": "47.77000045776367", "Adj Close": "46.60884094238281", "Volume": "14625200"},
{"Date": "2019-10-08", "Open": "47.5", "High": "47.540000915527344", "Low": "46.349998474121094", "Close": "46.38999938964844", "Adj Close": "45.26238250732422", "Volume": "23022400"},
{"Date": "2019-10-09", "Open": "46.91999816894531", "High": "47.16999816894531", "Low": "46.65999984741211", "Close": "46.84000015258789", "Adj Close": "45.70144271850586", "Volume": "16768600"},
{"Date": "2019-10-10", "Open": "46.04999923706055", "High": "46.22999954223633", "Low": "45.54999923706055", "Close": "46.150001525878906", "Adj Close": "45.02821731567383", "Volume": "24698500"},
{"Date": "2019-10-11", "Open": "46.66999816894531", "High": "47.29999923706055", "Low": "46.459999084472656", "Close": "46.560001373291016", "Adj Close": "45.428253173828125", "Volume": "25153600"},
{"Date": "2019-10-14", "Open": "46.54999923706055", "High": "46.54999923706055", "Low": "46.0", "Close": "46.04999923706055", "Adj Close": "44.93064498901367", "Volume": "15076900"},
{"Date": "2019-10-15", "Open": "46.25", "High": "46.58000183105469", "Low": "46.040000915527344", "Close": "46.36000061035156", "Adj Close": "45.23311233520508", "Volume": "18794400"},
{"Date": "2019-10-16", "Open": "46.36000061035156", "High": "46.880001068115234", "Low": "46.31999969482422", "Close": "46.790000915527344", "Adj Close": "45.65266036987305", "Volume": "16454200"},
{"Date": "2019-10-17", "Open": "47.150001525878906", "High": "47.29999923706055", "Low": "46.599998474121094", "Close": "47.029998779296875", "Adj Close": "45.88682556152344", "Volume": "14352400"},
{"Date": "2019-10-18", "Open": "47.099998474121094", "High": "47.27000045776367", "Low": "46.65999984741211", "Close": "46.709999084472656", "Adj Close": "45.57460403442383", "Volume": "17226200"},
{"Date": "2019-10-21", "Open": "47.13999938964844", "High": "47.47999954223633", "Low": "46.970001220703125", "Close": "47.38999938964844", "Adj Close": "46.238075256347656", "Volume": "13277700"},
{"Date": "2019-10-22", "Open": "47.5", "High": "47.88999938964844", "Low": "47.400001525878906", "Close": "47.54999923706055", "Adj Close": "46.39418411254883", "Volume": "15067100"},
{"Date": "2019-10-23", "Open": "47.470001220703125", "High": "47.70000076293945", "Low": "46.84000015258789", "Close": "47.04999923706055", "Adj Close": "45.90633773803711", "Volume": "15647100"},
{"Date": "2019-10-24", "Open": "47.22999954223633", "High": "47.22999954223633", "Low": "46.099998474121094", "Close": "46.40999984741211", "Adj Close": "45.281898498535156", "Volume": "18338800"},
{"Date": "2019-10-25", "Open": "46.540000915527344", "High": "46.9900016784668", "Low": "46.459999084472656", "Close": "46.900001525878906", "Adj Close": "45.75998306274414", "Volume": "15701200"},
{"Date": "2019-10-28", "Open": "47.150001525878906", "High": "47.599998474121094", "Low": "47.060001373291016", "Close": "47.16999816894531", "Adj Close": "46.02342224121094", "Volume": "13859700"},
{"Date": "2019-10-29", "Open": "47.0", "High": "47.43000030517578", "Low": "46.90999984741211", "Close": "47.2400016784668", "Adj Close": "46.09172439575195", "Volume": "13713900"},
{"Date": "2019-10-30", "Open": "47.29999923706055", "High": "47.58000183105469", "Low": "47.15999984741211", "Close": "47.560001373291016", "Adj Close": "46.40394592285156", "Volume": "12062000"},
{"Date": "2019-10-31", "Open": "47.599998474121094", "High": "47.650001525878906", "Low": "47.099998474121094", "Close": "47.5099983215332", "Adj Close": "46.35515594482422", "Volume": "12488300"},
{"Date": "2019-11-01", "Open": "46.849998474121094", "High": "47.4900016784668", "Low": "46.63999938964844", "Close": "47.029998779296875", "Adj Close": "45.88682556152344", "Volume": "24404100"},
{"Date": "2019-11-04", "Open": "47.5", "High": "47.880001068115234", "Low": "47.31999969482422", "Close": "47.47999954223633", "Adj Close": "46.325889587402344", "Volume": "15018900"},
{"Date": "2019-11-05", "Open": "47.59000015258789", "High": "47.91999816894531", "Low": "47.2599983215332", "Close": "47.7599983215332", "Adj Close": "46.59907913208008", "Volume": "18988900"},
{"Date": "2019-11-06", "Open": "47.810001373291016", "High": "48.5", "Low": "47.790000915527344", "Close": "48.27000045776367", "Adj Close": "47.096683502197266", "Volume": "15904500"},
{"Date": "2019-11-07", "Open": "48.61000061035156", "High": "48.97999954223633", "Low": "48.20000076293945", "Close": "48.41999816894531", "Adj Close": "47.243038177490234", "Volume": "16717800"},
{"Date": "2019-11-08", "Open": "48.41999816894531", "High": "48.849998474121094", "Low": "48.04999923706055", "Close": "48.83000183105469", "Adj Close": "47.64307403564453", "Volume": "14407000"},
{"Date": "2019-11-11", "Open": "48.0099983215332", "High": "48.470001220703125", "Low": "47.560001373291016", "Close": "48.099998474121094", "Adj Close": "46.930816650390625", "Volume": "19590400"},
{"Date": "2019-11-12", "Open": "48.290000915527344", "High": "48.7400016784668", "Low": "48.119998931884766", "Close": "48.369998931884766", "Adj Close": "47.194252014160156", "Volume": "15632900"},
{"Date": "2019-11-13", "Open": "48.2400016784668", "High": "48.849998474121094", "Low": "48.150001525878906", "Close": "48.459999084472656", "Adj Close": "47.28206253051758", "Volume": "25187000"},
{"Date": "2019-11-14", "Open": "45.560001373291016", "High": "46.0", "Low": "44.599998474121094", "Close": "44.90999984741211", "Adj Close": "43.818355560302734", "Volume": "65568900"},
{"Date": "2019-11-15", "Open": "45.06999969482422", "High": "45.650001525878906", "Low": "44.810001373291016", "Close": "45.09000015258789", "Adj Close": "43.99398422241211", "Volume": "32385000"},
{"Date": "2019-11-18", "Open": "44.97999954223633", "High": "45.189998626708984", "Low": "44.439998626708984", "Close": "45.150001525878906", "Adj Close": "44.05252456665039", "Volume": "22742800"},
{"Date": "2019-11-19", "Open": "45.38999938964844", "High": "45.599998474121094", "Low": "45.08000183105469", "Close": "45.470001220703125", "Adj Close": "44.36474609375", "Volume": "19612600"},
{"Date": "2019-11-20", "Open": "45.689998626708984", "High": "45.7400016784668", "Low": "44.93000030517578", "Close": "45.08000183105469", "Adj Close": "43.98422622680664", "Volume": "18660800"},
{"Date": "2019-11-21", "Open": "45.130001068115234", "High": "45.150001525878906", "Low": "44.689998626708984", "Close": "44.84000015258789", "Adj Close": "43.750057220458984", "Volume": "19868800"},
{"Date": "2019-11-22", "Open": "45.150001525878906", "High": "45.16999816894531", "Low": "44.689998626708984", "Close": "44.849998474121094", "Adj Close": "43.75981521606445", "Volume": "18725700"},
{"Date": "2019-11-25", "Open": "45.0", "High": "45.54999923706055", "Low": "44.93000030517578", "Close": "45.45000076293945", "Adj Close": "44.34523391723633", "Volume": "19653300"},
{"Date": "2019-11-26", "Open": "45.529998779296875", "High": "45.77000045776367", "Low": "45.25", "Close": "45.310001373291016", "Adj Close": "44.20863342285156", "Volume": "29422000"},
{"Date": "2019-11-27", "Open": "45.36000061035156", "High": "45.41999816894531", "Low": "44.93000030517578", "Close": "45.2400016784668", "Adj Close": "44.14033889770508", "Volume": "14889900"},
{"Date": "2019-11-29", "Open": "45.2400016784668", "High": "45.540000915527344", "Low": "45.150001525878906", "Close": "45.310001373291016", "Adj Close": "44.20863342285156", "Volume": "9808900"},
{"Date": "2019-12-02", "Open": "45.25", "High": "45.33000183105469", "Low": "44.66999816894531", "Close": "44.70000076293945", "Adj Close": "43.613460540771484", "Volume": "17630100"},
{"Date": "2019-12-03", "Open": "44.400001525878906", "High": "44.4900016784668", "Low": "43.7400016784668", "Close": "44.279998779296875", "Adj Close": "43.203670501708984", "Volume": "19625500"},
{"Date": "2019-12-04", "Open": "44.52000045776367", "High": "44.54999923706055", "Low": "43.86000061035156", "Close": "43.88999938964844", "Adj Close": "42.823150634765625", "Volume": "17202200"},
{"Date": "2019-12-05", "Open": "44.04999923706055", "High": "44.099998474121094", "Low": "43.400001525878906", "Close": "43.52000045776367", "Adj Close": "42.4621467590332", "Volume": "22632800"},
{"Date": "2019-12-06", "Open": "43.88999938964844", "High": "44.060001373291016", "Low": "43.650001525878906", "Close": "43.84000015258789", "Adj Close": "42.77436447143555", "Volume": "16541000"},
{"Date": "2019-12-09", "Open": "43.88999938964844", "High": "44.369998931884766", "Low": "43.75", "Close": "43.900001525878906", "Adj Close": "42.832908630371094", "Volume": "17508500"},
{"Date": "2019-12-10", "Open": "43.849998474121094", "High": "44.18000030517578", "Low": "43.79999923706055", "Close": "44.099998474121094", "Adj Close": "43.02804183959961", "Volume": "21862400"},
{"Date": "2019-12-11", "Open": "44.36000061035156", "High": "44.45000076293945", "Low": "44.150001525878906", "Close": "44.279998779296875", "Adj Close": "43.203670501708984", "Volume": "16440500"},
{"Date": "2019-12-12", "Open": "44.54999923706055", "High": "45.77000045776367", "Low": "44.40999984741211", "Close": "45.66999816894531", "Adj Close": "44.559879302978516", "Volume": "27061600"},
{"Date": "2019-12-13", "Open": "45.90999984741211", "High": "46.04999923706055", "Low": "45.20000076293945", "Close": "45.29999923706055", "Adj Close": "44.198875427246094", "Volume": "21796900"},
{"Date": "2019-12-16", "Open": "45.79999923706055", "High": "46.59000015258789", "Low": "45.79999923706055", "Close": "45.97999954223633", "Adj Close": "44.86234664916992", "Volume": "21871300"},
{"Date": "2019-12-17", "Open": "46.220001220703125", "High": "46.52000045776367", "Low": "45.93000030517578", "Close": "46.439998626708984", "Adj Close": "45.31116485595703", "Volume": "22510000"},
{"Date": "2019-12-18", "Open": "46.52000045776367", "High": "46.7599983215332", "Low": "46.25", "Close": "46.63999938964844", "Adj Close": "45.50630569458008", "Volume": "21921200"},
{"Date": "2019-12-19", "Open": "47.150001525878906", "High": "47.9900016784668", "Low": "47.11000061035156", "Close": "47.880001068115234", "Adj Close": "46.71616744995117", "Volume": "30764700"},
{"Date": "2019-12-20", "Open": "48.25", "High": "48.369998931884766", "Low": "47.41999816894531", "Close": "47.45000076293945", "Adj Close": "46.2966194152832", "Volume": "52575300"},
{"Date": "2019-12-23", "Open": "47.54999923706055", "High": "48.29999923706055", "Low": "47.41999816894531", "Close": "48.099998474121094", "Adj Close": "46.930816650390625", "Volume": "20253500"},
{"Date": "2019-12-24", "Open": "48.15999984741211", "High": "48.25", "Low": "47.650001525878906", "Close": "47.779998779296875", "Adj Close": "46.61859130859375", "Volume": "7044700"},
{"Date": "2019-12-26", "Open": "47.779998779296875", "High": "48.0", "Low": "47.650001525878906", "Close": "47.849998474121094", "Adj Close": "46.686893463134766", "Volume": "11091700"},
{"Date": "2019-12-27", "Open": "47.9900016784668", "High": "48.02000045776367", "Low": "47.68000030517578", "Close": "47.77000045776367", "Adj Close": "46.60884094238281", "Volume": "11056800"},
{"Date": "2019-12-30", "Open": "47.75", "High": "47.880001068115234", "Low": "47.290000915527344", "Close": "47.59000015258789", "Adj Close": "46.43321228027344", "Volume": "12128600"},
{"Date": "2019-12-31", "Open": "47.540000915527344", "High": "47.97999954223633", "Low": "47.40999984741211", "Close": "47.959999084472656", "Adj Close": "46.794219970703125", "Volume": "14892600"},
{"Date": "2020-01-02", "Open": "48.060001373291016", "High": "48.41999816894531", "Low": "47.880001068115234", "Close": "48.41999816894531", "Adj Close": "47.59033966064453", "Volume": "16708100"},
{"Date": "2020-01-03", "Open": "47.90999984741211", "High": "48.13999938964844", "Low": "47.47999954223633", "Close": "47.630001068115234", "Adj Close": "46.81387710571289", "Volume": "15577400"},
{"Date": "2020-01-06", "Open": "47.13999938964844", "High": "47.81999969482422", "Low": "47.0099983215332", "Close": "47.79999923706055", "Adj Close": "46.98096466064453", "Volume": "22183600"},
{"Date": "2020-01-07", "Open": "47.720001220703125", "High": "47.720001220703125", "Low": "47.099998474121094", "Close": "47.4900016784668", "Adj Close": "46.67627716064453", "Volume": "16501900"},
{"Date": "2020-01-08", "Open": "46.970001220703125", "High": "47.790000915527344", "Low": "46.810001373291016", "Close": "47.52000045776367", "Adj Close": "46.70576477050781", "Volume": "25175900"},
{"Date": "2020-01-09", "Open": "47.790000915527344", "High": "47.880001068115234", "Low": "47.06999969482422", "Close": "47.31999969482422", "Adj Close": "46.509185791015625", "Volume": "18203600"},
{"Date": "2020-01-10", "Open": "47.47999954223633", "High": "47.560001373291016", "Low": "47.060001373291016", "Close": "47.130001068115234", "Adj Close": "46.322444915771484", "Volume": "13502600"},
{"Date": "2020-01-13", "Open": "47.310001373291016", "High": "47.97999954223633", "Low": "47.29999923706055", "Close": "47.970001220703125", "Adj Close": "47.14805221557617", "Volume": "18237400"},
{"Date": "2020-01-14", "Open": "47.959999084472656", "High": "47.9900016784668", "Low": "47.619998931884766", "Close": "47.790000915527344", "Adj Close": "46.97113800048828", "Volume": "17948700"},
{"Date": "2020-01-15", "Open": "47.91999816894531", "High": "48.400001525878906", "Low": "47.7599983215332", "Close": "48.0099983215332", "Adj Close": "47.1873664855957", "Volume": "16289400"},
{"Date": "2020-01-16", "Open": "48.380001068115234", "High": "49.08000183105469", "Low": "48.22999954223633", "Close": "49.04999923706055", "Adj Close": "48.20954513549805", "Volume": "20094900"},
{"Date": "2020-01-17", "Open": "49.310001373291016", "High": "49.540000915527344", "Low": "48.869998931884766", "Close": "49.02000045776367", "Adj Close": "48.180057525634766", "Volume": "27176200"},
{"Date": "2020-01-21", "Open": "48.959999084472656", "High": "49.20000076293945", "Low": "48.66999816894531", "Close": "48.79999923706055", "Adj Close": "47.963829040527344", "Volume": "21771800"},
{"Date": "2020-01-22", "Open": "49.279998779296875", "High": "49.529998779296875", "Low": "49.040000915527344", "Close": "49.06999969482422", "Adj Close": "48.22920227050781", "Volume": "15186000"},
{"Date": "2020-01-23", "Open": "49.0", "High": "49.18000030517578", "Low": "48.40999984741211", "Close": "49.0", "Adj Close": "48.160400390625", "Volume": "16767700"},
{"Date": "2020-01-24", "Open": "49.220001220703125", "High": "49.47999954223633", "Low": "48.540000915527344", "Close": "48.849998474121094", "Adj Close": "48.01297378540039", "Volume": "14066700"},
{"Date": "2020-01-27", "Open": "47.88999938964844", "High": "48.06999969482422", "Low": "47.27000045776367", "Close": "47.470001220703125", "Adj Close": "46.656620025634766", "Volume": "20666000"},
{"Date": "2020-01-28", "Open": "47.52000045776367", "High": "47.970001220703125", "Low": "47.5", "Close": "47.77000045776367", "Adj Close": "46.95147705078125", "Volume": "14035100"},
{"Date": "2020-01-29", "Open": "47.970001220703125", "High": "47.97999954223633", "Low": "46.93000030517578", "Close": "47.04999923706055", "Adj Close": "46.24381637573242", "Volume": "14273600"},
{"Date": "2020-01-30", "Open": "46.540000915527344", "High": "47.27000045776367", "Low": "46.2599983215332", "Close": "47.2400016784668", "Adj Close": "46.43056106567383", "Volume": "14822600"},
{"Date": "2020-01-31", "Open": "46.9900016784668", "High": "47.0", "Low": "45.84000015258789", "Close": "45.970001220703125", "Adj Close": "45.18231964111328", "Volume": "20069900"},
{"Date": "2020-02-03", "Open": "46.400001525878906", "High": "46.83000183105469", "Low": "46.209999084472656", "Close": "46.529998779296875", "Adj Close": "45.732723236083984", "Volume": "15383500"},
{"Date": "2020-02-04", "Open": "47.220001220703125", "High": "47.709999084472656", "Low": "47.11000061035156", "Close": "47.619998931884766", "Adj Close": "46.804046630859375", "Volume": "13947300"},
{"Date": "2020-02-05", "Open": "48.33000183105469", "High": "48.599998474121094", "Low": "48.150001525878906", "Close": "48.45000076293945", "Adj Close": "47.61982727050781", "Volume": "17042300"},
{"Date": "2020-02-06", "Open": "48.689998626708984", "High": "48.81999969482422", "Low": "48.220001220703125", "Close": "48.689998626708984", "Adj Close": "47.855716705322266", "Volume": "9814800"},
{"Date": "2020-02-07", "Open": "48.599998474121094", "High": "48.77000045776367", "Low": "47.869998931884766", "Close": "47.970001220703125", "Adj Close": "47.14805221557617", "Volume": "16807500"},
{"Date": "2020-02-10", "Open": "47.9900016784668", "High": "48.88999938964844", "Low": "47.880001068115234", "Close": "48.869998931884766", "Adj Close": "48.032630920410156", "Volume": "19012700"},
{"Date": "2020-02-11", "Open": "49.38999938964844", "High": "49.709999084472656", "Low": "48.86000061035156", "Close": "49.130001068115234", "Adj Close": "48.288177490234375", "Volume": "23168300"},
{"Date": "2020-02-12", "Open": "49.43000030517578", "High": "50.279998779296875", "Low": "49.400001525878906", "Close": "49.93000030517578", "Adj Close": "49.074466705322266", "Volume": "31686200"},
{"Date": "2020-02-13", "Open": "47.150001525878906", "High": "47.66999816894531", "Low": "46.58000183105469", "Close": "47.31999969482422", "Adj Close": "46.509185791015625", "Volume": "47044700"},
{"Date": "2020-02-14", "Open": "47.15999984741211", "High": "47.220001220703125", "Low": "46.47999954223633", "Close": "46.970001220703125", "Adj Close": "46.16518783569336", "Volume": "26747200"},
{"Date": "2020-02-18", "Open": "46.81999969482422", "High": "46.849998474121094", "Low": "46.290000915527344", "Close": "46.59000015258789", "Adj Close": "45.79169845581055", "Volume": "18546300"},
{"Date": "2020-02-19", "Open": "46.689998626708984", "High": "46.810001373291016", "Low": "45.900001525878906", "Close": "46.290000915527344", "Adj Close": "45.4968376159668", "Volume": "27626400"},
{"Date": "2020-02-20", "Open": "46.09000015258789", "High": "46.959999084472656", "Low": "45.900001525878906", "Close": "46.849998474121094", "Adj Close": "46.047237396240234", "Volume": "20416700"},
{"Date": "2020-02-21", "Open": "46.72999954223633", "High": "46.849998474121094", "Low": "46.04999923706055", "Close": "46.29999923706055", "Adj Close": "45.50666427612305", "Volume": "20028700"},
{"Date": "2020-02-24", "Open": "45.0", "High": "45.68000030517578", "Low": "44.0", "Close": "44.0", "Adj Close": "43.24607849121094", "Volume": "35295900"},
{"Date": "2020-02-25", "Open": "44.04999923706055", "High": "44.209999084472656", "Low": "42.06999969482422", "Close": "42.7400016784668", "Adj Close": "42.007667541503906", "Volume": "48024700"},
{"Date": "2020-02-26", "Open": "42.970001220703125", "High": "43.380001068115234", "Low": "41.939998626708984", "Close": "42.15999984741211", "Adj Close": "41.43760299682617", "Volume": "38513200"},
{"Date": "2020-02-27", "Open": "41.279998779296875", "High": "42.099998474121094", "Low": "40.0099983215332", "Close": "40.040000915527344", "Adj Close": "39.35392761230469", "Volume": "51423000"},
{"Date": "2020-02-28", "Open": "38.70000076293945", "High": "40.54999923706055", "Low": "38.349998474121094", "Close": "39.93000030517578", "Adj Close": "39.24581527709961", "Volume": "80194000"},
{"Date": "2020-03-02", "Open": "40.150001525878906", "High": "41.189998626708984", "Low": "38.91999816894531", "Close": "41.16999816894531", "Adj Close": "40.46456527709961", "Volume": "48864300"},
{"Date": "2020-03-03", "Open": "41.2599983215332", "High": "41.900001525878906", "Low": "39.709999084472656", "Close": "40.040000915527344", "Adj Close": "39.35392761230469", "Volume": "49294700"},
{"Date": "2020-03-04", "Open": "40.720001220703125", "High": "41.45000076293945", "Low": "39.79999923706055", "Close": "41.38999938964844", "Adj Close": "40.68079376220703", "Volume": "30022100"},
{"Date": "2020-03-05", "Open": "40.16999816894531", "High": "40.5099983215332", "Low": "39.290000915527344", "Close": "39.56999969482422", "Adj Close": "38.8919792175293", "Volume": "30255900"},
{"Date": "2020-03-06", "Open": "38.0", "High": "39.95000076293945", "Low": "37.79999923706055", "Close": "39.68000030517578", "Adj Close": "39.000099182128906", "Volume": "48605600"},
{"Date": "2020-03-09", "Open": "36.900001525878906", "High": "39.560001373291016", "Low": "36.290000915527344", "Close": "37.959999084472656", "Adj Close": "37.309566497802734", "Volume": "61535300"},
{"Date": "2020-03-10", "Open": "39.25", "High": "40.150001525878906", "Low": "37.869998931884766", "Close": "40.08000183105469", "Adj Close": "39.393245697021484", "Volume": "50536500"},
{"Date": "2020-03-11", "Open": "39.02000045776367", "High": "39.15999984741211", "Low": "36.369998931884766", "Close": "37.04999923706055", "Adj Close": "36.4151611328125", "Volume": "63594300"},
{"Date": "2020-03-12", "Open": "34.5", "High": "35.81999969482422", "Low": "33.0", "Close": "33.20000076293945", "Adj Close": "32.63113021850586", "Volume": "51855300"},
{"Date": "2020-03-13", "Open": "35.18000030517578", "High": "37.68000030517578", "Low": "33.33000183105469", "Close": "37.63999938964844", "Adj Close": "36.995052337646484", "Volume": "53859600"},
{"Date": "2020-03-16", "Open": "33.22999954223633", "High": "36.9900016784668", "Low": "32.400001525878906", "Close": "33.709999084472656", "Adj Close": "33.13239288330078", "Volume": "44211300"},
{"Date": "2020-03-17", "Open": "34.70000076293945", "High": "36.25", "Low": "33.599998474121094", "Close": "35.5", "Adj Close": "34.891719818115234", "Volume": "41572400"},
{"Date": "2020-03-18", "Open": "33.7599983215332", "High": "37.709999084472656", "Low": "33.310001373291016", "Close": "37.119998931884766", "Adj Close": "36.48395919799805", "Volume": "56904300"},
{"Date": "2020-03-19", "Open": "37.04999923706055", "High": "39.31999969482422", "Low": "36.150001525878906", "Close": "37.709999084472656", "Adj Close": "37.06385040283203", "Volume": "58319700"},
{"Date": "2020-03-20", "Open": "38.27000045776367", "High": "38.470001220703125", "Low": "35.400001525878906", "Close": "35.599998474121094", "Adj Close": "34.99000549316406", "Volume": "48582500"},
{"Date": "2020-03-23", "Open": "35.5099983215332", "High": "35.81999969482422", "Low": "33.7400016784668", "Close": "34.599998474121094", "Adj Close": "34.007137298583984", "Volume": "39823400"},
{"Date": "2020-03-24", "Open": "36.40999984741211", "High": "38.68000030517578", "Low": "35.540000915527344", "Close": "38.599998474121094", "Adj Close": "37.938602447509766", "Volume": "48235600"},
{"Date": "2020-03-25", "Open": "38.650001525878906", "High": "39.95000076293945", "Low": "37.5", "Close": "37.66999816894531", "Adj Close": "37.0245361328125", "Volume": "42873900"},
{"Date": "2020-03-26", "Open": "37.970001220703125", "High": "40.91999816894531", "Low": "37.369998931884766", "Close": "40.58000183105469", "Adj Close": "39.88467788696289", "Volume": "38473300"},
{"Date": "2020-03-27", "Open": "39.209999084472656", "High": "40.150001525878906", "Low": "38.40999984741211", "Close": "38.81999969482422", "Adj Close": "38.15483474731445", "Volume": "31278600"},
{"Date": "2020-03-30", "Open": "39.45000076293945", "High": "40.4900016784668", "Low": "38.959999084472656", "Close": "40.31999969482422", "Adj Close": "39.62913131713867", "Volume": "27120300"},
{"Date": "2020-03-31", "Open": "40.130001068115234", "High": "40.41999816894531", "Low": "39.11000061035156", "Close": "39.310001373291016", "Adj Close": "38.63644027709961", "Volume": "26014200"},
{"Date": "2020-04-01", "Open": "38.16999816894531", "High": "38.86000061035156", "Low": "37.869998931884766", "Close": "38.33000183105469", "Adj Close": "37.67323303222656", "Volume": "26790700"},
{"Date": "2020-04-02", "Open": "37.84000015258789", "High": "39.95000076293945", "Low": "37.470001220703125", "Close": "39.79999923706055", "Adj Close": "39.48892593383789", "Volume": "28180500"},
{"Date": "2020-04-03", "Open": "39.81999969482422", "High": "40.290000915527344", "Low": "38.540000915527344", "Close": "39.060001373291016", "Adj Close": "38.75471115112305", "Volume": "21235200"},
{"Date": "2020-04-06", "Open": "40.459999084472656", "High": "41.68000030517578", "Low": "39.779998779296875", "Close": "41.43000030517578", "Adj Close": "41.10618591308594", "Volume": "31641400"},
{"Date": "2020-04-07", "Open": "42.65999984741211", "High": "42.7400016784668", "Low": "40.59000015258789", "Close": "40.63999938964844", "Adj Close": "40.32236099243164", "Volume": "30366100"},
{"Date": "2020-04-08", "Open": "41.16999816894531", "High": "42.20000076293945", "Low": "40.869998931884766", "Close": "41.7400016784668", "Adj Close": "41.41376495361328", "Volume": "22683500"},
{"Date": "2020-04-09", "Open": "42.09000015258789", "High": "42.20000076293945", "Low": "40.849998474121094", "Close": "41.20000076293945", "Adj Close": "40.877986907958984", "Volume": "27650200"},
{"Date": "2020-04-13", "Open": "41.040000915527344", "High": "41.459999084472656", "Low": "40.529998779296875", "Close": "41.220001220703125", "Adj Close": "40.897830963134766", "Volume": "19592000"},
{"Date": "2020-04-14", "Open": "41.90999984741211", "High": "42.81999969482422", "Low": "41.529998779296875", "Close": "42.779998779296875", "Adj Close": "42.44563293457031", "Volume": "22882400"},
{"Date": "2020-04-15", "Open": "42.20000076293945", "High": "42.369998931884766", "Low": "41.22999954223633", "Close": "41.52000045776367", "Adj Close": "41.19548416137695", "Volume": "18428800"},
{"Date": "2020-04-16", "Open": "41.7599983215332", "High": "41.790000915527344", "Low": "40.68000030517578", "Close": "41.5", "Adj Close": "41.17564010620117", "Volume": "26178000"},
{"Date": "2020-04-17", "Open": "42.25", "High": "42.63999938964844", "Low": "41.7400016784668", "Close": "42.47999954223633", "Adj Close": "42.147979736328125", "Volume": "30701500"},
{"Date": "2020-04-20", "Open": "41.91999816894531", "High": "43.290000915527344", "Low": "41.790000915527344", "Close": "42.540000915527344", "Adj Close": "42.20751190185547", "Volume": "23438800"},
{"Date": "2020-04-21", "Open": "41.83000183105469", "High": "41.9900016784668", "Low": "40.40999984741211", "Close": "40.54999923706055", "Adj Close": "40.233062744140625", "Volume": "31661000"},
{"Date": "2020-04-22", "Open": "41.27000045776367", "High": "42.09000015258789", "Low": "41.11000061035156", "Close": "41.7599983215332", "Adj Close": "41.4336051940918", "Volume": "18337400"},
{"Date": "2020-04-23", "Open": "41.88999938964844", "High": "42.54999923706055", "Low": "41.529998779296875", "Close": "41.619998931884766", "Adj Close": "41.294700622558594", "Volume": "16100200"},
{"Date": "2020-04-24", "Open": "41.84000015258789", "High": "42.65999984741211", "Low": "41.650001525878906", "Close": "42.52000045776367", "Adj Close": "42.18766784667969", "Volume": "14641700"},
{"Date": "2020-04-27", "Open": "42.70000076293945", "High": "43.220001220703125", "Low": "42.58000183105469", "Close": "43.060001373291016", "Adj Close": "42.72344970703125", "Volume": "17937900"},
{"Date": "2020-04-28", "Open": "43.5", "High": "43.630001068115234", "Low": "42.40999984741211", "Close": "42.4900016784668", "Adj Close": "42.15790557861328", "Volume": "16427700"},
{"Date": "2020-04-29", "Open": "43.349998474121094", "High": "43.47999954223633", "Low": "42.93000030517578", "Close": "43.34000015258789", "Adj Close": "43.001258850097656", "Volume": "17430100"},
{"Date": "2020-04-30", "Open": "43.16999816894531", "High": "43.16999816894531", "Low": "42.16999816894531", "Close": "42.380001068115234", "Adj Close": "42.048763275146484", "Volume": "26664100"},
{"Date": "2020-05-01", "Open": "41.720001220703125", "High": "41.810001373291016", "Low": "40.77000045776367", "Close": "40.91999816894531", "Adj Close": "40.60017013549805", "Volume": "22095300"},
{"Date": "2020-05-04", "Open": "40.95000076293945", "High": "41.40999984741211", "Low": "40.4900016784668", "Close": "41.349998474121094", "Adj Close": "41.02680969238281", "Volume": "15997700"},
{"Date": "2020-05-05", "Open": "41.61000061035156", "High": "41.93000030517578", "Low": "41.38999938964844", "Close": "41.459999084472656", "Adj Close": "41.13595199584961", "Volume": "15060200"},
{"Date": "2020-05-06", "Open": "41.560001373291016", "High": "41.689998626708984", "Low": "40.970001220703125", "Close": "41.150001525878906", "Adj Close": "40.82837677001953", "Volume": "16040300"},
{"Date": "2020-05-07", "Open": "41.59000015258789", "High": "41.77000045776367", "Low": "41.220001220703125", "Close": "41.369998931884766", "Adj Close": "41.046653747558594", "Volume": "20173600"},
{"Date": "2020-05-08", "Open": "42.02000045776367", "High": "43.02000045776367", "Low": "41.70000076293945", "Close": "42.9900016784668", "Adj Close": "42.653995513916016", "Volume": "21962800"},
{"Date": "2020-05-11", "Open": "42.779998779296875", "High": "43.650001525878906", "Low": "42.61000061035156", "Close": "43.31999969482422", "Adj Close": "42.981414794921875", "Volume": "26098800"},
{"Date": "2020-05-12", "Open": "43.939998626708984", "High": "44.29999923706055", "Low": "43.189998626708984", "Close": "43.220001220703125", "Adj Close": "42.882198333740234", "Volume": "25817100"},
{"Date": "2020-05-13", "Open": "43.40999984741211", "High": "43.56999969482422", "Low": "41.310001373291016", "Close": "41.95000076293945", "Adj Close": "41.62212371826172", "Volume": "36986700"},
{"Date": "2020-05-14", "Open": "43.43000030517578", "High": "44.58000183105469", "Low": "43.2599983215332", "Close": "43.849998474121094", "Adj Close": "43.50727081298828", "Volume": "50417700"},
{"Date": "2020-05-15", "Open": "42.93000030517578", "High": "44.380001068115234", "Low": "42.849998474121094", "Close": "44.27000045776367", "Adj Close": "43.92399215698242", "Volume": "30573000"},
{"Date": "2020-05-18", "Open": "45.209999084472656", "High": "45.29999923706055", "Low": "44.33000183105469", "Close": "45.060001373291016", "Adj Close": "44.70781707763672", "Volume": "26980100"},
{"Date": "2020-05-19", "Open": "44.83000183105469", "High": "44.97999954223633", "Low": "44.40999984741211", "Close": "44.61000061035156", "Adj Close": "44.26133346557617", "Volume": "24345400"},
{"Date": "2020-05-20", "Open": "45.04999923706055", "High": "45.81999969482422", "Low": "45.029998779296875", "Close": "45.439998626708984", "Adj Close": "45.084842681884766", "Volume": "20184500"},
{"Date": "2020-05-21", "Open": "45.45000076293945", "High": "45.65999984741211", "Low": "44.560001373291016", "Close": "44.63999938964844", "Adj Close": "44.291099548339844", "Volume": "18674900"},
{"Date": "2020-05-22", "Open": "44.66999816894531", "High": "44.95000076293945", "Low": "44.119998931884766", "Close": "44.900001525878906", "Adj Close": "44.549068450927734", "Volume": "12592800"},
{"Date": "2020-05-26", "Open": "45.779998779296875", "High": "45.79999923706055", "Low": "44.68000030517578", "Close": "44.84000015258789", "Adj Close": "44.48953628540039", "Volume": "21776900"},
{"Date": "2020-05-27", "Open": "45.040000915527344", "High": "45.97999954223633", "Low": "44.79999923706055", "Close": "45.959999084472656", "Adj Close": "45.60078048706055", "Volume": "22157200"},
{"Date": "2020-05-28", "Open": "45.900001525878906", "High": "46.459999084472656", "Low": "45.369998931884766", "Close": "45.599998474121094", "Adj Close": "45.243595123291016", "Volume": "20013000"},
{"Date": "2020-05-29", "Open": "46.040000915527344", "High": "47.81999969482422", "Low": "45.40999984741211", "Close": "47.81999969482422", "Adj Close": "47.44624328613281", "Volume": "43570400"},
{"Date": "2020-06-01", "Open": "47.150001525878906", "High": "47.290000915527344", "Low": "46.22999954223633", "Close": "46.29999923706055", "Adj Close": "45.9381217956543", "Volume": "18712400"},
{"Date": "2020-06-02", "Open": "46.400001525878906", "High": "46.900001525878906", "Low": "45.880001068115234", "Close": "46.88999938964844", "Adj Close": "46.52351379394531", "Volume": "17285900"},
{"Date": "2020-06-03", "Open": "46.97999954223633", "High": "47.20000076293945", "Low": "46.540000915527344", "Close": "46.939998626708984", "Adj Close": "46.5731201171875", "Volume": "17492000"},
{"Date": "2020-06-04", "Open": "46.77000045776367", "High": "47.25", "Low": "46.529998779296875", "Close": "46.86000061035156", "Adj Close": "46.49374771118164", "Volume": "14100700"},
{"Date": "2020-06-05", "Open": "47.27000045776367", "High": "48.290000915527344", "Low": "47.20000076293945", "Close": "47.83000183105469", "Adj Close": "47.45616912841797", "Volume": "22591100"},
{"Date": "2020-06-08", "Open": "47.459999084472656", "High": "48.15999984741211", "Low": "47.119998931884766", "Close": "48.130001068115234", "Adj Close": "47.753822326660156", "Volume": "17820900"},
{"Date": "2020-06-09", "Open": "48.02000045776367", "High": "48.2400016784668", "Low": "47.4900016784668", "Close": "48.04999923706055", "Adj Close": "47.67444610595703", "Volume": "18597300"},
{"Date": "2020-06-10", "Open": "47.65999984741211", "High": "47.83000183105469", "Low": "47.119998931884766", "Close": "47.41999816894531", "Adj Close": "47.04936981201172", "Volume": "18462400"},
{"Date": "2020-06-11", "Open": "46.9900016784668", "High": "47.0", "Low": "43.63999938964844", "Close": "43.66999816894531", "Adj Close": "43.328678131103516", "Volume": "35582000"},
{"Date": "2020-06-12", "Open": "44.959999084472656", "High": "45.86000061035156", "Low": "44.11000061035156", "Close": "45.06999969482422", "Adj Close": "44.71773910522461", "Volume": "26116600"},
{"Date": "2020-06-15", "Open": "44.119998931884766", "High": "45.7599983215332", "Low": "43.93000030517578", "Close": "45.349998474121094", "Adj Close": "44.995548248291016", "Volume": "21300100"},
{"Date": "2020-06-16", "Open": "47.40999984741211", "High": "47.4900016784668", "Low": "45.90999984741211", "Close": "46.47999954223633", "Adj Close": "46.11671829223633", "Volume": "28074600"},
{"Date": "2020-06-17", "Open": "46.75", "High": "46.81999969482422", "Low": "45.900001525878906", "Close": "46.16999816894531", "Adj Close": "45.809139251708984", "Volume": "20390300"},
{"Date": "2020-06-18", "Open": "45.790000915527344", "High": "46.04999923706055", "Low": "45.349998474121094", "Close": "45.83000183105469", "Adj Close": "45.471797943115234", "Volume": "22423500"},
{"Date": "2020-06-19", "Open": "46.2599983215332", "High": "46.5099983215332", "Low": "45.04999923706055", "Close": "45.31999969482422", "Adj Close": "44.965782165527344", "Volume": "36103200"},
{"Date": "2020-06-22", "Open": "45.11000061035156", "High": "45.459999084472656", "Low": "44.810001373291016", "Close": "45.15999984741211", "Adj Close": "44.80703353881836", "Volume": "18398600"},
{"Date": "2020-06-23", "Open": "45.91999816894531", "High": "46.150001525878906", "Low": "45.31999969482422", "Close": "45.470001220703125", "Adj Close": "45.1146125793457", "Volume": "23222400"},
{"Date": "2020-06-24", "Open": "45.290000915527344", "High": "45.470001220703125", "Low": "44.38999938964844", "Close": "44.75", "Adj Close": "44.400238037109375", "Volume": "22840100"},
{"Date": "2020-06-25", "Open": "44.77000045776367", "High": "45.31999969482422", "Low": "44.20000076293945", "Close": "45.220001220703125", "Adj Close": "44.8665657043457", "Volume": "19114900"},
{"Date": "2020-06-26", "Open": "45.119998931884766", "High": "46.5099983215332", "Low": "44.630001068115234", "Close": "46.310001373291016", "Adj Close": "45.94804763793945", "Volume": "106928300"},
{"Date": "2020-06-29", "Open": "46.34000015258789", "High": "46.45000076293945", "Low": "45.66999816894531", "Close": "46.150001525878906", "Adj Close": "45.78929901123047", "Volume": "23875400"},
{"Date": "2020-06-30", "Open": "46.150001525878906", "High": "47.0099983215332", "Low": "46.099998474121094", "Close": "46.63999938964844", "Adj Close": "46.27546691894531", "Volume": "21888800"},
{"Date": "2020-07-01", "Open": "46.540000915527344", "High": "46.720001220703125", "Low": "46.0", "Close": "46.060001373291016", "Adj Close": "45.70000076293945", "Volume": "17129500"},
{"Date": "2020-07-02", "Open": "46.06999969482422", "High": "46.220001220703125", "Low": "45.47999954223633", "Close": "45.630001068115234", "Adj Close": "45.630001068115234", "Volume": "19632000"},
{"Date": "2020-07-06", "Open": "46.06999969482422", "High": "46.4900016784668", "Low": "45.869998931884766", "Close": "46.41999816894531", "Adj Close": "46.41999816894531", "Volume": "16152900"},
{"Date": "2020-07-07", "Open": "46.119998931884766", "High": "46.290000915527344", "Low": "45.560001373291016", "Close": "45.630001068115234", "Adj Close": "45.630001068115234", "Volume": "17102800"},
{"Date": "2020-07-08", "Open": "45.59000015258789", "High": "46.06999969482422", "Low": "45.31999969482422", "Close": "45.810001373291016", "Adj Close": "45.810001373291016", "Volume": "15020800"},
{"Date": "2020-07-09", "Open": "46.599998474121094", "High": "47.20000076293945", "Low": "46.220001220703125", "Close": "46.70000076293945", "Adj Close": "46.70000076293945", "Volume": "26027700"},
{"Date": "2020-07-10", "Open": "46.72999954223633", "High": "46.91999816894531", "Low": "46.2400016784668", "Close": "46.65999984741211", "Adj Close": "46.65999984741211", "Volume": "13775700"},
{"Date": "2020-07-13", "Open": "46.869998931884766", "High": "46.9900016784668", "Low": "45.779998779296875", "Close": "45.93000030517578", "Adj Close": "45.93000030517578", "Volume": "17965500"},
{"Date": "2020-07-14", "Open": "45.4900016784668", "High": "46.5", "Low": "45.40999984741211", "Close": "46.2599983215332", "Adj Close": "46.2599983215332", "Volume": "19303500"},
{"Date": "2020-07-15", "Open": "46.5", "High": "46.83000183105469", "Low": "45.9900016784668", "Close": "46.400001525878906", "Adj Close": "46.400001525878906", "Volume": "15705000"},
{"Date": "2020-07-16", "Open": "45.70000076293945", "High": "45.83000183105469", "Low": "45.20000076293945", "Close": "45.779998779296875", "Adj Close": "45.779998779296875", "Volume": "17709400"},
{"Date": "2020-07-17", "Open": "46.040000915527344", "High": "46.93000030517578", "Low": "45.880001068115234", "Close": "46.75", "Adj Close": "46.75", "Volume": "20389700"},
{"Date": "2020-07-20", "Open": "46.66999816894531", "High": "47.099998474121094", "Low": "46.2599983215332", "Close": "46.970001220703125", "Adj Close": "46.970001220703125", "Volume": "15966500"},
{"Date": "2020-07-21", "Open": "47.279998779296875", "High": "47.33000183105469", "Low": "46.849998474121094", "Close": "47.02000045776367", "Adj Close": "47.02000045776367", "Volume": "16074700"},
{"Date": "2020-07-22", "Open": "47.02000045776367", "High": "47.11000061035156", "Low": "46.529998779296875", "Close": "46.900001525878906", "Adj Close": "46.900001525878906", "Volume": "27218300"},
{"Date": "2020-07-23", "Open": "46.97999954223633", "High": "47.70000076293945", "Low": "46.68000030517578", "Close": "47.40999984741211", "Adj Close": "47.40999984741211", "Volume": "23750200"},
{"Date": "2020-07-24", "Open": "47.4900016784668", "High": "47.63999938964844", "Low": "46.11000061035156", "Close": "46.400001525878906", "Adj Close": "46.400001525878906", "Volume": "16983600"},
{"Date": "2020-07-27", "Open": "46.65999984741211", "High": "47.2599983215332", "Low": "46.150001525878906", "Close": "47.189998626708984", "Adj Close": "47.189998626708984", "Volume": "15576000"},
{"Date": "2020-07-28", "Open": "46.97999954223633", "High": "47.08000183105469", "Low": "46.209999084472656", "Close": "46.279998779296875", "Adj Close": "46.279998779296875", "Volume": "13975300"},
{"Date": "2020-07-29", "Open": "46.400001525878906", "High": "46.880001068115234", "Low": "46.369998931884766", "Close": "46.709999084472656", "Adj Close": "46.709999084472656", "Volume": "11618200"},
{"Date": "2020-07-30", "Open": "46.130001068115234", "High": "46.459999084472656", "Low": "45.380001068115234", "Close": "46.439998626708984", "Adj Close": "46.439998626708984", "Volume": "15385100"},
{"Date": "2020-07-31", "Open": "46.38999938964844", "High": "47.11000061035156", "Low": "45.86000061035156", "Close": "47.099998474121094", "Adj Close": "47.099998474121094", "Volume": "17706400"},
{"Date": "2020-08-03", "Open": "47.13999938964844", "High": "47.36000061035156", "Low": "46.68000030517578", "Close": "47.15999984741211", "Adj Close": "47.15999984741211", "Volume": "14141100"},
{"Date": "2020-08-04", "Open": "47.0099983215332", "High": "47.66999816894531", "Low": "46.90999984741211", "Close": "47.66999816894531", "Adj Close": "47.66999816894531", "Volume": "12839500"},
{"Date": "2020-08-05", "Open": "47.66999816894531", "High": "47.72999954223633", "Low": "47.04999923706055", "Close": "47.33000183105469", "Adj Close": "47.33000183105469", "Volume": "13077600"},
{"Date": "2020-08-06", "Open": "47.22999954223633", "High": "47.83000183105469", "Low": "47.099998474121094", "Close": "47.77000045776367", "Adj Close": "47.77000045776367", "Volume": "14190900"},
{"Date": "2020-08-07", "Open": "47.33000183105469", "High": "47.599998474121094", "Low": "47.029998779296875", "Close": "47.43000030517578", "Adj Close": "47.43000030517578", "Volume": "17046500"},
{"Date": "2020-08-10", "Open": "47.15999984741211", "High": "48.0", "Low": "47.15999984741211", "Close": "47.72999954223633", "Adj Close": "47.72999954223633", "Volume": "14999200"},
{"Date": "2020-08-11", "Open": "47.900001525878906", "High": "48.45000076293945", "Low": "47.09000015258789", "Close": "47.189998626708984", "Adj Close": "47.189998626708984", "Volume": "18859600"},
{"Date": "2020-08-12", "Open": "47.279998779296875", "High": "48.130001068115234", "Low": "47.27000045776367", "Close": "48.099998474121094", "Adj Close": "48.099998474121094", "Volume": "27023700"},
{"Date": "2020-08-13", "Open": "43.790000915527344", "High": "43.84000015258789", "Low": "42.380001068115234", "Close": "42.720001220703125", "Adj Close": "42.720001220703125", "Volume": "91849500"},
{"Date": "2020-08-14", "Open": "42.4900016784668", "High": "42.880001068115234", "Low": "42.27000045776367", "Close": "42.5", "Adj Close": "42.5", "Volume": "32539500"},
{"Date": "2020-08-17", "Open": "42.54999923706055", "High": "42.7599983215332", "Low": "41.86000061035156", "Close": "42.09000015258789", "Adj Close": "42.09000015258789", "Volume": "30511700"},
{"Date": "2020-08-18", "Open": "42.130001068115234", "High": "42.290000915527344", "Low": "41.810001373291016", "Close": "41.97999954223633", "Adj Close": "41.97999954223633", "Volume": "23344600"},
{"Date": "2020-08-19", "Open": "42.099998474121094", "High": "42.349998474121094", "Low": "41.779998779296875", "Close": "41.869998931884766", "Adj Close": "41.869998931884766", "Volume": "20097400"},
{"Date": "2020-08-20", "Open": "41.869998931884766", "High": "42.41999816894531", "Low": "41.72999954223633", "Close": "42.310001373291016", "Adj Close": "42.310001373291016", "Volume": "18443900"},
{"Date": "2020-08-21", "Open": "42.04999923706055", "High": "42.29999923706055", "Low": "41.810001373291016", "Close": "42.25", "Adj Close": "42.25", "Volume": "17385200"},
{}]