[{"Date": "2019-08-23", "Open": "57.18000030517578", "High": "57.65999984741211", "Low": "55.849998474121094", "Close": "56.08000183105469", "Adj Close": "56.08000183105469", "Volume": "2584500"},
{"Date": "2019-08-26", "Open": "56.52000045776367", "High": "56.7400016784668", "Low": "55.9900016784668", "Close": "56.650001525878906", "Adj Close": "56.650001525878906", "Volume": "1682900"},
{"Date": "2019-08-27", "Open": "56.86000061035156", "High": "57.130001068115234", "Low": "56.04999923706055", "Close": "56.56999969482422", "Adj Close": "56.56999969482422", "Volume": "2266800"},
{"Date": "2019-08-28", "Open": "57.06999969482422", "High": "58.459999084472656", "Low": "56.72999954223633", "Close": "58.08000183105469", "Adj Close": "58.08000183105469", "Volume": "3197900"},
{"Date": "2019-08-29", "Open": "58.63999938964844", "High": "58.650001525878906", "Low": "57.5", "Close": "57.61000061035156", "Adj Close": "57.61000061035156", "Volume": "2048300"},
{"Date": "2019-08-30", "Open": "58.04999923706055", "High": "58.83000183105469", "Low": "58.04999923706055", "Close": "58.66999816894531", "Adj Close": "58.66999816894531", "Volume": "2213500"},
{"Date": "2019-09-03", "Open": "58.119998931884766", "High": "58.220001220703125", "Low": "57.36000061035156", "Close": "57.63999938964844", "Adj Close": "57.63999938964844", "Volume": "2537900"},
{"Date": "2019-09-04", "Open": "57.97999954223633", "High": "58.369998931884766", "Low": "57.650001525878906", "Close": "58.060001373291016", "Adj Close": "58.060001373291016", "Volume": "1860600"},
{"Date": "2019-09-05", "Open": "58.439998626708984", "High": "59.02000045776367", "Low": "58.060001373291016", "Close": "58.77000045776367", "Adj Close": "58.77000045776367", "Volume": "2024600"},
{"Date": "2019-09-06", "Open": "58.75", "High": "58.93000030517578", "Low": "57.029998779296875", "Close": "57.16999816894531", "Adj Close": "57.16999816894531", "Volume": "2954100"},
{"Date": "2019-09-09", "Open": "57.029998779296875", "High": "57.7599983215332", "Low": "56.31999969482422", "Close": "57.22999954223633", "Adj Close": "57.22999954223633", "Volume": "3896900"},
{"Date": "2019-09-10", "Open": "56.97999954223633", "High": "57.7599983215332", "Low": "56.66999816894531", "Close": "57.7599983215332", "Adj Close": "57.7599983215332", "Volume": "2325500"},
{"Date": "2019-09-11", "Open": "57.369998931884766", "High": "57.970001220703125", "Low": "55.9900016784668", "Close": "56.869998931884766", "Adj Close": "56.869998931884766", "Volume": "3876900"},
{"Date": "2019-09-12", "Open": "57.439998626708984", "High": "58.130001068115234", "Low": "57.31999969482422", "Close": "57.45000076293945", "Adj Close": "57.45000076293945", "Volume": "2009800"},
{"Date": "2019-09-13", "Open": "57.369998931884766", "High": "59.56999969482422", "Low": "57.369998931884766", "Close": "58.86000061035156", "Adj Close": "58.86000061035156", "Volume": "4554400"},
{"Date": "2019-09-16", "Open": "58.56999969482422", "High": "59.43000030517578", "Low": "58.369998931884766", "Close": "59.22999954223633", "Adj Close": "59.22999954223633", "Volume": "3223300"},
{"Date": "2019-09-17", "Open": "59.04999923706055", "High": "59.36000061035156", "Low": "57.599998474121094", "Close": "57.9900016784668", "Adj Close": "57.9900016784668", "Volume": "4348500"},
{"Date": "2019-09-18", "Open": "57.77000045776367", "High": "58.56999969482422", "Low": "57.59000015258789", "Close": "58.36000061035156", "Adj Close": "58.36000061035156", "Volume": "2764400"},
{"Date": "2019-09-19", "Open": "58.540000915527344", "High": "59.060001373291016", "Low": "58.529998779296875", "Close": "58.790000915527344", "Adj Close": "58.790000915527344", "Volume": "1636600"},
{"Date": "2019-09-20", "Open": "58.720001220703125", "High": "59.119998931884766", "Low": "58.31999969482422", "Close": "58.349998474121094", "Adj Close": "58.349998474121094", "Volume": "4152100"},
{"Date": "2019-09-23", "Open": "58.61000061035156", "High": "59.52000045776367", "Low": "58.459999084472656", "Close": "59.119998931884766", "Adj Close": "59.119998931884766", "Volume": "2149000"},
{"Date": "2019-09-24", "Open": "59.41999816894531", "High": "59.4900016784668", "Low": "58.25", "Close": "58.810001373291016", "Adj Close": "58.810001373291016", "Volume": "2329800"},
{"Date": "2019-09-25", "Open": "58.290000915527344", "High": "58.970001220703125", "Low": "56.91999816894531", "Close": "58.369998931884766", "Adj Close": "58.369998931884766", "Volume": "3274200"},
{"Date": "2019-09-26", "Open": "58.47999954223633", "High": "58.83000183105469", "Low": "56.81999969482422", "Close": "57.77000045776367", "Adj Close": "57.77000045776367", "Volume": "2587500"},
{"Date": "2019-09-27", "Open": "58.02000045776367", "High": "58.56999969482422", "Low": "57.38999938964844", "Close": "57.810001373291016", "Adj Close": "57.810001373291016", "Volume": "2036800"},
{"Date": "2019-09-30", "Open": "58.15999984741211", "High": "58.849998474121094", "Low": "57.83000183105469", "Close": "58.060001373291016", "Adj Close": "58.060001373291016", "Volume": "1472400"},
{"Date": "2019-10-01", "Open": "58.09000015258789", "High": "58.47999954223633", "Low": "56.04999923706055", "Close": "56.41999816894531", "Adj Close": "56.41999816894531", "Volume": "3439200"},
{"Date": "2019-10-02", "Open": "54.439998626708984", "High": "55.630001068115234", "Low": "53.66999816894531", "Close": "55.119998931884766", "Adj Close": "55.119998931884766", "Volume": "4820600"},
{"Date": "2019-10-03", "Open": "55.380001068115234", "High": "56.0099983215332", "Low": "54.88999938964844", "Close": "55.619998931884766", "Adj Close": "55.619998931884766", "Volume": "3699700"},
{"Date": "2019-10-04", "Open": "55.81999969482422", "High": "56.7599983215332", "Low": "55.81999969482422", "Close": "56.58000183105469", "Adj Close": "56.58000183105469", "Volume": "2717300"},
{"Date": "2019-10-07", "Open": "56.15999984741211", "High": "56.47999954223633", "Low": "55.58000183105469", "Close": "55.72999954223633", "Adj Close": "55.72999954223633", "Volume": "3968500"},
{"Date": "2019-10-08", "Open": "55.400001525878906", "High": "56.83000183105469", "Low": "55.36000061035156", "Close": "55.880001068115234", "Adj Close": "55.880001068115234", "Volume": "2729900"},
{"Date": "2019-10-09", "Open": "56.72999954223633", "High": "56.72999954223633", "Low": "55.939998626708984", "Close": "56.279998779296875", "Adj Close": "56.279998779296875", "Volume": "1329800"},
{"Date": "2019-10-10", "Open": "56.119998931884766", "High": "56.36000061035156", "Low": "55.84000015258789", "Close": "56.119998931884766", "Adj Close": "56.119998931884766", "Volume": "1549600"},
{"Date": "2019-10-11", "Open": "56.47999954223633", "High": "56.84000015258789", "Low": "56.0099983215332", "Close": "56.29999923706055", "Adj Close": "56.29999923706055", "Volume": "2474300"},
{"Date": "2019-10-14", "Open": "56.40999984741211", "High": "56.970001220703125", "Low": "56.060001373291016", "Close": "56.54999923706055", "Adj Close": "56.54999923706055", "Volume": "1266900"},
{"Date": "2019-10-15", "Open": "56.060001373291016", "High": "56.540000915527344", "Low": "55.849998474121094", "Close": "56.290000915527344", "Adj Close": "56.290000915527344", "Volume": "2067400"},
{"Date": "2019-10-16", "Open": "56.369998931884766", "High": "56.689998626708984", "Low": "55.97999954223633", "Close": "56.52000045776367", "Adj Close": "56.52000045776367", "Volume": "1825900"},
{"Date": "2019-10-17", "Open": "55.83000183105469", "High": "57.279998779296875", "Low": "55.83000183105469", "Close": "56.560001373291016", "Adj Close": "56.560001373291016", "Volume": "4168200"},
{"Date": "2019-10-18", "Open": "56.47999954223633", "High": "56.869998931884766", "Low": "55.93000030517578", "Close": "56.060001373291016", "Adj Close": "56.060001373291016", "Volume": "3509800"},
{"Date": "2019-10-21", "Open": "56.25", "High": "56.5", "Low": "56.02000045776367", "Close": "56.290000915527344", "Adj Close": "56.290000915527344", "Volume": "1654100"},
{"Date": "2019-10-22", "Open": "56.380001068115234", "High": "56.65999984741211", "Low": "55.939998626708984", "Close": "55.939998626708984", "Adj Close": "55.939998626708984", "Volume": "1853200"},
{"Date": "2019-10-23", "Open": "56.0", "High": "56.5", "Low": "55.849998474121094", "Close": "56.20000076293945", "Adj Close": "56.20000076293945", "Volume": "1505900"},
{"Date": "2019-10-24", "Open": "56.279998779296875", "High": "56.66999816894531", "Low": "55.7599983215332", "Close": "56.61000061035156", "Adj Close": "56.61000061035156", "Volume": "1746300"},
{"Date": "2019-10-25", "Open": "56.619998931884766", "High": "56.7599983215332", "Low": "56.0", "Close": "56.349998474121094", "Adj Close": "56.349998474121094", "Volume": "1762100"},
{"Date": "2019-10-28", "Open": "56.61000061035156", "High": "56.970001220703125", "Low": "55.86000061035156", "Close": "55.970001220703125", "Adj Close": "55.970001220703125", "Volume": "2735900"},
{"Date": "2019-10-29", "Open": "55.7400016784668", "High": "56.619998931884766", "Low": "55.540000915527344", "Close": "56.150001525878906", "Adj Close": "56.150001525878906", "Volume": "2675700"},
{"Date": "2019-10-30", "Open": "56.06999969482422", "High": "56.34000015258789", "Low": "55.849998474121094", "Close": "56.150001525878906", "Adj Close": "56.150001525878906", "Volume": "2205600"},
{"Date": "2019-10-31", "Open": "56.15999984741211", "High": "56.38999938964844", "Low": "55.5", "Close": "56.130001068115234", "Adj Close": "56.130001068115234", "Volume": "2436700"},
{"Date": "2019-11-01", "Open": "56.439998626708984", "High": "56.709999084472656", "Low": "56.0099983215332", "Close": "56.25", "Adj Close": "56.25", "Volume": "2383800"},
{"Date": "2019-11-04", "Open": "56.58000183105469", "High": "56.58000183105469", "Low": "55.689998626708984", "Close": "56.09000015258789", "Adj Close": "56.09000015258789", "Volume": "3309300"},
{"Date": "2019-11-05", "Open": "55.970001220703125", "High": "57.06999969482422", "Low": "55.869998931884766", "Close": "56.470001220703125", "Adj Close": "56.470001220703125", "Volume": "4528400"},
{"Date": "2019-11-06", "Open": "56.75", "High": "56.91999816894531", "Low": "55.90999984741211", "Close": "55.9900016784668", "Adj Close": "55.9900016784668", "Volume": "5541400"},
{"Date": "2019-11-07", "Open": "56.0", "High": "56.939998626708984", "Low": "55.79999923706055", "Close": "56.63999938964844", "Adj Close": "56.63999938964844", "Volume": "6899600"},
{"Date": "2019-11-08", "Open": "59.5", "High": "61.4900016784668", "Low": "57.810001373291016", "Close": "58.15999984741211", "Adj Close": "58.15999984741211", "Volume": "6600300"},
{"Date": "2019-11-11", "Open": "58.0099983215332", "High": "58.63999938964844", "Low": "57.099998474121094", "Close": "58.029998779296875", "Adj Close": "58.029998779296875", "Volume": "2694300"},
{"Date": "2019-11-12", "Open": "57.5", "High": "58.4900016784668", "Low": "57.16999816894531", "Close": "58.400001525878906", "Adj Close": "58.400001525878906", "Volume": "3551200"},
{"Date": "2019-11-13", "Open": "58.290000915527344", "High": "59.150001525878906", "Low": "58.04999923706055", "Close": "58.95000076293945", "Adj Close": "58.95000076293945", "Volume": "2532800"},
{"Date": "2019-11-14", "Open": "59.150001525878906", "High": "59.15999984741211", "Low": "58.68000030517578", "Close": "58.93000030517578", "Adj Close": "58.93000030517578", "Volume": "2543900"},
{"Date": "2019-11-15", "Open": "59.2400016784668", "High": "59.380001068115234", "Low": "58.09000015258789", "Close": "58.63999938964844", "Adj Close": "58.63999938964844", "Volume": "2521100"},
{"Date": "2019-11-18", "Open": "58.540000915527344", "High": "59.650001525878906", "Low": "58.130001068115234", "Close": "59.029998779296875", "Adj Close": "59.029998779296875", "Volume": "2890800"},
{"Date": "2019-11-19", "Open": "59.15999984741211", "High": "59.34000015258789", "Low": "58.560001373291016", "Close": "58.560001373291016", "Adj Close": "58.560001373291016", "Volume": "1712000"},
{"Date": "2019-11-20", "Open": "58.66999816894531", "High": "58.970001220703125", "Low": "57.91999816894531", "Close": "58.0", "Adj Close": "58.0", "Volume": "2484800"},
{"Date": "2019-11-21", "Open": "57.91999816894531", "High": "58.40999984741211", "Low": "57.59000015258789", "Close": "58.400001525878906", "Adj Close": "58.400001525878906", "Volume": "2087800"},
{"Date": "2019-11-22", "Open": "58.56999969482422", "High": "58.900001525878906", "Low": "57.959999084472656", "Close": "58.630001068115234", "Adj Close": "58.630001068115234", "Volume": "1483300"},
{"Date": "2019-11-25", "Open": "58.849998474121094", "High": "59.22999954223633", "Low": "58.279998779296875", "Close": "58.65999984741211", "Adj Close": "58.65999984741211", "Volume": "1587400"},
{"Date": "2019-11-26", "Open": "58.790000915527344", "High": "60.0", "Low": "58.47999954223633", "Close": "59.63999938964844", "Adj Close": "59.63999938964844", "Volume": "2585500"},
{"Date": "2019-11-27", "Open": "59.81999969482422", "High": "60.279998779296875", "Low": "59.70000076293945", "Close": "60.09000015258789", "Adj Close": "60.09000015258789", "Volume": "1726900"},
{"Date": "2019-11-29", "Open": "59.959999084472656", "High": "60.11000061035156", "Low": "59.560001373291016", "Close": "59.81999969482422", "Adj Close": "59.81999969482422", "Volume": "1099400"},
{"Date": "2019-12-02", "Open": "59.7599983215332", "High": "59.880001068115234", "Low": "59.369998931884766", "Close": "59.810001373291016", "Adj Close": "59.810001373291016", "Volume": "2182300"},
{"Date": "2019-12-03", "Open": "59.2400016784668", "High": "59.779998779296875", "Low": "58.459999084472656", "Close": "58.9900016784668", "Adj Close": "58.9900016784668", "Volume": "2663900"},
{"Date": "2019-12-04", "Open": "58.88999938964844", "High": "60.470001220703125", "Low": "58.88999938964844", "Close": "60.38999938964844", "Adj Close": "60.38999938964844", "Volume": "2491200"},
{"Date": "2019-12-05", "Open": "60.27000045776367", "High": "60.290000915527344", "Low": "59.439998626708984", "Close": "59.91999816894531", "Adj Close": "59.91999816894531", "Volume": "2949100"},
{"Date": "2019-12-06", "Open": "60.06999969482422", "High": "60.40999984741211", "Low": "59.720001220703125", "Close": "60.040000915527344", "Adj Close": "60.040000915527344", "Volume": "2616900"},
{"Date": "2019-12-09", "Open": "60.099998474121094", "High": "60.65999984741211", "Low": "59.56999969482422", "Close": "60.4900016784668", "Adj Close": "60.4900016784668", "Volume": "2668400"},
{"Date": "2019-12-10", "Open": "60.75", "High": "61.54999923706055", "Low": "60.56999969482422", "Close": "61.5099983215332", "Adj Close": "61.5099983215332", "Volume": "5684400"},
{"Date": "2019-12-11", "Open": "61.619998931884766", "High": "62.5099983215332", "Low": "61.31999969482422", "Close": "62.43000030517578", "Adj Close": "62.43000030517578", "Volume": "3247000"},
{"Date": "2019-12-12", "Open": "62.279998779296875", "High": "62.70000076293945", "Low": "61.90999984741211", "Close": "62.2400016784668", "Adj Close": "62.2400016784668", "Volume": "2865600"},
{"Date": "2019-12-13", "Open": "62.099998474121094", "High": "62.47999954223633", "Low": "61.79999923706055", "Close": "62.209999084472656", "Adj Close": "62.209999084472656", "Volume": "2191500"},
{"Date": "2019-12-16", "Open": "62.439998626708984", "High": "62.79999923706055", "Low": "62.02000045776367", "Close": "62.4900016784668", "Adj Close": "62.4900016784668", "Volume": "1676200"},
{"Date": "2019-12-17", "Open": "62.459999084472656", "High": "62.900001525878906", "Low": "61.81999969482422", "Close": "62.77000045776367", "Adj Close": "62.77000045776367", "Volume": "1905300"},
{"Date": "2019-12-18", "Open": "63.060001373291016", "High": "63.290000915527344", "Low": "62.400001525878906", "Close": "62.86000061035156", "Adj Close": "62.86000061035156", "Volume": "2733200"},
{"Date": "2019-12-19", "Open": "62.7599983215332", "High": "63.58000183105469", "Low": "62.650001525878906", "Close": "63.470001220703125", "Adj Close": "63.470001220703125", "Volume": "2824800"},
{"Date": "2019-12-20", "Open": "63.619998931884766", "High": "64.0199966430664", "Low": "63.209999084472656", "Close": "63.91999816894531", "Adj Close": "63.91999816894531", "Volume": "7353900"},
{"Date": "2019-12-23", "Open": "64.13999938964844", "High": "64.13999938964844", "Low": "63.31999969482422", "Close": "63.36000061035156", "Adj Close": "63.36000061035156", "Volume": "2485200"},
{"Date": "2019-12-24", "Open": "63.529998779296875", "High": "63.79999923706055", "Low": "63.38999938964844", "Close": "63.470001220703125", "Adj Close": "63.470001220703125", "Volume": "660200"},
{"Date": "2019-12-26", "Open": "63.7599983215332", "High": "63.93000030517578", "Low": "63.45000076293945", "Close": "63.880001068115234", "Adj Close": "63.880001068115234", "Volume": "1638500"},
{"Date": "2019-12-27", "Open": "63.939998626708984", "High": "64.06999969482422", "Low": "63.47999954223633", "Close": "63.56999969482422", "Adj Close": "63.56999969482422", "Volume": "2265000"},
{"Date": "2019-12-30", "Open": "63.41999816894531", "High": "63.7400016784668", "Low": "63.02000045776367", "Close": "63.36000061035156", "Adj Close": "63.36000061035156", "Volume": "1655300"},
{"Date": "2019-12-31", "Open": "63.459999084472656", "High": "63.75", "Low": "63.18000030517578", "Close": "63.54999923706055", "Adj Close": "63.54999923706055", "Volume": "1670900"},
{"Date": "2020-01-02", "Open": "63.959999084472656", "High": "64.0199966430664", "Low": "63.310001373291016", "Close": "63.70000076293945", "Adj Close": "63.70000076293945", "Volume": "1783000"},
{"Date": "2020-01-03", "Open": "63.119998931884766", "High": "63.61000061035156", "Low": "62.869998931884766", "Close": "63.279998779296875", "Adj Close": "63.279998779296875", "Volume": "1741100"},
{"Date": "2020-01-06", "Open": "62.9900016784668", "High": "63.529998779296875", "Low": "62.9900016784668", "Close": "63.380001068115234", "Adj Close": "63.380001068115234", "Volume": "2234600"},
{"Date": "2020-01-07", "Open": "63.869998931884766", "High": "64.13999938964844", "Low": "63.540000915527344", "Close": "63.689998626708984", "Adj Close": "63.689998626708984", "Volume": "3367800"},
{"Date": "2020-01-08", "Open": "63.70000076293945", "High": "64.05999755859375", "Low": "63.369998931884766", "Close": "63.81999969482422", "Adj Close": "63.81999969482422", "Volume": "3026800"},
{"Date": "2020-01-09", "Open": "64.16000366210938", "High": "64.33999633789062", "Low": "63.720001220703125", "Close": "64.25", "Adj Close": "64.25", "Volume": "3306500"},
{"Date": "2020-01-10", "Open": "64.68000030517578", "High": "66.19000244140625", "Low": "64.5", "Close": "65.33999633789062", "Adj Close": "65.33999633789062", "Volume": "4468200"},
{"Date": "2020-01-13", "Open": "65.4000015258789", "High": "65.70999908447266", "Low": "64.66000366210938", "Close": "65.52999877929688", "Adj Close": "65.52999877929688", "Volume": "2709900"},
{"Date": "2020-01-14", "Open": "65.54000091552734", "High": "65.87000274658203", "Low": "65.29000091552734", "Close": "65.58000183105469", "Adj Close": "65.58000183105469", "Volume": "2884400"},
{"Date": "2020-01-15", "Open": "65.61000061035156", "High": "66.16000366210938", "Low": "65.22000122070312", "Close": "65.87999725341797", "Adj Close": "65.87999725341797", "Volume": "2947100"},
{"Date": "2020-01-16", "Open": "66.1500015258789", "High": "67.16999816894531", "Low": "65.97000122070312", "Close": "67.0999984741211", "Adj Close": "67.0999984741211", "Volume": "2614400"},
{"Date": "2020-01-17", "Open": "67.19999694824219", "High": "67.62000274658203", "Low": "66.69000244140625", "Close": "67.30999755859375", "Adj Close": "67.30999755859375", "Volume": "4423100"},
{"Date": "2020-01-21", "Open": "67.29000091552734", "High": "67.41000366210938", "Low": "66.4000015258789", "Close": "66.81999969482422", "Adj Close": "66.81999969482422", "Volume": "2375500"},
{"Date": "2020-01-22", "Open": "66.94000244140625", "High": "67.5", "Low": "66.72000122070312", "Close": "67.48999786376953", "Adj Close": "67.48999786376953", "Volume": "1989900"},
{"Date": "2020-01-23", "Open": "67.33999633789062", "High": "67.94999694824219", "Low": "67.1500015258789", "Close": "67.7699966430664", "Adj Close": "67.7699966430664", "Volume": "2238500"},
{"Date": "2020-01-24", "Open": "68.0", "High": "68.01000213623047", "Low": "66.93000030517578", "Close": "67.0999984741211", "Adj Close": "67.0999984741211", "Volume": "2349400"},
{"Date": "2020-01-27", "Open": "66.55999755859375", "High": "67.05999755859375", "Low": "66.33000183105469", "Close": "66.5999984741211", "Adj Close": "66.5999984741211", "Volume": "2239500"},
{"Date": "2020-01-28", "Open": "66.61000061035156", "High": "67.11000061035156", "Low": "66.61000061035156", "Close": "66.87999725341797", "Adj Close": "66.87999725341797", "Volume": "2714700"},
{"Date": "2020-01-29", "Open": "66.73999786376953", "High": "66.91000366210938", "Low": "66.26000213623047", "Close": "66.55000305175781", "Adj Close": "66.55000305175781", "Volume": "1849300"},
{"Date": "2020-01-30", "Open": "66.30000305175781", "High": "67.13999938964844", "Low": "65.80000305175781", "Close": "67.01000213623047", "Adj Close": "67.01000213623047", "Volume": "2494300"},
{"Date": "2020-01-31", "Open": "66.83000183105469", "High": "67.4800033569336", "Low": "66.20999908447266", "Close": "66.5999984741211", "Adj Close": "66.5999984741211", "Volume": "3366300"},
{"Date": "2020-02-03", "Open": "68.87000274658203", "High": "68.93000030517578", "Low": "67.38999938964844", "Close": "67.41999816894531", "Adj Close": "67.41999816894531", "Volume": "4519500"},
{"Date": "2020-02-04", "Open": "67.62000274658203", "High": "69.44000244140625", "Low": "67.62000274658203", "Close": "68.87999725341797", "Adj Close": "68.87999725341797", "Volume": "5786000"},
{"Date": "2020-02-05", "Open": "69.25", "High": "69.73999786376953", "Low": "68.80000305175781", "Close": "68.94999694824219", "Adj Close": "68.94999694824219", "Volume": "2919200"},
{"Date": "2020-02-06", "Open": "69.41999816894531", "High": "69.54000091552734", "Low": "68.80000305175781", "Close": "69.44999694824219", "Adj Close": "69.44999694824219", "Volume": "4301000"},
{"Date": "2020-02-07", "Open": "69.30999755859375", "High": "69.66000366210938", "Low": "68.87999725341797", "Close": "68.91000366210938", "Adj Close": "68.91000366210938", "Volume": "2392900"},
{"Date": "2020-02-10", "Open": "68.81999969482422", "High": "69.4800033569336", "Low": "68.81999969482422", "Close": "69.16999816894531", "Adj Close": "69.16999816894531", "Volume": "3272400"},
{"Date": "2020-02-11", "Open": "69.26000213623047", "High": "69.44999694824219", "Low": "68.80000305175781", "Close": "69.1500015258789", "Adj Close": "69.1500015258789", "Volume": "2160600"},
{"Date": "2020-02-12", "Open": "69.19000244140625", "High": "69.5999984741211", "Low": "68.61000061035156", "Close": "69.25", "Adj Close": "69.25", "Volume": "1562900"},
{"Date": "2020-02-13", "Open": "69.25", "High": "69.83000183105469", "Low": "69.1500015258789", "Close": "69.69000244140625", "Adj Close": "69.69000244140625", "Volume": "1945100"},
{"Date": "2020-02-14", "Open": "69.68000030517578", "High": "69.94000244140625", "Low": "69.4000015258789", "Close": "69.86000061035156", "Adj Close": "69.86000061035156", "Volume": "2659300"},
{"Date": "2020-02-18", "Open": "69.43000030517578", "High": "69.97000122070312", "Low": "69.36000061035156", "Close": "69.5999984741211", "Adj Close": "69.5999984741211", "Volume": "2386600"},
{"Date": "2020-02-19", "Open": "69.72000122070312", "High": "70.5199966430664", "Low": "69.5999984741211", "Close": "70.08000183105469", "Adj Close": "70.08000183105469", "Volume": "3222400"},
{"Date": "2020-02-20", "Open": "69.83000183105469", "High": "70.44999694824219", "Low": "69.0", "Close": "70.4000015258789", "Adj Close": "70.4000015258789", "Volume": "3325100"},
{"Date": "2020-02-21", "Open": "70.0199966430664", "High": "70.19999694824219", "Low": "69.44999694824219", "Close": "69.73999786376953", "Adj Close": "69.73999786376953", "Volume": "2973300"},
{"Date": "2020-02-24", "Open": "69.66999816894531", "High": "70.19000244140625", "Low": "67.79000091552734", "Close": "68.19000244140625", "Adj Close": "68.19000244140625", "Volume": "3311000"},
{"Date": "2020-02-25", "Open": "68.37999725341797", "High": "68.51000213623047", "Low": "66.44000244140625", "Close": "66.62000274658203", "Adj Close": "66.62000274658203", "Volume": "2842300"},
{"Date": "2020-02-26", "Open": "67.11000061035156", "High": "67.75", "Low": "65.87000274658203", "Close": "65.87999725341797", "Adj Close": "65.87999725341797", "Volume": "3500500"},
{"Date": "2020-02-27", "Open": "65.73999786376953", "High": "65.94000244140625", "Low": "63.439998626708984", "Close": "63.7400016784668", "Adj Close": "63.7400016784668", "Volume": "7126500"},
{"Date": "2020-02-28", "Open": "64.81999969482422", "High": "65.04000091552734", "Low": "61.220001220703125", "Close": "62.40999984741211", "Adj Close": "62.40999984741211", "Volume": "7217500"},
{"Date": "2020-03-02", "Open": "62.119998931884766", "High": "64.83999633789062", "Low": "61.279998779296875", "Close": "64.7699966430664", "Adj Close": "64.7699966430664", "Volume": "4547200"},
{"Date": "2020-03-03", "Open": "64.29000091552734", "High": "66.16999816894531", "Low": "63.130001068115234", "Close": "63.779998779296875", "Adj Close": "63.779998779296875", "Volume": "5292000"},
{"Date": "2020-03-04", "Open": "65.0199966430664", "High": "68.13999938964844", "Low": "64.52999877929688", "Close": "68.05000305175781", "Adj Close": "68.05000305175781", "Volume": "6529900"},
{"Date": "2020-03-05", "Open": "66.37000274658203", "High": "68.83000183105469", "Low": "66.08000183105469", "Close": "67.12999725341797", "Adj Close": "67.12999725341797", "Volume": "5455400"},
{"Date": "2020-03-06", "Open": "64.83000183105469", "High": "66.44999694824219", "Low": "64.33999633789062", "Close": "66.19000244140625", "Adj Close": "66.19000244140625", "Volume": "6143800"},
{"Date": "2020-03-09", "Open": "62.06999969482422", "High": "62.970001220703125", "Low": "61.04999923706055", "Close": "61.86000061035156", "Adj Close": "61.86000061035156", "Volume": "5468900"},
{"Date": "2020-03-10", "Open": "63.5", "High": "66.20999908447266", "Low": "62.90999984741211", "Close": "66.12999725341797", "Adj Close": "66.12999725341797", "Volume": "8481000"},
{"Date": "2020-03-11", "Open": "64.0", "High": "64.73999786376953", "Low": "60.4900016784668", "Close": "61.810001373291016", "Adj Close": "61.810001373291016", "Volume": "6512700"},
{"Date": "2020-03-12", "Open": "58.0", "High": "60.790000915527344", "Low": "56.630001068115234", "Close": "57.38999938964844", "Adj Close": "57.38999938964844", "Volume": "7600500"},
{"Date": "2020-03-13", "Open": "59.79999923706055", "High": "62.5", "Low": "58.59000015258789", "Close": "62.38999938964844", "Adj Close": "62.38999938964844", "Volume": "7748600"},
{"Date": "2020-03-16", "Open": "56.20000076293945", "High": "60.869998931884766", "Low": "54.779998779296875", "Close": "57.439998626708984", "Adj Close": "57.439998626708984", "Volume": "6075200"},
{"Date": "2020-03-17", "Open": "58.83000183105469", "High": "60.45000076293945", "Low": "57.61000061035156", "Close": "59.7400016784668", "Adj Close": "59.7400016784668", "Volume": "6056400"},
{"Date": "2020-03-18", "Open": "57.630001068115234", "High": "57.630001068115234", "Low": "50.5099983215332", "Close": "55.88999938964844", "Adj Close": "55.88999938964844", "Volume": "6467000"},
{"Date": "2020-03-19", "Open": "55.709999084472656", "High": "57.150001525878906", "Low": "51.5099983215332", "Close": "54.31999969482422", "Adj Close": "54.31999969482422", "Volume": "6263100"},
{"Date": "2020-03-20", "Open": "55.04999923706055", "High": "55.83000183105469", "Low": "50.060001373291016", "Close": "52.099998474121094", "Adj Close": "52.099998474121094", "Volume": "5791700"},
{"Date": "2020-03-23", "Open": "52.11000061035156", "High": "53.34000015258789", "Low": "50.75", "Close": "50.970001220703125", "Adj Close": "50.970001220703125", "Volume": "5705700"},
{"Date": "2020-03-24", "Open": "53.529998779296875", "High": "54.470001220703125", "Low": "51.38999938964844", "Close": "53.72999954223633", "Adj Close": "53.72999954223633", "Volume": "7752300"},
{"Date": "2020-03-25", "Open": "53.709999084472656", "High": "55.099998474121094", "Low": "52.65999984741211", "Close": "53.65999984741211", "Adj Close": "53.65999984741211", "Volume": "4715900"},
{"Date": "2020-03-26", "Open": "54.0", "High": "58.33000183105469", "Low": "53.81999969482422", "Close": "57.84000015258789", "Adj Close": "57.84000015258789", "Volume": "5455200"},
{"Date": "2020-03-27", "Open": "56.09000015258789", "High": "58.09000015258789", "Low": "56.0", "Close": "56.38999938964844", "Adj Close": "56.38999938964844", "Volume": "3997900"},
{"Date": "2020-03-30", "Open": "56.16999816894531", "High": "58.31999969482422", "Low": "55.599998474121094", "Close": "58.0", "Adj Close": "58.0", "Volume": "3625200"},
{"Date": "2020-03-31", "Open": "56.08000183105469", "High": "58.0", "Low": "55.959999084472656", "Close": "56.2599983215332", "Adj Close": "56.2599983215332", "Volume": "2879400"},
{"Date": "2020-04-01", "Open": "54.369998931884766", "High": "54.47999954223633", "Low": "52.72999954223633", "Close": "53.099998474121094", "Adj Close": "53.099998474121094", "Volume": "3815900"},
{"Date": "2020-04-02", "Open": "52.709999084472656", "High": "55.20000076293945", "Low": "52.38999938964844", "Close": "55.060001373291016", "Adj Close": "55.060001373291016", "Volume": "3088100"},
{"Date": "2020-04-03", "Open": "54.52000045776367", "High": "54.93000030517578", "Low": "53.66999816894531", "Close": "54.220001220703125", "Adj Close": "54.220001220703125", "Volume": "2787100"},
{"Date": "2020-04-06", "Open": "56.66999816894531", "High": "58.310001373291016", "Low": "55.459999084472656", "Close": "58.06999969482422", "Adj Close": "58.06999969482422", "Volume": "4762700"},
{"Date": "2020-04-07", "Open": "59.849998474121094", "High": "60.529998779296875", "Low": "58.22999954223633", "Close": "58.40999984741211", "Adj Close": "58.40999984741211", "Volume": "4299600"},
{"Date": "2020-04-08", "Open": "58.15999984741211", "High": "60.54999923706055", "Low": "57.93000030517578", "Close": "60.2599983215332", "Adj Close": "60.2599983215332", "Volume": "2198100"},
{"Date": "2020-04-09", "Open": "60.47999954223633", "High": "61.349998474121094", "Low": "59.83000183105469", "Close": "60.5099983215332", "Adj Close": "60.5099983215332", "Volume": "2559200"},
{"Date": "2020-04-13", "Open": "60.2599983215332", "High": "60.59000015258789", "Low": "58.70000076293945", "Close": "59.529998779296875", "Adj Close": "59.529998779296875", "Volume": "2706500"},
{"Date": "2020-04-14", "Open": "60.79999923706055", "High": "64.44000244140625", "Low": "60.11000061035156", "Close": "64.41000366210938", "Adj Close": "64.41000366210938", "Volume": "4836700"},
{"Date": "2020-04-15", "Open": "62.47999954223633", "High": "63.119998931884766", "Low": "61.68000030517578", "Close": "62.290000915527344", "Adj Close": "62.290000915527344", "Volume": "3491200"},
{"Date": "2020-04-16", "Open": "63.02000045776367", "High": "63.130001068115234", "Low": "61.22999954223633", "Close": "61.869998931884766", "Adj Close": "61.869998931884766", "Volume": "2102300"},
{"Date": "2020-04-17", "Open": "62.56999969482422", "High": "63.130001068115234", "Low": "61.88999938964844", "Close": "62.189998626708984", "Adj Close": "62.189998626708984", "Volume": "3174600"},
{"Date": "2020-04-20", "Open": "61.79999923706055", "High": "62.040000915527344", "Low": "60.90999984741211", "Close": "61.380001068115234", "Adj Close": "61.380001068115234", "Volume": "2852800"},
{"Date": "2020-04-21", "Open": "59.869998931884766", "High": "60.41999816894531", "Low": "58.79999923706055", "Close": "59.040000915527344", "Adj Close": "59.040000915527344", "Volume": "2107100"},
{"Date": "2020-04-22", "Open": "60.099998474121094", "High": "60.58000183105469", "Low": "59.150001525878906", "Close": "60.119998931884766", "Adj Close": "60.119998931884766", "Volume": "2438400"},
{"Date": "2020-04-23", "Open": "60.18000030517578", "High": "60.88999938964844", "Low": "59.459999084472656", "Close": "59.630001068115234", "Adj Close": "59.630001068115234", "Volume": "1649300"},
{"Date": "2020-04-24", "Open": "59.7599983215332", "High": "60.63999938964844", "Low": "59.099998474121094", "Close": "59.79999923706055", "Adj Close": "59.79999923706055", "Volume": "2555900"},
{"Date": "2020-04-27", "Open": "60.599998474121094", "High": "60.7400016784668", "Low": "59.630001068115234", "Close": "60.52000045776367", "Adj Close": "60.52000045776367", "Volume": "2923600"},
{"Date": "2020-04-28", "Open": "61.27000045776367", "High": "61.4900016784668", "Low": "59.290000915527344", "Close": "60.13999938964844", "Adj Close": "60.13999938964844", "Volume": "2864700"},
{"Date": "2020-04-29", "Open": "60.33000183105469", "High": "62.529998779296875", "Low": "59.970001220703125", "Close": "62.13999938964844", "Adj Close": "62.13999938964844", "Volume": "2849700"},
{"Date": "2020-04-30", "Open": "62.34000015258789", "High": "62.70000076293945", "Low": "61.13999938964844", "Close": "61.810001373291016", "Adj Close": "61.810001373291016", "Volume": "3523100"},
{"Date": "2020-05-01", "Open": "61.2599983215332", "High": "61.459999084472656", "Low": "59.16999816894531", "Close": "59.52000045776367", "Adj Close": "59.52000045776367", "Volume": "1782600"},
{"Date": "2020-05-04", "Open": "59.2400016784668", "High": "59.58000183105469", "Low": "58.72999954223633", "Close": "59.209999084472656", "Adj Close": "59.209999084472656", "Volume": "1915800"},
{"Date": "2020-05-05", "Open": "59.4900016784668", "High": "61.7599983215332", "Low": "59.220001220703125", "Close": "60.650001525878906", "Adj Close": "60.650001525878906", "Volume": "2775000"},
{"Date": "2020-05-06", "Open": "61.119998931884766", "High": "61.7599983215332", "Low": "60.5", "Close": "61.29999923706055", "Adj Close": "61.29999923706055", "Volume": "1735300"},
{"Date": "2020-05-07", "Open": "61.75", "High": "63.099998474121094", "Low": "61.650001525878906", "Close": "62.09000015258789", "Adj Close": "62.09000015258789", "Volume": "2210600"},
{"Date": "2020-05-08", "Open": "63.380001068115234", "High": "66.75", "Low": "63.380001068115234", "Close": "65.77999877929688", "Adj Close": "65.77999877929688", "Volume": "3274700"},
{"Date": "2020-05-11", "Open": "64.75", "High": "67.05000305175781", "Low": "64.75", "Close": "66.4000015258789", "Adj Close": "66.4000015258789", "Volume": "2054900"},
{"Date": "2020-05-12", "Open": "66.06999969482422", "High": "67.22000122070312", "Low": "66.06999969482422", "Close": "66.19000244140625", "Adj Close": "66.19000244140625", "Volume": "3151700"},
{"Date": "2020-05-13", "Open": "65.72000122070312", "High": "66.72000122070312", "Low": "64.58000183105469", "Close": "65.16999816894531", "Adj Close": "65.16999816894531", "Volume": "1951800"},
{"Date": "2020-05-14", "Open": "64.70999908447266", "High": "65.19000244140625", "Low": "63.900001525878906", "Close": "64.98999786376953", "Adj Close": "64.98999786376953", "Volume": "2048100"},
{"Date": "2020-05-15", "Open": "64.94000244140625", "High": "66.3499984741211", "Low": "64.33999633789062", "Close": "66.01000213623047", "Adj Close": "66.01000213623047", "Volume": "4498900"},
{"Date": "2020-05-18", "Open": "67.55000305175781", "High": "67.80999755859375", "Low": "66.22000122070312", "Close": "66.62000274658203", "Adj Close": "66.62000274658203", "Volume": "2206300"},
{"Date": "2020-05-19", "Open": "66.86000061035156", "High": "67.75", "Low": "66.5", "Close": "67.1500015258789", "Adj Close": "67.1500015258789", "Volume": "2120800"},
{"Date": "2020-05-20", "Open": "67.72000122070312", "High": "69.55000305175781", "Low": "67.72000122070312", "Close": "69.41000366210938", "Adj Close": "69.41000366210938", "Volume": "2573600"},
{"Date": "2020-05-21", "Open": "69.18000030517578", "High": "69.38999938964844", "Low": "68.08000183105469", "Close": "68.36000061035156", "Adj Close": "68.36000061035156", "Volume": "1865500"},
{"Date": "2020-05-22", "Open": "67.88999938964844", "High": "68.83999633789062", "Low": "67.77999877929688", "Close": "68.70999908447266", "Adj Close": "68.70999908447266", "Volume": "1702300"},
{"Date": "2020-05-26", "Open": "70.25", "High": "70.6500015258789", "Low": "68.7300033569336", "Close": "69.01000213623047", "Adj Close": "69.01000213623047", "Volume": "2904700"},
{"Date": "2020-05-27", "Open": "69.37999725341797", "High": "70.66000366210938", "Low": "68.98999786376953", "Close": "70.5999984741211", "Adj Close": "70.5999984741211", "Volume": "2021900"},
{"Date": "2020-05-28", "Open": "71.11000061035156", "High": "71.63999938964844", "Low": "69.72000122070312", "Close": "70.87000274658203", "Adj Close": "70.87000274658203", "Volume": "3067900"},
{"Date": "2020-05-29", "Open": "70.79000091552734", "High": "72.16999816894531", "Low": "69.83999633789062", "Close": "71.91000366210938", "Adj Close": "71.91000366210938", "Volume": "3114500"},
{"Date": "2020-06-01", "Open": "72.80999755859375", "High": "73.43000030517578", "Low": "72.02999877929688", "Close": "72.58999633789062", "Adj Close": "72.58999633789062", "Volume": "1769800"},
{"Date": "2020-06-02", "Open": "72.62000274658203", "High": "73.0", "Low": "71.48999786376953", "Close": "72.08000183105469", "Adj Close": "72.08000183105469", "Volume": "2406700"},
{"Date": "2020-06-03", "Open": "72.61000061035156", "High": "73.05999755859375", "Low": "72.05999755859375", "Close": "72.51000213623047", "Adj Close": "72.51000213623047", "Volume": "1783600"},
{"Date": "2020-06-04", "Open": "72.33999633789062", "High": "73.11000061035156", "Low": "70.29000091552734", "Close": "70.91999816894531", "Adj Close": "70.91999816894531", "Volume": "2952100"},
{"Date": "2020-06-05", "Open": "71.5199966430664", "High": "72.30999755859375", "Low": "70.48999786376953", "Close": "72.2300033569336", "Adj Close": "72.2300033569336", "Volume": "2752400"},
{"Date": "2020-06-08", "Open": "71.41000366210938", "High": "72.11000061035156", "Low": "70.16999816894531", "Close": "70.4000015258789", "Adj Close": "70.4000015258789", "Volume": "2477500"},
{"Date": "2020-06-09", "Open": "69.9800033569336", "High": "70.83999633789062", "Low": "69.58000183105469", "Close": "70.43000030517578", "Adj Close": "70.43000030517578", "Volume": "1670400"},
{"Date": "2020-06-10", "Open": "70.72000122070312", "High": "70.98999786376953", "Low": "70.01000213623047", "Close": "70.44000244140625", "Adj Close": "70.44000244140625", "Volume": "1464800"},
{"Date": "2020-06-11", "Open": "69.7699966430664", "High": "70.37999725341797", "Low": "67.52999877929688", "Close": "67.80000305175781", "Adj Close": "67.80000305175781", "Volume": "2392700"},
{"Date": "2020-06-12", "Open": "68.7699966430664", "High": "69.29000091552734", "Low": "67.79000091552734", "Close": "68.30000305175781", "Adj Close": "68.30000305175781", "Volume": "2106000"},
{"Date": "2020-06-15", "Open": "67.19000244140625", "High": "68.86000061035156", "Low": "66.62000274658203", "Close": "68.80000305175781", "Adj Close": "68.80000305175781", "Volume": "1685600"},
{"Date": "2020-06-16", "Open": "70.43000030517578", "High": "70.5", "Low": "68.47000122070312", "Close": "69.5", "Adj Close": "69.5", "Volume": "1655300"},
{"Date": "2020-06-17", "Open": "69.94999694824219", "High": "70.45999908447266", "Low": "69.33000183105469", "Close": "69.54000091552734", "Adj Close": "69.54000091552734", "Volume": "1554600"},
{"Date": "2020-06-18", "Open": "69.51000213623047", "High": "70.0999984741211", "Low": "69.19999694824219", "Close": "69.70999908447266", "Adj Close": "69.70999908447266", "Volume": "1586400"},
{"Date": "2020-06-19", "Open": "70.69000244140625", "High": "70.94999694824219", "Low": "69.43000030517578", "Close": "70.08000183105469", "Adj Close": "70.08000183105469", "Volume": "4331800"},
{"Date": "2020-06-22", "Open": "69.54000091552734", "High": "70.86000061035156", "Low": "69.44000244140625", "Close": "70.2699966430664", "Adj Close": "70.2699966430664", "Volume": "1627300"},
{"Date": "2020-06-23", "Open": "70.86000061035156", "High": "71.04000091552734", "Low": "69.98999786376953", "Close": "70.18000030517578", "Adj Close": "70.18000030517578", "Volume": "1450000"},
{"Date": "2020-06-24", "Open": "69.55000305175781", "High": "70.12999725341797", "Low": "67.87000274658203", "Close": "68.06999969482422", "Adj Close": "68.06999969482422", "Volume": "2158200"},
{"Date": "2020-06-25", "Open": "68.08000183105469", "High": "69.13999938964844", "Low": "67.37000274658203", "Close": "69.05999755859375", "Adj Close": "69.05999755859375", "Volume": "1745200"},
{"Date": "2020-06-26", "Open": "69.19999694824219", "High": "69.37999725341797", "Low": "67.69000244140625", "Close": "67.9000015258789", "Adj Close": "67.9000015258789", "Volume": "2046000"},
{"Date": "2020-06-29", "Open": "68.38999938964844", "High": "69.26000213623047", "Low": "67.93000030517578", "Close": "69.11000061035156", "Adj Close": "69.11000061035156", "Volume": "1619200"},
{"Date": "2020-06-30", "Open": "69.08999633789062", "High": "69.51000213623047", "Low": "68.58000183105469", "Close": "69.31999969482422", "Adj Close": "69.31999969482422", "Volume": "1928700"},
{"Date": "2020-07-01", "Open": "69.33000183105469", "High": "69.97000122070312", "Low": "68.83999633789062", "Close": "69.02999877929688", "Adj Close": "69.02999877929688", "Volume": "1101200"},
{"Date": "2020-07-02", "Open": "69.62000274658203", "High": "69.94000244140625", "Low": "69.0999984741211", "Close": "69.26000213623047", "Adj Close": "69.26000213623047", "Volume": "1413300"},
{"Date": "2020-07-06", "Open": "70.2699966430664", "High": "71.3499984741211", "Low": "69.97000122070312", "Close": "71.30999755859375", "Adj Close": "71.30999755859375", "Volume": "2602000"},
{"Date": "2020-07-07", "Open": "70.80000305175781", "High": "72.93000030517578", "Low": "70.6500015258789", "Close": "71.69999694824219", "Adj Close": "71.69999694824219", "Volume": "2539300"},
{"Date": "2020-07-08", "Open": "72.11000061035156", "High": "72.81999969482422", "Low": "71.22000122070312", "Close": "71.76000213623047", "Adj Close": "71.76000213623047", "Volume": "1671700"},
{"Date": "2020-07-09", "Open": "71.6500015258789", "High": "72.04000091552734", "Low": "70.5199966430664", "Close": "71.05000305175781", "Adj Close": "71.05000305175781", "Volume": "1525500"},
{"Date": "2020-07-10", "Open": "71.08000183105469", "High": "71.66999816894531", "Low": "70.11000061035156", "Close": "71.6500015258789", "Adj Close": "71.6500015258789", "Volume": "1186700"},
{"Date": "2020-07-13", "Open": "72.48999786376953", "High": "72.48999786376953", "Low": "70.23999786376953", "Close": "70.55000305175781", "Adj Close": "70.55000305175781", "Volume": "2627300"},
{"Date": "2020-07-14", "Open": "69.7699966430664", "High": "71.75", "Low": "69.54000091552734", "Close": "71.62999725341797", "Adj Close": "71.62999725341797", "Volume": "2064800"},
{"Date": "2020-07-15", "Open": "71.87000274658203", "High": "72.58999633789062", "Low": "71.0", "Close": "72.19000244140625", "Adj Close": "72.19000244140625", "Volume": "2210800"},
{"Date": "2020-07-16", "Open": "71.79000091552734", "High": "72.63999938964844", "Low": "71.61000061035156", "Close": "72.62000274658203", "Adj Close": "72.62000274658203", "Volume": "1493400"},
{"Date": "2020-07-17", "Open": "73.30000305175781", "High": "74.62000274658203", "Low": "72.43000030517578", "Close": "74.22000122070312", "Adj Close": "74.22000122070312", "Volume": "5765200"},
{"Date": "2020-07-20", "Open": "74.5", "High": "74.94999694824219", "Low": "73.58999633789062", "Close": "73.87000274658203", "Adj Close": "73.87000274658203", "Volume": "1854700"},
{"Date": "2020-07-21", "Open": "74.5", "High": "75.76000213623047", "Low": "74.3499984741211", "Close": "75.0", "Adj Close": "75.0", "Volume": "2560500"},
{"Date": "2020-07-22", "Open": "75.41000366210938", "High": "76.08999633789062", "Low": "75.33999633789062", "Close": "75.7300033569336", "Adj Close": "75.7300033569336", "Volume": "2120400"},
{"Date": "2020-07-23", "Open": "76.16000366210938", "High": "76.5", "Low": "74.80000305175781", "Close": "74.93000030517578", "Adj Close": "74.93000030517578", "Volume": "2198400"},
{"Date": "2020-07-24", "Open": "75.05999755859375", "High": "75.48999786376953", "Low": "74.58999633789062", "Close": "74.87999725341797", "Adj Close": "74.87999725341797", "Volume": "1586100"},
{"Date": "2020-07-27", "Open": "75.29000091552734", "High": "76.7300033569336", "Low": "75.2699966430664", "Close": "76.43000030517578", "Adj Close": "76.43000030517578", "Volume": "2027000"},
{"Date": "2020-07-28", "Open": "76.93000030517578", "High": "77.0199966430664", "Low": "75.93000030517578", "Close": "76.19000244140625", "Adj Close": "76.19000244140625", "Volume": "1741000"},
{"Date": "2020-07-29", "Open": "76.22000122070312", "High": "77.51000213623047", "Low": "75.80999755859375", "Close": "77.30999755859375", "Adj Close": "77.30999755859375", "Volume": "1488900"},
{"Date": "2020-07-30", "Open": "76.7300033569336", "High": "78.0", "Low": "76.01000213623047", "Close": "77.81999969482422", "Adj Close": "77.81999969482422", "Volume": "2159300"},
{"Date": "2020-07-31", "Open": "77.76000213623047", "High": "78.4800033569336", "Low": "76.80999755859375", "Close": "78.4800033569336", "Adj Close": "78.4800033569336", "Volume": "2102700"},
{"Date": "2020-08-03", "Open": "78.69000244140625", "High": "78.79000091552734", "Low": "77.1500015258789", "Close": "77.83999633789062", "Adj Close": "77.83999633789062", "Volume": "1573200"},
{"Date": "2020-08-04", "Open": "77.4800033569336", "High": "78.25", "Low": "77.20999908447266", "Close": "78.01000213623047", "Adj Close": "78.01000213623047", "Volume": "2493900"},
{"Date": "2020-08-05", "Open": "82.02999877929688", "High": "83.95999908447266", "Low": "81.30999755859375", "Close": "83.0999984741211", "Adj Close": "83.0999984741211", "Volume": "3529700"},
{"Date": "2020-08-06", "Open": "82.9800033569336", "High": "83.83000183105469", "Low": "82.62000274658203", "Close": "83.51000213623047", "Adj Close": "83.51000213623047", "Volume": "2183800"},
{"Date": "2020-08-07", "Open": "82.94999694824219", "High": "83.83999633789062", "Low": "82.41999816894531", "Close": "83.19000244140625", "Adj Close": "83.19000244140625", "Volume": "1824500"},
{"Date": "2020-08-10", "Open": "83.19000244140625", "High": "83.36000061035156", "Low": "81.58000183105469", "Close": "82.0", "Adj Close": "82.0", "Volume": "1265700"},
{"Date": "2020-08-11", "Open": "82.27999877929688", "High": "82.44000244140625", "Low": "80.1500015258789", "Close": "80.5999984741211", "Adj Close": "80.5999984741211", "Volume": "2323800"},
{"Date": "2020-08-12", "Open": "81.23999786376953", "High": "83.06999969482422", "Low": "81.23999786376953", "Close": "82.6500015258789", "Adj Close": "82.6500015258789", "Volume": "2035100"},
{"Date": "2020-08-13", "Open": "83.0", "High": "83.9800033569336", "Low": "82.79000091552734", "Close": "83.81999969482422", "Adj Close": "83.81999969482422", "Volume": "2197700"},
{"Date": "2020-08-14", "Open": "83.48999786376953", "High": "83.87999725341797", "Low": "82.87999725341797", "Close": "83.31999969482422", "Adj Close": "83.31999969482422", "Volume": "1385800"},
{"Date": "2020-08-17", "Open": "83.33999633789062", "High": "83.91000366210938", "Low": "83.29000091552734", "Close": "83.44999694824219", "Adj Close": "83.44999694824219", "Volume": "2608900"},
{"Date": "2020-08-18", "Open": "83.44000244140625", "High": "83.83000183105469", "Low": "82.5999984741211", "Close": "82.9800033569336", "Adj Close": "82.9800033569336", "Volume": "1372400"},
{"Date": "2020-08-19", "Open": "82.77999877929688", "High": "83.58000183105469", "Low": "82.3499984741211", "Close": "82.66999816894531", "Adj Close": "82.66999816894531", "Volume": "1231600"},
{"Date": "2020-08-20", "Open": "82.19000244140625", "High": "83.18000030517578", "Low": "81.91000366210938", "Close": "83.01000213623047", "Adj Close": "83.01000213623047", "Volume": "1119300"},
{"Date": "2020-08-21", "Open": "82.76000213623047", "High": "83.02999877929688", "Low": "81.81999969482422", "Close": "82.7300033569336", "Adj Close": "82.7300033569336", "Volume": "1480900"},
{}]