[{"Date": "2019-08-23", "Open": "96.41000366210938", "High": "97.0999984741211", "Low": "94.38999938964844", "Close": "94.69999694824219", "Adj Close": "92.76018524169922", "Volume": "8076600"},
{"Date": "2019-08-26", "Open": "95.37999725341797", "High": "96.5", "Low": "95.0", "Close": "96.5", "Adj Close": "94.52330780029297", "Volume": "5802600"},
{"Date": "2019-08-27", "Open": "96.69999694824219", "High": "97.0999984741211", "Low": "96.02999877929688", "Close": "96.08999633789062", "Adj Close": "94.1217041015625", "Volume": "6539800"},
{"Date": "2019-08-28", "Open": "96.2300033569336", "High": "97.20999908447266", "Low": "96.0", "Close": "97.06999969482422", "Adj Close": "95.08163452148438", "Volume": "4948800"},
{"Date": "2019-08-29", "Open": "97.8499984741211", "High": "98.06999969482422", "Low": "97.05999755859375", "Close": "97.69999694824219", "Adj Close": "95.69872283935547", "Volume": "4514300"},
{"Date": "2019-08-30", "Open": "98.13999938964844", "High": "98.13999938964844", "Low": "96.11000061035156", "Close": "96.55999755859375", "Adj Close": "94.58207702636719", "Volume": "5209500"},
{"Date": "2019-09-03", "Open": "96.41999816894531", "High": "97.20999908447266", "Low": "96.05000305175781", "Close": "96.7699966430664", "Adj Close": "94.78777313232422", "Volume": "5150700"},
{"Date": "2019-09-04", "Open": "94.4800033569336", "High": "96.33000183105469", "Low": "93.02999877929688", "Close": "96.11000061035156", "Adj Close": "94.14130401611328", "Volume": "12937000"},
{"Date": "2019-09-05", "Open": "96.54000091552734", "High": "96.95999908447266", "Low": "95.16999816894531", "Close": "95.55999755859375", "Adj Close": "93.6025619506836", "Volume": "5514400"},
{"Date": "2019-09-06", "Open": "95.75", "High": "96.33999633789062", "Low": "95.51000213623047", "Close": "95.73999786376953", "Adj Close": "93.77886962890625", "Volume": "3991800"},
{"Date": "2019-09-09", "Open": "95.80000305175781", "High": "95.93000030517578", "Low": "93.73999786376953", "Close": "94.16000366210938", "Adj Close": "92.23124694824219", "Volume": "6523300"},
{"Date": "2019-09-10", "Open": "93.80999755859375", "High": "93.87999725341797", "Low": "89.30000305175781", "Close": "90.3499984741211", "Adj Close": "88.49928283691406", "Volume": "12490900"},
{"Date": "2019-09-11", "Open": "90.18000030517578", "High": "91.44999694824219", "Low": "89.61000061035156", "Close": "90.9800033569336", "Adj Close": "89.11637878417969", "Volume": "8406600"},
{"Date": "2019-09-12", "Open": "92.16000366210938", "High": "93.31999969482422", "Low": "91.7699966430664", "Close": "92.05999755859375", "Adj Close": "90.17425537109375", "Volume": "6862200"},
{"Date": "2019-09-13", "Open": "92.1500015258789", "High": "92.1500015258789", "Low": "90.31999969482422", "Close": "90.4800033569336", "Adj Close": "88.62662506103516", "Volume": "6972300"},
{"Date": "2019-09-16", "Open": "90.0199966430664", "High": "90.44999694824219", "Low": "89.37999725341797", "Close": "89.41999816894531", "Adj Close": "87.58833312988281", "Volume": "6339200"},
{"Date": "2019-09-17", "Open": "89.66999816894531", "High": "91.45999908447266", "Low": "89.6500015258789", "Close": "90.75", "Adj Close": "88.8910903930664", "Volume": "6493200"},
{"Date": "2019-09-18", "Open": "90.9800033569336", "High": "91.36000061035156", "Low": "90.05999755859375", "Close": "90.95999908447266", "Adj Close": "89.09678649902344", "Volume": "4510700"},
{"Date": "2019-09-19", "Open": "90.98999786376953", "High": "92.0999984741211", "Low": "90.30000305175781", "Close": "91.55999755859375", "Adj Close": "89.68448638916016", "Volume": "4843600"},
{"Date": "2019-09-20", "Open": "91.61000061035156", "High": "92.08000183105469", "Low": "90.05999755859375", "Close": "90.06999969482422", "Adj Close": "88.22502136230469", "Volume": "10913800"},
{"Date": "2019-09-23", "Open": "90.31999969482422", "High": "91.16000366210938", "Low": "89.93000030517578", "Close": "90.80999755859375", "Adj Close": "88.9498519897461", "Volume": "4532400"},
{"Date": "2019-09-24", "Open": "91.5999984741211", "High": "91.7699966430664", "Low": "89.51000213623047", "Close": "89.91999816894531", "Adj Close": "88.07808685302734", "Volume": "5662600"},
{"Date": "2019-09-25", "Open": "89.94000244140625", "High": "90.61000061035156", "Low": "89.0199966430664", "Close": "90.3499984741211", "Adj Close": "88.49928283691406", "Volume": "4764000"},
{"Date": "2019-09-26", "Open": "90.83999633789062", "High": "91.1500015258789", "Low": "89.5", "Close": "89.80000305175781", "Adj Close": "87.96055603027344", "Volume": "5026400"},
{"Date": "2019-09-27", "Open": "90.30000305175781", "High": "90.30000305175781", "Low": "87.79000091552734", "Close": "88.37000274658203", "Adj Close": "86.55984497070312", "Volume": "5987700"},
{"Date": "2019-09-30", "Open": "88.41000366210938", "High": "88.55999755859375", "Low": "87.61000061035156", "Close": "88.41999816894531", "Adj Close": "86.60881042480469", "Volume": "6588300"},
{"Date": "2019-10-01", "Open": "88.62999725341797", "High": "88.88999938964844", "Low": "86.44999694824219", "Close": "86.51000213623047", "Adj Close": "84.73794555664062", "Volume": "6719400"},
{"Date": "2019-10-02", "Open": "85.94999694824219", "High": "86.01000213623047", "Low": "84.16000366210938", "Close": "84.31999969482422", "Adj Close": "82.59280395507812", "Volume": "9858200"},
{"Date": "2019-10-03", "Open": "84.30000305175781", "High": "84.91000366210938", "Low": "83.61000061035156", "Close": "84.66999816894531", "Adj Close": "82.93562316894531", "Volume": "5989000"},
{"Date": "2019-10-04", "Open": "84.9000015258789", "High": "85.97000122070312", "Low": "84.75", "Close": "85.91999816894531", "Adj Close": "84.16002655029297", "Volume": "5869000"},
{"Date": "2019-10-07", "Open": "85.70999908447266", "High": "86.16000366210938", "Low": "85.48999786376953", "Close": "85.8499984741211", "Adj Close": "84.09146881103516", "Volume": "4382900"},
{"Date": "2019-10-08", "Open": "85.48999786376953", "High": "86.33000183105469", "Low": "84.69000244140625", "Close": "84.91000366210938", "Adj Close": "83.17071533203125", "Volume": "6100400"},
{"Date": "2019-10-09", "Open": "85.37000274658203", "High": "86.16999816894531", "Low": "85.27999877929688", "Close": "85.8499984741211", "Adj Close": "84.09146881103516", "Volume": "4427200"},
{"Date": "2019-10-10", "Open": "85.91000366210938", "High": "86.06999969482422", "Low": "85.37999725341797", "Close": "85.95999908447266", "Adj Close": "84.19921112060547", "Volume": "3986000"},
{"Date": "2019-10-11", "Open": "87.0199966430664", "High": "87.25", "Low": "86.26000213623047", "Close": "86.36000061035156", "Adj Close": "84.59101104736328", "Volume": "5611000"},
{"Date": "2019-10-14", "Open": "86.5", "High": "87.68000030517578", "Low": "86.4000015258789", "Close": "86.62000274658203", "Adj Close": "84.84569549560547", "Volume": "4881000"},
{"Date": "2019-10-15", "Open": "87.0", "High": "87.25", "Low": "85.76000213623047", "Close": "86.44999694824219", "Adj Close": "84.67916870117188", "Volume": "4695100"},
{"Date": "2019-10-16", "Open": "86.52999877929688", "High": "86.83000183105469", "Low": "86.05000305175781", "Close": "86.70999908447266", "Adj Close": "84.93385314941406", "Volume": "3698700"},
{"Date": "2019-10-17", "Open": "86.87999725341797", "High": "87.0199966430664", "Low": "86.16000366210938", "Close": "86.29000091552734", "Adj Close": "84.52245330810547", "Volume": "4359400"},
{"Date": "2019-10-18", "Open": "86.3499984741211", "High": "86.75", "Low": "85.5199966430664", "Close": "86.02999877929688", "Adj Close": "84.26777648925781", "Volume": "4631200"},
{"Date": "2019-10-21", "Open": "86.0", "High": "86.23999786376953", "Low": "85.08000183105469", "Close": "85.3499984741211", "Adj Close": "83.60169982910156", "Volume": "4861200"},
{"Date": "2019-10-22", "Open": "85.2300033569336", "High": "85.3499984741211", "Low": "83.38999938964844", "Close": "83.45999908447266", "Adj Close": "81.75041198730469", "Volume": "5767500"},
{"Date": "2019-10-23", "Open": "84.30999755859375", "High": "84.41000366210938", "Low": "82.12999725341797", "Close": "82.73999786376953", "Adj Close": "81.045166015625", "Volume": "7136200"},
{"Date": "2019-10-24", "Open": "82.80000305175781", "High": "83.52999877929688", "Low": "82.66000366210938", "Close": "83.18000030517578", "Adj Close": "81.47615051269531", "Volume": "4591100"},
{"Date": "2019-10-25", "Open": "83.20999908447266", "High": "83.56999969482422", "Low": "82.62999725341797", "Close": "83.37999725341797", "Adj Close": "81.67205047607422", "Volume": "5235300"},
{"Date": "2019-10-28", "Open": "84.47000122070312", "High": "84.9800033569336", "Low": "83.36000061035156", "Close": "83.5999984741211", "Adj Close": "81.8875503540039", "Volume": "6653400"},
{"Date": "2019-10-29", "Open": "83.80999755859375", "High": "84.62999725341797", "Low": "83.63999938964844", "Close": "84.12999725341797", "Adj Close": "82.40668487548828", "Volume": "5699100"},
{"Date": "2019-10-30", "Open": "84.61000061035156", "High": "84.69999694824219", "Low": "83.31999969482422", "Close": "84.19000244140625", "Adj Close": "82.46546173095703", "Volume": "8731300"},
{"Date": "2019-10-31", "Open": "86.70999908447266", "High": "87.22000122070312", "Low": "83.27999877929688", "Close": "84.55999755859375", "Adj Close": "82.827880859375", "Volume": "14008800"},
{"Date": "2019-11-01", "Open": "84.79000091552734", "High": "85.30999755859375", "Low": "82.61000061035156", "Close": "83.20999908447266", "Adj Close": "81.50553894042969", "Volume": "10658500"},
{"Date": "2019-11-04", "Open": "83.30000305175781", "High": "83.44000244140625", "Low": "81.9000015258789", "Close": "82.37000274658203", "Adj Close": "80.68274688720703", "Volume": "8271200"},
{"Date": "2019-11-05", "Open": "82.33999633789062", "High": "82.33999633789062", "Low": "81.02999877929688", "Close": "81.88999938964844", "Adj Close": "80.21257781982422", "Volume": "7054400"},
{"Date": "2019-11-06", "Open": "82.08000183105469", "High": "83.37000274658203", "Low": "82.0", "Close": "82.98999786376953", "Adj Close": "81.2900390625", "Volume": "6365300"},
{"Date": "2019-11-07", "Open": "83.05999755859375", "High": "83.29000091552734", "Low": "81.83999633789062", "Close": "81.94999694824219", "Adj Close": "80.27134704589844", "Volume": "7221400"},
{"Date": "2019-11-08", "Open": "82.19000244140625", "High": "82.63999938964844", "Low": "81.44999694824219", "Close": "81.7699966430664", "Adj Close": "80.09503173828125", "Volume": "7054800"},
{"Date": "2019-11-11", "Open": "81.75", "High": "82.52999877929688", "Low": "81.37000274658203", "Close": "82.43000030517578", "Adj Close": "80.74151611328125", "Volume": "5828200"},
{"Date": "2019-11-12", "Open": "82.69000244140625", "High": "83.9800033569336", "Low": "82.61000061035156", "Close": "83.31999969482422", "Adj Close": "82.02125549316406", "Volume": "8551400"},
{"Date": "2019-11-13", "Open": "83.29000091552734", "High": "84.29000091552734", "Low": "83.19999694824219", "Close": "83.94000244140625", "Adj Close": "82.631591796875", "Volume": "7407900"},
{"Date": "2019-11-14", "Open": "84.0999984741211", "High": "84.5199966430664", "Low": "83.80000305175781", "Close": "84.37999725341797", "Adj Close": "83.06472778320312", "Volume": "5285100"},
{"Date": "2019-11-15", "Open": "84.68000030517578", "High": "84.94000244140625", "Low": "83.56999969482422", "Close": "84.20999908447266", "Adj Close": "82.89737701416016", "Volume": "7533000"},
{"Date": "2019-11-18", "Open": "83.91999816894531", "High": "84.11000061035156", "Low": "83.25", "Close": "84.0199966430664", "Adj Close": "82.7103271484375", "Volume": "6432200"},
{"Date": "2019-11-19", "Open": "84.05999755859375", "High": "84.27999877929688", "Low": "83.56999969482422", "Close": "83.66000366210938", "Adj Close": "82.35595703125", "Volume": "6008400"},
{"Date": "2019-11-20", "Open": "83.54000091552734", "High": "84.48999786376953", "Low": "82.9800033569336", "Close": "83.5999984741211", "Adj Close": "82.29688262939453", "Volume": "6248700"},
{"Date": "2019-11-21", "Open": "83.75", "High": "84.04000091552734", "Low": "81.76000213623047", "Close": "82.30000305175781", "Adj Close": "81.01715087890625", "Volume": "8300500"},
{"Date": "2019-11-22", "Open": "82.69000244140625", "High": "83.38999938964844", "Low": "82.66000366210938", "Close": "83.0199966430664", "Adj Close": "81.72592163085938", "Volume": "6080400"},
{"Date": "2019-11-25", "Open": "83.16000366210938", "High": "84.0", "Low": "82.93000030517578", "Close": "83.75", "Adj Close": "82.44454956054688", "Volume": "5450400"},
{"Date": "2019-11-26", "Open": "84.12999725341797", "High": "84.6500015258789", "Low": "84.0", "Close": "84.55999755859375", "Adj Close": "83.2419204711914", "Volume": "7651500"},
{"Date": "2019-11-27", "Open": "84.8499984741211", "High": "85.80999755859375", "Low": "84.41999816894531", "Close": "85.7699966430664", "Adj Close": "84.43305206298828", "Volume": "7502400"},
{"Date": "2019-11-29", "Open": "85.91000366210938", "High": "86.7300033569336", "Low": "85.25", "Close": "85.43000030517578", "Adj Close": "84.09835815429688", "Volume": "3857000"},
{"Date": "2019-12-02", "Open": "85.37999725341797", "High": "85.7699966430664", "Low": "83.81999969482422", "Close": "84.56999969482422", "Adj Close": "83.25176239013672", "Volume": "6425800"},
{"Date": "2019-12-03", "Open": "84.02999877929688", "High": "85.0", "Low": "83.81999969482422", "Close": "84.81999969482422", "Adj Close": "83.49787139892578", "Volume": "6049800"},
{"Date": "2019-12-04", "Open": "85.12999725341797", "High": "85.54000091552734", "Low": "84.69999694824219", "Close": "85.4000015258789", "Adj Close": "84.06883239746094", "Volume": "5940300"},
{"Date": "2019-12-05", "Open": "85.44000244140625", "High": "85.4800033569336", "Low": "84.31999969482422", "Close": "84.44999694824219", "Adj Close": "83.13362884521484", "Volume": "5170800"},
{"Date": "2019-12-06", "Open": "85.02999877929688", "High": "86.52999877929688", "Low": "85.02999877929688", "Close": "86.31999969482422", "Adj Close": "84.97447967529297", "Volume": "8499800"},
{"Date": "2019-12-09", "Open": "86.30999755859375", "High": "86.62999725341797", "Low": "85.95999908447266", "Close": "86.27999877929688", "Adj Close": "84.93511199951172", "Volume": "7164700"},
{"Date": "2019-12-10", "Open": "86.5", "High": "87.47000122070312", "Low": "85.91000366210938", "Close": "86.04000091552734", "Adj Close": "84.6988525390625", "Volume": "7944800"},
{"Date": "2019-12-11", "Open": "86.26000213623047", "High": "86.87000274658203", "Low": "85.8499984741211", "Close": "86.58999633789062", "Adj Close": "85.24027252197266", "Volume": "4921900"},
{"Date": "2019-12-12", "Open": "88.0", "High": "88.88999938964844", "Low": "87.54000091552734", "Close": "88.20999908447266", "Adj Close": "86.83502197265625", "Volume": "10282100"},
{"Date": "2019-12-13", "Open": "88.0199966430664", "High": "88.79000091552734", "Low": "87.58000183105469", "Close": "88.66999816894531", "Adj Close": "87.28785705566406", "Volume": "6714100"},
{"Date": "2019-12-16", "Open": "89.13999938964844", "High": "89.30000305175781", "Low": "88.43000030517578", "Close": "88.77999877929688", "Adj Close": "87.3961410522461", "Volume": "6705600"},
{"Date": "2019-12-17", "Open": "88.87000274658203", "High": "88.97000122070312", "Low": "87.47000122070312", "Close": "88.12999725341797", "Adj Close": "86.75627136230469", "Volume": "7296900"},
{"Date": "2019-12-18", "Open": "88.38999938964844", "High": "88.8499984741211", "Low": "87.81999969482422", "Close": "87.98999786376953", "Adj Close": "86.61845397949219", "Volume": "5859200"},
{"Date": "2019-12-19", "Open": "87.83000183105469", "High": "88.58999633789062", "Low": "87.58000183105469", "Close": "88.5199966430664", "Adj Close": "87.14019012451172", "Volume": "6022100"},
{"Date": "2019-12-20", "Open": "88.79000091552734", "High": "89.0", "Low": "87.88999938964844", "Close": "88.45999908447266", "Adj Close": "87.08113098144531", "Volume": "14271500"},
{"Date": "2019-12-23", "Open": "88.62000274658203", "High": "88.8499984741211", "Low": "88.18000030517578", "Close": "88.2300033569336", "Adj Close": "86.85472106933594", "Volume": "4349700"},
{"Date": "2019-12-24", "Open": "88.19999694824219", "High": "88.5999984741211", "Low": "88.0", "Close": "88.5199966430664", "Adj Close": "87.14019012451172", "Volume": "1847800"},
{"Date": "2019-12-26", "Open": "88.7300033569336", "High": "88.76000213623047", "Low": "87.79000091552734", "Close": "88.08000183105469", "Adj Close": "86.7070541381836", "Volume": "4177700"},
{"Date": "2019-12-27", "Open": "88.11000061035156", "High": "88.45999908447266", "Low": "87.69000244140625", "Close": "88.12999725341797", "Adj Close": "86.75627136230469", "Volume": "4129300"},
{"Date": "2019-12-30", "Open": "88.01000213623047", "High": "88.19999694824219", "Low": "87.05999755859375", "Close": "87.44000244140625", "Adj Close": "86.07703399658203", "Volume": "4655600"},
{"Date": "2019-12-31", "Open": "87.44000244140625", "High": "87.98999786376953", "Low": "87.30999755859375", "Close": "87.91999816894531", "Adj Close": "86.54955291748047", "Volume": "4115600"},
{"Date": "2020-01-02", "Open": "88.12000274658203", "High": "89.3499984741211", "Low": "88.05000305175781", "Close": "89.3499984741211", "Adj Close": "87.95726013183594", "Volume": "6473800"},
{"Date": "2020-01-03", "Open": "88.66000366210938", "High": "89.0999984741211", "Low": "88.0999984741211", "Close": "88.83000183105469", "Adj Close": "87.44535827636719", "Volume": "4874100"},
{"Date": "2020-01-06", "Open": "88.11000061035156", "High": "88.41000366210938", "Low": "87.47000122070312", "Close": "88.12999725341797", "Adj Close": "86.75627136230469", "Volume": "5409800"},
{"Date": "2020-01-07", "Open": "87.95999908447266", "High": "88.02999877929688", "Low": "87.12999725341797", "Close": "87.86000061035156", "Adj Close": "86.490478515625", "Volume": "6514700"},
{"Date": "2020-01-08", "Open": "87.94000244140625", "High": "89.3499984741211", "Low": "87.77999877929688", "Close": "88.87999725341797", "Adj Close": "87.49458312988281", "Volume": "7296300"},
{"Date": "2020-01-09", "Open": "90.25", "High": "91.16000366210938", "Low": "90.06999969482422", "Close": "90.52999877929688", "Adj Close": "89.11885833740234", "Volume": "9443500"},
{"Date": "2020-01-10", "Open": "90.80000305175781", "High": "90.88999938964844", "Low": "89.62999725341797", "Close": "90.16000366210938", "Adj Close": "88.75463104248047", "Volume": "7097900"},
{"Date": "2020-01-13", "Open": "90.62000274658203", "High": "91.72000122070312", "Low": "90.20999908447266", "Close": "91.08000183105469", "Adj Close": "89.66029357910156", "Volume": "7382500"},
{"Date": "2020-01-14", "Open": "91.19000244140625", "High": "91.44000244140625", "Low": "90.86000061035156", "Close": "90.98999786376953", "Adj Close": "89.57169342041016", "Volume": "5855200"},
{"Date": "2020-01-15", "Open": "91.0", "High": "92.05999755859375", "Low": "91.0", "Close": "91.54000091552734", "Adj Close": "90.11312866210938", "Volume": "6145300"},
{"Date": "2020-01-16", "Open": "91.98999786376953", "High": "92.61000061035156", "Low": "91.62999725341797", "Close": "92.58000183105469", "Adj Close": "91.13691711425781", "Volume": "5180300"},
{"Date": "2020-01-17", "Open": "92.93000030517578", "High": "93.75", "Low": "92.80999755859375", "Close": "93.62000274658203", "Adj Close": "92.16070556640625", "Volume": "6962800"},
{"Date": "2020-01-21", "Open": "92.83000183105469", "High": "93.5999984741211", "Low": "92.19000244140625", "Close": "92.52999877929688", "Adj Close": "91.08768463134766", "Volume": "7094600"},
{"Date": "2020-01-22", "Open": "93.13999938964844", "High": "93.75", "Low": "92.47000122070312", "Close": "92.52999877929688", "Adj Close": "91.08768463134766", "Volume": "6157400"},
{"Date": "2020-01-23", "Open": "91.91999816894531", "High": "93.8499984741211", "Low": "90.73999786376953", "Close": "93.75", "Adj Close": "92.28866577148438", "Volume": "6100600"},
{"Date": "2020-01-24", "Open": "94.0", "High": "94.12999725341797", "Low": "91.33999633789062", "Close": "92.02999877929688", "Adj Close": "90.5954818725586", "Volume": "7815500"},
{"Date": "2020-01-27", "Open": "88.62999725341797", "High": "89.44999694824219", "Low": "87.55000305175781", "Close": "88.7300033569336", "Adj Close": "87.346923828125", "Volume": "11066500"},
{"Date": "2020-01-28", "Open": "89.05000305175781", "High": "89.19000244140625", "Low": "87.72000122070312", "Close": "88.5999984741211", "Adj Close": "87.21894836425781", "Volume": "11922400"},
{"Date": "2020-01-29", "Open": "88.1500015258789", "High": "88.44000244140625", "Low": "85.5999984741211", "Close": "86.72000122070312", "Adj Close": "85.36825561523438", "Volume": "17678700"},
{"Date": "2020-01-30", "Open": "85.44999694824219", "High": "86.58999633789062", "Low": "84.69000244140625", "Close": "85.83999633789062", "Adj Close": "84.50196838378906", "Volume": "12224900"},
{"Date": "2020-01-31", "Open": "85.79000091552734", "High": "85.98999786376953", "Low": "84.5199966430664", "Close": "84.83000183105469", "Adj Close": "83.5077133178711", "Volume": "11693900"},
{"Date": "2020-02-03", "Open": "85.06999969482422", "High": "86.79000091552734", "Low": "85.06999969482422", "Close": "86.01000213623047", "Adj Close": "84.66931915283203", "Volume": "9092600"},
{"Date": "2020-02-04", "Open": "87.13999938964844", "High": "89.0", "Low": "86.62000274658203", "Close": "88.37999725341797", "Adj Close": "87.00237274169922", "Volume": "9997100"},
{"Date": "2020-02-05", "Open": "88.87999725341797", "High": "89.19999694824219", "Low": "86.62999725341797", "Close": "87.55999755859375", "Adj Close": "86.59688568115234", "Volume": "9982700"},
{"Date": "2020-02-06", "Open": "87.6500015258789", "High": "87.69999694824219", "Low": "86.1500015258789", "Close": "86.1500015258789", "Adj Close": "85.202392578125", "Volume": "8901400"},
{"Date": "2020-02-07", "Open": "85.76000213623047", "High": "86.62000274658203", "Low": "85.31999969482422", "Close": "86.41999816894531", "Adj Close": "85.46942138671875", "Volume": "8073900"},
{"Date": "2020-02-10", "Open": "86.43000030517578", "High": "87.62000274658203", "Low": "86.16999816894531", "Close": "87.52999877929688", "Adj Close": "86.56721496582031", "Volume": "7289300"},
{"Date": "2020-02-11", "Open": "87.86000061035156", "High": "88.2300033569336", "Low": "87.3499984741211", "Close": "87.51000213623047", "Adj Close": "86.54743194580078", "Volume": "5098500"},
{"Date": "2020-02-12", "Open": "87.70999908447266", "High": "89.0999984741211", "Low": "87.38999938964844", "Close": "88.56999969482422", "Adj Close": "87.59577941894531", "Volume": "7747800"},
{"Date": "2020-02-13", "Open": "88.5", "High": "90.51000213623047", "Low": "88.26000213623047", "Close": "89.93000030517578", "Adj Close": "88.94081115722656", "Volume": "8576600"},
{"Date": "2020-02-14", "Open": "90.18000030517578", "High": "90.41000366210938", "Low": "88.98999786376953", "Close": "89.27999877929688", "Adj Close": "88.29795837402344", "Volume": "5686900"},
{"Date": "2020-02-18", "Open": "89.37000274658203", "High": "89.47000122070312", "Low": "88.29000091552734", "Close": "89.2300033569336", "Adj Close": "88.24851989746094", "Volume": "5288800"},
{"Date": "2020-02-19", "Open": "89.48999786376953", "High": "90.44000244140625", "Low": "89.30000305175781", "Close": "90.13999938964844", "Adj Close": "89.14849853515625", "Volume": "5210800"},
{"Date": "2020-02-20", "Open": "89.7300033569336", "High": "90.25", "Low": "87.7300033569336", "Close": "88.5999984741211", "Adj Close": "87.62544250488281", "Volume": "5969200"},
{"Date": "2020-02-21", "Open": "88.0", "High": "88.38999938964844", "Low": "87.0", "Close": "87.36000061035156", "Adj Close": "86.39908599853516", "Volume": "5800500"},
{"Date": "2020-02-24", "Open": "84.52999877929688", "High": "86.05000305175781", "Low": "84.26000213623047", "Close": "84.5199966430664", "Adj Close": "83.59032440185547", "Volume": "8313600"},
{"Date": "2020-02-25", "Open": "85.0199966430664", "High": "85.3499984741211", "Low": "81.66999816894531", "Close": "82.19000244140625", "Adj Close": "81.28594970703125", "Volume": "9404000"},
{"Date": "2020-02-26", "Open": "82.5999984741211", "High": "83.23999786376953", "Low": "80.63999938964844", "Close": "80.66999816894531", "Adj Close": "79.78266906738281", "Volume": "10541500"},
{"Date": "2020-02-27", "Open": "78.83000183105469", "High": "80.87000274658203", "Low": "77.36000061035156", "Close": "78.29000091552734", "Adj Close": "77.4288558959961", "Volume": "17115600"},
{"Date": "2020-02-28", "Open": "76.16999816894531", "High": "78.80999755859375", "Low": "75.72000122070312", "Close": "78.43000030517578", "Adj Close": "77.56730651855469", "Volume": "19120200"},
{"Date": "2020-03-02", "Open": "77.91999816894531", "High": "82.41000366210938", "Low": "77.66000366210938", "Close": "82.37999725341797", "Adj Close": "81.4738540649414", "Volume": "14258700"},
{"Date": "2020-03-03", "Open": "82.30000305175781", "High": "82.62000274658203", "Low": "78.11000061035156", "Close": "78.5999984741211", "Adj Close": "77.73543548583984", "Volume": "12395900"},
{"Date": "2020-03-04", "Open": "79.29000091552734", "High": "80.19999694824219", "Low": "77.87999725341797", "Close": "79.66999816894531", "Adj Close": "78.79367065429688", "Volume": "10999600"},
{"Date": "2020-03-05", "Open": "77.9000015258789", "High": "77.9000015258789", "Low": "75.27999877929688", "Close": "76.19000244140625", "Adj Close": "75.3519515991211", "Volume": "12545300"},
{"Date": "2020-03-06", "Open": "73.45999908447266", "High": "75.70999908447266", "Low": "72.05000305175781", "Close": "75.33999633789062", "Adj Close": "74.51129913330078", "Volume": "18080100"},
{"Date": "2020-03-09", "Open": "70.58000183105469", "High": "74.02999877929688", "Low": "70.08000183105469", "Close": "70.83000183105469", "Adj Close": "70.05091094970703", "Volume": "15930300"},
{"Date": "2020-03-10", "Open": "72.55999755859375", "High": "74.94999694824219", "Low": "70.02999877929688", "Close": "74.87000274658203", "Adj Close": "74.04647064208984", "Volume": "18414000"},
{"Date": "2020-03-11", "Open": "72.83000183105469", "High": "74.2699966430664", "Low": "67.4000015258789", "Close": "68.30000305175781", "Adj Close": "67.54873657226562", "Volume": "17138000"},
{"Date": "2020-03-12", "Open": "62.95000076293945", "High": "66.79000091552734", "Low": "61.459999084472656", "Close": "62.099998474121094", "Adj Close": "61.41693115234375", "Volume": "25170600"},
{"Date": "2020-03-13", "Open": "65.6500015258789", "High": "70.18000030517578", "Low": "63.5099983215332", "Close": "69.91999816894531", "Adj Close": "69.15090942382812", "Volume": "19247200"},
{"Date": "2020-03-16", "Open": "60.630001068115234", "High": "63.95000076293945", "Low": "58.11000061035156", "Close": "58.59000015258789", "Adj Close": "57.94554138183594", "Volume": "23354300"},
{"Date": "2020-03-17", "Open": "59.54999923706055", "High": "59.619998931884766", "Low": "53.61000061035156", "Close": "58.97999954223633", "Adj Close": "58.33124923706055", "Volume": "25045200"},
{"Date": "2020-03-18", "Open": "55.54999923706055", "High": "57.650001525878906", "Low": "50.02000045776367", "Close": "56.33000183105469", "Adj Close": "55.71039962768555", "Volume": "28770600"},
{"Date": "2020-03-19", "Open": "56.22999954223633", "High": "63.36000061035156", "Low": "53.54999923706055", "Close": "61.40999984741211", "Adj Close": "60.734519958496094", "Volume": "25167400"},
{"Date": "2020-03-20", "Open": "62.29999923706055", "High": "65.68000030517578", "Low": "57.90999984741211", "Close": "58.029998779296875", "Adj Close": "57.39169692993164", "Volume": "28420600"},
{"Date": "2020-03-23", "Open": "57.22999954223633", "High": "57.439998626708984", "Low": "54.0", "Close": "56.54999923706055", "Adj Close": "55.927974700927734", "Volume": "24905800"},
{"Date": "2020-03-24", "Open": "62.61000061035156", "High": "65.16000366210938", "Low": "61.0", "Close": "64.87999725341797", "Adj Close": "64.16634368896484", "Volume": "28286200"},
{"Date": "2020-03-25", "Open": "66.83000183105469", "High": "69.63999938964844", "Low": "63.4900016784668", "Close": "65.80999755859375", "Adj Close": "65.08612060546875", "Volume": "22977200"},
{"Date": "2020-03-26", "Open": "66.70999908447266", "High": "71.58000183105469", "Low": "66.25", "Close": "69.9000015258789", "Adj Close": "69.13114166259766", "Volume": "20997500"},
{"Date": "2020-03-27", "Open": "66.68000030517578", "High": "68.25", "Low": "64.81999969482422", "Close": "66.33999633789062", "Adj Close": "65.61029052734375", "Volume": "18950500"},
{"Date": "2020-03-30", "Open": "66.55999755859375", "High": "68.22000122070312", "Low": "64.58000183105469", "Close": "67.86000061035156", "Adj Close": "67.11357116699219", "Volume": "14199700"},
{"Date": "2020-03-31", "Open": "67.18000030517578", "High": "68.31999969482422", "Low": "65.30999755859375", "Close": "65.73999786376953", "Adj Close": "65.01689147949219", "Volume": "20109800"},
{"Date": "2020-04-01", "Open": "63.0", "High": "64.76000213623047", "Low": "61.58000183105469", "Close": "62.619998931884766", "Adj Close": "61.931209564208984", "Volume": "12880400"},
{"Date": "2020-04-02", "Open": "65.75", "High": "68.69999694824219", "Low": "62.90999984741211", "Close": "65.0", "Adj Close": "64.28502655029297", "Volume": "18175000"},
{"Date": "2020-04-03", "Open": "64.47000122070312", "High": "64.75", "Low": "60.900001525878906", "Close": "63.04999923706055", "Adj Close": "62.35647964477539", "Volume": "14676500"},
{"Date": "2020-04-06", "Open": "66.2699966430664", "High": "68.33999633789062", "Low": "64.41000366210938", "Close": "67.79000091552734", "Adj Close": "67.04434967041016", "Volume": "18010800"},
{"Date": "2020-04-07", "Open": "71.56999969482422", "High": "72.4800033569336", "Low": "68.33000183105469", "Close": "68.70999908447266", "Adj Close": "67.9542236328125", "Volume": "13799400"},
{"Date": "2020-04-08", "Open": "69.58000183105469", "High": "71.91999816894531", "Low": "68.54000091552734", "Close": "71.56999969482422", "Adj Close": "70.78276062011719", "Volume": "10417600"},
{"Date": "2020-04-09", "Open": "71.19999694824219", "High": "74.26000213623047", "Low": "70.13999938964844", "Close": "73.87999725341797", "Adj Close": "73.06735229492188", "Volume": "19769600"},
{"Date": "2020-04-13", "Open": "73.5199966430664", "High": "73.5999984741211", "Low": "70.3499984741211", "Close": "71.76000213623047", "Adj Close": "70.9706802368164", "Volume": "11191800"},
{"Date": "2020-04-14", "Open": "73.69000244140625", "High": "74.33000183105469", "Low": "72.66000366210938", "Close": "73.66999816894531", "Adj Close": "72.85966491699219", "Volume": "10912000"},
{"Date": "2020-04-15", "Open": "72.01000213623047", "High": "73.18000030517578", "Low": "70.70999908447266", "Close": "72.55000305175781", "Adj Close": "71.75199127197266", "Volume": "10642500"},
{"Date": "2020-04-16", "Open": "73.11000061035156", "High": "73.76000213623047", "Low": "71.3499984741211", "Close": "73.51000213623047", "Adj Close": "72.70142364501953", "Volume": "11946800"},
{"Date": "2020-04-17", "Open": "76.62000274658203", "High": "77.38999938964844", "Low": "74.97000122070312", "Close": "77.0999984741211", "Adj Close": "76.25193786621094", "Volume": "14268400"},
{"Date": "2020-04-20", "Open": "76.0199966430664", "High": "76.9800033569336", "Low": "75.08000183105469", "Close": "75.31999969482422", "Adj Close": "74.49151611328125", "Volume": "9684700"},
{"Date": "2020-04-21", "Open": "73.4000015258789", "High": "73.95999908447266", "Low": "71.73999786376953", "Close": "72.72000122070312", "Adj Close": "71.92012023925781", "Volume": "10345800"},
{"Date": "2020-04-22", "Open": "74.55000305175781", "High": "78.05999755859375", "Low": "74.43000030517578", "Close": "77.44999694824219", "Adj Close": "76.59808349609375", "Volume": "11355300"},
{"Date": "2020-04-23", "Open": "77.33000183105469", "High": "77.66999816894531", "Low": "74.26000213623047", "Close": "75.1500015258789", "Adj Close": "74.3233871459961", "Volume": "15513400"},
{"Date": "2020-04-24", "Open": "75.75", "High": "76.02999877929688", "Low": "74.20999908447266", "Close": "75.58000183105469", "Adj Close": "74.74866485595703", "Volume": "8460600"},
{"Date": "2020-04-27", "Open": "76.68000030517578", "High": "78.04000091552734", "Low": "76.54000091552734", "Close": "77.73999786376953", "Adj Close": "76.88489532470703", "Volume": "8258500"},
{"Date": "2020-04-28", "Open": "78.66999816894531", "High": "79.61000061035156", "Low": "76.95999908447266", "Close": "78.69000244140625", "Adj Close": "77.82444763183594", "Volume": "12801400"},
{"Date": "2020-04-29", "Open": "78.18000030517578", "High": "78.75", "Low": "76.72000122070312", "Close": "76.86000061035156", "Adj Close": "76.01457977294922", "Volume": "24575500"},
{"Date": "2020-04-30", "Open": "76.83000183105469", "High": "77.63999938964844", "Low": "75.19000244140625", "Close": "76.7300033569336", "Adj Close": "75.8860092163086", "Volume": "15178400"},
{"Date": "2020-05-01", "Open": "74.9000015258789", "High": "75.87999725341797", "Low": "73.20999908447266", "Close": "73.79000091552734", "Adj Close": "72.97834777832031", "Volume": "11216700"},
{"Date": "2020-05-04", "Open": "72.58000183105469", "High": "72.62000274658203", "Low": "71.26000213623047", "Close": "71.88999938964844", "Adj Close": "71.0992431640625", "Volume": "12921800"},
{"Date": "2020-05-05", "Open": "74.95999908447266", "High": "75.08000183105469", "Low": "72.88999938964844", "Close": "72.9000015258789", "Adj Close": "72.09813690185547", "Volume": "12976000"},
{"Date": "2020-05-06", "Open": "73.7699966430664", "High": "74.8499984741211", "Low": "72.86000061035156", "Close": "72.95999908447266", "Adj Close": "72.15747833251953", "Volume": "12740900"},
{"Date": "2020-05-07", "Open": "73.80999755859375", "High": "76.02999877929688", "Low": "73.37000274658203", "Close": "76.0", "Adj Close": "75.58881378173828", "Volume": "13360500"},
{"Date": "2020-05-08", "Open": "77.25", "High": "77.93000030517578", "Low": "75.76000213623047", "Close": "77.87000274658203", "Adj Close": "77.44869995117188", "Volume": "11921800"},
{"Date": "2020-05-11", "Open": "76.62000274658203", "High": "77.18000030517578", "Low": "75.80000305175781", "Close": "75.87000274658203", "Adj Close": "75.45951843261719", "Volume": "8998800"},
{"Date": "2020-05-12", "Open": "76.0", "High": "76.7300033569336", "Low": "74.33999633789062", "Close": "74.3499984741211", "Adj Close": "73.94773864746094", "Volume": "8549900"},
{"Date": "2020-05-13", "Open": "74.45999908447266", "High": "75.75", "Low": "72.91999816894531", "Close": "73.62000274658203", "Adj Close": "73.22168731689453", "Volume": "11532700"},
{"Date": "2020-05-14", "Open": "72.31999969482422", "High": "74.29000091552734", "Low": "70.6500015258789", "Close": "74.19000244140625", "Adj Close": "73.78860473632812", "Volume": "11932300"},
{"Date": "2020-05-15", "Open": "72.80999755859375", "High": "74.63999938964844", "Low": "72.66999816894531", "Close": "74.16000366210938", "Adj Close": "73.75877380371094", "Volume": "9489100"},
{"Date": "2020-05-18", "Open": "76.86000061035156", "High": "77.5", "Low": "76.19999694824219", "Close": "76.2300033569336", "Adj Close": "75.81757354736328", "Volume": "8912500"},
{"Date": "2020-05-19", "Open": "76.4000015258789", "High": "77.22000122070312", "Low": "75.76000213623047", "Close": "75.86000061035156", "Adj Close": "75.44956970214844", "Volume": "6484900"},
{"Date": "2020-05-20", "Open": "77.2300033569336", "High": "77.83999633789062", "Low": "76.5199966430664", "Close": "77.76000213623047", "Adj Close": "77.33929443359375", "Volume": "7790500"},
{"Date": "2020-05-21", "Open": "78.5999984741211", "High": "79.37999725341797", "Low": "77.88999938964844", "Close": "78.05000305175781", "Adj Close": "77.62772369384766", "Volume": "10312600"},
{"Date": "2020-05-22", "Open": "77.9000015258789", "High": "78.05000305175781", "Low": "76.5199966430664", "Close": "77.62000274658203", "Adj Close": "77.2000503540039", "Volume": "7653300"},
{"Date": "2020-05-26", "Open": "79.5999984741211", "High": "79.91999816894531", "Low": "77.58000183105469", "Close": "77.76000213623047", "Adj Close": "77.33929443359375", "Volume": "8422200"},
{"Date": "2020-05-27", "Open": "78.9800033569336", "High": "78.9800033569336", "Low": "77.38999938964844", "Close": "78.5999984741211", "Adj Close": "78.17474365234375", "Volume": "8245300"},
{"Date": "2020-05-28", "Open": "78.63999938964844", "High": "80.05999755859375", "Low": "77.93000030517578", "Close": "78.54000091552734", "Adj Close": "78.11506652832031", "Volume": "8331400"},
{"Date": "2020-05-29", "Open": "78.62000274658203", "High": "78.63999938964844", "Low": "77.26000213623047", "Close": "77.98999786376953", "Adj Close": "77.56804656982422", "Volume": "10109000"},
{"Date": "2020-06-01", "Open": "77.66000366210938", "High": "78.6500015258789", "Low": "76.7699966430664", "Close": "78.31999969482422", "Adj Close": "77.89625549316406", "Volume": "7922000"},
{"Date": "2020-06-02", "Open": "77.97000122070312", "High": "78.26000213623047", "Low": "76.79000091552734", "Close": "77.77999877929688", "Adj Close": "77.35917663574219", "Volume": "9521000"},
{"Date": "2020-06-03", "Open": "78.44999694824219", "High": "79.94999694824219", "Low": "78.30000305175781", "Close": "79.58000183105469", "Adj Close": "79.14944458007812", "Volume": "9956700"},
{"Date": "2020-06-04", "Open": "79.30999755859375", "High": "80.16999816894531", "Low": "78.47000122070312", "Close": "78.73999786376953", "Adj Close": "78.3139877319336", "Volume": "7667600"},
{"Date": "2020-06-05", "Open": "80.33000183105469", "High": "82.33000183105469", "Low": "79.97000122070312", "Close": "82.13999938964844", "Adj Close": "81.69559478759766", "Volume": "12030800"},
{"Date": "2020-06-08", "Open": "83.08000183105469", "High": "83.62000274658203", "Low": "82.18000030517578", "Close": "83.55999755859375", "Adj Close": "83.10791015625", "Volume": "10229600"},
{"Date": "2020-06-09", "Open": "82.62000274658203", "High": "83.22000122070312", "Low": "81.76000213623047", "Close": "82.37000274658203", "Adj Close": "81.92434692382812", "Volume": "7999800"},
{"Date": "2020-06-10", "Open": "79.87999725341797", "High": "80.02999877929688", "Low": "78.19999694824219", "Close": "79.01000213623047", "Adj Close": "78.58252716064453", "Volume": "19683800"},
{"Date": "2020-06-11", "Open": "75.75", "High": "76.79000091552734", "Low": "72.1500015258789", "Close": "72.56999969482422", "Adj Close": "72.1773681640625", "Volume": "26422200"},
{"Date": "2020-06-12", "Open": "75.0", "High": "76.72000122070312", "Low": "73.80999755859375", "Close": "76.37999725341797", "Adj Close": "75.96675109863281", "Volume": "18521600"},
{"Date": "2020-06-15", "Open": "74.30000305175781", "High": "77.91000366210938", "Low": "74.08000183105469", "Close": "76.95999908447266", "Adj Close": "76.54361724853516", "Volume": "14644700"},
{"Date": "2020-06-16", "Open": "78.79000091552734", "High": "78.94000244140625", "Low": "76.38999938964844", "Close": "77.83999633789062", "Adj Close": "77.41885375976562", "Volume": "10890100"},
{"Date": "2020-06-17", "Open": "78.06999969482422", "High": "78.29000091552734", "Low": "76.68000030517578", "Close": "77.0999984741211", "Adj Close": "76.682861328125", "Volume": "6904200"},
{"Date": "2020-06-18", "Open": "76.72000122070312", "High": "76.79000091552734", "Low": "75.80000305175781", "Close": "76.30999755859375", "Adj Close": "75.89713287353516", "Volume": "8486000"},
{"Date": "2020-06-19", "Open": "77.02999877929688", "High": "77.37999725341797", "Low": "74.87999725341797", "Close": "75.4000015258789", "Adj Close": "74.99205780029297", "Volume": "12538600"},
{"Date": "2020-06-22", "Open": "74.9000015258789", "High": "75.6500015258789", "Low": "73.91999816894531", "Close": "75.4000015258789", "Adj Close": "74.99205780029297", "Volume": "8238600"},
{"Date": "2020-06-23", "Open": "76.33000183105469", "High": "76.37000274658203", "Low": "75.06999969482422", "Close": "75.48999786376953", "Adj Close": "75.0815658569336", "Volume": "8076600"},
{"Date": "2020-06-24", "Open": "74.9000015258789", "High": "74.91999816894531", "Low": "72.0", "Close": "73.63999938964844", "Adj Close": "73.2415771484375", "Volume": "12306400"},
{"Date": "2020-06-25", "Open": "73.22000122070312", "High": "74.11000061035156", "Low": "72.16999816894531", "Close": "73.8499984741211", "Adj Close": "73.450439453125", "Volume": "8624800"},
{"Date": "2020-06-26", "Open": "73.62999725341797", "High": "73.7699966430664", "Low": "71.25", "Close": "71.56999969482422", "Adj Close": "71.18277740478516", "Volume": "17627800"},
{"Date": "2020-06-29", "Open": "71.41000366210938", "High": "73.5", "Low": "71.05999755859375", "Close": "73.4800033569336", "Adj Close": "73.08245086669922", "Volume": "8653000"},
{"Date": "2020-06-30", "Open": "73.58000183105469", "High": "73.87999725341797", "Low": "72.80999755859375", "Close": "73.58999633789062", "Adj Close": "73.19184875488281", "Volume": "11324000"},
{"Date": "2020-07-01", "Open": "74.0", "High": "74.69000244140625", "Low": "73.37999725341797", "Close": "74.02999877929688", "Adj Close": "73.62947082519531", "Volume": "6750000"},
{"Date": "2020-07-02", "Open": "75.04000091552734", "High": "75.08999633789062", "Low": "73.63999938964844", "Close": "73.77999877929688", "Adj Close": "73.38082122802734", "Volume": "6544400"},
{"Date": "2020-07-06", "Open": "74.93000030517578", "High": "75.4800033569336", "Low": "74.16000366210938", "Close": "75.44000244140625", "Adj Close": "75.03184509277344", "Volume": "7235300"},
{"Date": "2020-07-07", "Open": "75.12999725341797", "High": "75.2300033569336", "Low": "74.0", "Close": "74.25", "Adj Close": "73.84828186035156", "Volume": "7515100"},
{"Date": "2020-07-08", "Open": "74.06999969482422", "High": "74.5", "Low": "73.33000183105469", "Close": "74.13999938964844", "Adj Close": "73.73887634277344", "Volume": "7346200"},
{"Date": "2020-07-09", "Open": "73.7300033569336", "High": "74.22000122070312", "Low": "71.93000030517578", "Close": "73.56999969482422", "Adj Close": "73.17195892333984", "Volume": "9618200"},
{"Date": "2020-07-10", "Open": "73.0", "High": "74.55999755859375", "Low": "72.73999786376953", "Close": "74.29000091552734", "Adj Close": "73.8880615234375", "Volume": "7524200"},
{"Date": "2020-07-13", "Open": "74.55999755859375", "High": "74.83999633789062", "Low": "72.48999786376953", "Close": "72.6500015258789", "Adj Close": "72.2569351196289", "Volume": "9464500"},
{"Date": "2020-07-14", "Open": "72.0", "High": "72.97000122070312", "Low": "71.81999969482422", "Close": "72.7300033569336", "Adj Close": "72.33650970458984", "Volume": "8780900"},
{"Date": "2020-07-15", "Open": "74.45999908447266", "High": "75.80999755859375", "Low": "73.95999908447266", "Close": "75.61000061035156", "Adj Close": "75.20092010498047", "Volume": "10300700"},
{"Date": "2020-07-16", "Open": "74.9000015258789", "High": "75.13999938964844", "Low": "73.68000030517578", "Close": "74.38999938964844", "Adj Close": "73.98751831054688", "Volume": "6649300"},
{"Date": "2020-07-17", "Open": "74.43000030517578", "High": "74.55000305175781", "Low": "73.20999908447266", "Close": "74.16000366210938", "Adj Close": "73.75877380371094", "Volume": "6087500"},
{"Date": "2020-07-20", "Open": "74.16000366210938", "High": "75.22000122070312", "Low": "73.62999725341797", "Close": "74.95999908447266", "Adj Close": "74.55443572998047", "Volume": "8832700"},
{"Date": "2020-07-21", "Open": "75.77999877929688", "High": "76.80000305175781", "Low": "75.2699966430664", "Close": "75.44000244140625", "Adj Close": "75.03184509277344", "Volume": "10639800"},
{"Date": "2020-07-22", "Open": "75.5199966430664", "High": "77.33000183105469", "Low": "75.12000274658203", "Close": "77.23999786376953", "Adj Close": "76.82209777832031", "Volume": "9213100"},
{"Date": "2020-07-23", "Open": "76.87999725341797", "High": "77.06999969482422", "Low": "74.9000015258789", "Close": "75.36000061035156", "Adj Close": "74.95227813720703", "Volume": "7795100"},
{"Date": "2020-07-24", "Open": "75.27999877929688", "High": "76.0", "Low": "75.11000061035156", "Close": "75.77999877929688", "Adj Close": "75.37000274658203", "Volume": "5673400"},
{"Date": "2020-07-27", "Open": "75.88999938964844", "High": "76.70999908447266", "Low": "75.54000091552734", "Close": "76.45999908447266", "Adj Close": "76.04632568359375", "Volume": "6771100"},
{"Date": "2020-07-28", "Open": "76.30000305175781", "High": "76.38999938964844", "Low": "74.55999755859375", "Close": "74.63999938964844", "Adj Close": "74.23616790771484", "Volume": "12273400"},
{"Date": "2020-07-29", "Open": "77.55999755859375", "High": "78.48999786376953", "Low": "76.9000015258789", "Close": "77.41999816894531", "Adj Close": "77.00112915039062", "Volume": "15261100"},
{"Date": "2020-07-30", "Open": "76.62999725341797", "High": "76.9800033569336", "Low": "75.4000015258789", "Close": "76.63999938964844", "Adj Close": "76.22534942626953", "Volume": "7889800"},
{"Date": "2020-07-31", "Open": "76.23999786376953", "High": "76.54000091552734", "Low": "75.4800033569336", "Close": "76.52999877929688", "Adj Close": "76.1159439086914", "Volume": "7425000"},
{"Date": "2020-08-03", "Open": "76.4800033569336", "High": "76.5999984741211", "Low": "75.44000244140625", "Close": "75.5", "Adj Close": "75.09151458740234", "Volume": "7138300"},
{"Date": "2020-08-04", "Open": "75.37000274658203", "High": "75.48999786376953", "Low": "74.76000213623047", "Close": "75.12999725341797", "Adj Close": "74.72351837158203", "Volume": "12792400"},
{"Date": "2020-08-05", "Open": "75.3499984741211", "High": "75.98999786376953", "Low": "75.33000183105469", "Close": "75.77999877929688", "Adj Close": "75.37000274658203", "Volume": "7823100"},
{"Date": "2020-08-06", "Open": "75.19999694824219", "High": "75.91999816894531", "Low": "74.94000244140625", "Close": "75.66000366210938", "Adj Close": "75.66000366210938", "Volume": "6764800"},
{"Date": "2020-08-07", "Open": "75.4800033569336", "High": "75.93000030517578", "Low": "75.20999908447266", "Close": "75.79000091552734", "Adj Close": "75.79000091552734", "Volume": "6568000"},
{"Date": "2020-08-10", "Open": "75.81999969482422", "High": "77.66999816894531", "Low": "75.80999755859375", "Close": "77.47000122070312", "Adj Close": "77.47000122070312", "Volume": "6604300"},
{"Date": "2020-08-11", "Open": "78.2699966430664", "High": "79.9800033569336", "Low": "78.0", "Close": "78.87000274658203", "Adj Close": "78.87000274658203", "Volume": "10238500"},
{"Date": "2020-08-12", "Open": "79.58999633789062", "High": "79.69000244140625", "Low": "78.66999816894531", "Close": "79.29000091552734", "Adj Close": "79.29000091552734", "Volume": "5378800"},
{"Date": "2020-08-13", "Open": "78.91999816894531", "High": "79.63999938964844", "Low": "78.83999633789062", "Close": "79.0199966430664", "Adj Close": "79.0199966430664", "Volume": "4383400"},
{"Date": "2020-08-14", "Open": "78.54000091552734", "High": "78.93000030517578", "Low": "78.0199966430664", "Close": "78.37000274658203", "Adj Close": "78.37000274658203", "Volume": "3771300"},
{"Date": "2020-08-17", "Open": "78.5999984741211", "High": "78.95999908447266", "Low": "78.12000274658203", "Close": "78.94999694824219", "Adj Close": "78.94999694824219", "Volume": "5360400"},
{"Date": "2020-08-18", "Open": "79.1500015258789", "High": "79.36000061035156", "Low": "78.3499984741211", "Close": "78.98999786376953", "Adj Close": "78.98999786376953", "Volume": "5272700"},
{"Date": "2020-08-19", "Open": "79.18000030517578", "High": "79.38999938964844", "Low": "77.43000030517578", "Close": "77.62999725341797", "Adj Close": "77.62999725341797", "Volume": "6840600"},
{"Date": "2020-08-20", "Open": "77.02999877929688", "High": "77.6500015258789", "Low": "76.45999908447266", "Close": "77.22000122070312", "Adj Close": "77.22000122070312", "Volume": "5099500"},
{"Date": "2020-08-21", "Open": "76.94000244140625", "High": "77.2699966430664", "Low": "76.69000244140625", "Close": "77.06999969482422", "Adj Close": "77.06999969482422", "Volume": "5592600"},
{}]