[{"Date": "2019-08-23", "Open": "157.5800018310547", "High": "158.52000427246094", "Low": "153.91000366210938", "Close": "154.61000061035156", "Adj Close": "153.56834411621094", "Volume": "688500"},
{"Date": "2019-08-26", "Open": "155.75", "High": "159.3800048828125", "Low": "155.6999969482422", "Close": "157.36000061035156", "Adj Close": "156.29981994628906", "Volume": "583400"},
{"Date": "2019-08-27", "Open": "158.36000061035156", "High": "159.5500030517578", "Low": "157.8699951171875", "Close": "158.91000366210938", "Adj Close": "157.83938598632812", "Volume": "590300"},
{"Date": "2019-08-28", "Open": "158.32000732421875", "High": "159.91000366210938", "Low": "157.44000244140625", "Close": "159.77999877929688", "Adj Close": "158.70352172851562", "Volume": "471400"},
{"Date": "2019-08-29", "Open": "160.4499969482422", "High": "161.7899932861328", "Low": "159.35000610351562", "Close": "160.77999877929688", "Adj Close": "159.69677734375", "Volume": "460100"},
{"Date": "2019-08-30", "Open": "161.85000610351562", "High": "162.1300048828125", "Low": "160.47000122070312", "Close": "161.5399932861328", "Adj Close": "160.45166015625", "Volume": "659400"},
{"Date": "2019-09-03", "Open": "161.86000061035156", "High": "163.97999572753906", "Low": "160.4199981689453", "Close": "161.74000549316406", "Adj Close": "160.6503143310547", "Volume": "627000"},
{"Date": "2019-09-04", "Open": "162.41000366210938", "High": "164.0", "Low": "162.17999267578125", "Close": "162.83999633789062", "Adj Close": "161.74288940429688", "Volume": "654600"},
{"Date": "2019-09-05", "Open": "164.05999755859375", "High": "164.91000366210938", "Low": "163.10000610351562", "Close": "163.5399932861328", "Adj Close": "162.43817138671875", "Volume": "698700"},
{"Date": "2019-09-06", "Open": "163.97000122070312", "High": "164.97000122070312", "Low": "163.5500030517578", "Close": "164.5800018310547", "Adj Close": "163.47119140625", "Volume": "572200"},
{"Date": "2019-09-09", "Open": "164.3300018310547", "High": "164.5399932861328", "Low": "159.92999267578125", "Close": "160.1999969482422", "Adj Close": "159.1206817626953", "Volume": "853700"},
{"Date": "2019-09-10", "Open": "159.1699981689453", "High": "159.44000244140625", "Low": "153.69000244140625", "Close": "155.1199951171875", "Adj Close": "154.07492065429688", "Volume": "1127100"},
{"Date": "2019-09-11", "Open": "155.02000427246094", "High": "156.19000244140625", "Low": "153.02999877929688", "Close": "155.11000061035156", "Adj Close": "154.0649871826172", "Volume": "1175200"},
{"Date": "2019-09-12", "Open": "157.1199951171875", "High": "159.1699981689453", "Low": "156.36000061035156", "Close": "157.42999267578125", "Adj Close": "156.6217803955078", "Volume": "686400"},
{"Date": "2019-09-13", "Open": "157.1300048828125", "High": "158.14999389648438", "Low": "155.3000030517578", "Close": "155.75999450683594", "Adj Close": "154.96035766601562", "Volume": "1002400"},
{"Date": "2019-09-16", "Open": "154.8800048828125", "High": "157.05999755859375", "Low": "153.52000427246094", "Close": "156.52000427246094", "Adj Close": "155.71646118164062", "Volume": "642800"},
{"Date": "2019-09-17", "Open": "157.55999755859375", "High": "158.9199981689453", "Low": "156.52000427246094", "Close": "158.64999389648438", "Adj Close": "157.8355255126953", "Volume": "746700"},
{"Date": "2019-09-18", "Open": "158.1300048828125", "High": "159.5", "Low": "157.0500030517578", "Close": "159.3300018310547", "Adj Close": "158.51205444335938", "Volume": "627200"},
{"Date": "2019-09-19", "Open": "158.92999267578125", "High": "159.94000244140625", "Low": "158.4499969482422", "Close": "158.6999969482422", "Adj Close": "157.88526916503906", "Volume": "426200"},
{"Date": "2019-09-20", "Open": "158.24000549316406", "High": "159.13999938964844", "Low": "157.52999877929688", "Close": "158.4199981689453", "Adj Close": "157.60671997070312", "Volume": "975600"},
{"Date": "2019-09-23", "Open": "158.77999877929688", "High": "158.97000122070312", "Low": "157.0", "Close": "157.32000732421875", "Adj Close": "156.51235961914062", "Volume": "557000"},
{"Date": "2019-09-24", "Open": "158.0399932861328", "High": "160.27999877929688", "Low": "156.77000427246094", "Close": "157.47000122070312", "Adj Close": "156.66159057617188", "Volume": "638700"},
{"Date": "2019-09-25", "Open": "157.9600067138672", "High": "158.05999755859375", "Low": "156.25999450683594", "Close": "157.8000030517578", "Adj Close": "156.98989868164062", "Volume": "645300"},
{"Date": "2019-09-26", "Open": "158.05999755859375", "High": "160.08999633789062", "Low": "157.4199981689453", "Close": "159.2899932861328", "Adj Close": "158.47222900390625", "Volume": "617800"},
{"Date": "2019-09-27", "Open": "159.88999938964844", "High": "160.55999755859375", "Low": "154.39999389648438", "Close": "155.58999633789062", "Adj Close": "154.79124450683594", "Volume": "853600"},
{"Date": "2019-09-30", "Open": "155.58999633789062", "High": "158.74000549316406", "Low": "155.17999267578125", "Close": "158.13999938964844", "Adj Close": "157.32814025878906", "Volume": "911100"},
{"Date": "2019-10-01", "Open": "158.3300018310547", "High": "158.6199951171875", "Low": "156.3000030517578", "Close": "156.4499969482422", "Adj Close": "155.64683532714844", "Volume": "600200"},
{"Date": "2019-10-02", "Open": "155.25", "High": "155.94000244140625", "Low": "152.72000122070312", "Close": "153.3300018310547", "Adj Close": "152.54283142089844", "Volume": "824300"},
{"Date": "2019-10-03", "Open": "153.63999938964844", "High": "154.39999389648438", "Low": "151.8800048828125", "Close": "154.3000030517578", "Adj Close": "153.5078582763672", "Volume": "824300"},
{"Date": "2019-10-04", "Open": "154.72999572753906", "High": "158.0", "Low": "154.6300048828125", "Close": "157.5399932861328", "Adj Close": "156.73121643066406", "Volume": "647100"},
{"Date": "2019-10-07", "Open": "157.5500030517578", "High": "157.8300018310547", "Low": "156.3000030517578", "Close": "157.1699981689453", "Adj Close": "156.36312866210938", "Volume": "359600"},
{"Date": "2019-10-08", "Open": "156.42999267578125", "High": "156.9199981689453", "Low": "154.7899932861328", "Close": "154.89999389648438", "Adj Close": "154.10476684570312", "Volume": "426300"},
{"Date": "2019-10-09", "Open": "155.9499969482422", "High": "157.97000122070312", "Low": "155.47000122070312", "Close": "157.08999633789062", "Adj Close": "156.28353881835938", "Volume": "480600"},
{"Date": "2019-10-10", "Open": "156.80999755859375", "High": "158.50999450683594", "Low": "156.1300048828125", "Close": "157.86000061035156", "Adj Close": "157.04957580566406", "Volume": "485200"},
{"Date": "2019-10-11", "Open": "158.8800048828125", "High": "159.57000732421875", "Low": "156.99000549316406", "Close": "157.11000061035156", "Adj Close": "156.30345153808594", "Volume": "690400"},
{"Date": "2019-10-14", "Open": "157.44000244140625", "High": "158.39999389648438", "Low": "155.25999450683594", "Close": "155.3800048828125", "Adj Close": "154.5823211669922", "Volume": "503100"},
{"Date": "2019-10-15", "Open": "156.11000061035156", "High": "156.8000030517578", "Low": "155.3800048828125", "Close": "156.0800018310547", "Adj Close": "155.2787322998047", "Volume": "700100"},
{"Date": "2019-10-16", "Open": "155.19000244140625", "High": "155.72999572753906", "Low": "152.9499969482422", "Close": "155.58999633789062", "Adj Close": "154.79124450683594", "Volume": "988800"},
{"Date": "2019-10-17", "Open": "155.80999755859375", "High": "156.75", "Low": "154.88999938964844", "Close": "155.22000122070312", "Adj Close": "154.4231414794922", "Volume": "878900"},
{"Date": "2019-10-18", "Open": "155.49000549316406", "High": "155.49000549316406", "Low": "153.6300048828125", "Close": "154.4199981689453", "Adj Close": "153.6272430419922", "Volume": "953700"},
{"Date": "2019-10-21", "Open": "154.88999938964844", "High": "155.38999938964844", "Low": "152.36000061035156", "Close": "153.47000122070312", "Adj Close": "152.68211364746094", "Volume": "654400"},
{"Date": "2019-10-22", "Open": "157.8000030517578", "High": "157.8000030517578", "Low": "150.99000549316406", "Close": "151.02000427246094", "Adj Close": "150.2447052001953", "Volume": "786400"},
{"Date": "2019-10-23", "Open": "150.47000122070312", "High": "151.94000244140625", "Low": "147.7100067138672", "Close": "148.6300048828125", "Adj Close": "147.8669891357422", "Volume": "1537600"},
{"Date": "2019-10-24", "Open": "149.36000061035156", "High": "150.72999572753906", "Low": "148.27000427246094", "Close": "149.75", "Adj Close": "148.98121643066406", "Volume": "731800"},
{"Date": "2019-10-25", "Open": "150.14999389648438", "High": "150.9499969482422", "Low": "148.6199951171875", "Close": "148.9199981689453", "Adj Close": "148.1554718017578", "Volume": "536600"},
{"Date": "2019-10-28", "Open": "148.94000244140625", "High": "149.6999969482422", "Low": "148.4499969482422", "Close": "148.5500030517578", "Adj Close": "147.78738403320312", "Volume": "716700"},
{"Date": "2019-10-29", "Open": "147.77000427246094", "High": "151.32000732421875", "Low": "147.77000427246094", "Close": "150.1199951171875", "Adj Close": "149.3493194580078", "Volume": "1962800"},
{"Date": "2019-10-30", "Open": "146.1699981689453", "High": "148.67999267578125", "Low": "145.00999450683594", "Close": "147.9199981689453", "Adj Close": "147.16062927246094", "Volume": "1340500"},
{"Date": "2019-10-31", "Open": "147.36000061035156", "High": "148.5", "Low": "144.32000732421875", "Close": "144.6999969482422", "Adj Close": "143.95713806152344", "Volume": "1004200"},
{"Date": "2019-11-01", "Open": "144.7899932861328", "High": "146.24000549316406", "Low": "144.7899932861328", "Close": "145.36000061035156", "Adj Close": "144.61375427246094", "Volume": "1002100"},
{"Date": "2019-11-04", "Open": "145.5", "High": "145.5", "Low": "140.00999450683594", "Close": "140.3000030517578", "Adj Close": "139.57974243164062", "Volume": "983600"},
{"Date": "2019-11-05", "Open": "140.27000427246094", "High": "140.88999938964844", "Low": "137.6300048828125", "Close": "138.77999877929688", "Adj Close": "138.06753540039062", "Volume": "1184000"},
{"Date": "2019-11-06", "Open": "139.30999755859375", "High": "141.10000610351562", "Low": "139.13999938964844", "Close": "140.77999877929688", "Adj Close": "140.05728149414062", "Volume": "1024400"},
{"Date": "2019-11-07", "Open": "140.66000366210938", "High": "141.55999755859375", "Low": "139.24000549316406", "Close": "139.8000030517578", "Adj Close": "139.08230590820312", "Volume": "1050300"},
{"Date": "2019-11-08", "Open": "139.07000732421875", "High": "140.35000610351562", "Low": "136.38999938964844", "Close": "136.75", "Adj Close": "136.04795837402344", "Volume": "1177000"},
{"Date": "2019-11-11", "Open": "135.7100067138672", "High": "137.41000366210938", "Low": "135.39999389648438", "Close": "137.3800048828125", "Adj Close": "136.6747283935547", "Volume": "925700"},
{"Date": "2019-11-12", "Open": "137.3800048828125", "High": "138.99000549316406", "Low": "137.27999877929688", "Close": "138.08999633789062", "Adj Close": "137.38107299804688", "Volume": "1046900"},
{"Date": "2019-11-13", "Open": "138.08999633789062", "High": "140.22999572753906", "Low": "137.8800048828125", "Close": "139.77999877929688", "Adj Close": "139.06239318847656", "Volume": "930500"},
{"Date": "2019-11-14", "Open": "139.60000610351562", "High": "141.27000427246094", "Low": "138.97000122070312", "Close": "141.02999877929688", "Adj Close": "140.3059844970703", "Volume": "784500"},
{"Date": "2019-11-15", "Open": "141.82000732421875", "High": "141.82000732421875", "Low": "140.44000244140625", "Close": "141.17999267578125", "Adj Close": "140.4552001953125", "Volume": "1000600"},
{"Date": "2019-11-18", "Open": "141.5399932861328", "High": "142.99000549316406", "Low": "141.0", "Close": "142.10000610351562", "Adj Close": "141.37049865722656", "Volume": "1104200"},
{"Date": "2019-11-19", "Open": "142.77999877929688", "High": "144.42999267578125", "Low": "142.22000122070312", "Close": "143.97999572753906", "Adj Close": "143.24082946777344", "Volume": "1041500"},
{"Date": "2019-11-20", "Open": "143.44000244140625", "High": "144.80999755859375", "Low": "142.7899932861328", "Close": "144.33999633789062", "Adj Close": "143.59898376464844", "Volume": "1270500"},
{"Date": "2019-11-21", "Open": "144.72000122070312", "High": "145.50999450683594", "Low": "143.4600067138672", "Close": "144.4499969482422", "Adj Close": "143.7084197998047", "Volume": "1449100"},
{"Date": "2019-11-22", "Open": "145.16000366210938", "High": "146.25", "Low": "144.27000427246094", "Close": "145.97999572753906", "Adj Close": "145.23056030273438", "Volume": "1318200"},
{"Date": "2019-11-25", "Open": "146.0800018310547", "High": "147.07000732421875", "Low": "145.27000427246094", "Close": "145.41000366210938", "Adj Close": "144.6634979248047", "Volume": "794300"},
{"Date": "2019-11-26", "Open": "145.5800018310547", "High": "147.7899932861328", "Low": "145.0", "Close": "147.77999877929688", "Adj Close": "147.02133178710938", "Volume": "1317200"},
{"Date": "2019-11-27", "Open": "147.97999572753906", "High": "148.5800018310547", "Low": "147.50999450683594", "Close": "148.50999450683594", "Adj Close": "147.74758911132812", "Volume": "555100"},
{"Date": "2019-11-29", "Open": "148.39999389648438", "High": "148.97000122070312", "Low": "147.17999267578125", "Close": "147.47999572753906", "Adj Close": "146.72286987304688", "Volume": "480800"},
{"Date": "2019-12-02", "Open": "147.55999755859375", "High": "148.22000122070312", "Low": "146.02999877929688", "Close": "146.11000061035156", "Adj Close": "145.3599090576172", "Volume": "791800"},
{"Date": "2019-12-03", "Open": "145.27999877929688", "High": "146.17999267578125", "Low": "144.19000244140625", "Close": "144.97000122070312", "Adj Close": "144.22576904296875", "Volume": "720700"},
{"Date": "2019-12-04", "Open": "145.47999572753906", "High": "146.63999938964844", "Low": "144.9499969482422", "Close": "145.41000366210938", "Adj Close": "144.6634979248047", "Volume": "705100"},
{"Date": "2019-12-05", "Open": "145.33999633789062", "High": "146.55999755859375", "Low": "145.33999633789062", "Close": "146.02000427246094", "Adj Close": "145.27037048339844", "Volume": "561000"},
{"Date": "2019-12-06", "Open": "146.5399932861328", "High": "147.30999755859375", "Low": "145.99000549316406", "Close": "146.82000732421875", "Adj Close": "146.06626892089844", "Volume": "572800"},
{"Date": "2019-12-09", "Open": "147.0800018310547", "High": "148.3000030517578", "Low": "146.5500030517578", "Close": "147.47000122070312", "Adj Close": "146.71292114257812", "Volume": "789300"},
{"Date": "2019-12-10", "Open": "148.19000244140625", "High": "148.47999572753906", "Low": "147.02999877929688", "Close": "147.27999877929688", "Adj Close": "146.52389526367188", "Volume": "635100"},
{"Date": "2019-12-11", "Open": "147.19000244140625", "High": "147.7100067138672", "Low": "146.30999755859375", "Close": "146.80999755859375", "Adj Close": "146.05630493164062", "Volume": "477600"},
{"Date": "2019-12-12", "Open": "146.55999755859375", "High": "147.6999969482422", "Low": "146.3300018310547", "Close": "147.41000366210938", "Adj Close": "146.9033966064453", "Volume": "652100"},
{"Date": "2019-12-13", "Open": "147.0800018310547", "High": "149.55999755859375", "Low": "146.50999450683594", "Close": "149.19000244140625", "Adj Close": "148.67727661132812", "Volume": "684900"},
{"Date": "2019-12-16", "Open": "149.77999877929688", "High": "150.11000061035156", "Low": "148.94000244140625", "Close": "149.69000244140625", "Adj Close": "149.17555236816406", "Volume": "1406400"},
{"Date": "2019-12-17", "Open": "150.4600067138672", "High": "151.16000366210938", "Low": "149.5399932861328", "Close": "150.80999755859375", "Adj Close": "150.2917022705078", "Volume": "998400"},
{"Date": "2019-12-18", "Open": "151.1699981689453", "High": "151.49000549316406", "Low": "148.42999267578125", "Close": "148.83999633789062", "Adj Close": "148.32847595214844", "Volume": "1008700"},
{"Date": "2019-12-19", "Open": "148.52000427246094", "High": "149.02999877929688", "Low": "148.0500030517578", "Close": "148.19000244140625", "Adj Close": "147.6807098388672", "Volume": "776600"},
{"Date": "2019-12-20", "Open": "150.0500030517578", "High": "150.0500030517578", "Low": "148.16000366210938", "Close": "149.67999267578125", "Adj Close": "149.16558837890625", "Volume": "1791000"},
{"Date": "2019-12-23", "Open": "149.7100067138672", "High": "149.82000732421875", "Low": "148.91000366210938", "Close": "149.5500030517578", "Adj Close": "149.03604125976562", "Volume": "555400"},
{"Date": "2019-12-24", "Open": "149.58999633789062", "High": "150.47999572753906", "Low": "148.77000427246094", "Close": "149.1699981689453", "Adj Close": "148.6573486328125", "Volume": "159500"},
{"Date": "2019-12-26", "Open": "149.33999633789062", "High": "149.33999633789062", "Low": "148.3000030517578", "Close": "148.8300018310547", "Adj Close": "148.31851196289062", "Volume": "303600"},
{"Date": "2019-12-27", "Open": "148.91000366210938", "High": "149.25", "Low": "148.0399932861328", "Close": "148.5800018310547", "Adj Close": "148.0693817138672", "Volume": "686700"},
{"Date": "2019-12-30", "Open": "148.47999572753906", "High": "148.49000549316406", "Low": "146.44000244140625", "Close": "147.5500030517578", "Adj Close": "147.0429229736328", "Volume": "590400"},
{"Date": "2019-12-31", "Open": "147.8699951171875", "High": "149.47999572753906", "Low": "147.5500030517578", "Close": "149.33999633789062", "Adj Close": "148.82675170898438", "Volume": "549000"},
{"Date": "2020-01-02", "Open": "149.27999877929688", "High": "151.1300048828125", "Low": "148.89999389648438", "Close": "151.1199951171875", "Adj Close": "150.6006317138672", "Volume": "845100"},
{"Date": "2020-01-03", "Open": "150.0", "High": "152.72999572753906", "Low": "150.0", "Close": "152.58999633789062", "Adj Close": "152.0655975341797", "Volume": "876900"},
{"Date": "2020-01-06", "Open": "151.83999633789062", "High": "153.02999877929688", "Low": "150.69000244140625", "Close": "152.94000244140625", "Adj Close": "152.41439819335938", "Volume": "656200"},
{"Date": "2020-01-07", "Open": "153.24000549316406", "High": "154.92999267578125", "Low": "153.0800018310547", "Close": "154.22000122070312", "Adj Close": "153.69000244140625", "Volume": "1514700"},
{"Date": "2020-01-08", "Open": "154.47999572753906", "High": "156.22999572753906", "Low": "153.9600067138672", "Close": "155.63999938964844", "Adj Close": "155.1051025390625", "Volume": "773100"},
{"Date": "2020-01-09", "Open": "156.6699981689453", "High": "157.9600067138672", "Low": "156.64999389648438", "Close": "157.13999938964844", "Adj Close": "156.59996032714844", "Volume": "758800"},
{"Date": "2020-01-10", "Open": "157.11000061035156", "High": "157.82000732421875", "Low": "156.38999938964844", "Close": "157.32000732421875", "Adj Close": "156.7793426513672", "Volume": "844700"},
{"Date": "2020-01-13", "Open": "157.33999633789062", "High": "158.13999938964844", "Low": "156.8800048828125", "Close": "158.02000427246094", "Adj Close": "157.4769287109375", "Volume": "549500"},
{"Date": "2020-01-14", "Open": "157.64999389648438", "High": "157.92999267578125", "Low": "156.5399932861328", "Close": "156.8800048828125", "Adj Close": "156.34085083007812", "Volume": "617600"},
{"Date": "2020-01-15", "Open": "157.33999633789062", "High": "159.13999938964844", "Low": "157.2100067138672", "Close": "158.64999389648438", "Adj Close": "158.10476684570312", "Volume": "824100"},
{"Date": "2020-01-16", "Open": "159.3000030517578", "High": "160.88999938964844", "Low": "158.97000122070312", "Close": "160.55999755859375", "Adj Close": "160.00819396972656", "Volume": "628000"},
{"Date": "2020-01-17", "Open": "160.86000061035156", "High": "161.58999633789062", "Low": "160.07000732421875", "Close": "160.5500030517578", "Adj Close": "159.99822998046875", "Volume": "549300"},
{"Date": "2020-01-21", "Open": "159.66000366210938", "High": "162.24000549316406", "Low": "159.25999450683594", "Close": "161.3000030517578", "Adj Close": "160.74566650390625", "Volume": "648400"},
{"Date": "2020-01-22", "Open": "162.42999267578125", "High": "164.0500030517578", "Low": "162.42999267578125", "Close": "163.58999633789062", "Adj Close": "163.0277862548828", "Volume": "790700"},
{"Date": "2020-01-23", "Open": "163.1300048828125", "High": "165.2899932861328", "Low": "162.17999267578125", "Close": "165.10000610351562", "Adj Close": "164.5325927734375", "Volume": "708100"},
{"Date": "2020-01-24", "Open": "165.39999389648438", "High": "165.9499969482422", "Low": "164.1300048828125", "Close": "165.3000030517578", "Adj Close": "164.73191833496094", "Volume": "486000"},
{"Date": "2020-01-27", "Open": "163.30999755859375", "High": "164.91000366210938", "Low": "161.82000732421875", "Close": "163.9499969482422", "Adj Close": "163.3865509033203", "Volume": "640200"},
{"Date": "2020-01-28", "Open": "164.14999389648438", "High": "165.5", "Low": "163.8800048828125", "Close": "164.80999755859375", "Adj Close": "164.24359130859375", "Volume": "758900"},
{"Date": "2020-01-29", "Open": "165.0", "High": "165.3699951171875", "Low": "163.92999267578125", "Close": "164.17999267578125", "Adj Close": "163.61575317382812", "Volume": "529300"},
{"Date": "2020-01-30", "Open": "163.25", "High": "164.80999755859375", "Low": "162.97999572753906", "Close": "164.7100067138672", "Adj Close": "164.14395141601562", "Volume": "476000"},
{"Date": "2020-01-31", "Open": "164.4199981689453", "High": "164.74000549316406", "Low": "162.0", "Close": "162.47000122070312", "Adj Close": "161.91163635253906", "Volume": "621000"},
{"Date": "2020-02-03", "Open": "163.02999877929688", "High": "166.00999450683594", "Low": "163.02999877929688", "Close": "165.22000122070312", "Adj Close": "164.6521759033203", "Volume": "649600"},
{"Date": "2020-02-04", "Open": "166.8000030517578", "High": "168.7100067138672", "Low": "166.3800048828125", "Close": "168.1300048828125", "Adj Close": "167.55218505859375", "Volume": "931700"},
{"Date": "2020-02-05", "Open": "169.5", "High": "169.89999389648438", "Low": "167.5800018310547", "Close": "168.55999755859375", "Adj Close": "167.980712890625", "Volume": "1132400"},
{"Date": "2020-02-06", "Open": "169.5500030517578", "High": "169.8800048828125", "Low": "168.27999877929688", "Close": "168.9499969482422", "Adj Close": "168.36935424804688", "Volume": "446700"},
{"Date": "2020-02-07", "Open": "168.80999755859375", "High": "169.49000549316406", "Low": "167.82000732421875", "Close": "169.1199951171875", "Adj Close": "168.5387725830078", "Volume": "476300"},
{"Date": "2020-02-10", "Open": "168.7899932861328", "High": "170.1199951171875", "Low": "168.17999267578125", "Close": "169.94000244140625", "Adj Close": "169.35597229003906", "Volume": "479100"},
{"Date": "2020-02-11", "Open": "170.1699981689453", "High": "170.66000366210938", "Low": "167.57000732421875", "Close": "167.88999938964844", "Adj Close": "167.31300354003906", "Volume": "539500"},
{"Date": "2020-02-12", "Open": "167.9199981689453", "High": "169.52000427246094", "Low": "167.4499969482422", "Close": "169.27999877929688", "Adj Close": "168.6982421875", "Volume": "515800"},
{"Date": "2020-02-13", "Open": "169.0500030517578", "High": "171.5800018310547", "Low": "169.0500030517578", "Close": "170.6699981689453", "Adj Close": "170.08346557617188", "Volume": "513700"},
{"Date": "2020-02-14", "Open": "170.4199981689453", "High": "171.67999267578125", "Low": "170.4199981689453", "Close": "171.3800048828125", "Adj Close": "170.79103088378906", "Volume": "533600"},
{"Date": "2020-02-18", "Open": "170.8000030517578", "High": "171.72999572753906", "Low": "169.8800048828125", "Close": "171.55999755859375", "Adj Close": "170.97039794921875", "Volume": "1120200"},
{"Date": "2020-02-19", "Open": "165.47999572753906", "High": "170.74000549316406", "Low": "163.0", "Close": "169.74000549316406", "Adj Close": "169.1566619873047", "Volume": "1196600"},
{"Date": "2020-02-20", "Open": "168.8699951171875", "High": "170.1999969482422", "Low": "167.0800018310547", "Close": "169.38999938964844", "Adj Close": "168.807861328125", "Volume": "761300"},
{"Date": "2020-02-21", "Open": "168.69000244140625", "High": "170.16000366210938", "Low": "167.50999450683594", "Close": "168.69000244140625", "Adj Close": "168.1102752685547", "Volume": "912000"},
{"Date": "2020-02-24", "Open": "166.25999450683594", "High": "169.14999389648438", "Low": "165.58999633789062", "Close": "167.5800018310547", "Adj Close": "167.0040740966797", "Volume": "1096600"},
{"Date": "2020-02-25", "Open": "168.08999633789062", "High": "168.9199981689453", "Low": "162.5399932861328", "Close": "162.82000732421875", "Adj Close": "162.26043701171875", "Volume": "983700"},
{"Date": "2020-02-26", "Open": "164.2899932861328", "High": "165.9600067138672", "Low": "162.61000061035156", "Close": "163.52999877929688", "Adj Close": "162.96800231933594", "Volume": "903300"},
{"Date": "2020-02-27", "Open": "161.97000122070312", "High": "162.91000366210938", "Low": "155.7899932861328", "Close": "155.7899932861328", "Adj Close": "155.2545928955078", "Volume": "1053500"},
{"Date": "2020-02-28", "Open": "152.47000122070312", "High": "155.4600067138672", "Low": "148.7100067138672", "Close": "155.11000061035156", "Adj Close": "154.57693481445312", "Volume": "2169900"},
{"Date": "2020-03-02", "Open": "154.9199981689453", "High": "163.27999877929688", "Low": "154.35000610351562", "Close": "163.1300048828125", "Adj Close": "162.56936645507812", "Volume": "1516200"},
{"Date": "2020-03-03", "Open": "163.2899932861328", "High": "166.4199981689453", "Low": "159.5", "Close": "160.39999389648438", "Adj Close": "159.8487548828125", "Volume": "1231900"},
{"Date": "2020-03-04", "Open": "162.22000122070312", "High": "169.86000061035156", "Low": "161.30999755859375", "Close": "169.17999267578125", "Adj Close": "168.5985565185547", "Volume": "987800"},
{"Date": "2020-03-05", "Open": "163.8800048828125", "High": "166.6999969482422", "Low": "162.9499969482422", "Close": "164.97000122070312", "Adj Close": "164.40306091308594", "Volume": "1062900"},
{"Date": "2020-03-06", "Open": "159.1699981689453", "High": "164.4600067138672", "Low": "157.88999938964844", "Close": "163.3699951171875", "Adj Close": "162.80853271484375", "Volume": "1214500"},
{"Date": "2020-03-09", "Open": "150.6300048828125", "High": "156.66000366210938", "Low": "145.14999389648438", "Close": "147.9199981689453", "Adj Close": "147.41165161132812", "Volume": "2051200"},
{"Date": "2020-03-10", "Open": "151.07000732421875", "High": "156.75999450683594", "Low": "147.07000732421875", "Close": "156.74000549316406", "Adj Close": "156.2013397216797", "Volume": "1486800"},
{"Date": "2020-03-11", "Open": "152.1699981689453", "High": "155.17999267578125", "Low": "148.57000732421875", "Close": "151.67999267578125", "Adj Close": "151.15870666503906", "Volume": "1392000"},
{"Date": "2020-03-12", "Open": "142.25", "High": "149.05999755859375", "Low": "132.0", "Close": "139.49000549316406", "Adj Close": "139.25851440429688", "Volume": "1788400"},
{"Date": "2020-03-13", "Open": "145.2899932861328", "High": "147.99000549316406", "Low": "133.60000610351562", "Close": "145.61000061035156", "Adj Close": "145.36834716796875", "Volume": "1761700"},
{"Date": "2020-03-16", "Open": "132.5399932861328", "High": "142.4499969482422", "Low": "128.7100067138672", "Close": "130.05999755859375", "Adj Close": "129.84414672851562", "Volume": "1402700"},
{"Date": "2020-03-17", "Open": "131.9499969482422", "High": "148.61000061035156", "Low": "130.83999633789062", "Close": "144.7100067138672", "Adj Close": "144.4698486328125", "Volume": "1620800"},
{"Date": "2020-03-18", "Open": "133.0", "High": "137.4199981689453", "Low": "123.94999694824219", "Close": "135.11000061035156", "Adj Close": "134.88577270507812", "Volume": "1720800"},
{"Date": "2020-03-19", "Open": "135.3000030517578", "High": "144.97999572753906", "Low": "131.7899932861328", "Close": "136.47999572753906", "Adj Close": "136.2534942626953", "Volume": "1124600"},
{"Date": "2020-03-20", "Open": "137.39999389648438", "High": "137.60000610351562", "Low": "123.54000091552734", "Close": "124.25", "Adj Close": "124.0438003540039", "Volume": "1509200"},
{"Date": "2020-03-23", "Open": "125.7300033569336", "High": "125.76000213623047", "Low": "116.61000061035156", "Close": "121.18000030517578", "Adj Close": "120.97889709472656", "Volume": "1398700"},
{"Date": "2020-03-24", "Open": "126.86000061035156", "High": "138.05999755859375", "Low": "125.37000274658203", "Close": "137.27999877929688", "Adj Close": "137.0521697998047", "Volume": "1300500"},
{"Date": "2020-03-25", "Open": "134.61000061035156", "High": "138.89999389648438", "Low": "128.0", "Close": "134.3000030517578", "Adj Close": "134.07711791992188", "Volume": "1662900"},
{"Date": "2020-03-26", "Open": "135.5399932861328", "High": "143.47999572753906", "Low": "135.5399932861328", "Close": "142.10000610351562", "Adj Close": "141.8641815185547", "Volume": "1248100"},
{"Date": "2020-03-27", "Open": "139.10000610351562", "High": "143.47000122070312", "Low": "136.97999572753906", "Close": "137.77000427246094", "Adj Close": "137.54136657714844", "Volume": "1234300"},
{"Date": "2020-03-30", "Open": "138.80999755859375", "High": "147.92999267578125", "Low": "138.10000610351562", "Close": "146.8699951171875", "Adj Close": "146.62625122070312", "Volume": "793900"},
{"Date": "2020-03-31", "Open": "144.9199981689453", "High": "146.5399932861328", "Low": "138.42999267578125", "Close": "139.3800048828125", "Adj Close": "139.14869689941406", "Volume": "1422200"},
{"Date": "2020-04-01", "Open": "134.22000122070312", "High": "142.49000549316406", "Low": "133.5", "Close": "140.77999877929688", "Adj Close": "140.54637145996094", "Volume": "1343500"},
{"Date": "2020-04-02", "Open": "137.02999877929688", "High": "144.3300018310547", "Low": "134.4499969482422", "Close": "142.99000549316406", "Adj Close": "142.75270080566406", "Volume": "1044400"},
{"Date": "2020-04-03", "Open": "141.67999267578125", "High": "143.2899932861328", "Low": "138.1699981689453", "Close": "141.64999389648438", "Adj Close": "141.4149169921875", "Volume": "815700"},
{"Date": "2020-04-06", "Open": "146.1999969482422", "High": "148.80999755859375", "Low": "144.8800048828125", "Close": "147.74000549316406", "Adj Close": "147.4948272705078", "Volume": "1244000"},
{"Date": "2020-04-07", "Open": "151.50999450683594", "High": "152.88999938964844", "Low": "146.57000732421875", "Close": "147.1699981689453", "Adj Close": "146.92576599121094", "Volume": "967200"},
{"Date": "2020-04-08", "Open": "147.83999633789062", "High": "150.89999389648438", "Low": "147.1699981689453", "Close": "148.6999969482422", "Adj Close": "148.45321655273438", "Volume": "883800"},
{"Date": "2020-04-09", "Open": "149.63999938964844", "High": "152.63999938964844", "Low": "147.22999572753906", "Close": "148.25999450683594", "Adj Close": "148.01394653320312", "Volume": "1076800"},
{"Date": "2020-04-13", "Open": "146.14999389648438", "High": "148.0", "Low": "142.4600067138672", "Close": "144.16000366210938", "Adj Close": "143.92076110839844", "Volume": "704600"},
{"Date": "2020-04-14", "Open": "147.8800048828125", "High": "150.85000610351562", "Low": "146.80999755859375", "Close": "150.3000030517578", "Adj Close": "150.05056762695312", "Volume": "1070200"},
{"Date": "2020-04-15", "Open": "147.55999755859375", "High": "148.6300048828125", "Low": "146.0399932861328", "Close": "147.1300048828125", "Adj Close": "146.88583374023438", "Volume": "722300"},
{"Date": "2020-04-16", "Open": "148.30999755859375", "High": "149.94000244140625", "Low": "146.1999969482422", "Close": "149.11000061035156", "Adj Close": "148.862548828125", "Volume": "912400"},
{"Date": "2020-04-17", "Open": "153.47999572753906", "High": "154.02999877929688", "Low": "151.39999389648438", "Close": "153.7899932861328", "Adj Close": "153.53477478027344", "Volume": "957800"},
{"Date": "2020-04-20", "Open": "151.58999633789062", "High": "151.60000610351562", "Low": "148.49000549316406", "Close": "149.32000732421875", "Adj Close": "149.07220458984375", "Volume": "722100"},
{"Date": "2020-04-21", "Open": "146.97000122070312", "High": "148.1699981689453", "Low": "144.5500030517578", "Close": "145.2100067138672", "Adj Close": "144.96902465820312", "Volume": "810300"},
{"Date": "2020-04-22", "Open": "148.61000061035156", "High": "152.8300018310547", "Low": "146.89999389648438", "Close": "151.1999969482422", "Adj Close": "150.94906616210938", "Volume": "710200"},
{"Date": "2020-04-23", "Open": "151.49000549316406", "High": "152.1199951171875", "Low": "146.72000122070312", "Close": "147.6999969482422", "Adj Close": "147.4548797607422", "Volume": "1082800"},
{"Date": "2020-04-24", "Open": "149.14999389648438", "High": "149.14999389648438", "Low": "146.6300048828125", "Close": "148.5399932861328", "Adj Close": "148.29348754882812", "Volume": "975900"},
{"Date": "2020-04-27", "Open": "151.07000732421875", "High": "152.4199981689453", "Low": "149.17999267578125", "Close": "151.8000030517578", "Adj Close": "151.54808044433594", "Volume": "797700"},
{"Date": "2020-04-28", "Open": "159.3000030517578", "High": "159.99000549316406", "Low": "151.49000549316406", "Close": "151.7899932861328", "Adj Close": "151.5380859375", "Volume": "672600"},
{"Date": "2020-04-29", "Open": "154.0500030517578", "High": "154.82000732421875", "Low": "151.61000061035156", "Close": "153.07000732421875", "Adj Close": "152.81597900390625", "Volume": "856600"},
{"Date": "2020-04-30", "Open": "152.1699981689453", "High": "153.2899932861328", "Low": "150.47000122070312", "Close": "152.8300018310547", "Adj Close": "152.5763702392578", "Volume": "1483100"},
{"Date": "2020-05-01", "Open": "149.85000610351562", "High": "154.5399932861328", "Low": "149.85000610351562", "Close": "153.4499969482422", "Adj Close": "153.19534301757812", "Volume": "1036100"},
{"Date": "2020-05-04", "Open": "152.3000030517578", "High": "155.47999572753906", "Low": "151.3800048828125", "Close": "154.4600067138672", "Adj Close": "154.20367431640625", "Volume": "779400"},
{"Date": "2020-05-05", "Open": "154.91000366210938", "High": "159.14999389648438", "Low": "154.67999267578125", "Close": "157.49000549316406", "Adj Close": "157.2286376953125", "Volume": "965000"},
{"Date": "2020-05-06", "Open": "160.0", "High": "161.74000549316406", "Low": "154.5", "Close": "155.17999267578125", "Adj Close": "154.92245483398438", "Volume": "880500"},
{"Date": "2020-05-07", "Open": "156.1699981689453", "High": "160.25", "Low": "156.1699981689453", "Close": "158.27000427246094", "Adj Close": "158.00733947753906", "Volume": "956700"},
{"Date": "2020-05-08", "Open": "160.11000061035156", "High": "161.66000366210938", "Low": "158.1999969482422", "Close": "159.57000732421875", "Adj Close": "159.30519104003906", "Volume": "636800"},
{"Date": "2020-05-11", "Open": "158.1999969482422", "High": "161.5", "Low": "157.85000610351562", "Close": "160.7100067138672", "Adj Close": "160.44329833984375", "Volume": "673300"},
{"Date": "2020-05-12", "Open": "160.17999267578125", "High": "161.3000030517578", "Low": "156.5800018310547", "Close": "156.60000610351562", "Adj Close": "156.34011840820312", "Volume": "808100"},
{"Date": "2020-05-13", "Open": "156.4199981689453", "High": "157.0", "Low": "152.75", "Close": "154.42999267578125", "Adj Close": "154.1737060546875", "Volume": "847600"},
{"Date": "2020-05-14", "Open": "155.02000427246094", "High": "156.38999938964844", "Low": "151.17999267578125", "Close": "153.89999389648438", "Adj Close": "153.64459228515625", "Volume": "757200"},
{"Date": "2020-05-15", "Open": "152.8800048828125", "High": "155.4499969482422", "Low": "151.5399932861328", "Close": "154.55999755859375", "Adj Close": "154.30349731445312", "Volume": "824400"},
{"Date": "2020-05-18", "Open": "158.1300048828125", "High": "159.75", "Low": "156.88999938964844", "Close": "158.32000732421875", "Adj Close": "158.05726623535156", "Volume": "1145700"},
{"Date": "2020-05-19", "Open": "158.4199981689453", "High": "161.0", "Low": "157.5399932861328", "Close": "158.05999755859375", "Adj Close": "157.7976837158203", "Volume": "668500"},
{"Date": "2020-05-20", "Open": "158.83999633789062", "High": "161.0399932861328", "Low": "158.83999633789062", "Close": "159.5399932861328", "Adj Close": "159.2752227783203", "Volume": "636100"},
{"Date": "2020-05-21", "Open": "157.50999450683594", "High": "159.36000061035156", "Low": "156.52000427246094", "Close": "156.83999633789062", "Adj Close": "156.5797119140625", "Volume": "553100"},
{"Date": "2020-05-22", "Open": "155.80999755859375", "High": "158.3699951171875", "Low": "155.74000549316406", "Close": "157.27999877929688", "Adj Close": "157.01898193359375", "Volume": "625700"},
{"Date": "2020-05-26", "Open": "158.52000427246094", "High": "161.25999450683594", "Low": "157.16000366210938", "Close": "160.4600067138672", "Adj Close": "160.19371032714844", "Volume": "1149400"},
{"Date": "2020-05-27", "Open": "162.3699951171875", "High": "164.3800048828125", "Low": "158.7100067138672", "Close": "163.4600067138672", "Adj Close": "163.18873596191406", "Volume": "2028500"},
{"Date": "2020-05-28", "Open": "165.0", "High": "169.94000244140625", "Low": "164.02000427246094", "Close": "168.33999633789062", "Adj Close": "168.0606231689453", "Volume": "1303500"},
{"Date": "2020-05-29", "Open": "169.1300048828125", "High": "173.3300018310547", "Low": "168.75999450683594", "Close": "172.67999267578125", "Adj Close": "172.39341735839844", "Volume": "2021900"},
{"Date": "2020-06-01", "Open": "171.4600067138672", "High": "173.69000244140625", "Low": "169.25", "Close": "169.3800048828125", "Adj Close": "169.09890747070312", "Volume": "940700"},
{"Date": "2020-06-02", "Open": "170.0399932861328", "High": "172.27999877929688", "Low": "169.42999267578125", "Close": "170.9600067138672", "Adj Close": "170.67628479003906", "Volume": "1605200"},
{"Date": "2020-06-03", "Open": "172.3000030517578", "High": "173.77000427246094", "Low": "170.2899932861328", "Close": "170.75999450683594", "Adj Close": "170.4766082763672", "Volume": "1034800"},
{"Date": "2020-06-04", "Open": "170.22000122070312", "High": "171.1199951171875", "Low": "163.86000061035156", "Close": "164.4600067138672", "Adj Close": "164.18707275390625", "Volume": "1267000"},
{"Date": "2020-06-05", "Open": "165.6699981689453", "High": "166.7899932861328", "Low": "162.13999938964844", "Close": "166.1300048828125", "Adj Close": "165.8542938232422", "Volume": "1773500"},
{"Date": "2020-06-08", "Open": "163.94000244140625", "High": "169.97000122070312", "Low": "163.74000549316406", "Close": "169.6699981689453", "Adj Close": "169.38841247558594", "Volume": "861800"},
{"Date": "2020-06-09", "Open": "170.0", "High": "170.2100067138672", "Low": "167.5800018310547", "Close": "169.3300018310547", "Adj Close": "169.04898071289062", "Volume": "794300"},
{"Date": "2020-06-10", "Open": "170.55999755859375", "High": "171.9199981689453", "Low": "169.74000549316406", "Close": "171.24000549316406", "Adj Close": "170.95582580566406", "Volume": "896300"},
{"Date": "2020-06-11", "Open": "170.0399932861328", "High": "171.11000061035156", "Low": "162.3699951171875", "Close": "162.69000244140625", "Adj Close": "162.42001342773438", "Volume": "936500"},
{"Date": "2020-06-12", "Open": "164.4600067138672", "High": "165.7100067138672", "Low": "160.41000366210938", "Close": "162.6699981689453", "Adj Close": "162.6699981689453", "Volume": "824600"},
{"Date": "2020-06-15", "Open": "159.47000122070312", "High": "165.69000244140625", "Low": "159.1699981689453", "Close": "165.39999389648438", "Adj Close": "165.39999389648438", "Volume": "1026000"},
{"Date": "2020-06-16", "Open": "169.7899932861328", "High": "170.52000427246094", "Low": "165.10000610351562", "Close": "166.4199981689453", "Adj Close": "166.4199981689453", "Volume": "674700"},
{"Date": "2020-06-17", "Open": "166.67999267578125", "High": "168.2100067138672", "Low": "166.58999633789062", "Close": "167.0500030517578", "Adj Close": "167.0500030517578", "Volume": "520900"},
{"Date": "2020-06-18", "Open": "167.41000366210938", "High": "168.5500030517578", "Low": "166.05999755859375", "Close": "166.85000610351562", "Adj Close": "166.85000610351562", "Volume": "617700"},
{"Date": "2020-06-19", "Open": "167.17999267578125", "High": "169.77999877929688", "Low": "164.08999633789062", "Close": "164.19000244140625", "Adj Close": "164.19000244140625", "Volume": "1599200"},
{"Date": "2020-06-22", "Open": "163.99000549316406", "High": "167.6300048828125", "Low": "163.27000427246094", "Close": "167.27000427246094", "Adj Close": "167.27000427246094", "Volume": "615000"},
{"Date": "2020-06-23", "Open": "169.3699951171875", "High": "169.3699951171875", "Low": "166.55999755859375", "Close": "166.80999755859375", "Adj Close": "166.80999755859375", "Volume": "627700"},
{"Date": "2020-06-24", "Open": "166.2100067138672", "High": "167.3300018310547", "Low": "163.25999450683594", "Close": "163.69000244140625", "Adj Close": "163.69000244140625", "Volume": "683500"},
{"Date": "2020-06-25", "Open": "163.42999267578125", "High": "166.52999877929688", "Low": "161.7899932861328", "Close": "166.2100067138672", "Adj Close": "166.2100067138672", "Volume": "724400"},
{"Date": "2020-06-26", "Open": "166.91000366210938", "High": "168.0800018310547", "Low": "161.39999389648438", "Close": "162.88999938964844", "Adj Close": "162.88999938964844", "Volume": "1715500"},
{"Date": "2020-06-29", "Open": "163.27000427246094", "High": "164.52999877929688", "Low": "161.10000610351562", "Close": "164.33999633789062", "Adj Close": "164.33999633789062", "Volume": "568500"},
{"Date": "2020-06-30", "Open": "164.0800018310547", "High": "171.10000610351562", "Low": "162.9199981689453", "Close": "170.1999969482422", "Adj Close": "170.1999969482422", "Volume": "1079700"},
{"Date": "2020-07-01", "Open": "169.22999572753906", "High": "173.19000244140625", "Low": "168.47999572753906", "Close": "172.4199981689453", "Adj Close": "172.4199981689453", "Volume": "762900"},
{"Date": "2020-07-02", "Open": "173.50999450683594", "High": "174.2899932861328", "Low": "171.75", "Close": "173.11000061035156", "Adj Close": "173.11000061035156", "Volume": "955500"},
{"Date": "2020-07-06", "Open": "175.57000732421875", "High": "176.47999572753906", "Low": "172.07000732421875", "Close": "173.55999755859375", "Adj Close": "173.55999755859375", "Volume": "972000"},
{"Date": "2020-07-07", "Open": "172.72999572753906", "High": "175.8000030517578", "Low": "169.83999633789062", "Close": "172.92999267578125", "Adj Close": "172.92999267578125", "Volume": "836700"},
{"Date": "2020-07-08", "Open": "174.8300018310547", "High": "174.8300018310547", "Low": "171.14999389648438", "Close": "172.8300018310547", "Adj Close": "172.8300018310547", "Volume": "793100"},
{"Date": "2020-07-09", "Open": "172.49000549316406", "High": "173.99000549316406", "Low": "170.5800018310547", "Close": "173.1999969482422", "Adj Close": "173.1999969482422", "Volume": "766700"},
{"Date": "2020-07-10", "Open": "173.60000610351562", "High": "174.2899932861328", "Low": "170.7100067138672", "Close": "174.1699981689453", "Adj Close": "174.1699981689453", "Volume": "470500"},
{"Date": "2020-07-13", "Open": "175.2100067138672", "High": "176.4499969482422", "Low": "172.0500030517578", "Close": "172.85000610351562", "Adj Close": "172.85000610351562", "Volume": "832900"},
{"Date": "2020-07-14", "Open": "171.05999755859375", "High": "174.8300018310547", "Low": "169.7100067138672", "Close": "174.58999633789062", "Adj Close": "174.58999633789062", "Volume": "837200"},
{"Date": "2020-07-15", "Open": "175.60000610351562", "High": "176.10000610351562", "Low": "173.25999450683594", "Close": "175.39999389648438", "Adj Close": "175.39999389648438", "Volume": "821000"},
{"Date": "2020-07-16", "Open": "175.3699951171875", "High": "176.07000732421875", "Low": "173.83999633789062", "Close": "175.4199981689453", "Adj Close": "175.4199981689453", "Volume": "621500"},
{"Date": "2020-07-17", "Open": "176.1199951171875", "High": "178.5500030517578", "Low": "175.17999267578125", "Close": "178.39999389648438", "Adj Close": "178.39999389648438", "Volume": "510700"},
{"Date": "2020-07-20", "Open": "178.0", "High": "182.5500030517578", "Low": "178.0", "Close": "181.60000610351562", "Adj Close": "181.60000610351562", "Volume": "686500"},
{"Date": "2020-07-21", "Open": "181.8300018310547", "High": "182.0500030517578", "Low": "180.05999755859375", "Close": "180.67999267578125", "Adj Close": "180.67999267578125", "Volume": "632100"},
{"Date": "2020-07-22", "Open": "181.32000732421875", "High": "181.82000732421875", "Low": "180.13999938964844", "Close": "181.35000610351562", "Adj Close": "181.35000610351562", "Volume": "489100"},
{"Date": "2020-07-23", "Open": "181.24000549316406", "High": "183.9199981689453", "Low": "179.24000549316406", "Close": "180.6300048828125", "Adj Close": "180.6300048828125", "Volume": "814300"},
{"Date": "2020-07-24", "Open": "180.69000244140625", "High": "181.44000244140625", "Low": "179.35000610351562", "Close": "179.77999877929688", "Adj Close": "179.77999877929688", "Volume": "520500"},
{"Date": "2020-07-27", "Open": "181.13999938964844", "High": "183.4499969482422", "Low": "181.10000610351562", "Close": "183.2100067138672", "Adj Close": "183.2100067138672", "Volume": "699200"},
{"Date": "2020-07-28", "Open": "183.35000610351562", "High": "184.75999450683594", "Low": "181.38999938964844", "Close": "182.42999267578125", "Adj Close": "182.42999267578125", "Volume": "754000"},
{"Date": "2020-07-29", "Open": "182.8000030517578", "High": "188.38999938964844", "Low": "182.8000030517578", "Close": "187.64999389648438", "Adj Close": "187.64999389648438", "Volume": "786300"},
{"Date": "2020-07-30", "Open": "185.74000549316406", "High": "187.4600067138672", "Low": "184.0", "Close": "187.1699981689453", "Adj Close": "187.1699981689453", "Volume": "459600"},
{"Date": "2020-07-31", "Open": "187.89999389648438", "High": "188.75", "Low": "184.85000610351562", "Close": "188.7100067138672", "Adj Close": "188.7100067138672", "Volume": "542500"},
{"Date": "2020-08-03", "Open": "188.85000610351562", "High": "190.0", "Low": "186.6999969482422", "Close": "186.9600067138672", "Adj Close": "186.9600067138672", "Volume": "753900"},
{"Date": "2020-08-04", "Open": "187.25", "High": "188.61000061035156", "Low": "185.88999938964844", "Close": "187.72000122070312", "Adj Close": "187.72000122070312", "Volume": "1062900"},
{"Date": "2020-08-05", "Open": "188.25999450683594", "High": "188.83999633789062", "Low": "184.47999572753906", "Close": "186.66000366210938", "Adj Close": "186.66000366210938", "Volume": "626100"},
{"Date": "2020-08-06", "Open": "187.49000549316406", "High": "189.94000244140625", "Low": "186.83999633789062", "Close": "189.55999755859375", "Adj Close": "189.55999755859375", "Volume": "608500"},
{"Date": "2020-08-07", "Open": "188.91000366210938", "High": "191.2100067138672", "Low": "188.44000244140625", "Close": "191.16000366210938", "Adj Close": "191.16000366210938", "Volume": "597100"},
{"Date": "2020-08-10", "Open": "190.1999969482422", "High": "190.72999572753906", "Low": "188.92999267578125", "Close": "189.64999389648438", "Adj Close": "189.64999389648438", "Volume": "526400"},
{"Date": "2020-08-11", "Open": "190.77000427246094", "High": "190.77000427246094", "Low": "187.1999969482422", "Close": "187.88999938964844", "Adj Close": "187.88999938964844", "Volume": "464700"},
{"Date": "2020-08-12", "Open": "188.4600067138672", "High": "192.39999389648438", "Low": "187.88999938964844", "Close": "190.42999267578125", "Adj Close": "190.42999267578125", "Volume": "589200"},
{"Date": "2020-08-13", "Open": "189.8699951171875", "High": "191.38999938964844", "Low": "189.7899932861328", "Close": "190.7100067138672", "Adj Close": "190.7100067138672", "Volume": "469200"},
{"Date": "2020-08-14", "Open": "190.74000549316406", "High": "191.97000122070312", "Low": "188.47000122070312", "Close": "189.14999389648438", "Adj Close": "189.14999389648438", "Volume": "317900"},
{"Date": "2020-08-17", "Open": "189.58999633789062", "High": "191.1999969482422", "Low": "188.1199951171875", "Close": "189.07000732421875", "Adj Close": "189.07000732421875", "Volume": "611700"},
{"Date": "2020-08-18", "Open": "189.0", "High": "189.5399932861328", "Low": "188.25", "Close": "189.1300048828125", "Adj Close": "189.1300048828125", "Volume": "490300"},
{"Date": "2020-08-19", "Open": "189.6300048828125", "High": "189.89999389648438", "Low": "186.7100067138672", "Close": "187.24000549316406", "Adj Close": "187.24000549316406", "Volume": "450400"},
{"Date": "2020-08-20", "Open": "186.22999572753906", "High": "187.25999450683594", "Low": "185.74000549316406", "Close": "185.86000061035156", "Adj Close": "185.86000061035156", "Volume": "568600"},
{"Date": "2020-08-21", "Open": "185.24000549316406", "High": "186.05999755859375", "Low": "184.27999877929688", "Close": "185.64999389648438", "Adj Close": "185.64999389648438", "Volume": "689300"},
{}]