[{"Date": "2019-08-23", "Open": "93.13999938964844", "High": "94.12999725341797", "Low": "90.41000366210938", "Close": "91.62999725341797", "Adj Close": "91.62999725341797", "Volume": "1368400"},
{"Date": "2019-08-26", "Open": "92.33000183105469", "High": "93.5", "Low": "91.44999694824219", "Close": "91.76000213623047", "Adj Close": "91.76000213623047", "Volume": "697400"},
{"Date": "2019-08-27", "Open": "92.5999984741211", "High": "93.69000244140625", "Low": "90.44000244140625", "Close": "91.7300033569336", "Adj Close": "91.7300033569336", "Volume": "825800"},
{"Date": "2019-08-28", "Open": "91.16000366210938", "High": "91.37999725341797", "Low": "88.71099853515625", "Close": "90.16000366210938", "Adj Close": "90.16000366210938", "Volume": "1148300"},
{"Date": "2019-08-29", "Open": "91.5", "High": "92.68000030517578", "Low": "90.69999694824219", "Close": "90.87000274658203", "Adj Close": "90.87000274658203", "Volume": "851800"},
{"Date": "2019-08-30", "Open": "91.81999969482422", "High": "92.41999816894531", "Low": "89.0199966430664", "Close": "91.66999816894531", "Adj Close": "91.66999816894531", "Volume": "1186100"},
{"Date": "2019-09-03", "Open": "91.5", "High": "94.23999786376953", "Low": "90.75", "Close": "92.45999908447266", "Adj Close": "92.45999908447266", "Volume": "1538900"},
{"Date": "2019-09-04", "Open": "93.94999694824219", "High": "96.0", "Low": "93.18000030517578", "Close": "93.52999877929688", "Adj Close": "93.52999877929688", "Volume": "2400700"},
{"Date": "2019-09-05", "Open": "94.23999786376953", "High": "94.37999725341797", "Low": "88.51000213623047", "Close": "92.69000244140625", "Adj Close": "92.69000244140625", "Volume": "4991800"},
{"Date": "2019-09-06", "Open": "92.0", "High": "96.5", "Low": "84.86000061035156", "Close": "85.41000366210938", "Adj Close": "85.41000366210938", "Volume": "7289700"},
{"Date": "2019-09-09", "Open": "85.75", "High": "85.94000244140625", "Low": "77.19999694824219", "Close": "78.6500015258789", "Adj Close": "78.6500015258789", "Volume": "6713800"},
{"Date": "2019-09-10", "Open": "77.0", "High": "81.22100067138672", "Low": "76.80999755859375", "Close": "80.3499984741211", "Adj Close": "80.3499984741211", "Volume": "2813200"},
{"Date": "2019-09-11", "Open": "80.0", "High": "81.86000061035156", "Low": "78.5", "Close": "80.70999908447266", "Adj Close": "80.70999908447266", "Volume": "2013600"},
{"Date": "2019-09-12", "Open": "81.44999694824219", "High": "82.6500015258789", "Low": "79.9000015258789", "Close": "81.52999877929688", "Adj Close": "81.52999877929688", "Volume": "1955100"},
{"Date": "2019-09-13", "Open": "81.56999969482422", "High": "82.47599792480469", "Low": "78.2699966430664", "Close": "78.8499984741211", "Adj Close": "78.8499984741211", "Volume": "1416800"},
{"Date": "2019-09-16", "Open": "78.5", "High": "80.98999786376953", "Low": "78.26000213623047", "Close": "80.66999816894531", "Adj Close": "80.66999816894531", "Volume": "1630100"},
{"Date": "2019-09-17", "Open": "81.48999786376953", "High": "84.81999969482422", "Low": "79.52999877929688", "Close": "84.63999938964844", "Adj Close": "84.63999938964844", "Volume": "2539900"},
{"Date": "2019-09-18", "Open": "84.4000015258789", "High": "86.0", "Low": "83.5", "Close": "84.55000305175781", "Adj Close": "84.55000305175781", "Volume": "1835400"},
{"Date": "2019-09-19", "Open": "85.19999694824219", "High": "85.3499984741211", "Low": "83.25", "Close": "84.62000274658203", "Adj Close": "84.62000274658203", "Volume": "1266600"},
{"Date": "2019-09-20", "Open": "85.0", "High": "85.3499984741211", "Low": "81.5", "Close": "82.62999725341797", "Adj Close": "82.62999725341797", "Volume": "2050100"},
{"Date": "2019-09-23", "Open": "82.29000091552734", "High": "83.5999984741211", "Low": "81.80000305175781", "Close": "82.62000274658203", "Adj Close": "82.62000274658203", "Volume": "677000"},
{"Date": "2019-09-24", "Open": "82.43000030517578", "High": "82.93000030517578", "Low": "79.45999908447266", "Close": "80.0199966430664", "Adj Close": "80.0199966430664", "Volume": "2145400"},
{"Date": "2019-09-25", "Open": "79.12000274658203", "High": "79.98999786376953", "Low": "76.08000183105469", "Close": "79.5999984741211", "Adj Close": "79.5999984741211", "Volume": "1924100"},
{"Date": "2019-09-26", "Open": "79.25", "High": "80.62000274658203", "Low": "78.61499786376953", "Close": "79.75", "Adj Close": "79.75", "Volume": "920000"},
{"Date": "2019-09-27", "Open": "79.69000244140625", "High": "79.82499694824219", "Low": "75.08999633789062", "Close": "76.04000091552734", "Adj Close": "76.04000091552734", "Volume": "2347400"},
{"Date": "2019-09-30", "Open": "76.12999725341797", "High": "77.0", "Low": "74.29000091552734", "Close": "76.19999694824219", "Adj Close": "76.19999694824219", "Volume": "1356500"},
{"Date": "2019-10-01", "Open": "76.43000030517578", "High": "77.48999786376953", "Low": "75.20999908447266", "Close": "75.80999755859375", "Adj Close": "75.80999755859375", "Volume": "1378100"},
{"Date": "2019-10-02", "Open": "74.5", "High": "75.77999877929688", "Low": "73.66000366210938", "Close": "73.8499984741211", "Adj Close": "73.8499984741211", "Volume": "1388700"},
{"Date": "2019-10-03", "Open": "73.9000015258789", "High": "78.48999786376953", "Low": "73.38999938964844", "Close": "76.83000183105469", "Adj Close": "76.83000183105469", "Volume": "2605800"},
{"Date": "2019-10-04", "Open": "77.0", "High": "77.78299713134766", "Low": "75.27999877929688", "Close": "76.52999877929688", "Adj Close": "76.52999877929688", "Volume": "1799500"},
{"Date": "2019-10-07", "Open": "76.98999786376953", "High": "77.43000030517578", "Low": "75.0", "Close": "76.98999786376953", "Adj Close": "76.98999786376953", "Volume": "1432200"},
{"Date": "2019-10-08", "Open": "76.01000213623047", "High": "76.35399627685547", "Low": "72.58000183105469", "Close": "73.58999633789062", "Adj Close": "73.58999633789062", "Volume": "3156600"},
{"Date": "2019-10-09", "Open": "74.22000122070312", "High": "75.05999755859375", "Low": "72.75", "Close": "72.86000061035156", "Adj Close": "72.86000061035156", "Volume": "1490100"},
{"Date": "2019-10-10", "Open": "72.86000061035156", "High": "73.77999877929688", "Low": "71.01000213623047", "Close": "71.01000213623047", "Adj Close": "71.01000213623047", "Volume": "2282200"},
{"Date": "2019-10-11", "Open": "71.37000274658203", "High": "72.88999938964844", "Low": "70.9020004272461", "Close": "71.3499984741211", "Adj Close": "71.3499984741211", "Volume": "2391800"},
{"Date": "2019-10-14", "Open": "70.45999908447266", "High": "71.23999786376953", "Low": "69.55000305175781", "Close": "70.80000305175781", "Adj Close": "70.80000305175781", "Volume": "2218100"},
{"Date": "2019-10-15", "Open": "68.76000213623047", "High": "71.2699966430664", "Low": "68.37999725341797", "Close": "71.11000061035156", "Adj Close": "71.11000061035156", "Volume": "10576600"},
{"Date": "2019-10-16", "Open": "69.69999694824219", "High": "69.94999694824219", "Low": "66.51000213623047", "Close": "67.69000244140625", "Adj Close": "67.69000244140625", "Volume": "6061400"},
{"Date": "2019-10-17", "Open": "67.08999633789062", "High": "68.0", "Low": "66.76000213623047", "Close": "67.02999877929688", "Adj Close": "67.02999877929688", "Volume": "3496800"},
{"Date": "2019-10-18", "Open": "66.26000213623047", "High": "66.93000030517578", "Low": "64.52999877929688", "Close": "66.08000183105469", "Adj Close": "66.08000183105469", "Volume": "4819400"},
{"Date": "2019-10-21", "Open": "65.29000091552734", "High": "66.5", "Low": "64.15799713134766", "Close": "65.7699966430664", "Adj Close": "65.7699966430664", "Volume": "3076500"},
{"Date": "2019-10-22", "Open": "64.19999694824219", "High": "64.5999984741211", "Low": "61.02000045776367", "Close": "62.0", "Adj Close": "62.0", "Volume": "4584700"},
{"Date": "2019-10-23", "Open": "61.33000183105469", "High": "63.7400016784668", "Low": "60.96799850463867", "Close": "62.060001373291016", "Adj Close": "62.060001373291016", "Volume": "3589200"},
{"Date": "2019-10-24", "Open": "63.0", "High": "65.94000244140625", "Low": "62.7599983215332", "Close": "64.5199966430664", "Adj Close": "64.5199966430664", "Volume": "3433300"},
{"Date": "2019-10-25", "Open": "64.33000183105469", "High": "64.98999786376953", "Low": "62.790000915527344", "Close": "63.45000076293945", "Adj Close": "63.45000076293945", "Volume": "1921900"},
{"Date": "2019-10-28", "Open": "63.959999084472656", "High": "67.47000122070312", "Low": "62.2599983215332", "Close": "66.55999755859375", "Adj Close": "66.55999755859375", "Volume": "3509300"},
{"Date": "2019-10-29", "Open": "65.7699966430664", "High": "67.11000061035156", "Low": "64.80000305175781", "Close": "65.48999786376953", "Adj Close": "65.48999786376953", "Volume": "1825300"},
{"Date": "2019-10-30", "Open": "65.97000122070312", "High": "70.08999633789062", "Low": "65.66000366210938", "Close": "70.0", "Adj Close": "70.0", "Volume": "4670300"},
{"Date": "2019-10-31", "Open": "69.5199966430664", "High": "70.08000183105469", "Low": "66.5999984741211", "Close": "69.88999938964844", "Adj Close": "69.88999938964844", "Volume": "3405300"},
{"Date": "2019-11-01", "Open": "69.86000061035156", "High": "70.55000305175781", "Low": "68.0199966430664", "Close": "70.38999938964844", "Adj Close": "70.38999938964844", "Volume": "3561800"},
{"Date": "2019-11-04", "Open": "70.80999755859375", "High": "70.8499984741211", "Low": "69.01000213623047", "Close": "70.12000274658203", "Adj Close": "70.12000274658203", "Volume": "1563100"},
{"Date": "2019-11-05", "Open": "70.70999908447266", "High": "70.8499984741211", "Low": "66.68000030517578", "Close": "66.88999938964844", "Adj Close": "66.88999938964844", "Volume": "1805900"},
{"Date": "2019-11-06", "Open": "66.94999694824219", "High": "67.12999725341797", "Low": "65.36000061035156", "Close": "66.83000183105469", "Adj Close": "66.83000183105469", "Volume": "1327400"},
{"Date": "2019-11-07", "Open": "67.02999877929688", "High": "68.68000030517578", "Low": "66.20999908447266", "Close": "66.80999755859375", "Adj Close": "66.80999755859375", "Volume": "1128200"},
{"Date": "2019-11-08", "Open": "66.54000091552734", "High": "70.0", "Low": "66.5199966430664", "Close": "69.8499984741211", "Adj Close": "69.8499984741211", "Volume": "1472400"},
{"Date": "2019-11-11", "Open": "69.51000213623047", "High": "70.19000244140625", "Low": "67.76000213623047", "Close": "68.38999938964844", "Adj Close": "68.38999938964844", "Volume": "1037500"},
{"Date": "2019-11-12", "Open": "68.5", "High": "70.05000305175781", "Low": "67.55999755859375", "Close": "68.0", "Adj Close": "68.0", "Volume": "1911000"},
{"Date": "2019-11-13", "Open": "68.0", "High": "68.50800323486328", "Low": "66.87000274658203", "Close": "68.01000213623047", "Adj Close": "68.01000213623047", "Volume": "1987000"},
{"Date": "2019-11-14", "Open": "67.7699966430664", "High": "68.1500015258789", "Low": "66.70999908447266", "Close": "67.73999786376953", "Adj Close": "67.73999786376953", "Volume": "932500"},
{"Date": "2019-11-15", "Open": "68.12999725341797", "High": "71.0999984741211", "Low": "67.91000366210938", "Close": "70.01000213623047", "Adj Close": "70.01000213623047", "Volume": "2311800"},
{"Date": "2019-11-18", "Open": "70.47000122070312", "High": "71.13999938964844", "Low": "68.77999877929688", "Close": "70.08000183105469", "Adj Close": "70.08000183105469", "Volume": "1676000"},
{"Date": "2019-11-19", "Open": "70.19000244140625", "High": "70.33200073242188", "Low": "68.19000244140625", "Close": "69.63999938964844", "Adj Close": "69.63999938964844", "Volume": "1704700"},
{"Date": "2019-11-20", "Open": "69.25", "High": "71.70999908447266", "Low": "68.55000305175781", "Close": "70.98999786376953", "Adj Close": "70.98999786376953", "Volume": "2780700"},
{"Date": "2019-11-21", "Open": "71.5", "High": "71.94999694824219", "Low": "69.58000183105469", "Close": "69.91999816894531", "Adj Close": "69.91999816894531", "Volume": "1127000"},
{"Date": "2019-11-22", "Open": "72.0", "High": "74.0", "Low": "71.1500015258789", "Close": "73.16000366210938", "Adj Close": "73.16000366210938", "Volume": "3051900"},
{"Date": "2019-11-25", "Open": "73.80000305175781", "High": "75.05999755859375", "Low": "72.86000061035156", "Close": "74.55000305175781", "Adj Close": "74.55000305175781", "Volume": "1936400"},
{"Date": "2019-11-26", "Open": "75.0", "High": "75.7699966430664", "Low": "74.76000213623047", "Close": "75.16000366210938", "Adj Close": "75.16000366210938", "Volume": "1836500"},
{"Date": "2019-11-27", "Open": "75.80999755859375", "High": "75.83999633789062", "Low": "73.36000061035156", "Close": "74.08000183105469", "Adj Close": "74.08000183105469", "Volume": "1355900"},
{"Date": "2019-11-29", "Open": "74.0999984741211", "High": "74.94000244140625", "Low": "73.86000061035156", "Close": "74.5", "Adj Close": "74.5", "Volume": "512600"},
{"Date": "2019-12-02", "Open": "74.05999755859375", "High": "74.5", "Low": "68.45999908447266", "Close": "68.93000030517578", "Adj Close": "68.93000030517578", "Volume": "3138600"},
{"Date": "2019-12-03", "Open": "66.72000122070312", "High": "70.52999877929688", "Low": "66.05000305175781", "Close": "70.0199966430664", "Adj Close": "70.0199966430664", "Volume": "2444200"},
{"Date": "2019-12-04", "Open": "70.5", "High": "70.9000015258789", "Low": "69.1500015258789", "Close": "69.95999908447266", "Adj Close": "69.95999908447266", "Volume": "2076500"},
{"Date": "2019-12-05", "Open": "70.02999877929688", "High": "70.75", "Low": "69.22000122070312", "Close": "69.66999816894531", "Adj Close": "69.66999816894531", "Volume": "3672600"},
{"Date": "2019-12-06", "Open": "64.26000213623047", "High": "65.08000183105469", "Low": "62.11000061035156", "Close": "62.7400016784668", "Adj Close": "62.7400016784668", "Volume": "11253600"},
{"Date": "2019-12-09", "Open": "62.38999938964844", "High": "67.2699966430664", "Low": "62.33000183105469", "Close": "65.94000244140625", "Adj Close": "65.94000244140625", "Volume": "5234100"},
{"Date": "2019-12-10", "Open": "65.48999786376953", "High": "65.83000183105469", "Low": "63.38999938964844", "Close": "64.56999969482422", "Adj Close": "64.56999969482422", "Volume": "3895700"},
{"Date": "2019-12-11", "Open": "64.23999786376953", "High": "64.44999694824219", "Low": "62.04999923706055", "Close": "63.52000045776367", "Adj Close": "63.52000045776367", "Volume": "3685600"},
{"Date": "2019-12-12", "Open": "63.4900016784668", "High": "64.2300033569336", "Low": "62.119998931884766", "Close": "62.4900016784668", "Adj Close": "62.4900016784668", "Volume": "3317300"},
{"Date": "2019-12-13", "Open": "62.5", "High": "63.75", "Low": "62.02000045776367", "Close": "63.540000915527344", "Adj Close": "63.540000915527344", "Volume": "2489400"},
{"Date": "2019-12-16", "Open": "63.59000015258789", "High": "66.38999938964844", "Low": "63.560001373291016", "Close": "66.3499984741211", "Adj Close": "66.3499984741211", "Volume": "3282800"},
{"Date": "2019-12-17", "Open": "66.62000274658203", "High": "66.62000274658203", "Low": "65.4000015258789", "Close": "66.16999816894531", "Adj Close": "66.16999816894531", "Volume": "2301000"},
{"Date": "2019-12-18", "Open": "66.22000122070312", "High": "68.13999938964844", "Low": "66.04000091552734", "Close": "67.5999984741211", "Adj Close": "67.5999984741211", "Volume": "2237000"},
{"Date": "2019-12-19", "Open": "67.75", "High": "68.45999908447266", "Low": "67.0999984741211", "Close": "68.18000030517578", "Adj Close": "68.18000030517578", "Volume": "1610500"},
{"Date": "2019-12-20", "Open": "68.19999694824219", "High": "68.4800033569336", "Low": "66.41500091552734", "Close": "66.93000030517578", "Adj Close": "66.93000030517578", "Volume": "2201400"},
{"Date": "2019-12-23", "Open": "67.0199966430664", "High": "67.5", "Low": "65.93000030517578", "Close": "66.1500015258789", "Adj Close": "66.1500015258789", "Volume": "1663500"},
{"Date": "2019-12-24", "Open": "66.30000305175781", "High": "66.88500213623047", "Low": "65.73999786376953", "Close": "66.45999908447266", "Adj Close": "66.45999908447266", "Volume": "562600"},
{"Date": "2019-12-26", "Open": "66.5", "High": "68.19000244140625", "Low": "66.30000305175781", "Close": "67.44999694824219", "Adj Close": "67.44999694824219", "Volume": "1387600"},
{"Date": "2019-12-27", "Open": "67.51000213623047", "High": "67.95999908447266", "Low": "66.51000213623047", "Close": "66.63999938964844", "Adj Close": "66.63999938964844", "Volume": "955400"},
{"Date": "2019-12-30", "Open": "66.55999755859375", "High": "67.18000030517578", "Low": "65.5199966430664", "Close": "66.79000091552734", "Adj Close": "66.79000091552734", "Volume": "1162700"},
{"Date": "2019-12-31", "Open": "66.37999725341797", "High": "68.18000030517578", "Low": "66.30999755859375", "Close": "68.04000091552734", "Adj Close": "68.04000091552734", "Volume": "1351400"},
{"Date": "2020-01-02", "Open": "68.80000305175781", "High": "69.23500061035156", "Low": "68.0199966430664", "Close": "68.72000122070312", "Adj Close": "68.72000122070312", "Volume": "1315500"},
{"Date": "2020-01-03", "Open": "67.62000274658203", "High": "68.68000030517578", "Low": "67.0999984741211", "Close": "67.27999877929688", "Adj Close": "67.27999877929688", "Volume": "1127900"},
{"Date": "2020-01-06", "Open": "66.62999725341797", "High": "70.49500274658203", "Low": "65.81199645996094", "Close": "70.31999969482422", "Adj Close": "70.31999969482422", "Volume": "3151600"},
{"Date": "2020-01-07", "Open": "70.29000091552734", "High": "72.83899688720703", "Low": "69.37000274658203", "Close": "71.9000015258789", "Adj Close": "71.9000015258789", "Volume": "6985400"},
{"Date": "2020-01-08", "Open": "71.80999755859375", "High": "73.29000091552734", "Low": "71.02999877929688", "Close": "72.55000305175781", "Adj Close": "72.55000305175781", "Volume": "2482300"},
{"Date": "2020-01-09", "Open": "73.98999786376953", "High": "74.0", "Low": "71.3499984741211", "Close": "72.62000274658203", "Adj Close": "72.62000274658203", "Volume": "2772000"},
{"Date": "2020-01-10", "Open": "73.08000183105469", "High": "73.80000305175781", "Low": "72.25", "Close": "73.08999633789062", "Adj Close": "73.08999633789062", "Volume": "1655100"},
{"Date": "2020-01-13", "Open": "73.88999938964844", "High": "75.58000183105469", "Low": "73.80000305175781", "Close": "74.02999877929688", "Adj Close": "74.02999877929688", "Volume": "3347100"},
{"Date": "2020-01-14", "Open": "74.31999969482422", "High": "75.11499786376953", "Low": "72.26000213623047", "Close": "73.16000366210938", "Adj Close": "73.16000366210938", "Volume": "1909500"},
{"Date": "2020-01-15", "Open": "73.27999877929688", "High": "77.77999877929688", "Low": "73.19999694824219", "Close": "76.94000244140625", "Adj Close": "76.94000244140625", "Volume": "3963500"},
{"Date": "2020-01-16", "Open": "78.0", "High": "78.79000091552734", "Low": "75.11000061035156", "Close": "76.11000061035156", "Adj Close": "76.11000061035156", "Volume": "2998300"},
{"Date": "2020-01-17", "Open": "76.66000366210938", "High": "76.9000015258789", "Low": "75.48999786376953", "Close": "75.55999755859375", "Adj Close": "75.55999755859375", "Volume": "1357400"},
{"Date": "2020-01-21", "Open": "75.55999755859375", "High": "77.12000274658203", "Low": "74.31999969482422", "Close": "76.7300033569336", "Adj Close": "76.7300033569336", "Volume": "1606700"},
{"Date": "2020-01-22", "Open": "77.06999969482422", "High": "77.10600280761719", "Low": "75.45999908447266", "Close": "75.54000091552734", "Adj Close": "75.54000091552734", "Volume": "1501600"},
{"Date": "2020-01-23", "Open": "75.66999816894531", "High": "75.97000122070312", "Low": "74.20999908447266", "Close": "74.47000122070312", "Adj Close": "74.47000122070312", "Volume": "1279000"},
{"Date": "2020-01-24", "Open": "74.97000122070312", "High": "76.18499755859375", "Low": "72.375", "Close": "73.0", "Adj Close": "73.0", "Volume": "1660200"},
{"Date": "2020-01-27", "Open": "71.33000183105469", "High": "72.13200378417969", "Low": "70.31999969482422", "Close": "70.44000244140625", "Adj Close": "70.44000244140625", "Volume": "1750700"},
{"Date": "2020-01-28", "Open": "71.0", "High": "72.4800033569336", "Low": "70.26000213623047", "Close": "71.51000213623047", "Adj Close": "71.51000213623047", "Volume": "1598200"},
{"Date": "2020-01-29", "Open": "72.51000213623047", "High": "74.13999938964844", "Low": "71.21299743652344", "Close": "73.58000183105469", "Adj Close": "73.58000183105469", "Volume": "1373400"},
{"Date": "2020-01-30", "Open": "73.0999984741211", "High": "74.80000305175781", "Low": "72.55000305175781", "Close": "74.54000091552734", "Adj Close": "74.54000091552734", "Volume": "1425400"},
{"Date": "2020-01-31", "Open": "74.2699966430664", "High": "76.66999816894531", "Low": "73.30000305175781", "Close": "76.30000305175781", "Adj Close": "76.30000305175781", "Volume": "2521700"},
{"Date": "2020-02-03", "Open": "77.69000244140625", "High": "88.94000244140625", "Low": "77.51000213623047", "Close": "87.66000366210938", "Adj Close": "87.66000366210938", "Volume": "13023400"},
{"Date": "2020-02-04", "Open": "91.04000091552734", "High": "93.30000305175781", "Low": "83.5", "Close": "85.79000091552734", "Adj Close": "85.79000091552734", "Volume": "10611000"},
{"Date": "2020-02-05", "Open": "85.7699966430664", "High": "90.97000122070312", "Low": "83.75499725341797", "Close": "86.98999786376953", "Adj Close": "86.98999786376953", "Volume": "5126800"},
{"Date": "2020-02-06", "Open": "87.0", "High": "89.44000244140625", "Low": "85.26000213623047", "Close": "87.26000213623047", "Adj Close": "87.26000213623047", "Volume": "2410800"},
{"Date": "2020-02-07", "Open": "87.2300033569336", "High": "90.5999984741211", "Low": "86.80999755859375", "Close": "88.63999938964844", "Adj Close": "88.63999938964844", "Volume": "2636600"},
{"Date": "2020-02-10", "Open": "89.08999633789062", "High": "89.9800033569336", "Low": "86.91000366210938", "Close": "89.66999816894531", "Adj Close": "89.66999816894531", "Volume": "2071600"},
{"Date": "2020-02-11", "Open": "90.0", "High": "90.5", "Low": "87.93000030517578", "Close": "88.68000030517578", "Adj Close": "88.68000030517578", "Volume": "2731900"},
{"Date": "2020-02-12", "Open": "88.66000366210938", "High": "89.5", "Low": "86.5199966430664", "Close": "88.27999877929688", "Adj Close": "88.27999877929688", "Volume": "1671100"},
{"Date": "2020-02-13", "Open": "87.61000061035156", "High": "91.93000030517578", "Low": "87.0", "Close": "89.86000061035156", "Adj Close": "89.86000061035156", "Volume": "3406400"},
{"Date": "2020-02-14", "Open": "90.87999725341797", "High": "91.70999908447266", "Low": "89.80999755859375", "Close": "90.94999694824219", "Adj Close": "90.94999694824219", "Volume": "2295000"},
{"Date": "2020-02-18", "Open": "93.0199966430664", "High": "98.13999938964844", "Low": "92.4000015258789", "Close": "96.38999938964844", "Adj Close": "96.38999938964844", "Volume": "5608200"},
{"Date": "2020-02-19", "Open": "100.31999969482422", "High": "105.08000183105469", "Low": "99.75", "Close": "103.93000030517578", "Adj Close": "103.93000030517578", "Volume": "7793800"},
{"Date": "2020-02-20", "Open": "104.0", "High": "110.75", "Low": "101.43000030517578", "Close": "105.29000091552734", "Adj Close": "105.29000091552734", "Volume": "11293200"},
{"Date": "2020-02-21", "Open": "104.02999877929688", "High": "104.29000091552734", "Low": "98.08999633789062", "Close": "101.76000213623047", "Adj Close": "101.76000213623047", "Volume": "5519200"},
{"Date": "2020-02-24", "Open": "97.80000305175781", "High": "110.0", "Low": "97.0199966430664", "Close": "105.01000213623047", "Adj Close": "105.01000213623047", "Volume": "12172800"},
{"Date": "2020-02-25", "Open": "108.5199966430664", "High": "111.80000305175781", "Low": "104.46600341796875", "Close": "107.08000183105469", "Adj Close": "107.08000183105469", "Volume": "13425900"},
{"Date": "2020-02-26", "Open": "109.94300079345703", "High": "111.30000305175781", "Low": "105.5999984741211", "Close": "106.87999725341797", "Adj Close": "106.87999725341797", "Volume": "6867500"},
{"Date": "2020-02-27", "Open": "109.43000030517578", "High": "118.0", "Low": "107.5999984741211", "Close": "113.55000305175781", "Adj Close": "113.55000305175781", "Volume": "13463800"},
{"Date": "2020-02-28", "Open": "121.06999969482422", "High": "121.93000030517578", "Low": "97.37000274658203", "Close": "105.0", "Adj Close": "105.0", "Volume": "21711000"},
{"Date": "2020-03-02", "Open": "109.3499984741211", "High": "114.5", "Low": "102.5", "Close": "113.11000061035156", "Adj Close": "113.11000061035156", "Volume": "10157400"},
{"Date": "2020-03-03", "Open": "114.55000305175781", "High": "119.19999694824219", "Low": "112.11000061035156", "Close": "117.47000122070312", "Adj Close": "117.47000122070312", "Volume": "11033700"},
{"Date": "2020-03-04", "Open": "118.51000213623047", "High": "119.97000122070312", "Low": "113.11000061035156", "Close": "116.80000305175781", "Adj Close": "116.80000305175781", "Volume": "12102600"},
{"Date": "2020-03-05", "Open": "110.25", "High": "129.8300018310547", "Low": "110.0", "Close": "125.0", "Adj Close": "125.0", "Volume": "28149400"},
{"Date": "2020-03-06", "Open": "119.6500015258789", "High": "122.0", "Low": "107.0", "Close": "114.31999969482422", "Adj Close": "114.31999969482422", "Volume": "22975700"},
{"Date": "2020-03-09", "Open": "105.0", "High": "116.5", "Low": "100.87999725341797", "Close": "113.75", "Adj Close": "113.75", "Volume": "14571300"},
{"Date": "2020-03-10", "Open": "113.80000305175781", "High": "113.80000305175781", "Low": "105.0", "Close": "108.48999786376953", "Adj Close": "108.48999786376953", "Volume": "10244000"},
{"Date": "2020-03-11", "Open": "108.41000366210938", "High": "113.98999786376953", "Low": "107.0", "Close": "110.30000305175781", "Adj Close": "110.30000305175781", "Volume": "12576700"},
{"Date": "2020-03-12", "Open": "106.25", "High": "113.87100219726562", "Low": "104.38999938964844", "Close": "109.47000122070312", "Adj Close": "109.47000122070312", "Volume": "12097900"},
{"Date": "2020-03-13", "Open": "113.0", "High": "113.80000305175781", "Low": "104.16000366210938", "Close": "107.47000122070312", "Adj Close": "107.47000122070312", "Volume": "9233500"},
{"Date": "2020-03-16", "Open": "105.0", "High": "119.87000274658203", "Low": "103.19999694824219", "Close": "107.86000061035156", "Adj Close": "107.86000061035156", "Volume": "17210700"},
{"Date": "2020-03-17", "Open": "107.33000183105469", "High": "113.83000183105469", "Low": "102.0", "Close": "111.0999984741211", "Adj Close": "111.0999984741211", "Volume": "18721500"},
{"Date": "2020-03-18", "Open": "111.0", "High": "119.0", "Low": "108.8499984741211", "Close": "118.70999908447266", "Adj Close": "118.70999908447266", "Volume": "13594300"},
{"Date": "2020-03-19", "Open": "122.94999694824219", "High": "132.22999572753906", "Low": "119.0999984741211", "Close": "123.7699966430664", "Adj Close": "123.7699966430664", "Volume": "16248400"},
{"Date": "2020-03-20", "Open": "129.0", "High": "135.97999572753906", "Low": "124.0", "Close": "130.5500030517578", "Adj Close": "130.5500030517578", "Volume": "13872600"},
{"Date": "2020-03-23", "Open": "141.9969940185547", "High": "164.94000244140625", "Low": "137.25", "Close": "159.55999755859375", "Adj Close": "159.55999755859375", "Volume": "27681500"},
{"Date": "2020-03-24", "Open": "154.0", "High": "155.0", "Low": "133.8800048828125", "Close": "135.17999267578125", "Adj Close": "135.17999267578125", "Volume": "22401300"},
{"Date": "2020-03-25", "Open": "140.10499572753906", "High": "149.0", "Low": "136.1999969482422", "Close": "138.11000061035156", "Adj Close": "138.11000061035156", "Volume": "14743000"},
{"Date": "2020-03-26", "Open": "140.50999450683594", "High": "146.64999389648438", "Low": "138.1999969482422", "Close": "141.14999389648438", "Adj Close": "141.14999389648438", "Volume": "9252700"},
{"Date": "2020-03-27", "Open": "145.6999969482422", "High": "154.97000122070312", "Low": "145.60000610351562", "Close": "151.6999969482422", "Adj Close": "151.6999969482422", "Volume": "13271900"},
{"Date": "2020-03-30", "Open": "160.75999450683594", "High": "161.69000244140625", "Low": "147.1999969482422", "Close": "150.8800048828125", "Adj Close": "150.8800048828125", "Volume": "15762200"},
{"Date": "2020-03-31", "Open": "147.02000427246094", "High": "149.7899932861328", "Low": "143.35699462890625", "Close": "146.1199951171875", "Adj Close": "146.1199951171875", "Volume": "10023700"},
{"Date": "2020-04-01", "Open": "144.5", "High": "144.60000610351562", "Low": "135.17999267578125", "Close": "137.0", "Adj Close": "137.0", "Volume": "11453300"},
{"Date": "2020-04-02", "Open": "125.30000305175781", "High": "133.48899841308594", "Low": "114.5", "Close": "121.93000030517578", "Adj Close": "121.93000030517578", "Volume": "27313800"},
{"Date": "2020-04-03", "Open": "124.30000305175781", "High": "128.47999572753906", "Low": "120.11000061035156", "Close": "128.1999969482422", "Adj Close": "128.1999969482422", "Volume": "12238100"},
{"Date": "2020-04-06", "Open": "113.62999725341797", "High": "125.17500305175781", "Low": "108.52999877929688", "Close": "122.94000244140625", "Adj Close": "122.94000244140625", "Volume": "25378900"},
{"Date": "2020-04-07", "Open": "118.00499725341797", "High": "118.44000244140625", "Low": "109.57099914550781", "Close": "113.75", "Adj Close": "113.75", "Volume": "20166200"},
{"Date": "2020-04-08", "Open": "115.0199966430664", "High": "125.87799835205078", "Low": "112.5", "Close": "117.80999755859375", "Adj Close": "117.80999755859375", "Volume": "26243300"},
{"Date": "2020-04-09", "Open": "117.80000305175781", "High": "125.5", "Low": "114.0", "Close": "124.51000213623047", "Adj Close": "124.51000213623047", "Volume": "15513000"},
{"Date": "2020-04-13", "Open": "127.0", "High": "136.86000061035156", "Low": "125.60399627685547", "Close": "135.9199981689453", "Adj Close": "135.9199981689453", "Volume": "15411700"},
{"Date": "2020-04-14", "Open": "141.07000732421875", "High": "145.1999969482422", "Low": "139.00999450683594", "Close": "141.88999938964844", "Adj Close": "141.88999938964844", "Volume": "11679900"},
{"Date": "2020-04-15", "Open": "141.7100067138672", "High": "152.57000732421875", "Low": "140.0", "Close": "151.55999755859375", "Adj Close": "151.55999755859375", "Volume": "14193300"},
{"Date": "2020-04-16", "Open": "149.9199981689453", "High": "154.25", "Low": "146.8000030517578", "Close": "150.25999450683594", "Adj Close": "150.25999450683594", "Volume": "15138200"},
{"Date": "2020-04-17", "Open": "147.91000366210938", "High": "153.78900146484375", "Low": "144.02999877929688", "Close": "150.05999755859375", "Adj Close": "150.05999755859375", "Volume": "11328400"},
{"Date": "2020-04-20", "Open": "153.3000030517578", "High": "155.0", "Low": "148.25399780273438", "Close": "148.99000549316406", "Adj Close": "148.99000549316406", "Volume": "11218700"},
{"Date": "2020-04-21", "Open": "151.4199981689453", "High": "154.75", "Low": "138.36000061035156", "Close": "143.27000427246094", "Adj Close": "143.27000427246094", "Volume": "9709100"},
{"Date": "2020-04-22", "Open": "147.10000610351562", "High": "152.27999877929688", "Low": "145.10000610351562", "Close": "150.25", "Adj Close": "150.25", "Volume": "6552800"},
{"Date": "2020-04-23", "Open": "154.00999450683594", "High": "169.75", "Low": "153.49000549316406", "Close": "169.08999633789062", "Adj Close": "169.08999633789062", "Volume": "22159800"},
{"Date": "2020-04-24", "Open": "177.14999389648438", "High": "181.5", "Low": "158.3000030517578", "Close": "158.8000030517578", "Adj Close": "158.8000030517578", "Volume": "44049500"},
{"Date": "2020-04-27", "Open": "156.58999633789062", "High": "167.85000610351562", "Low": "155.0", "Close": "164.60000610351562", "Adj Close": "164.60000610351562", "Volume": "19783700"},
{"Date": "2020-04-28", "Open": "165.0", "High": "166.0", "Low": "155.25", "Close": "156.72000122070312", "Adj Close": "156.72000122070312", "Volume": "13477800"},
{"Date": "2020-04-29", "Open": "147.97999572753906", "High": "151.0", "Low": "143.3800048828125", "Close": "146.47999572753906", "Adj Close": "146.47999572753906", "Volume": "22033300"},
{"Date": "2020-04-30", "Open": "139.99000549316406", "High": "143.8000030517578", "Low": "133.67999267578125", "Close": "135.1699981689453", "Adj Close": "135.1699981689453", "Volume": "16647100"},
{"Date": "2020-05-01", "Open": "136.0", "High": "141.6300048828125", "Low": "132.6699981689453", "Close": "138.55999755859375", "Adj Close": "138.55999755859375", "Volume": "13807000"},
{"Date": "2020-05-04", "Open": "140.77000427246094", "High": "144.97999572753906", "Low": "140.4499969482422", "Close": "143.44000244140625", "Adj Close": "143.44000244140625", "Volume": "9184700"},
{"Date": "2020-05-05", "Open": "144.42999267578125", "High": "148.44000244140625", "Low": "140.86000061035156", "Close": "144.82000732421875", "Adj Close": "144.82000732421875", "Volume": "7376300"},
{"Date": "2020-05-06", "Open": "145.47000122070312", "High": "150.74000549316406", "Low": "144.08999633789062", "Close": "149.58999633789062", "Adj Close": "149.58999633789062", "Volume": "6031100"},
{"Date": "2020-05-07", "Open": "154.83999633789062", "High": "162.0", "Low": "154.0399932861328", "Close": "157.8000030517578", "Adj Close": "157.8000030517578", "Volume": "8388900"},
{"Date": "2020-05-08", "Open": "160.0", "High": "161.16000366210938", "Low": "152.7050018310547", "Close": "155.39999389648438", "Adj Close": "155.39999389648438", "Volume": "7079100"},
{"Date": "2020-05-11", "Open": "159.42999267578125", "High": "168.0", "Low": "158.0", "Close": "166.47999572753906", "Adj Close": "166.47999572753906", "Volume": "10142700"},
{"Date": "2020-05-12", "Open": "168.0", "High": "168.22999572753906", "Low": "160.0500030517578", "Close": "161.0399932861328", "Adj Close": "161.0399932861328", "Volume": "7102600"},
{"Date": "2020-05-13", "Open": "163.61000061035156", "High": "171.5", "Low": "159.1699981689453", "Close": "167.13999938964844", "Adj Close": "167.13999938964844", "Volume": "11081300"},
{"Date": "2020-05-14", "Open": "168.25999450683594", "High": "170.8000030517578", "Low": "162.88999938964844", "Close": "167.91000366210938", "Adj Close": "167.91000366210938", "Volume": "6730500"},
{"Date": "2020-05-15", "Open": "166.75", "High": "175.44000244140625", "Low": "166.55999755859375", "Close": "174.8300018310547", "Adj Close": "174.8300018310547", "Volume": "8540500"},
{"Date": "2020-05-18", "Open": "170.02999877929688", "High": "173.44000244140625", "Low": "162.64199829101562", "Close": "164.69000244140625", "Adj Close": "164.69000244140625", "Volume": "9636800"},
{"Date": "2020-05-19", "Open": "167.0", "High": "173.86000061035156", "Low": "166.2100067138672", "Close": "173.67999267578125", "Adj Close": "173.67999267578125", "Volume": "8485500"},
{"Date": "2020-05-20", "Open": "173.52999877929688", "High": "175.63999938964844", "Low": "170.52999877929688", "Close": "175.47999572753906", "Adj Close": "175.47999572753906", "Volume": "6910000"},
{"Date": "2020-05-21", "Open": "175.9600067138672", "High": "177.8000030517578", "Low": "168.36000061035156", "Close": "172.02999877929688", "Adj Close": "172.02999877929688", "Volume": "5525300"},
{"Date": "2020-05-22", "Open": "171.86000061035156", "High": "175.88999938964844", "Low": "170.1999969482422", "Close": "171.05999755859375", "Adj Close": "171.05999755859375", "Volume": "4302200"},
{"Date": "2020-05-26", "Open": "169.10000610351562", "High": "169.69000244140625", "Low": "163.1199951171875", "Close": "164.0", "Adj Close": "164.0", "Volume": "6689700"},
{"Date": "2020-05-27", "Open": "158.00999450683594", "High": "162.22000122070312", "Low": "149.16000366210938", "Close": "161.97000122070312", "Adj Close": "161.97000122070312", "Volume": "10076700"},
{"Date": "2020-05-28", "Open": "159.22999572753906", "High": "169.39999389648438", "Low": "159.1999969482422", "Close": "163.5500030517578", "Adj Close": "163.5500030517578", "Volume": "6386800"},
{"Date": "2020-05-29", "Open": "168.0", "High": "179.99000549316406", "Low": "167.86000061035156", "Close": "179.47999572753906", "Adj Close": "179.47999572753906", "Volume": "15311300"},
{"Date": "2020-06-01", "Open": "183.17999267578125", "High": "205.8699951171875", "Low": "183.0", "Close": "204.14999389648438", "Adj Close": "204.14999389648438", "Volume": "24394400"},
{"Date": "2020-06-02", "Open": "210.25", "High": "212.69000244140625", "Low": "197.32000732421875", "Close": "208.0800018310547", "Adj Close": "208.0800018310547", "Volume": "36853400"},
{"Date": "2020-06-03", "Open": "211.6999969482422", "High": "224.4600067138672", "Low": "202.32000732421875", "Close": "223.8699951171875", "Adj Close": "223.8699951171875", "Volume": "32390100"},
{"Date": "2020-06-04", "Open": "221.0", "High": "223.0", "Low": "207.60000610351562", "Close": "210.35000610351562", "Adj Close": "210.35000610351562", "Volume": "20212600"},
{"Date": "2020-06-05", "Open": "200.11000061035156", "High": "208.94000244140625", "Low": "196.10000610351562", "Close": "207.60000610351562", "Adj Close": "207.60000610351562", "Volume": "16298700"},
{"Date": "2020-06-08", "Open": "204.35000610351562", "High": "211.44000244140625", "Low": "198.66000366210938", "Close": "209.8300018310547", "Adj Close": "209.8300018310547", "Volume": "10457500"},
{"Date": "2020-06-09", "Open": "209.8300018310547", "High": "210.58999633789062", "Low": "202.92999267578125", "Close": "205.42999267578125", "Adj Close": "205.42999267578125", "Volume": "7521800"},
{"Date": "2020-06-10", "Open": "208.88999938964844", "High": "221.52999877929688", "Low": "208.25999450683594", "Close": "221.02000427246094", "Adj Close": "221.02000427246094", "Volume": "12241100"},
{"Date": "2020-06-11", "Open": "219.17999267578125", "High": "232.0", "Low": "218.5", "Close": "222.07000732421875", "Adj Close": "222.07000732421875", "Volume": "17615800"},
{"Date": "2020-06-12", "Open": "224.7899932861328", "High": "231.4499969482422", "Low": "216.75", "Close": "219.52000427246094", "Adj Close": "219.52000427246094", "Volume": "8766000"},
{"Date": "2020-06-15", "Open": "227.83999633789062", "High": "239.58999633789062", "Low": "226.3800048828125", "Close": "239.02000427246094", "Adj Close": "239.02000427246094", "Volume": "13959100"},
{"Date": "2020-06-16", "Open": "235.99000549316406", "High": "243.5", "Low": "231.8209991455078", "Close": "242.55999755859375", "Adj Close": "242.55999755859375", "Volume": "11333300"},
{"Date": "2020-06-17", "Open": "243.17999267578125", "High": "243.8800048828125", "Low": "235.1199951171875", "Close": "236.75999450683594", "Adj Close": "236.75999450683594", "Volume": "11691400"},
{"Date": "2020-06-18", "Open": "240.38999938964844", "High": "242.61000061035156", "Low": "238.22000122070312", "Close": "241.57000732421875", "Adj Close": "241.57000732421875", "Volume": "9340900"},
{"Date": "2020-06-19", "Open": "241.63999938964844", "High": "243.57000732421875", "Low": "238.70399475097656", "Close": "243.47999572753906", "Adj Close": "243.47999572753906", "Volume": "10077500"},
{"Date": "2020-06-22", "Open": "247.46499633789062", "High": "254.89999389648438", "Low": "247.2899932861328", "Close": "251.27000427246094", "Adj Close": "251.27000427246094", "Volume": "11093700"},
{"Date": "2020-06-23", "Open": "251.25999450683594", "High": "254.77499389648438", "Low": "247.57000732421875", "Close": "252.80999755859375", "Adj Close": "252.80999755859375", "Volume": "8791500"},
{"Date": "2020-06-24", "Open": "254.5", "High": "258.75", "Low": "248.60000610351562", "Close": "255.89999389648438", "Adj Close": "255.89999389648438", "Volume": "9862800"},
{"Date": "2020-06-25", "Open": "258.2300109863281", "High": "260.2900085449219", "Low": "252.66000366210938", "Close": "259.510009765625", "Adj Close": "259.510009765625", "Volume": "7490500"},
{"Date": "2020-06-26", "Open": "260.5199890136719", "High": "261.6199951171875", "Low": "250.36000061035156", "Close": "256.79998779296875", "Adj Close": "256.79998779296875", "Volume": "17142900"},
{"Date": "2020-06-29", "Open": "254.97000122070312", "High": "255.89999389648438", "Low": "243.58999633789062", "Close": "248.55999755859375", "Adj Close": "248.55999755859375", "Volume": "8436400"},
{"Date": "2020-06-30", "Open": "249.8699951171875", "High": "256.8299865722656", "Low": "248.35000610351562", "Close": "253.5399932861328", "Adj Close": "253.5399932861328", "Volume": "6305500"},
{"Date": "2020-07-01", "Open": "251.35000610351562", "High": "261.0", "Low": "247.2100067138672", "Close": "259.1300048828125", "Adj Close": "259.1300048828125", "Volume": "6803300"},
{"Date": "2020-07-02", "Open": "261.0", "High": "263.79998779296875", "Low": "258.0", "Close": "261.739990234375", "Adj Close": "261.739990234375", "Volume": "5629000"},
{"Date": "2020-07-06", "Open": "265.0", "High": "275.0799865722656", "Low": "259.32000732421875", "Close": "261.0", "Adj Close": "261.0", "Volume": "12250200"},
{"Date": "2020-07-07", "Open": "261.54998779296875", "High": "266.45001220703125", "Low": "258.1000061035156", "Close": "262.1000061035156", "Adj Close": "262.1000061035156", "Volume": "7819700"},
{"Date": "2020-07-08", "Open": "263.79998779296875", "High": "268.52801513671875", "Low": "261.2900085449219", "Close": "266.32000732421875", "Adj Close": "266.32000732421875", "Volume": "6012900"},
{"Date": "2020-07-09", "Open": "269.010009765625", "High": "272.70001220703125", "Low": "264.2200012207031", "Close": "269.5199890136719", "Adj Close": "269.5199890136719", "Volume": "5396000"},
{"Date": "2020-07-10", "Open": "271.7699890136719", "High": "278.1600036621094", "Low": "268.6400146484375", "Close": "275.8699951171875", "Adj Close": "275.8699951171875", "Volume": "6354800"},
{"Date": "2020-07-13", "Open": "278.6300048828125", "High": "281.0", "Low": "256.3380126953125", "Close": "260.29998779296875", "Adj Close": "260.29998779296875", "Volume": "9293000"},
{"Date": "2020-07-14", "Open": "260.9599914550781", "High": "265.3299865722656", "Low": "240.4499969482422", "Close": "260.010009765625", "Adj Close": "260.010009765625", "Volume": "8713100"},
{"Date": "2020-07-15", "Open": "253.6999969482422", "High": "257.5", "Low": "248.1199951171875", "Close": "256.2200012207031", "Adj Close": "256.2200012207031", "Volume": "6073600"},
{"Date": "2020-07-16", "Open": "250.38999938964844", "High": "253.0", "Low": "243.42999267578125", "Close": "248.5399932861328", "Adj Close": "248.5399932861328", "Volume": "5420100"},
{"Date": "2020-07-17", "Open": "247.1699981689453", "High": "250.93699645996094", "Low": "241.2899932861328", "Close": "246.5399932861328", "Adj Close": "246.5399932861328", "Volume": "4626600"},
{"Date": "2020-07-20", "Open": "246.48699951171875", "High": "271.3500061035156", "Low": "245.99000549316406", "Close": "268.5799865722656", "Adj Close": "268.5799865722656", "Volume": "9784900"},
{"Date": "2020-07-21", "Open": "268.75", "High": "269.75", "Low": "258.20001220703125", "Close": "260.44000244140625", "Adj Close": "260.44000244140625", "Volume": "4762000"},
{"Date": "2020-07-22", "Open": "261.95001220703125", "High": "265.3999938964844", "Low": "255.80999755859375", "Close": "261.17999267578125", "Adj Close": "261.17999267578125", "Volume": "4581600"},
{"Date": "2020-07-23", "Open": "260.8399963378906", "High": "264.8999938964844", "Low": "249.2100067138672", "Close": "251.5", "Adj Close": "251.5", "Volume": "4589400"},
{"Date": "2020-07-24", "Open": "246.1999969482422", "High": "250.2100067138672", "Low": "237.1999969482422", "Close": "246.55999755859375", "Adj Close": "246.55999755859375", "Volume": "4303200"},
{"Date": "2020-07-27", "Open": "249.27999877929688", "High": "252.97000122070312", "Low": "246.22000122070312", "Close": "252.3300018310547", "Adj Close": "252.3300018310547", "Volume": "3328600"},
{"Date": "2020-07-28", "Open": "252.6999969482422", "High": "258.9100036621094", "Low": "251.32000732421875", "Close": "252.17999267578125", "Adj Close": "252.17999267578125", "Volume": "3366200"},
{"Date": "2020-07-29", "Open": "255.5500030517578", "High": "259.92999267578125", "Low": "251.14999389648438", "Close": "252.38999938964844", "Adj Close": "252.38999938964844", "Volume": "3333700"},
{"Date": "2020-07-30", "Open": "250.31399536132812", "High": "256.32598876953125", "Low": "239.32000732421875", "Close": "250.0", "Adj Close": "250.0", "Volume": "7926100"},
{"Date": "2020-07-31", "Open": "253.5", "High": "255.1999969482422", "Low": "248.36000061035156", "Close": "253.91000366210938", "Adj Close": "253.91000366210938", "Volume": "3381100"},
{"Date": "2020-08-03", "Open": "256.8299865722656", "High": "271.1000061035156", "Low": "256.1099853515625", "Close": "268.0", "Adj Close": "268.0", "Volume": "6779300"},
{"Date": "2020-08-04", "Open": "268.0", "High": "269.19000244140625", "Low": "262.0", "Close": "267.3399963378906", "Adj Close": "267.3399963378906", "Volume": "3087300"},
{"Date": "2020-08-05", "Open": "266.2900085449219", "High": "275.093994140625", "Low": "262.5199890136719", "Close": "272.8999938964844", "Adj Close": "272.8999938964844", "Volume": "4514900"},
{"Date": "2020-08-06", "Open": "273.8699951171875", "High": "274.4800109863281", "Low": "263.9100036621094", "Close": "268.25", "Adj Close": "268.25", "Volume": "3602900"},
{"Date": "2020-08-07", "Open": "266.45001220703125", "High": "268.0", "Low": "252.7899932861328", "Close": "258.7300109863281", "Adj Close": "258.7300109863281", "Volume": "5024700"},
{"Date": "2020-08-10", "Open": "259.1400146484375", "High": "261.44000244140625", "Low": "244.5399932861328", "Close": "250.0", "Adj Close": "250.0", "Volume": "5714000"},
{"Date": "2020-08-11", "Open": "245.47999572753906", "High": "245.47999572753906", "Low": "230.0", "Close": "231.0399932861328", "Adj Close": "231.0399932861328", "Volume": "9730500"},
{"Date": "2020-08-12", "Open": "232.3000030517578", "High": "239.39999389648438", "Low": "230.75", "Close": "236.72000122070312", "Adj Close": "236.72000122070312", "Volume": "3932300"},
{"Date": "2020-08-13", "Open": "238.14999389648438", "High": "250.10000610351562", "Low": "238.14999389648438", "Close": "247.25", "Adj Close": "247.25", "Volume": "4749700"},
{"Date": "2020-08-14", "Open": "249.44000244140625", "High": "252.42999267578125", "Low": "242.39999389648438", "Close": "244.91000366210938", "Adj Close": "244.91000366210938", "Volume": "3662800"},
{"Date": "2020-08-17", "Open": "248.6999969482422", "High": "267.94000244140625", "Low": "248.50999450683594", "Close": "266.1499938964844", "Adj Close": "266.1499938964844", "Volume": "8959200"},
{"Date": "2020-08-18", "Open": "271.7200012207031", "High": "277.7799987792969", "Low": "265.5", "Close": "276.79998779296875", "Adj Close": "276.79998779296875", "Volume": "6517000"},
{"Date": "2020-08-19", "Open": "274.68499755859375", "High": "279.5899963378906", "Low": "270.3219909667969", "Close": "273.510009765625", "Adj Close": "273.510009765625", "Volume": "4674000"},
{"Date": "2020-08-20", "Open": "274.45001220703125", "High": "290.8800048828125", "Low": "273.989990234375", "Close": "290.69000244140625", "Adj Close": "290.69000244140625", "Volume": "9318400"},
{"Date": "2020-08-21", "Open": "291.0", "High": "295.9700012207031", "Low": "286.9440002441406", "Close": "289.67999267578125", "Adj Close": "289.67999267578125", "Volume": "5243500"},
{}]