zip,95110-2704
sector,Technology
fullTimeEmployees,22634
longBusinessSummary,"Adobe Inc. operates as a diversified software company worldwide. Its Digital Media segment provides tools and solutions that enable individuals, small and medium businesses, and enterprises to create, publish, promote, and monetize their digital content. Its flagship product is Creative Cloud, a subscription service that allows customer to download and access the latest versions of its creative products. This segment serves traditional content creators, Web application developers, and digital media professionals, as well as their management in marketing departments and agencies, companies, and publishers. The company's Digital Experience segment offers solutions for how digital advertising and marketing are created, managed, executed, measured, and optimized. This segment provides analytics, social marketing, targeting, media optimization, digital experience management, cross-channel campaign management, marketing automation, audience management, and video delivery and monetization solutions to digital marketers, advertisers, publishers, merchandisers, Web analysts, chief marketing officers, chief information officers, and chief revenue officers. Its Publishing segment offers products and services, such as e-learning solutions, technical document publishing, Web application development, and high-end printing, as well as publishing needs of technical and business, and original equipment manufacturers (OEMs) printing businesses. The company offers its products and services directly to enterprise customers through its sales force, as well as to end-users through app stores and through its Website at adobe.com. It also distributes products and services through a network of distributors, value-added resellers, systems integrators, software vendors and developers, retailers, and OEMs. Adobe Inc. has a strategic partnership with Walgreens Boots Alliance, Inc. The company was formerly known as Adobe Systems Incorporated and changed its name to Adobe Inc. in October 2018. The company was founded in 1982 and is headquartered in San Jose, California."
city,San Jose
phone,408 536 6000
state,CA
country,United States
companyOfficers,[]
website,http://www.adobe.com
maxAge,1
address1,345 Park Avenue
fax,408 537 6000
industry,Software—Infrastructure
previousClose,462.01
regularMarketOpen,460.99
twoHundredDayAverage,380.54633
trailingAnnualDividendYield,
payoutRatio,0
volume24Hr,
regularMarketDayHigh,469.275
navPrice,
averageDailyVolume10Day,1899062
totalAssets,
regularMarketPreviousClose,462.01
fiftyDayAverage,445.41687
trailingAnnualDividendRate,
open,460.99
toCurrency,
averageVolume10days,1899062
expireDate,
yield,
algorithm,
dividendRate,
exDividendDate,1111622400
beta,0.908241
circulatingSupply,
startDate,
regularMarketDayLow,458.8868
priceHint,2
currency,USD
trailingPE,61.51339
regularMarketVolume,606031
lastMarket,
maxSupply,
openInterest,
marketCap,223624609792
volumeAllCurrencies,
strikePrice,
averageVolume,2747864
priceToSalesTrailing12Months,18.565306
dayLow,458.8868
ask,466.29
ytdReturn,
askSize,1000
volume,606031
fiftyTwoWeekHigh,470.61
forwardPE,41.963097
fromCurrency,
fiveYearAvgDividendYield,
fiftyTwoWeekLow,255.13
bid,466.05
tradeable,False
dividendYield,
bidSize,800
dayHigh,469.275
exchange,NMS
shortName,Adobe Inc.
longName,Adobe Inc.
exchangeTimezoneName,America/New_York
exchangeTimezoneShortName,EDT
isEsgPopulated,False
gmtOffSetMilliseconds,-14400000
quoteType,EQUITY
symbol,ADBE
messageBoardId,finmb_24321
market,us_market
annualHoldingsTurnover,
enterpriseToRevenue,18.487
beta3Year,
profitMargins,0.30712998
enterpriseToEbitda,51.238
52WeekChange,0.60593
morningStarRiskRating,
forwardEps,11.11
revenueQuarterlyGrowth,
sharesOutstanding,479664992
fundInceptionDate,
annualReportExpenseRatio,
bookValue,22.669
sharesShort,4270051
sharesPercentSharesOut,0.0089
fundFamily,
lastFiscalYearEnd,1574985600
heldPercentInstitutions,0.891
netIncomeToCommon,3699458048
trailingEps,7.579
lastDividendValue,
SandP52WeekChange,0.15460408
priceToBook,20.56597
heldPercentInsiders,0.00294
nextFiscalYearEnd,1638144000
mostRecentQuarter,1590710400
shortRatio,1.71
sharesShortPreviousMonthDate,1593475200
floatShares,477377236
enterpriseValue,222675632128
threeYearAverageReturn,
lastSplitDate,1116892800
lastSplitFactor,2:1
legalType,
morningStarOverallRating,
earningsQuarterlyGrowth,0.738
dateShortInterest,1596153600
pegRatio,3.07
lastCapGain,
shortPercentOfFloat,0.0089
sharesShortPriorMonth,4877621
category,
fiveYearAverageReturn,
regularMarketPrice,460.99
logo_url,https://logo.clearbit.com/adobe.com
