zip,02062
sector,Technology
fullTimeEmployees,16400
longBusinessSummary,"Analog Devices, Inc. designs, manufactures, and markets integrated circuits (ICs), algorithms, software, and subsystems that leverage analog, mixed-signal, and digital signal processing technologies. The company offers data converter products, which translate real-world analog signals into digital data, as well as translates digital data into analog signals; high-performance amplifiers to condition analog signals; and radio frequency and microwave ICs to support cellular infrastructure. It also provides power management and reference products for power management and conversion applications in the automotive, communications, industrial, and high-end consumer markets; and microelectromechanical systems technology solutions, including accelerometers used to sense acceleration, gyroscopes to sense rotation, and inertial measurement units to sense multiple degrees of freedom. In addition, the company offers isolators for various applications, such as universal serial bus isolation in patient monitors; and smart metering and satellite applications, as well as digital signal processing products for high-speed numeric calculations. The company serves clients in industrial, automotive, consumer, and communications markets through a direct sales force, third-party distributors, and independent sales representatives in the United States, the rest of North and South America, Europe, Japan, China, and the rest of Asia, as well as through its Website. It has a strategic collaboration with Pinpoint Science Inc. to advance the development and manufacture of novel nanosensor diagnostics. Analog Devices, Inc. was founded in 1965 and is headquartered in Norwood, Massachusetts."
city,Norwood
phone,781 329 4700
state,MA
country,United States
companyOfficers,[]
website,http://www.analog.com
maxAge,1
address1,One Technology Way
industry,Semiconductors
address2,PO Box 9106
previousClose,118.15
regularMarketOpen,117.72
twoHundredDayAverage,110.405106
trailingAnnualDividendYield,0.019636055
payoutRatio,0.7492
volume24Hr,
regularMarketDayHigh,118.5
navPrice,
averageDailyVolume10Day,3665687
totalAssets,
regularMarketPreviousClose,118.15
fiftyDayAverage,117.69
trailingAnnualDividendRate,2.32
open,117.72
toCurrency,
averageVolume10days,3665687
expireDate,
yield,
algorithm,
dividendRate,2.48
exDividendDate,1598486400
beta,1.306043
circulatingSupply,
startDate,
regularMarketDayLow,116.645
priceHint,2
currency,USD
trailingPE,39.137413
regularMarketVolume,1295543
lastMarket,
maxSupply,
openInterest,
marketCap,43189751808
volumeAllCurrencies,
strikePrice,
averageVolume,3079375
priceToSalesTrailing12Months,7.790377
dayLow,116.645
ask,117.09
ytdReturn,
askSize,1200
volume,1295543
fiftyTwoWeekHigh,127.39
forwardPE,21.717997
fromCurrency,
fiveYearAvgDividendYield,2.21
fiftyTwoWeekLow,79.08
bid,117.08
tradeable,False
dividendYield,0.021
bidSize,800
dayHigh,118.5
exchange,NMS
shortName,"Analog Devices, Inc."
longName,"Analog Devices, Inc."
exchangeTimezoneName,America/New_York
exchangeTimezoneShortName,EDT
isEsgPopulated,False
gmtOffSetMilliseconds,-14400000
quoteType,EQUITY
symbol,ADI
messageBoardId,finmb_251411
market,us_market
annualHoldingsTurnover,
enterpriseToRevenue,8.82
beta3Year,
profitMargins,0.20051001
enterpriseToEbitda,21.283
52WeekChange,0.08763695
morningStarRiskRating,
forwardEps,5.39
revenueQuarterlyGrowth,
sharesOutstanding,368953984
fundInceptionDate,
annualReportExpenseRatio,
bookValue,31.461
sharesShort,11411705
sharesPercentSharesOut,0.0309
fundFamily,
lastFiscalYearEnd,1572652800
heldPercentInstitutions,0.91448
netIncomeToCommon,1110340992
trailingEps,2.991
lastDividendValue,
SandP52WeekChange,0.15460408
priceToBook,3.720797
heldPercentInsiders,0.0032600001
nextFiscalYearEnd,1635811200
mostRecentQuarter,1588377600
shortRatio,3.07
sharesShortPreviousMonthDate,1593475200
floatShares,367013549
enterpriseValue,48896925696
threeYearAverageReturn,
lastSplitDate,953164800
lastSplitFactor,2:1
legalType,
morningStarOverallRating,
earningsQuarterlyGrowth,-0.272
dateShortInterest,1596153600
pegRatio,3
lastCapGain,
shortPercentOfFloat,0.031
sharesShortPriorMonth,4451611
category,
fiveYearAverageReturn,
regularMarketPrice,117.72
logo_url,https://logo.clearbit.com/analog.com
