zip,75254
sector,Industrials
fullTimeEmployees,7327
longBusinessSummary,"Copart, Inc. provides online auctions and vehicle remarketing services. It offers a range of services for processing and selling vehicles over the Internet through its Virtual Bidding Third Generation Internet auction-style sales technology to vehicle sellers, insurance companies, banks and finance companies, charities, and fleet operators and dealers, as well as for individual owners. The company's services include online seller access, salvage estimation, estimating, end-of-life vehicle processing, virtual insured exchange, transportation, vehicle inspection stations, on-demand reporting, title processing and procurement, loan payoff, flexible vehicle processing programs, buy it now, member network, sales process, and dealer services. Its services also comprise services to sell vehicles through CashForCars.com; and U-Pull-It service that allows buyer to remove valuable parts, and sell the remaining parts and car body. The company sells its products principally to licensed vehicle dismantlers, rebuilders, repair licensees, used vehicle dealers, and exporters, as well as to the general public. As of May 18, 2020, it operated through approximately 200 locations in 11 countries. Copart, Inc. was founded in 1982 and is headquartered in Dallas, Texas."
city,Dallas
phone,972-391-5000
state,TX
country,United States
companyOfficers,[]
website,http://www.copart.com
maxAge,1
address1,14185 Dallas Parkway
fax,469-791-9009
industry,Specialty Business Services
address2,Suite 300
previousClose,100.51
regularMarketOpen,99.98
twoHundredDayAverage,84.45691
trailingAnnualDividendYield,
payoutRatio,0
volume24Hr,
regularMarketDayHigh,100.715
navPrice,
averageDailyVolume10Day,1218125
totalAssets,
regularMarketPreviousClose,100.51
fiftyDayAverage,91.628
trailingAnnualDividendRate,
open,99.98
averageVolume10days,1218125
expireDate,
yield,
algorithm,
dividendRate,
exDividendDate,
beta,1.132967
circulatingSupply,
startDate,
regularMarketDayLow,99.3405
priceHint,2
currency,USD
trailingPE,34.88736
regularMarketVolume,608698
lastMarket,
maxSupply,
openInterest,
marketCap,23589459968
volumeAllCurrencies,
strikePrice,
averageVolume,1543404
priceToSalesTrailing12Months,10.6139345
dayLow,99.3405
ask,100.48
ytdReturn,
askSize,1300
volume,608698
fiftyTwoWeekHigh,104.88
forwardPE,38.644463
fromCurrency,
fiveYearAvgDividendYield,
fiftyTwoWeekLow,55.69
bid,100.45
tradeable,False
dividendYield,
bidSize,800
dayHigh,100.715
exchange,NMS
shortName,"Copart, Inc."
longName,"Copart, Inc."
exchangeTimezoneName,America/New_York
exchangeTimezoneShortName,EDT
isEsgPopulated,True
gmtOffSetMilliseconds,-14400000
underlyingSymbol,
quoteType,EQUITY
symbol,CPRT
underlyingExchangeSymbol,
headSymbol,
messageBoardId,finmb_27023
uuid,7fe951d1-c435-3280-90e1-fd9acd8a4f0d
market,us_market
annualHoldingsTurnover,
enterpriseToRevenue,10.764
beta3Year,
profitMargins,0.3095
enterpriseToEbitda,26.846
52WeekChange,0.32616436
morningStarRiskRating,
forwardEps,2.6
revenueQuarterlyGrowth,
sharesOutstanding,234778000
fundInceptionDate,
annualReportExpenseRatio,
bookValue,9.719
sharesShort,3771549
sharesPercentSharesOut,0.0161
fundFamily,
lastFiscalYearEnd,1564531200
heldPercentInstitutions,0.81487
netIncomeToCommon,687870016
trailingEps,2.88
lastDividendValue,
SandP52WeekChange,
priceToBook,10.338059
heldPercentInsiders,0.13286
nextFiscalYearEnd,1627689600
mostRecentQuarter,1588204800
shortRatio,2.77
sharesShortPreviousMonthDate,1593475200
floatShares,206902390
enterpriseValue,23922432000
threeYearAverageReturn,
lastSplitDate,1491868800
lastSplitFactor,2:1
legalType,
morningStarOverallRating,
earningsQuarterlyGrowth,-0.235
dateShortInterest,1596153600
pegRatio,1.99
lastCapGain,
shortPercentOfFloat,0.0185
sharesShortPriorMonth,3733585
category,
fiveYearAverageReturn,
regularMarketPrice,99.98
logo_url,https://logo.clearbit.com/copart.com
