zip,94065
sector,Communication Services
fullTimeEmployees,9800
longBusinessSummary,"Electronic Arts Inc. develops, markets, publishes, and distributes games, content, and services for game consoles, PCs, mobile phones, and tablets worldwide. The company develops and publishes games and services across various genres, such as sports, first-person shooter, action, role-playing, and simulation primarily under the Battlefield, The Sims, Apex Legends, Need for Speed, and Plants v. Zombies brands; and license games from others, including FIFA, Madden NFL, and Star Wars brands. It also provides advertising services; and licenses its games to third parties to distribute and host its games. The company markets and sells its games and services through digital distribution and retail channels, as well as directly to mass market retailers, specialty stores, and distribution arrangements. It has a strategic partnership with KLab Inc. for game development and operation. Electronic Arts Inc. was founded in 1982 and is headquartered in Redwood City, California."
city,Redwood City
phone,650 628 1500
state,CA
country,United States
companyOfficers,[]
website,http://www.ea.com
maxAge,1
address1,209 Redwood Shores Parkway
industry,Electronic Gaming & Multimedia
previousClose,141.86
regularMarketOpen,141.62
twoHundredDayAverage,118.836334
trailingAnnualDividendYield,
payoutRatio,0
volume24Hr,
regularMarketDayHigh,142.76
navPrice,
averageDailyVolume10Day,1640137
totalAssets,
regularMarketPreviousClose,141.86
fiftyDayAverage,139.08485
trailingAnnualDividendRate,
open,141.62
toCurrency,
averageVolume10days,1640137
expireDate,
yield,
algorithm,
dividendRate,
exDividendDate,
beta,0.933516
circulatingSupply,
startDate,
regularMarketDayLow,141.11
priceHint,2
currency,USD
trailingPE,21.076445
regularMarketVolume,310136
lastMarket,
maxSupply,
openInterest,
marketCap,41165119488
volumeAllCurrencies,
strikePrice,
averageVolume,2481554
priceToSalesTrailing12Months,7.1133785
dayLow,141.11
ask,142.52
ytdReturn,
askSize,800
volume,310136
fiftyTwoWeekHigh,147.36
forwardPE,24.0371
fromCurrency,
fiveYearAvgDividendYield,
fiftyTwoWeekLow,85.69
bid,142.5
tradeable,False
dividendYield,
bidSize,900
dayHigh,142.76
exchange,NMS
shortName,Electronic Arts Inc.
longName,Electronic Arts Inc.
exchangeTimezoneName,America/New_York
exchangeTimezoneShortName,EDT
isEsgPopulated,False
gmtOffSetMilliseconds,-14400000
quoteType,EQUITY
symbol,EA
messageBoardId,finmb_27963
market,us_market
annualHoldingsTurnover,
enterpriseToRevenue,6.263
beta3Year,
profitMargins,0.34265998
enterpriseToEbitda,21.939
52WeekChange,0.4992602
morningStarRiskRating,
forwardEps,5.93
revenueQuarterlyGrowth,
sharesOutstanding,288796992
fundInceptionDate,
annualReportExpenseRatio,
bookValue,26.95
sharesShort,4629394
sharesPercentSharesOut,0.016
fundFamily,
lastFiscalYearEnd,1585612800
heldPercentInstitutions,0.95515996
netIncomeToCommon,1983000064
trailingEps,6.763
lastDividendValue,
SandP52WeekChange,0.15460408
priceToBook,5.2890534
heldPercentInsiders,0.00448
nextFiscalYearEnd,1648684800
mostRecentQuarter,1593475200
shortRatio,2.22
sharesShortPreviousMonthDate,1593475200
floatShares,287280632
enterpriseValue,36242714624
threeYearAverageReturn,
lastSplitDate,1069113600
lastSplitFactor,2:1
legalType,
morningStarOverallRating,
earningsQuarterlyGrowth,-0.743
dateShortInterest,1596153600
pegRatio,1.81
lastCapGain,
shortPercentOfFloat,0.0161
sharesShortPriorMonth,5500939
category,
fiveYearAverageReturn,
regularMarketPrice,141.62
logo_url,https://logo.clearbit.com/ea.com
