zip,95125
sector,Consumer Cyclical
fullTimeEmployees,13300
longBusinessSummary,"eBay Inc. operates the marketplace and classifieds platforms that connect buyers and sellers worldwide. Its Marketplace platform includes its online marketplace at ebay.com and the eBay suite of mobile apps; and Classifieds platform comprises a collection of brands, such as Mobile.de, Kijiji, Gumtree, Marktplaats, eBay Kleinanzeigen, and others that offer online classifieds to help people find what they are looking for in their local communities. Its platforms enable users to list, buy, sell, and pay for items through various online, mobile, and offline channels that include retailers, distributors, liquidators, import and export companies, auctioneers, catalog and mail-order companies, classifieds, directories, search engines, commerce participants, shopping channels, and networks. The company was founded in 1995 and is headquartered in San Jose, California."
city,San Jose
phone,408-376-7008
state,CA
country,United States
companyOfficers,[]
website,http://www.ebayinc.com
maxAge,1
address1,2025 Hamilton Avenue
industry,Internet Retail
previousClose,57.71
regularMarketOpen,57.6
twoHundredDayAverage,43.57691
trailingAnnualDividendYield,0.010396812
payoutRatio,0.219
volume24Hr,
regularMarketDayHigh,58.06
navPrice,
averageDailyVolume10Day,6841812
totalAssets,
regularMarketPreviousClose,57.71
fiftyDayAverage,56.52114
trailingAnnualDividendRate,0.6
open,57.6
toCurrency,
averageVolume10days,6841812
expireDate,
yield,
algorithm,
dividendRate,0.64
exDividendDate,1598832000
beta,1.380769
circulatingSupply,
startDate,
regularMarketDayLow,57.16
priceHint,2
currency,USD
trailingPE,8.963755
regularMarketVolume,2339599
lastMarket,
maxSupply,
openInterest,
marketCap,40502112256
volumeAllCurrencies,
strikePrice,
averageVolume,10726500
priceToSalesTrailing12Months,3.6152916
dayLow,57.16
ask,57.89
ytdReturn,
askSize,800
volume,2339599
fiftyTwoWeekHigh,61.06
forwardPE,14.613636
fromCurrency,
fiveYearAvgDividendYield,
fiftyTwoWeekLow,26.02
bid,57.89
tradeable,False
dividendYield,0.0112
bidSize,900
dayHigh,58.06
exchange,NMS
shortName,eBay Inc.
longName,eBay Inc.
exchangeTimezoneName,America/New_York
exchangeTimezoneShortName,EDT
isEsgPopulated,False
gmtOffSetMilliseconds,-14400000
quoteType,EQUITY
symbol,EBAY
messageBoardId,finmb_27862
market,us_market
annualHoldingsTurnover,
enterpriseToRevenue,3.901
beta3Year,
profitMargins,0.44845
enterpriseToEbitda,13.108
52WeekChange,0.44274998
morningStarRiskRating,
forwardEps,3.96
revenueQuarterlyGrowth,
sharesOutstanding,699881024
fundInceptionDate,
annualReportExpenseRatio,
bookValue,4.116
sharesShort,16356420
sharesPercentSharesOut,0.0234
fundFamily,
lastFiscalYearEnd,1577750400
heldPercentInstitutions,1.0716001
netIncomeToCommon,2100999936
trailingEps,6.456
lastDividendValue,
SandP52WeekChange,0.15460408
priceToBook,14.059766
heldPercentInsiders,0.0513
nextFiscalYearEnd,1640908800
mostRecentQuarter,1593475200
shortRatio,1.58
sharesShortPreviousMonthDate,1593475200
floatShares,664194178
enterpriseValue,43702218752
threeYearAverageReturn,
lastSplitDate,1437350400
lastSplitFactor,2376:1000
legalType,
morningStarOverallRating,
earningsQuarterlyGrowth,0.856
dateShortInterest,1596153600
pegRatio,1.01
lastCapGain,
shortPercentOfFloat,0.024600001
sharesShortPriorMonth,19840019
category,
fiveYearAverageReturn,
regularMarketPrice,57.6
logo_url,https://logo.clearbit.com/ebayinc.com
