zip,60680
sector,Utilities
fullTimeEmployees,32713
longBusinessSummary,"Exelon Corporation, a utility services holding company, engages in the generation and marketing of energy in the United States and Canada. It owns nuclear, fossil, wind, hydroelectric, biomass, and solar generating facilities. The company also sells electricity to wholesale and retail customers; and sells natural gas, renewable energy, and other energy-related products and services. In addition, it is involved in the purchase and regulated retail sale of electricity and natural gas; and transmission and distribution of electricity, and distribution of natural gas to retail customers. Further, the company offers support services, including legal, human resources, information technology, finance, supply management, engineering, customer operations, distribution and transmission planning, asset management, system operations, and power procurement services. It serves distribution utilities, municipalities, cooperatives, and financial institutions, as well as commercial, industrial, governmental, and residential customers. The company was incorporated in 1999 and is headquartered in Chicago, Illinois."
city,Chicago
phone,800-483-3220
state,IL
country,United States
companyOfficers,[]
website,http://www.exeloncorp.com
maxAge,1
address1,10 South Dearborn Street
industry,Utilities—Diversified
address2,48th Floor PO Box 805379
previousClose,37.02
regularMarketOpen,37.2
twoHundredDayAverage,39.024963
trailingAnnualDividendYield,0.040383577
payoutRatio,0.5498
volume24Hr,
regularMarketDayHigh,36.9299
navPrice,
averageDailyVolume10Day,5363825
totalAssets,
regularMarketPreviousClose,37.02
fiftyDayAverage,37.955143
trailingAnnualDividendRate,1.495
open,37.2
toCurrency,
averageVolume10days,5363825
expireDate,
yield,
algorithm,
dividendRate,1.53
exDividendDate,1597276800
beta,0.447252
circulatingSupply,
startDate,
regularMarketDayLow,36.511
priceHint,2
currency,USD
trailingPE,13.485239
regularMarketVolume,1236243
lastMarket,
maxSupply,
openInterest,
marketCap,35613245440
volumeAllCurrencies,
strikePrice,
averageVolume,5952973
priceToSalesTrailing12Months,1.0681517
dayLow,36.511
ask,36.54
ytdReturn,
askSize,900
volume,1236243
fiftyTwoWeekHigh,50.54
forwardPE,12.51541
fromCurrency,
fiveYearAvgDividendYield,3.47
fiftyTwoWeekLow,29.28
bid,36.53
tradeable,False
dividendYield,0.041300002
bidSize,800
dayHigh,36.9299
exchange,NMS
shortName,Exelon Corporation
longName,Exelon Corporation
exchangeTimezoneName,America/New_York
exchangeTimezoneShortName,EDT
isEsgPopulated,False
gmtOffSetMilliseconds,-14400000
quoteType,EQUITY
symbol,EXC
messageBoardId,finmb_296181
market,us_market
annualHoldingsTurnover,
enterpriseToRevenue,2.287
beta3Year,
profitMargins,0.07942
enterpriseToEbitda,8.334
52WeekChange,-0.1867311
morningStarRiskRating,
forwardEps,2.92
revenueQuarterlyGrowth,
sharesOutstanding,974504000
fundInceptionDate,
annualReportExpenseRatio,
bookValue,33.559
sharesShort,8529326
sharesPercentSharesOut,0.0088
fundFamily,
lastFiscalYearEnd,1577750400
heldPercentInstitutions,0.80434
netIncomeToCommon,2648000000
trailingEps,2.71
lastDividendValue,
SandP52WeekChange,0.15460408
priceToBook,1.0889776
heldPercentInsiders,0.0025799999
nextFiscalYearEnd,1640908800
mostRecentQuarter,1593475200
shortRatio,1.48
sharesShortPreviousMonthDate,1593475200
floatShares,972057890
enterpriseValue,76250136576
threeYearAverageReturn,
lastSplitDate,1083801600
lastSplitFactor,2:1
legalType,
morningStarOverallRating,
earningsQuarterlyGrowth,0.076
dateShortInterest,1596153600
pegRatio,-3.57
lastCapGain,
shortPercentOfFloat,0.0088
sharesShortPriorMonth,9349954
category,
fiveYearAverageReturn,
regularMarketPrice,37.2
logo_url,https://logo.clearbit.com/exeloncorp.com
