zip,10036
sector,Communication Services
fullTimeEmployees,9000
longBusinessSummary,"Fox Corporation operates as a news, sports, and entertainment company in the United States. The company operates through Cable Network Programming; Television; and Other, Corporate and Eliminations segments. The Cable Network Programming segment produces and licenses news, business news, and sports content for distribution primarily through cable television systems, direct broadcast satellite operators, telecommunications companies, and online multi-channel video programming distributors. It operates FOX News, a national cable news channel; FOX Business, a business news national cable channel; FS1 and FS2 multi-sport national networks; FOX Sports Racing, a video programming service that comprises motor sports programming; and FOX Soccer Plus video programming network for live soccer and rugby competitions; FOX Deportes, a Spanish-language sports programming service; and Big Ten Network, a national video programming service. The Television segment acquires, produces, markets, and distributes broadcast network programming. It operates The FOX Network, a national television broadcast network that broadcasts sports programming and entertainment; MyNetworkTV, a programming distribution service; Fox Alternative Entertainment, a full-service production studio that develops and produces unscripted and alternative programming; Bento Box, which develops and produces animated programing; and Tubi, a free advertising-supported video-on-demand service. This segment owns and operates 29 broadcast television stations. The Other, Corporate and Eliminations segment owns the FOX Studios lot that provides production and post-production services, including 15 sound stages, 4 scoring and mixing stages, 2 broadcast studios, theaters and screening rooms, editing bays, and other production facilities in Los Angeles, California. The company was incorporated in 2018 and is based in New York, New York."
city,New York
phone,212-852-7000
state,NY
country,United States
companyOfficers,[]
website,http://www.foxcorporation.com
maxAge,1
address1,1211 Avenue of the Americas
industry,Broadcasting
previousClose,25.92
regularMarketOpen,25.73
twoHundredDayAverage,27.374252
trailingAnnualDividendYield,0.017746914
payoutRatio,0.284
volume24Hr,
regularMarketDayHigh,26.05
navPrice,
averageDailyVolume10Day,1081800
totalAssets,
regularMarketPreviousClose,25.92
fiftyDayAverage,25.665028
trailingAnnualDividendRate,0.46
open,25.73
toCurrency,
averageVolume10days,1081800
expireDate,
yield,
algorithm,
dividendRate,0.46
exDividendDate,1583193600
beta,
circulatingSupply,
startDate,
regularMarketDayLow,25.58
priceHint,2
currency,USD
trailingPE,15.848765
regularMarketVolume,380564
lastMarket,
maxSupply,
openInterest,
marketCap,15503308800
volumeAllCurrencies,
strikePrice,
averageVolume,1263710
priceToSalesTrailing12Months,1.2601243
dayLow,25.58
ask,25.69
ytdReturn,
askSize,800
volume,380564
fiftyTwoWeekHigh,38.84
forwardPE,10.925532
fromCurrency,
fiveYearAvgDividendYield,
fiftyTwoWeekLow,19.13
bid,25.68
tradeable,False
dividendYield,0.0177
bidSize,800
dayHigh,26.05
exchange,NMS
shortName,Fox Corporation
longName,Fox Corporation
exchangeTimezoneName,America/New_York
exchangeTimezoneShortName,EDT
isEsgPopulated,False
gmtOffSetMilliseconds,-14400000
quoteType,EQUITY
symbol,FOX
messageBoardId,finmb_546623668
market,us_market
annualHoldingsTurnover,
enterpriseToRevenue,1.615
beta3Year,
profitMargins,0.081199996
enterpriseToEbitda,7.151
52WeekChange,-0.21023762
morningStarRiskRating,
forwardEps,2.35
revenueQuarterlyGrowth,
sharesOutstanding,261078000
fundInceptionDate,
annualReportExpenseRatio,
bookValue,16.693
sharesShort,2849545
sharesPercentSharesOut,0.0047
fundFamily,
lastFiscalYearEnd,1593475200
heldPercentInstitutions,0.5957
netIncomeToCommon,999000000
trailingEps,1.62
lastDividendValue,
SandP52WeekChange,0.15460408
priceToBook,1.5380697
heldPercentInsiders,0.39560002
nextFiscalYearEnd,1656547200
mostRecentQuarter,1593475200
shortRatio,2.5
sharesShortPreviousMonthDate,1593475200
floatShares,462572816
enterpriseValue,19872309248
threeYearAverageReturn,
lastSplitDate,
lastSplitFactor,
legalType,
morningStarOverallRating,
earningsQuarterlyGrowth,-0.731
dateShortInterest,1596153600
pegRatio,2.72
lastCapGain,
shortPercentOfFloat,0.018099999
sharesShortPriorMonth,2751995
category,
fiveYearAverageReturn,
regularMarketPrice,25.73
logo_url,https://logo.clearbit.com/foxcorporation.com
