zip,85224-6199
sector,Technology
fullTimeEmployees,18000
longBusinessSummary,"Microchip Technology Incorporated develops, manufactures, and sells semiconductor products for various embedded control applications in the Americas, Europe, and Asia. The company offers general purpose and specialized 8-bit, 16-bit, and 32-bit microcontrollers; 32-bit microprocessors; and microcontrollers for automotive, industrial, computing, communication, lighting, power supplies, motor control, human machine interface, security, and wired and wireless connectivity applications. It also provides development tools that enable system designers to program microcontroller products for specific applications; field-programmable gate array (FPGA) products; and analog, power, interface, mixed signal, and timing products comprising power management, linear, mixed-signal, high-voltage, thermal management, discrete diodes and metal oxide semiconductor field effect transistors (MOSFETS), radio frequency (RF), drivers, safety, security, timing, USB, Ethernet, wireless, and other interface products. In addition, the company offers memory products consisting of serial electrically erasable programmable read-only memory, serial flash memories, parallel flash memories, serial static random access memories, and serial electrically erasable random access memories for the production of very small footprint devices; and licenses its SuperFlash embedded flash and Smartbits one time programmable NVM technologies to foundries, integrated device manufacturers, and design partners for use in the manufacture of microcontroller products, gate array, RF, analog, and neuromorphic compute products that require embedded non-volatile memory, as well as provides engineering services. Further, it offers wafer foundry and assembly and test subcontracting manufacturing services; and aerospace and timing systems products, application specific integrated circuits, and complex programmable logic devices. Microchip Technology Incorporated was founded in 1989 and is headquartered in Chandler, Arizona."
city,Chandler
phone,480 792 7200
state,AZ
country,United States
companyOfficers,[]
website,http://www.microchip.com
maxAge,1
address1,2355 West Chandler Boulevard
industry,Semiconductors
previousClose,107.752
regularMarketOpen,106.53
twoHundredDayAverage,92.68784
trailingAnnualDividendYield,0.013614597
payoutRatio,0.5845
volume24Hr,
regularMarketDayHigh,107.35
navPrice,
averageDailyVolume10Day,2728862
totalAssets,
regularMarketPreviousClose,107.752
fiftyDayAverage,103.779144
trailingAnnualDividendRate,1.467
open,106.53
averageVolume10days,2728862
expireDate,
yield,
algorithm,
dividendRate,1.47
exDividendDate,1597881600
beta,1.567582
circulatingSupply,
startDate,
regularMarketDayLow,104.32
priceHint,2
currency,USD
trailingPE,41.66866
regularMarketVolume,959284
lastMarket,
maxSupply,
openInterest,
marketCap,26350938112
volumeAllCurrencies,
strikePrice,
averageVolume,3098898
priceToSalesTrailing12Months,5.008446
dayLow,104.32
ask,104.37
ytdReturn,
askSize,800
volume,959284
fiftyTwoWeekHigh,113.28
forwardPE,15.649175
fromCurrency,
fiveYearAvgDividendYield,2.01
fiftyTwoWeekLow,53.15
bid,104.33
tradeable,False
dividendYield,0.0136
bidSize,900
dayHigh,107.35
exchange,NMS
shortName,Microchip Technology Incorporat
longName,Microchip Technology Incorporated
exchangeTimezoneName,America/New_York
exchangeTimezoneShortName,EDT
isEsgPopulated,True
gmtOffSetMilliseconds,-14400000
underlyingSymbol,
quoteType,EQUITY
symbol,MCHP
underlyingExchangeSymbol,
headSymbol,
messageBoardId,finmb_31500
uuid,8cfbb7ea-d7da-3c80-a924-250bf7239709
market,us_market
annualHoldingsTurnover,
enterpriseToRevenue,6.896
beta3Year,
profitMargins,0.12231
enterpriseToEbitda,18.777
52WeekChange,0.2121948
morningStarRiskRating,
forwardEps,6.67
revenueQuarterlyGrowth,
sharesOutstanding,252452000
fundInceptionDate,
annualReportExpenseRatio,
bookValue,21.792
sharesShort,19587850
sharesPercentSharesOut,0.0776
fundFamily,
lastFiscalYearEnd,1585612800
heldPercentInstitutions,1.09961
netIncomeToCommon,643500032
trailingEps,2.505
lastDividendValue,
SandP52WeekChange,
priceToBook,4.789831
heldPercentInsiders,0.021979999
nextFiscalYearEnd,1648684800
mostRecentQuarter,1593475200
shortRatio,8.05
sharesShortPreviousMonthDate,1593475200
floatShares,247018758
enterpriseValue,36281356288
threeYearAverageReturn,
lastSplitDate,1020902400
lastSplitFactor,3:2
legalType,
morningStarOverallRating,
earningsQuarterlyGrowth,1.438
dateShortInterest,1596153600
pegRatio,2.63
lastCapGain,
shortPercentOfFloat,0.089700006
sharesShortPriorMonth,19675740
category,
fiveYearAverageReturn,
regularMarketPrice,106.53
logo_url,https://logo.clearbit.com/microchip.com
