zip,95134
sector,Technology
longBusinessSummary,"Maxim Integrated Products, Inc. designs, develops, manufactures, and markets a range of linear and mixed-signal integrated circuits in the United States, China, the rest of Asia, Europe, and internationally. The company also provides a range of high-frequency process technologies and capabilities for use in custom designs. It serves automotive, communications and data center, computing, consumer, and industrial markets. The company markets its products through a direct-sales and applications organization, as well as through its own and other unaffiliated distribution channels. Maxim Integrated Products, Inc. was founded in 1983 and is headquartered in San Jose, California."
city,San Jose
phone,408-601-1000
state,CA
country,United States
companyOfficers,[]
website,http://www.maximintegrated.com
maxAge,1
address1,160 Rio Robles
industry,Semiconductors
previousClose,68.95
regularMarketOpen,68.82
twoHundredDayAverage,58.541656
trailingAnnualDividendYield,0.027846266
payoutRatio,0.7967
volume24Hr,
regularMarketDayHigh,69.35
navPrice,
averageDailyVolume10Day,3684837
totalAssets,
regularMarketPreviousClose,68.95
fiftyDayAverage,67.70114
trailingAnnualDividendRate,1.92
open,68.82
averageVolume10days,3684837
expireDate,
yield,
algorithm,
dividendRate,1.92
exDividendDate,1598400000
beta,1.340109
circulatingSupply,
startDate,
regularMarketDayLow,68.39
priceHint,2
currency,USD
trailingPE,28.477177
regularMarketVolume,963762
lastMarket,
maxSupply,
openInterest,
marketCap,18302521344
volumeAllCurrencies,
strikePrice,
averageVolume,3445659
priceToSalesTrailing12Months,8.351995
dayLow,68.39
ask,68.66
ytdReturn,
askSize,900
volume,963762
fiftyTwoWeekHigh,73.52
forwardPE,25.139193
fromCurrency,
fiveYearAvgDividendYield,3.05
fiftyTwoWeekLow,41.93
bid,68.64
tradeable,False
dividendYield,0.0278
bidSize,800
dayHigh,69.35
exchange,NMS
shortName,"Maxim Integrated Products, Inc."
longName,"Maxim Integrated Products, Inc."
exchangeTimezoneName,America/New_York
exchangeTimezoneShortName,EDT
isEsgPopulated,True
gmtOffSetMilliseconds,-14400000
underlyingSymbol,
quoteType,EQUITY
symbol,MXIM
underlyingExchangeSymbol,
headSymbol,
messageBoardId,finmb_95673
uuid,865fb18a-117b-31aa-b954-95241056082d
market,us_market
annualHoldingsTurnover,
enterpriseToRevenue,8.107
beta3Year,
profitMargins,0.29876
enterpriseToEbitda,22.072
52WeekChange,0.2674631
morningStarRiskRating,
forwardEps,2.73
revenueQuarterlyGrowth,
sharesOutstanding,266684000
fundInceptionDate,
annualReportExpenseRatio,
bookValue,6.216
sharesShort,5282440
sharesPercentSharesOut,0.0198
fundFamily,
lastFiscalYearEnd,1593216000
heldPercentInstitutions,0.95285004
netIncomeToCommon,654694016
trailingEps,2.41
lastDividendValue,
SandP52WeekChange,
priceToBook,11.040862
heldPercentInsiders,0.00854
nextFiscalYearEnd,1656288000
mostRecentQuarter,1593216000
shortRatio,1.13
sharesShortPreviousMonthDate,1593475200
floatShares,264703201
enterpriseValue,17764575232
threeYearAverageReturn,
lastSplitDate,945820800
lastSplitFactor,2:1
legalType,
morningStarOverallRating,
earningsQuarterlyGrowth,-0.436
dateShortInterest,1596153600
pegRatio,4.67
lastCapGain,
shortPercentOfFloat,0.0273
sharesShortPriorMonth,5520837
category,
fiveYearAverageReturn,
regularMarketPrice,68.82
logo_url,https://logo.clearbit.com/maximintegrated.com
